{
    "epoch": 85,
    "avg_current_window": 842.4999937785385,
    "avg_prior_window": 859.3705713807843,
    "inception_score_mean": 1.8373310574509145,
    "inception_score_std": 0.1397307916981033,
    "fid_per_class": {
        "airplane": 975.4106816084225,
        "automobile": 1177.0082216533033,
        "bird": 1261.0724345646977,
        "cat": 1027.8618137293731,
        "deer": 1241.194931867818,
        "dog": 967.1837224988527,
        "frog": 1447.8870410209886,
        "horse": 1220.8650432230006,
        "ship": 882.701379578124,
        "truck": 1202.15314910282
    },
    "fid": 758.3384496643714,
    "wasserstein_distance": null,
    "g_loss": null,
    "g_cost": null,
    "d_loss_real": null,
    "d_loss_fake": null
}