{
    "epoch": 37,
    "avg_current_window": 967.6672944522935,
    "avg_prior_window": 1023.7379092219676,
    "inception_score_mean": 1.7554245039650067,
    "inception_score_std": 0.11760671883226671,
    "fid_per_class": {
        "airplane": 1013.0242525382387,
        "automobile": 1222.9553904700092,
        "bird": 1385.314352446467,
        "cat": 1058.2807097262862,
        "deer": 1308.3382413969439,
        "dog": 1189.7885121135346,
        "frog": 1564.7039545515809,
        "horse": 1340.9962529063594,
        "ship": 797.372190623897,
        "truck": 1125.7489028875675
    },
    "fid": 821.563026469855,
    "wasserstein_distance": null,
    "g_loss": null,
    "g_cost": null,
    "d_loss_real": null,
    "d_loss_fake": null
}