{
    "epoch": 105,
    "avg_current_window": 816.1170162842404,
    "avg_prior_window": 829.1107198626722,
    "inception_score_mean": 1.9332895632364149,
    "inception_score_std": 0.12957727856654702,
    "fid_per_class": {
        "airplane": 891.8922241059968,
        "automobile": 1110.2178133705593,
        "bird": 1218.4496829269428,
        "cat": 951.4680731678031,
        "deer": 1211.3928861094178,
        "dog": 969.8084897648971,
        "frog": 1292.8610677435192,
        "horse": 1151.5418566417916,
        "ship": 814.4980297826212,
        "truck": 1119.8186654305123
    },
    "fid": 680.5683487712328,
    "wasserstein_distance": null,
    "g_loss": null,
    "g_cost": null,
    "d_loss_real": null,
    "d_loss_fake": null
}