{
    "epoch": 130,
    "avg_current_window": 794.9077821088233,
    "avg_prior_window": 804.3871701773583,
    "inception_score_mean": 1.9069884754460305,
    "inception_score_std": 0.09114584686673025,
    "fid_per_class": {
        "airplane": 991.0422826617043,
        "automobile": 1176.0138198592113,
        "bird": 1290.5697241182681,
        "cat": 1010.6509489106369,
        "deer": 1278.0794356410279,
        "dog": 1076.3354879813169,
        "frog": 1442.4819022550232,
        "horse": 1211.4122132758594,
        "ship": 832.4549040428413,
        "truck": 1137.6157879793254
    },
    "fid": 738.9262927188131,
    "wasserstein_distance": null,
    "g_loss": null,
    "g_cost": null,
    "d_loss_real": null,
    "d_loss_fake": null
}