{
    "epoch": 59,
    "avg_current_window": 886.2278404786723,
    "avg_prior_window": 913.8975317489098,
    "inception_score_mean": 1.8419709886340379,
    "inception_score_std": 0.09395080225886875,
    "fid_per_class": {
        "airplane": 1049.7729927604692,
        "automobile": 1235.23372099111,
        "bird": 1322.6548403039958,
        "cat": 1023.6480271830972,
        "deer": 1225.7648947742246,
        "dog": 1014.0486254920198,
        "frog": 1436.6167002075058,
        "horse": 1199.0889124168725,
        "ship": 837.2309043134376,
        "truck": 1220.0954132018321
    },
    "fid": 770.250090386676,
    "wasserstein_distance": null,
    "g_loss": null,
    "g_cost": null,
    "d_loss_real": null,
    "d_loss_fake": null
}