{
    "epoch": 110,
    "avg_current_window": 812.2193775857643,
    "avg_prior_window": 822.5986196058712,
    "inception_score_mean": 1.8740182010630775,
    "inception_score_std": 0.11381580746328065,
    "fid_per_class": {
        "airplane": 889.4871729617095,
        "automobile": 1117.210885459466,
        "bird": 1259.5722021202084,
        "cat": 1046.5887826817043,
        "deer": 1243.194308510404,
        "dog": 996.0536706802669,
        "frog": 1437.1342098299497,
        "horse": 1208.4856909331465,
        "ship": 821.0647723655277,
        "truck": 1088.9804777197476
    },
    "fid": 723.5715483077219,
    "wasserstein_distance": null,
    "g_loss": null,
    "g_cost": null,
    "d_loss_real": null,
    "d_loss_fake": null
}