{
    "epoch": 183,
    "avg_current_window": 768.4882273842785,
    "avg_prior_window": 774.255377965992,
    "inception_score_mean": 1.9460028443747035,
    "inception_score_std": 0.15349007224800684,
    "fid_per_class": {
        "airplane": 884.5746374564153,
        "automobile": 1127.2518249620375,
        "bird": 1215.8584334260631,
        "cat": 995.2901894615247,
        "deer": 1243.3749345076944,
        "dog": 1062.5827345194616,
        "frog": 1396.0082052981159,
        "horse": 1158.4578029374445,
        "ship": 767.0258750843926,
        "truck": 975.4645432144036
    },
    "fid": 695.9057571088401,
    "wasserstein_distance": null,
    "g_loss": null,
    "g_cost": null,
    "d_loss_real": null,
    "d_loss_fake": null
}