{
    "epoch": 114,
    "avg_current_window": 808.5237459529433,
    "avg_prior_window": 819.6709315085694,
    "inception_score_mean": 1.846709363380738,
    "inception_score_std": 0.1455229324306722,
    "fid_per_class": {
        "airplane": 995.0150122755776,
        "automobile": 1263.5956173245568,
        "bird": 1208.5290918969804,
        "cat": 974.5872027648462,
        "deer": 1248.0218837078692,
        "dog": 1035.0579638931022,
        "frog": 1456.84587318225,
        "horse": 1140.8035181615055,
        "ship": 873.4841110652178,
        "truck": 1197.258225465506
    },
    "fid": 750.9831392061872,
    "wasserstein_distance": null,
    "g_loss": null,
    "g_cost": null,
    "d_loss_real": null,
    "d_loss_fake": null
}