{
    "epoch": 79,
    "avg_current_window": 851.6427273511889,
    "avg_prior_window": 868.6850662120578,
    "inception_score_mean": 1.818907676456726,
    "inception_score_std": 0.1154139838637688,
    "fid_per_class": {
        "airplane": 1073.950742895578,
        "automobile": 1205.9738579971322,
        "bird": 1336.0302777984234,
        "cat": 1039.0691345410628,
        "deer": 1233.0126301799055,
        "dog": 986.8667544111108,
        "frog": 1452.1040843533297,
        "horse": 1234.6170669082392,
        "ship": 827.550859539584,
        "truck": 1165.3802675250586
    },
    "fid": 774.0405839852109,
    "wasserstein_distance": null,
    "g_loss": null,
    "g_cost": null,
    "d_loss_real": null,
    "d_loss_fake": null
}