{
    "epoch": 42,
    "avg_current_window": 942.2918180396643,
    "avg_prior_window": 989.8717005731004,
    "inception_score_mean": 1.761166635069909,
    "inception_score_std": 0.0875029310748494,
    "fid_per_class": {
        "airplane": 1057.0988841867058,
        "automobile": 1155.9561545231998,
        "bird": 1219.5041226880003,
        "cat": 957.8324067066966,
        "deer": 1067.5538728670674,
        "dog": 965.617649091716,
        "frog": 1306.5605158434341,
        "horse": 1098.9195675386832,
        "ship": 827.1067910226393,
        "truck": 1098.6390441027866
    },
    "fid": 691.8146040015183,
    "wasserstein_distance": null,
    "g_loss": null,
    "g_cost": null,
    "d_loss_real": null,
    "d_loss_fake": null
}