{
    "epoch": 67,
    "avg_current_window": 871.8930339905048,
    "avg_prior_window": 892.1434674277489,
    "inception_score_mean": 1.8212433744667336,
    "inception_score_std": 0.14594999479926918,
    "fid_per_class": {
        "airplane": 1012.5499602481598,
        "automobile": 1223.448931954053,
        "bird": 1232.50908117981,
        "cat": 1026.7310488542669,
        "deer": 1161.934189991217,
        "dog": 1008.7993083517008,
        "frog": 1344.419081800821,
        "horse": 1199.9057265576052,
        "ship": 879.425908553515,
        "truck": 1137.076701276195
    },
    "fid": 739.698698060781,
    "wasserstein_distance": null,
    "g_loss": null,
    "g_cost": null,
    "d_loss_real": null,
    "d_loss_fake": null
}