{
    "epoch": 177,
    "avg_current_window": 770.7145636396416,
    "avg_prior_window": 777.2164192581258,
    "inception_score_mean": 1.9368930531627697,
    "inception_score_std": 0.1314785338471017,
    "fid_per_class": {
        "airplane": 1000.7388745741833,
        "automobile": 1112.674096197954,
        "bird": 1222.7199784348911,
        "cat": 1023.0361990345147,
        "deer": 1257.462624483021,
        "dog": 1021.2587785973789,
        "frog": 1325.763723093116,
        "horse": 1131.066883183465,
        "ship": 812.4284380833267,
        "truck": 1077.778021710016
    },
    "fid": 686.9552424387477,
    "wasserstein_distance": null,
    "g_loss": null,
    "g_cost": null,
    "d_loss_real": null,
    "d_loss_fake": null
}