{
    "epoch": 31,
    "avg_current_window": 1008.3088176677596,
    "avg_prior_window": 1072.5042392433015,
    "inception_score_mean": 1.6612996937819182,
    "inception_score_std": 0.10264415793251323,
    "fid_per_class": {
        "airplane": 1150.495895381076,
        "automobile": 1406.3492992811996,
        "bird": 1216.6994190472517,
        "cat": 1000.3371624462576,
        "deer": 1108.129725236709,
        "dog": 1051.3954143261683,
        "frog": 1339.788063959415,
        "horse": 1191.9725712228649,
        "ship": 937.6661360298265,
        "truck": 1301.3805401243558
    },
    "fid": 770.525218858591,
    "wasserstein_distance": null,
    "g_loss": null,
    "g_cost": null,
    "d_loss_real": null,
    "d_loss_fake": null
}