{
    "epoch": 184,
    "avg_current_window": 768.0937574371294,
    "avg_prior_window": 773.748362563824,
    "inception_score_mean": 1.924833613881495,
    "inception_score_std": 0.08944924425195333,
    "fid_per_class": {
        "airplane": 851.8512561164587,
        "automobile": 1154.2781552628285,
        "bird": 1212.2169006063352,
        "cat": 1037.9869729767815,
        "deer": 1215.814574565016,
        "dog": 992.5081736595798,
        "frog": 1356.7670524046357,
        "horse": 1191.9627523201398,
        "ship": 798.2739774347773,
        "truck": 1153.487120191624
    },
    "fid": 684.3775339539782,
    "wasserstein_distance": null,
    "g_loss": null,
    "g_cost": null,
    "d_loss_real": null,
    "d_loss_fake": null
}