{
    "epoch": 182,
    "avg_current_window": 768.8811850735763,
    "avg_prior_window": 774.5956667042673,
    "inception_score_mean": 2.000392060767031,
    "inception_score_std": 0.15046410844399494,
    "fid_per_class": {
        "airplane": 921.2858822952112,
        "automobile": 1119.4178220741,
        "bird": 1204.6059451953256,
        "cat": 1008.5782710999182,
        "deer": 1173.440154305057,
        "dog": 1035.1668723303483,
        "frog": 1347.7675806799662,
        "horse": 1169.0935245528044,
        "ship": 836.3750369891864,
        "truck": 1128.709006164981
    },
    "fid": 696.9699279320702,
    "wasserstein_distance": null,
    "g_loss": null,
    "g_cost": null,
    "d_loss_real": null,
    "d_loss_fake": null
}