{
    "epoch": 57,
    "avg_current_window": 890.8720621111308,
    "avg_prior_window": 919.8318865442242,
    "inception_score_mean": 1.8407662597908203,
    "inception_score_std": 0.12927575191412816,
    "fid_per_class": {
        "airplane": 1022.9408803736303,
        "automobile": 1230.746364348938,
        "bird": 1236.5804784541979,
        "cat": 1021.1475240464397,
        "deer": 1200.4024916087694,
        "dog": 993.0176961170173,
        "frog": 1331.1726671557522,
        "horse": 1182.1175570822365,
        "ship": 799.7719388931434,
        "truck": 1171.8343145995855
    },
    "fid": 731.3805462077271,
    "wasserstein_distance": null,
    "g_loss": null,
    "g_cost": null,
    "d_loss_real": null,
    "d_loss_fake": null
}