{
    "epoch": 3,
    "avg_current_window": 567.5752584867502,
    "avg_prior_window": 1976.2574232171792,
    "inception_score_mean": 1.2825031241444378,
    "inception_score_std": 0.07209385304411381,
    "fid_per_class": {
        "airplane": 1757.968797755102,
        "automobile": 1773.3226951782303,
        "bird": 1929.604863707024,
        "cat": 1987.0585447415374,
        "deer": 2164.253947188963,
        "dog": 2045.72140921732,
        "frog": 2372.0760075023386,
        "horse": 2076.0956890725843,
        "ship": 1711.7261969952256,
        "truck": 1750.3299684689487
    },
    "fid": 1771.4308871673798,
    "wasserstein_distance": null,
    "g_loss": null,
    "g_cost": null,
    "d_loss_real": null,
    "d_loss_fake": null
}