{
    "epoch": 176,
    "avg_current_window": 771.3543291120343,
    "avg_prior_window": 777.5555522744382,
    "inception_score_mean": 1.9395560357550157,
    "inception_score_std": 0.0805304019633136,
    "fid_per_class": {
        "airplane": 912.9781775619377,
        "automobile": 1132.2635959363824,
        "bird": 1139.0160570155308,
        "cat": 985.3517214615929,
        "deer": 1262.3744827764176,
        "dog": 968.8618760292752,
        "frog": 1300.9034422983748,
        "horse": 1139.8280393809505,
        "ship": 791.6714618175819,
        "truck": 1100.2056469909885
    },
    "fid": 658.1158404985359,
    "wasserstein_distance": null,
    "g_loss": null,
    "g_cost": null,
    "d_loss_real": null,
    "d_loss_fake": null
}