{
    "epoch": 98,
    "avg_current_window": 824.8062117546035,
    "avg_prior_window": 838.2736172944702,
    "inception_score_mean": 1.8463598603358178,
    "inception_score_std": 0.09083832335612012,
    "fid_per_class": {
        "airplane": 959.8322744387809,
        "automobile": 1209.3009774458737,
        "bird": 1259.3194884134357,
        "cat": 1047.2460480997886,
        "deer": 1251.3107403452477,
        "dog": 967.0711434034487,
        "frog": 1466.9906867754103,
        "horse": 1173.1900808856108,
        "ship": 859.9745333161538,
        "truck": 1193.8181996118146
    },
    "fid": 739.3942865017873,
    "wasserstein_distance": null,
    "g_loss": null,
    "g_cost": null,
    "d_loss_real": null,
    "d_loss_fake": null
}