{
    "epoch": 128,
    "avg_current_window": 796.0371514551179,
    "avg_prior_window": 806.4671016593236,
    "inception_score_mean": 1.9045437865498946,
    "inception_score_std": 0.13385223913383204,
    "fid_per_class": {
        "airplane": 995.150872203281,
        "automobile": 1224.7779861285956,
        "bird": 1216.391168512303,
        "cat": 1020.1493931395992,
        "deer": 1257.1007167008888,
        "dog": 1002.9962777400782,
        "frog": 1415.9473836213178,
        "horse": 1196.1862308320065,
        "ship": 904.0965598626397,
        "truck": 1132.730369560044
    },
    "fid": 729.2904200349165,
    "wasserstein_distance": null,
    "g_loss": null,
    "g_cost": null,
    "d_loss_real": null,
    "d_loss_fake": null
}