{
    "epoch": 109,
    "avg_current_window": 812.8935910835473,
    "avg_prior_window": 823.9642952869734,
    "inception_score_mean": 1.8227547187327506,
    "inception_score_std": 0.13024719232821189,
    "fid_per_class": {
        "airplane": 970.7714412633775,
        "automobile": 1124.8400933779103,
        "bird": 1282.6539925286334,
        "cat": 1060.0659578351183,
        "deer": 1255.8180809448968,
        "dog": 1056.4276889527862,
        "frog": 1412.891297816072,
        "horse": 1142.4425099478099,
        "ship": 833.8731491951927,
        "truck": 1096.3939974100706
    },
    "fid": 738.7301063274133,
    "wasserstein_distance": null,
    "g_loss": null,
    "g_cost": null,
    "d_loss_real": null,
    "d_loss_fake": null
}