{
    "epoch": 89,
    "avg_current_window": 837.0404859128224,
    "avg_prior_window": 852.5297556092354,
    "inception_score_mean": 1.8345113321449138,
    "inception_score_std": 0.11759113180871424,
    "fid_per_class": {
        "airplane": 1001.6356666632544,
        "automobile": 1223.1223874003506,
        "bird": 1271.543171538797,
        "cat": 1097.3501381699598,
        "deer": 1210.4415988878181,
        "dog": 992.5027666848831,
        "frog": 1473.9181053116245,
        "horse": 1187.5514140000514,
        "ship": 904.4136548979448,
        "truck": 1184.0527430631453
    },
    "fid": 764.7243339170234,
    "wasserstein_distance": null,
    "g_loss": null,
    "g_cost": null,
    "d_loss_real": null,
    "d_loss_fake": null
}