{
    "epoch": 198,
    "avg_current_window": 762.5357355133051,
    "avg_prior_window": 767.7690750398069,
    "inception_score_mean": 1.928083221715618,
    "inception_score_std": 0.08556374506789607,
    "fid_per_class": {
        "airplane": 921.1730048489773,
        "automobile": 1150.5704197038153,
        "bird": 1215.8424285386777,
        "cat": 989.1789528972763,
        "deer": 1284.911362145896,
        "dog": 1026.0719893482908,
        "frog": 1346.4641189390697,
        "horse": 1164.8481496137485,
        "ship": 846.4416755623298,
        "truck": 1060.4211021181234
    },
    "fid": 699.8169547735642,
    "wasserstein_distance": null,
    "g_loss": null,
    "g_cost": null,
    "d_loss_real": null,
    "d_loss_fake": null
}