{
    "epoch": 162,
    "avg_current_window": 777.9870359167393,
    "avg_prior_window": 784.9936758960371,
    "inception_score_mean": 1.971148371765284,
    "inception_score_std": 0.12230775629552205,
    "fid_per_class": {
        "airplane": 920.7028263821574,
        "automobile": 1087.0758074513956,
        "bird": 1250.7628531727262,
        "cat": 938.2995225087393,
        "deer": 1187.7993850388666,
        "dog": 1018.0796792198375,
        "frog": 1285.3421958340186,
        "horse": 1073.3119550214192,
        "ship": 759.8692215486049,
        "truck": 1030.086492985669
    },
    "fid": 649.3295366241085,
    "wasserstein_distance": null,
    "g_loss": null,
    "g_cost": null,
    "d_loss_real": null,
    "d_loss_fake": null
}