{
    "epoch": 92,
    "avg_current_window": 832.3113099672221,
    "avg_prior_window": 848.1787556318793,
    "inception_score_mean": 1.8896807473138946,
    "inception_score_std": 0.10826532190462897,
    "fid_per_class": {
        "airplane": 920.8659872844444,
        "automobile": 1124.2827436154082,
        "bird": 1203.9179121444686,
        "cat": 949.3857242362022,
        "deer": 1075.2890601145018,
        "dog": 927.9992911449925,
        "frog": 1267.7183040081118,
        "horse": 1039.4744135366668,
        "ship": 761.4383681659538,
        "truck": 1126.8663730336416
    },
    "fid": 643.1345348463985,
    "wasserstein_distance": null,
    "g_loss": null,
    "g_cost": null,
    "d_loss_real": null,
    "d_loss_fake": null
}