{
    "epoch": 155,
    "avg_current_window": 780.8772909276762,
    "avg_prior_window": 787.7184061305679,
    "inception_score_mean": 1.8950032371332757,
    "inception_score_std": 0.165375372353335,
    "fid_per_class": {
        "airplane": 969.7394169465942,
        "automobile": 1196.1195944982064,
        "bird": 1265.5655292292654,
        "cat": 1051.3410767966284,
        "deer": 1350.0955594080722,
        "dog": 1024.874205854735,
        "frog": 1438.2932110562572,
        "horse": 1226.4248844658882,
        "ship": 820.0003321882372,
        "truck": 1210.959136276083
    },
    "fid": 743.6771495187264,
    "wasserstein_distance": null,
    "g_loss": null,
    "g_cost": null,
    "d_loss_real": null,
    "d_loss_fake": null
}