{
    "epoch": 36,
    "avg_current_window": 973.6886548856949,
    "avg_prior_window": 1033.1644698890045,
    "inception_score_mean": 1.6856118206796915,
    "inception_score_std": 0.09703591823247952,
    "fid_per_class": {
        "airplane": 1003.5134022213109,
        "automobile": 1264.0659746941176,
        "bird": 1283.3420114788137,
        "cat": 983.0178506559391,
        "deer": 1166.660473838013,
        "dog": 1056.3272298912134,
        "frog": 1359.0696348489319,
        "horse": 1217.3129280252797,
        "ship": 836.140733461066,
        "truck": 1203.0913635184556
    },
    "fid": 750.8983188498444,
    "wasserstein_distance": null,
    "g_loss": null,
    "g_cost": null,
    "d_loss_real": null,
    "d_loss_fake": null
}