{
    "epoch": 40,
    "avg_current_window": 956.3222355088449,
    "avg_prior_window": 1001.5083307395719,
    "inception_score_mean": 1.7933600017777067,
    "inception_score_std": 0.06916778315810268,
    "fid_per_class": {
        "airplane": 910.0099824762591,
        "automobile": 1070.6729999933875,
        "bird": 1178.2227861418924,
        "cat": 913.2862366707507,
        "deer": 1012.3015140797628,
        "dog": 964.684741397205,
        "frog": 1193.8135982535923,
        "horse": 1134.4447521014022,
        "ship": 711.4929460623721,
        "truck": 1063.2637404036002
    },
    "fid": 625.7704104874757,
    "wasserstein_distance": null,
    "g_loss": null,
    "g_cost": null,
    "d_loss_real": null,
    "d_loss_fake": null
}