{
    "epoch": 192,
    "avg_current_window": 764.828732080958,
    "avg_prior_window": 770.2167286807584,
    "inception_score_mean": 1.9864877644521794,
    "inception_score_std": 0.1028978543821872,
    "fid_per_class": {
        "airplane": 915.710940830603,
        "automobile": 1065.5477440526117,
        "bird": 1183.0704581058667,
        "cat": 932.3172682730564,
        "deer": 1176.4897578973264,
        "dog": 957.4076644712668,
        "frog": 1284.9872925294883,
        "horse": 1124.701433484429,
        "ship": 752.8907385254829,
        "truck": 1063.335408358849
    },
    "fid": 637.7961734175442,
    "wasserstein_distance": null,
    "g_loss": null,
    "g_cost": null,
    "d_loss_real": null,
    "d_loss_fake": null
}