{
    "epoch": 178,
    "avg_current_window": 770.2440056553669,
    "avg_prior_window": 776.7716645952844,
    "inception_score_mean": 1.9076425538693396,
    "inception_score_std": 0.08172877945379253,
    "fid_per_class": {
        "airplane": 916.2020877729614,
        "automobile": 1150.9656834058585,
        "bird": 1222.3543521250979,
        "cat": 1042.2442354302066,
        "deer": 1236.019604116475,
        "dog": 1089.2634596342764,
        "frog": 1359.3785054509992,
        "horse": 1195.2852531271092,
        "ship": 799.3629092242263,
        "truck": 1119.5529302720795
    },
    "fid": 714.024271291283,
    "wasserstein_distance": null,
    "g_loss": null,
    "g_cost": null,
    "d_loss_real": null,
    "d_loss_fake": null
}