{
    "epoch": 26,
    "avg_current_window": 1042.3857445981023,
    "avg_prior_window": 1122.8818543242978,
    "inception_score_mean": 1.741117839409247,
    "inception_score_std": 0.05481671594189702,
    "fid_per_class": {
        "airplane": 1199.208552153822,
        "automobile": 1289.2963272539491,
        "bird": 1226.6017595144244,
        "cat": 982.108383335446,
        "deer": 1147.254330307135,
        "dog": 991.634172488028,
        "frog": 1277.5913018849246,
        "horse": 1227.9621820287875,
        "ship": 1049.8830284164853,
        "truck": 1310.2971342511262
    },
    "fid": 783.0808607751792,
    "wasserstein_distance": null,
    "g_loss": null,
    "g_cost": null,
    "d_loss_real": null,
    "d_loss_fake": null
}