{
    "epoch": 10,
    "avg_current_window": 1290.7407004663887,
    "avg_prior_window": 1677.1242246155482,
    "inception_score_mean": 1.481358213001491,
    "inception_score_std": 0.07766703447068893,
    "fid_per_class": {
        "airplane": 1129.407785070543,
        "automobile": 1320.2150585334616,
        "bird": 1133.1963734585086,
        "cat": 1299.0604771589872,
        "deer": 1029.3274689733285,
        "dog": 1454.8764904908073,
        "frog": 1409.5665890033029,
        "horse": 1249.222789880137,
        "ship": 973.4048001453966,
        "truck": 1220.7351487794394
    },
    "fid": 927.6928328415996,
    "wasserstein_distance": null,
    "g_loss": null,
    "g_cost": null,
    "d_loss_real": null,
    "d_loss_fake": null
}