{
    "epoch": 25,
    "avg_current_window": 1050.241620716738,
    "avg_prior_window": 1134.118780987533,
    "inception_score_mean": 1.7346799510136754,
    "inception_score_std": 0.09575713071083682,
    "fid_per_class": {
        "airplane": 1106.291704910052,
        "automobile": 1301.906185792326,
        "bird": 1359.647226806821,
        "cat": 1072.9698550989006,
        "deer": 1226.7615188509376,
        "dog": 1177.2647251811077,
        "frog": 1399.453333080764,
        "horse": 1257.381964619237,
        "ship": 934.779417307061,
        "truck": 1221.0568919115358
    },
    "fid": 845.9888416322065,
    "wasserstein_distance": null,
    "g_loss": null,
    "g_cost": null,
    "d_loss_real": null,
    "d_loss_fake": null
}