{
    "epoch": 168,
    "avg_current_window": 775.0067422838177,
    "avg_prior_window": 781.6184276242079,
    "inception_score_mean": 1.8849949396253742,
    "inception_score_std": 0.10532994192753783,
    "fid_per_class": {
        "airplane": 879.8502766600661,
        "automobile": 1124.677706845172,
        "bird": 1195.8110433314052,
        "cat": 989.4697483491465,
        "deer": 1216.292835178655,
        "dog": 999.4865533230134,
        "frog": 1385.3451626922733,
        "horse": 1182.3653418758622,
        "ship": 830.5934120311196,
        "truck": 1032.3343047031228
    },
    "fid": 676.3625610685258,
    "wasserstein_distance": null,
    "g_loss": null,
    "g_cost": null,
    "d_loss_real": null,
    "d_loss_fake": null
}