{
    "epoch": 180,
    "avg_current_window": 769.4497605495804,
    "avg_prior_window": 775.7620681355316,
    "inception_score_mean": 1.8748593122000858,
    "inception_score_std": 0.08976242957636954,
    "fid_per_class": {
        "airplane": 977.3054055833068,
        "automobile": 1154.8088044397532,
        "bird": 1258.1833790268847,
        "cat": 1078.4199447875303,
        "deer": 1291.1251206923266,
        "dog": 1047.3325732220878,
        "frog": 1446.9129354735485,
        "horse": 1228.4331534644753,
        "ship": 808.5031999607122,
        "truck": 1067.0574288734144
    },
    "fid": 740.4048604661098,
    "wasserstein_distance": null,
    "g_loss": null,
    "g_cost": null,
    "d_loss_real": null,
    "d_loss_fake": null
}