{
    "epoch": 108,
    "avg_current_window": 813.3700796945067,
    "avg_prior_window": 825.6794676864545,
    "inception_score_mean": 1.8873746897371126,
    "inception_score_std": 0.1741719996270731,
    "fid_per_class": {
        "airplane": 958.2711561373756,
        "automobile": 1163.8846277529924,
        "bird": 1339.2343577598697,
        "cat": 1029.8679463725862,
        "deer": 1285.7161829457914,
        "dog": 1071.8191747966137,
        "frog": 1451.2050348934006,
        "horse": 1229.513822545832,
        "ship": 860.5964661988515,
        "truck": 1117.1054634087807
    },
    "fid": 761.4328210999344,
    "wasserstein_distance": null,
    "g_loss": null,
    "g_cost": null,
    "d_loss_real": null,
    "d_loss_fake": null
}