{
    "epoch": 86,
    "avg_current_window": 841.5213711725598,
    "avg_prior_window": 858.158080012336,
    "inception_score_mean": 1.8321253942387608,
    "inception_score_std": 0.12970348754037336,
    "fid_per_class": {
        "airplane": 934.616242256299,
        "automobile": 1236.5194240235928,
        "bird": 1232.4906629803397,
        "cat": 1017.8389097201476,
        "deer": 1185.4554287431938,
        "dog": 1017.8566945519374,
        "frog": 1441.4717461265373,
        "horse": 1176.466551556532,
        "ship": 823.2572223551788,
        "truck": 1138.1683032557316
    },
    "fid": 741.6612460065303,
    "wasserstein_distance": null,
    "g_loss": null,
    "g_cost": null,
    "d_loss_real": null,
    "d_loss_fake": null
}