{
    "epoch": 161,
    "avg_current_window": 778.2011795997781,
    "avg_prior_window": 785.534226988535,
    "inception_score_mean": 1.8925325694565374,
    "inception_score_std": 0.11230536206054464,
    "fid_per_class": {
        "airplane": 1004.0170501546514,
        "automobile": 1135.739904687388,
        "bird": 1292.729107976983,
        "cat": 1020.5326694050929,
        "deer": 1311.9967494835662,
        "dog": 1103.6733312103916,
        "frog": 1383.9699948115422,
        "horse": 1223.5878004555993,
        "ship": 836.1582142479728,
        "truck": 1103.0493151953865
    },
    "fid": 743.5099029474864,
    "wasserstein_distance": null,
    "g_loss": null,
    "g_cost": null,
    "d_loss_real": null,
    "d_loss_fake": null
}