{
    "epoch": 71,
    "avg_current_window": 865.2659195766556,
    "avg_prior_window": 885.1035345055125,
    "inception_score_mean": 1.8733151039504121,
    "inception_score_std": 0.1289622230065832,
    "fid_per_class": {
        "airplane": 952.3415733536774,
        "automobile": 1136.2049628902114,
        "bird": 1149.5972974060458,
        "cat": 959.2186843148635,
        "deer": 1090.0801319164361,
        "dog": 921.3334269396383,
        "frog": 1287.7326715078632,
        "horse": 1081.457796827674,
        "ship": 806.3602212996858,
        "truck": 1140.590343135054
    },
    "fid": 656.7413057884709,
    "wasserstein_distance": null,
    "g_loss": null,
    "g_cost": null,
    "d_loss_real": null,
    "d_loss_fake": null
}