{
    "epoch": 145,
    "avg_current_window": 785.7555714136138,
    "avg_prior_window": 794.537653247635,
    "inception_score_mean": 1.9317605205078763,
    "inception_score_std": 0.134758394458516,
    "fid_per_class": {
        "airplane": 924.9266954736916,
        "automobile": 1105.7953428193048,
        "bird": 1216.5729071805788,
        "cat": 1049.0186031244475,
        "deer": 1194.3989504195329,
        "dog": 1012.2953368663136,
        "frog": 1416.6972537125205,
        "horse": 1177.3796069943533,
        "ship": 812.5619671214189,
        "truck": 1081.2712011220003
    },
    "fid": 703.1658260864989,
    "wasserstein_distance": null,
    "g_loss": null,
    "g_cost": null,
    "d_loss_real": null,
    "d_loss_fake": null
}