{
    "epoch": 134,
    "avg_current_window": 791.9851926595517,
    "avg_prior_window": 801.0698579391243,
    "inception_score_mean": 1.9141773280514012,
    "inception_score_std": 0.10574616360010475,
    "fid_per_class": {
        "airplane": 997.0015687056626,
        "automobile": 1178.1241000128584,
        "bird": 1362.2569321477872,
        "cat": 1054.326496180245,
        "deer": 1322.5269004960417,
        "dog": 1071.173884693013,
        "frog": 1498.4906093242328,
        "horse": 1220.0950669288536,
        "ship": 848.3394132676725,
        "truck": 1136.052858241566
    },
    "fid": 770.108053885996,
    "wasserstein_distance": null,
    "g_loss": null,
    "g_cost": null,
    "d_loss_real": null,
    "d_loss_fake": null
}