{
    "epoch": 137,
    "avg_current_window": 791.0009524682084,
    "avg_prior_window": 798.7823553033221,
    "inception_score_mean": 1.939890745385037,
    "inception_score_std": 0.1556911089841269,
    "fid_per_class": {
        "airplane": 945.2125744265568,
        "automobile": 1147.069110129668,
        "bird": 1235.2336744727816,
        "cat": 960.5350477789015,
        "deer": 1222.3734774787126,
        "dog": 1007.2409930264851,
        "frog": 1320.9272954157248,
        "horse": 1117.6381299728164,
        "ship": 815.9711892057519,
        "truck": 1138.9677341653087
    },
    "fid": 690.9040315773144,
    "wasserstein_distance": null,
    "g_loss": null,
    "g_cost": null,
    "d_loss_real": null,
    "d_loss_fake": null
}