{
    "epoch": 43,
    "avg_current_window": 936.4667665504052,
    "avg_prior_window": 984.8658957913926,
    "inception_score_mean": 1.730073894601015,
    "inception_score_std": 0.14156682022347913,
    "fid_per_class": {
        "airplane": 1051.3117924695548,
        "automobile": 1262.8933309746396,
        "bird": 1292.4307777884512,
        "cat": 1039.082749843156,
        "deer": 1288.6531882459012,
        "dog": 1094.5366868989802,
        "frog": 1415.957446572881,
        "horse": 1261.5813253848128,
        "ship": 888.9296231629079,
        "truck": 1160.924491848625
    },
    "fid": 792.4361905067922,
    "wasserstein_distance": null,
    "g_loss": null,
    "g_cost": null,
    "d_loss_real": null,
    "d_loss_fake": null
}