{
    "epoch": 129,
    "avg_current_window": 795.5197349324807,
    "avg_prior_window": 805.480934172307,
    "inception_score_mean": 1.9266065800931595,
    "inception_score_std": 0.13361706548093202,
    "fid_per_class": {
        "airplane": 936.087882316463,
        "automobile": 1058.3680192509187,
        "bird": 1298.0098786642793,
        "cat": 1039.0633061591236,
        "deer": 1258.5265612372327,
        "dog": 1023.9357683237381,
        "frog": 1402.0723624100845,
        "horse": 1159.708467578197,
        "ship": 847.403445810203,
        "truck": 1122.1745352521395
    },
    "fid": 715.9658678570258,
    "wasserstein_distance": null,
    "g_loss": null,
    "g_cost": null,
    "d_loss_real": null,
    "d_loss_fake": null
}