{
    "epoch": 163,
    "avg_current_window": 777.197726105128,
    "avg_prior_window": 784.5163030298926,
    "inception_score_mean": 1.8882552843439455,
    "inception_score_std": 0.1352679005081715,
    "fid_per_class": {
        "airplane": 938.3413908670573,
        "automobile": 1069.890684215453,
        "bird": 1266.6453157329042,
        "cat": 1006.2051117584169,
        "deer": 1276.9969386073958,
        "dog": 1084.0445327738864,
        "frog": 1369.957981778156,
        "horse": 1189.150076844783,
        "ship": 790.7347808011209,
        "truck": 1059.3193386765279
    },
    "fid": 720.5743476100129,
    "wasserstein_distance": null,
    "g_loss": null,
    "g_cost": null,
    "d_loss_real": null,
    "d_loss_fake": null
}