{
    "epoch": 49,
    "avg_current_window": 913.3821557326203,
    "avg_prior_window": 951.805707298018,
    "inception_score_mean": 1.7683486527997065,
    "inception_score_std": 0.11772760613739075,
    "fid_per_class": {
        "airplane": 1066.9549824536984,
        "automobile": 1216.8458266912958,
        "bird": 1285.875240047017,
        "cat": 1032.6957588386372,
        "deer": 1266.4773083053328,
        "dog": 1114.0877914205541,
        "frog": 1370.060580087475,
        "horse": 1209.7710820718912,
        "ship": 851.3852570035035,
        "truck": 1208.141073940407
    },
    "fid": 775.4134328120304,
    "wasserstein_distance": null,
    "g_loss": null,
    "g_cost": null,
    "d_loss_real": null,
    "d_loss_fake": null
}