{
    "epoch": 126,
    "avg_current_window": 798.0031450172204,
    "avg_prior_window": 807.8412408683078,
    "inception_score_mean": 1.9613936989566914,
    "inception_score_std": 0.0805907570197558,
    "fid_per_class": {
        "airplane": 894.7339584959019,
        "automobile": 1153.6938217638324,
        "bird": 1202.8144609392928,
        "cat": 981.4022604959011,
        "deer": 1095.1567940335945,
        "dog": 970.4502050331574,
        "frog": 1212.6913557224466,
        "horse": 1120.4521454681708,
        "ship": 821.7327030443448,
        "truck": 1154.4214932996317
    },
    "fid": 638.7006371540714,
    "wasserstein_distance": null,
    "g_loss": null,
    "g_cost": null,
    "d_loss_real": null,
    "d_loss_fake": null
}