{
    "epoch": 21,
    "avg_current_window": 1080.1131247500314,
    "avg_prior_window": 1199.5129663636053,
    "inception_score_mean": 1.6135311562628936,
    "inception_score_std": 0.08256742162735904,
    "fid_per_class": {
        "airplane": 1238.7525925408213,
        "automobile": 1455.1057053462582,
        "bird": 1339.6065126109754,
        "cat": 1040.546364175457,
        "deer": 1184.5650549680713,
        "dog": 1126.3014925043567,
        "frog": 1372.4948830452315,
        "horse": 1320.4806866734584,
        "ship": 1087.174101956523,
        "truck": 1377.5608886702062
    },
    "fid": 898.1433210595981,
    "wasserstein_distance": null,
    "g_loss": null,
    "g_cost": null,
    "d_loss_real": null,
    "d_loss_fake": null
}