{
    "epoch": 34,
    "avg_current_window": 986.5445116258263,
    "avg_prior_window": 1047.4264741119093,
    "inception_score_mean": 1.7555934292927475,
    "inception_score_std": 0.05848503830286822,
    "fid_per_class": {
        "airplane": 999.2909910049962,
        "automobile": 1197.6390147784923,
        "bird": 1247.6702540617073,
        "cat": 976.5975203061366,
        "deer": 1119.0561081342044,
        "dog": 1086.4747068353768,
        "frog": 1377.7035162647458,
        "horse": 1231.0678084190756,
        "ship": 888.4674352578203,
        "truck": 1087.4922256893265
    },
    "fid": 729.1987934087807,
    "wasserstein_distance": null,
    "g_loss": null,
    "g_cost": null,
    "d_loss_real": null,
    "d_loss_fake": null
}