{
    "epoch": 157,
    "avg_current_window": 780.5308242688627,
    "avg_prior_window": 786.78278401548,
    "inception_score_mean": 1.9708013154222896,
    "inception_score_std": 0.12192759676902594,
    "fid_per_class": {
        "airplane": 978.9482708086446,
        "automobile": 1247.4428228489282,
        "bird": 1223.7130525983023,
        "cat": 1010.4802206499674,
        "deer": 1171.6810123845423,
        "dog": 1013.9846111802591,
        "frog": 1356.9568803131924,
        "horse": 1209.2370738250154,
        "ship": 791.1110504363504,
        "truck": 1139.3934891060878
    },
    "fid": 700.6677054663672,
    "wasserstein_distance": null,
    "g_loss": null,
    "g_cost": null,
    "d_loss_real": null,
    "d_loss_fake": null
}