{
    "epoch": 74,
    "avg_current_window": 858.449394862514,
    "avg_prior_window": 878.2947750467978,
    "inception_score_mean": 1.7292024999510036,
    "inception_score_std": 0.09510859833139278,
    "fid_per_class": {
        "airplane": 1002.7612975130444,
        "automobile": 1304.0586655313646,
        "bird": 1253.0150223816277,
        "cat": 1025.1464086967494,
        "deer": 1162.747197407774,
        "dog": 982.7617264759554,
        "frog": 1289.5072501913028,
        "horse": 1208.4081872561837,
        "ship": 889.7921683837745,
        "truck": 1263.2347952919465
    },
    "fid": 757.4396798662385,
    "wasserstein_distance": null,
    "g_loss": null,
    "g_cost": null,
    "d_loss_real": null,
    "d_loss_fake": null
}