{
    "epoch": 65,
    "avg_current_window": 876.1312434693702,
    "avg_prior_window": 896.356824047781,
    "inception_score_mean": 1.820793798496387,
    "inception_score_std": 0.12326236307726432,
    "fid_per_class": {
        "airplane": 1036.9766973671972,
        "automobile": 1150.0883006574577,
        "bird": 1213.8314492021861,
        "cat": 1002.8433687324691,
        "deer": 1150.2550803771044,
        "dog": 986.1538950238916,
        "frog": 1332.0463583986775,
        "horse": 1183.6555821314773,
        "ship": 904.2705188467095,
        "truck": 1159.939483471434
    },
    "fid": 723.0055974817321,
    "wasserstein_distance": null,
    "g_loss": null,
    "g_cost": null,
    "d_loss_real": null,
    "d_loss_fake": null
}