{
    "epoch": 52,
    "avg_current_window": 905.262512961217,
    "avg_prior_window": 935.5559125930898,
    "inception_score_mean": 1.8346401014282054,
    "inception_score_std": 0.09284704786514232,
    "fid_per_class": {
        "airplane": 964.6086362170631,
        "automobile": 1169.6996406417816,
        "bird": 1286.3850215374464,
        "cat": 1023.962973563361,
        "deer": 1144.864071142839,
        "dog": 1043.6330529476265,
        "frog": 1526.1106456846744,
        "horse": 1221.2637766460846,
        "ship": 859.5797593457776,
        "truck": 1192.3559011985549
    },
    "fid": 757.6074263163749,
    "wasserstein_distance": null,
    "g_loss": null,
    "g_cost": null,
    "d_loss_real": null,
    "d_loss_fake": null
}