{
    "epoch": 166,
    "avg_current_window": 775.856530661284,
    "avg_prior_window": 782.819253531129,
    "inception_score_mean": 1.979725309246081,
    "inception_score_std": 0.11204831487488406,
    "fid_per_class": {
        "airplane": 991.5285649001286,
        "automobile": 1113.249907905294,
        "bird": 1247.7517393723024,
        "cat": 990.1002388455792,
        "deer": 1198.302356494175,
        "dog": 1001.3157132995334,
        "frog": 1382.9156600278284,
        "horse": 1164.4384264636678,
        "ship": 803.7603639005835,
        "truck": 1045.3390237789438
    },
    "fid": 692.0002855289788,
    "wasserstein_distance": null,
    "g_loss": null,
    "g_cost": null,
    "d_loss_real": null,
    "d_loss_fake": null
}