{
    "epoch": 66,
    "avg_current_window": 873.811157924103,
    "avg_prior_window": 894.2496786582971,
    "inception_score_mean": 1.7865822911052551,
    "inception_score_std": 0.10914498144127807,
    "fid_per_class": {
        "airplane": 1011.6288227520516,
        "automobile": 1194.0592133359412,
        "bird": 1234.7188492418636,
        "cat": 1032.3398053405183,
        "deer": 1148.4410900029925,
        "dog": 1043.2544671681474,
        "frog": 1396.291015690836,
        "horse": 1230.5917183809913,
        "ship": 874.1038108124894,
        "truck": 1198.6240554391657
    },
    "fid": 745.2968543730296,
    "wasserstein_distance": null,
    "g_loss": null,
    "g_cost": null,
    "d_loss_real": null,
    "d_loss_fake": null
}