{
    "epoch": 142,
    "avg_current_window": 788.0177372316432,
    "avg_prior_window": 796.0440475892108,
    "inception_score_mean": 1.8515694749178953,
    "inception_score_std": 0.10591248792852731,
    "fid_per_class": {
        "airplane": 985.0759967625289,
        "automobile": 1159.9738185839526,
        "bird": 1261.2062210706113,
        "cat": 1050.337007164224,
        "deer": 1292.0978451778742,
        "dog": 1039.1005560311332,
        "frog": 1486.2789188578183,
        "horse": 1246.6863047313777,
        "ship": 819.423126806813,
        "truck": 1125.3622237258899
    },
    "fid": 747.9992385626125,
    "wasserstein_distance": null,
    "g_loss": null,
    "g_cost": null,
    "d_loss_real": null,
    "d_loss_fake": null
}