{
    "epoch": 64,
    "avg_current_window": 876.5338170605472,
    "avg_prior_window": 899.2829267564126,
    "inception_score_mean": 1.819951568860996,
    "inception_score_std": 0.1286546743648742,
    "fid_per_class": {
        "airplane": 1056.059459858362,
        "automobile": 1283.678559794957,
        "bird": 1349.4697356616198,
        "cat": 1082.4594452499052,
        "deer": 1280.3484319484808,
        "dog": 1063.0652414548547,
        "frog": 1499.5908910035473,
        "horse": 1312.762104774822,
        "ship": 954.3774108999551,
        "truck": 1265.022781676515
    },
    "fid": 850.3665336340425,
    "wasserstein_distance": null,
    "g_loss": null,
    "g_cost": null,
    "d_loss_real": null,
    "d_loss_fake": null
}