{
    "epoch": 160,
    "avg_current_window": 778.8395077194824,
    "avg_prior_window": 785.6752080213454,
    "inception_score_mean": 1.9334209525661223,
    "inception_score_std": 0.11843966176474727,
    "fid_per_class": {
        "airplane": 955.8140148583541,
        "automobile": 1128.509336033247,
        "bird": 1183.356717603774,
        "cat": 980.8895096521474,
        "deer": 1203.0315582141468,
        "dog": 975.9196360676466,
        "frog": 1368.4905447240121,
        "horse": 1169.457898681714,
        "ship": 779.0387121895649,
        "truck": 1121.4618092194082
    },
    "fid": 676.0686804471054,
    "wasserstein_distance": null,
    "g_loss": null,
    "g_cost": null,
    "d_loss_real": null,
    "d_loss_fake": null
}