{
    "epoch": 143,
    "avg_current_window": 787.7378875906011,
    "avg_prior_window": 795.7674216334044,
    "inception_score_mean": 1.935154643539445,
    "inception_score_std": 0.10100910964122851,
    "fid_per_class": {
        "airplane": 897.4861420852105,
        "automobile": 1120.4363761376092,
        "bird": 1274.971724582149,
        "cat": 989.5161961899746,
        "deer": 1219.6226670690278,
        "dog": 1019.6195186385219,
        "frog": 1315.8017241229193,
        "horse": 1185.3719664513028,
        "ship": 804.2279075431891,
        "truck": 1043.4900491664557
    },
    "fid": 679.6531447054658,
    "wasserstein_distance": null,
    "g_loss": null,
    "g_cost": null,
    "d_loss_real": null,
    "d_loss_fake": null
}