{
    "epoch": 23,
    "avg_current_window": 1064.6902562345897,
    "avg_prior_window": 1164.6398426521564,
    "inception_score_mean": 1.5561276687427286,
    "inception_score_std": 0.09056435366210162,
    "fid_per_class": {
        "airplane": 1244.355035063561,
        "automobile": 1508.6974241612975,
        "bird": 1365.3205138821506,
        "cat": 1102.2891488085406,
        "deer": 1179.7803734650358,
        "dog": 1133.25303839379,
        "frog": 1418.9229702047437,
        "horse": 1426.2392692650926,
        "ship": 1055.1792260044656,
        "truck": 1386.8076268529753
    },
    "fid": 914.7146950457187,
    "wasserstein_distance": null,
    "g_loss": null,
    "g_cost": null,
    "d_loss_real": null,
    "d_loss_fake": null
}