{
    "epoch": 127,
    "avg_current_window": 796.7487945616051,
    "avg_prior_window": 807.0331307953655,
    "inception_score_mean": 1.9276038389214367,
    "inception_score_std": 0.08230656658779587,
    "fid_per_class": {
        "airplane": 905.0763636101365,
        "automobile": 1152.6086098740204,
        "bird": 1297.7485910372336,
        "cat": 1012.6733307305485,
        "deer": 1240.3016700129551,
        "dog": 983.1181282743455,
        "frog": 1409.6814607447698,
        "horse": 1149.4097730736687,
        "ship": 842.2359902319891,
        "truck": 1134.7359238972442
    },
    "fid": 705.6584769312326,
    "wasserstein_distance": null,
    "g_loss": null,
    "g_cost": null,
    "d_loss_real": null,
    "d_loss_fake": null
}