{
    "epoch": 117,
    "avg_current_window": 806.578329136587,
    "avg_prior_window": 816.9416230326622,
    "inception_score_mean": 1.9670319722780345,
    "inception_score_std": 0.08043557461160357,
    "fid_per_class": {
        "airplane": 915.8747651142605,
        "automobile": 1131.3985303415616,
        "bird": 1260.8584659737955,
        "cat": 988.4233525348873,
        "deer": 1154.0005967518618,
        "dog": 963.2995809969212,
        "frog": 1249.8649451986903,
        "horse": 1105.1896910735618,
        "ship": 826.3595292260623,
        "truck": 1105.955884213226
    },
    "fid": 653.1620356969611,
    "wasserstein_distance": null,
    "g_loss": null,
    "g_cost": null,
    "d_loss_real": null,
    "d_loss_fake": null
}