{
    "epoch": 115,
    "avg_current_window": 808.0233928507976,
    "avg_prior_window": 818.7973007521981,
    "inception_score_mean": 1.876418755382851,
    "inception_score_std": 0.13928258786252237,
    "fid_per_class": {
        "airplane": 976.6744950005127,
        "automobile": 1199.4629139487397,
        "bird": 1313.8422501698233,
        "cat": 1021.510608495344,
        "deer": 1264.3316199507808,
        "dog": 1029.6756918089031,
        "frog": 1426.8433527187706,
        "horse": 1184.2653405294022,
        "ship": 847.3644912151722,
        "truck": 1097.501468295401
    },
    "fid": 738.6176982132253,
    "wasserstein_distance": null,
    "g_loss": null,
    "g_cost": null,
    "d_loss_real": null,
    "d_loss_fake": null
}