{
    "epoch": 97,
    "avg_current_window": 825.4932130731708,
    "avg_prior_window": 839.3019027372917,
    "inception_score_mean": 1.8559138098063808,
    "inception_score_std": 0.11297070370666824,
    "fid_per_class": {
        "airplane": 1045.578438758102,
        "automobile": 1160.8594493936077,
        "bird": 1265.9294270420014,
        "cat": 1011.4280577380185,
        "deer": 1260.3052236775113,
        "dog": 995.7660633451085,
        "frog": 1394.4333699618942,
        "horse": 1204.7208416301883,
        "ship": 850.1163894473493,
        "truck": 1205.0737862217106
    },
    "fid": 758.1670838535756,
    "wasserstein_distance": null,
    "g_loss": null,
    "g_cost": null,
    "d_loss_real": null,
    "d_loss_fake": null
}