{
    "epoch": 188,
    "avg_current_window": 766.1198311877756,
    "avg_prior_window": 772.2909910843268,
    "inception_score_mean": 1.967157511600219,
    "inception_score_std": 0.12404013371278226,
    "fid_per_class": {
        "airplane": 946.934795102875,
        "automobile": 1147.0920550994842,
        "bird": 1270.930097195726,
        "cat": 1017.8453676557068,
        "deer": 1242.8244261602872,
        "dog": 1062.6961157739788,
        "frog": 1370.9695206778918,
        "horse": 1210.8558366419581,
        "ship": 766.9908461723855,
        "truck": 1064.151255299681
    },
    "fid": 709.4934418004796,
    "wasserstein_distance": null,
    "g_loss": null,
    "g_cost": null,
    "d_loss_real": null,
    "d_loss_fake": null
}