{
    "epoch": 78,
    "avg_current_window": 853.1605997211882,
    "avg_prior_window": 870.2089756140554,
    "inception_score_mean": 1.9096715266457955,
    "inception_score_std": 0.10171912516694614,
    "fid_per_class": {
        "airplane": 997.9639936646665,
        "automobile": 1094.419515901478,
        "bird": 1254.5475882583128,
        "cat": 1026.9788869350998,
        "deer": 1192.3050157368573,
        "dog": 1053.199544476388,
        "frog": 1420.1575894082744,
        "horse": 1184.1155274752355,
        "ship": 828.9952004955685,
        "truck": 1116.1772399176025
    },
    "fid": 733.2486824912498,
    "wasserstein_distance": null,
    "g_loss": null,
    "g_cost": null,
    "d_loss_real": null,
    "d_loss_fake": null
}