{
    "epoch": 55,
    "avg_current_window": 897.2812129898387,
    "avg_prior_window": 925.4283384506234,
    "inception_score_mean": 1.9063756811159727,
    "inception_score_std": 0.1330232668735916,
    "fid_per_class": {
        "airplane": 1025.2924920591765,
        "automobile": 1094.9884959053531,
        "bird": 1213.1007239122566,
        "cat": 956.9929767392807,
        "deer": 1087.34324620624,
        "dog": 945.951912186375,
        "frog": 1310.0666679677702,
        "horse": 1173.9715342587006,
        "ship": 822.0700756041902,
        "truck": 1130.2075911333081
    },
    "fid": 681.6273053402227,
    "wasserstein_distance": null,
    "g_loss": null,
    "g_cost": null,
    "d_loss_real": null,
    "d_loss_fake": null
}