{
    "epoch": 179,
    "avg_current_window": 769.9299289270758,
    "avg_prior_window": 776.3102375458469,
    "inception_score_mean": 1.9305900509717238,
    "inception_score_std": 0.1504878666653936,
    "fid_per_class": {
        "airplane": 932.8371624136474,
        "automobile": 1111.761335311091,
        "bird": 1205.4435588072504,
        "cat": 983.2103910329615,
        "deer": 1246.241293892584,
        "dog": 1057.7781266917636,
        "frog": 1322.4963919265072,
        "horse": 1161.7913331439954,
        "ship": 737.9834352550265,
        "truck": 1029.1812703643436
    },
    "fid": 683.4996209779185,
    "wasserstein_distance": null,
    "g_loss": null,
    "g_cost": null,
    "d_loss_real": null,
    "d_loss_fake": null
}