{
    "epoch": 11,
    "avg_current_window": 1257.7363488641352,
    "avg_prior_window": 1601.9240910403325,
    "inception_score_mean": 1.4255511358970376,
    "inception_score_std": 0.10077498952852952,
    "fid_per_class": {
        "airplane": 1227.374158309233,
        "automobile": 1325.7495621561634,
        "bird": 1145.9722578602186,
        "cat": 1234.3386906917967,
        "deer": 1027.9014066812622,
        "dog": 1445.7507006484957,
        "frog": 1401.9574159355911,
        "horse": 1234.048146358057,
        "ship": 1165.879358245651,
        "truck": 1264.6612922876018
    },
    "fid": 945.1515381421552,
    "wasserstein_distance": null,
    "g_loss": null,
    "g_cost": null,
    "d_loss_real": null,
    "d_loss_fake": null
}