{
    "epoch": 47,
    "avg_current_window": 919.2204008574046,
    "avg_prior_window": 958.7635943254148,
    "inception_score_mean": 1.7253584160783189,
    "inception_score_std": 0.05475418536704814,
    "fid_per_class": {
        "airplane": 1001.8928150300095,
        "automobile": 1231.924203383858,
        "bird": 1290.3234937647771,
        "cat": 1037.8065342019863,
        "deer": 1199.8556147972452,
        "dog": 1104.0506033354393,
        "frog": 1430.7843642265,
        "horse": 1210.1263638730852,
        "ship": 861.1532544249151,
        "truck": 1183.6898322134373
    },
    "fid": 767.7690515772074,
    "wasserstein_distance": null,
    "g_loss": null,
    "g_cost": null,
    "d_loss_real": null,
    "d_loss_fake": null
}