{
    "epoch": 18,
    "avg_current_window": 1121.235651301393,
    "avg_prior_window": 1281.3029765463923,
    "inception_score_mean": 1.684894281281292,
    "inception_score_std": 0.046707365670944745,
    "fid_per_class": {
        "airplane": 1165.5859351581496,
        "automobile": 1251.6450318657232,
        "bird": 1198.581841606443,
        "cat": 978.3897148247992,
        "deer": 1093.0547997420417,
        "dog": 1119.5080786925082,
        "frog": 1294.3411047449376,
        "horse": 1148.2059396151965,
        "ship": 878.9861876820559,
        "truck": 1162.560531718305
    },
    "fid": 781.2754443137433,
    "wasserstein_distance": null,
    "g_loss": null,
    "g_cost": null,
    "d_loss_real": null,
    "d_loss_fake": null
}