{
    "epoch": 16,
    "avg_current_window": 1144.7751495118423,
    "avg_prior_window": 1343.6592159679676,
    "inception_score_mean": 1.596216930598878,
    "inception_score_std": 0.06326547340153527,
    "fid_per_class": {
        "airplane": 1075.5489591221624,
        "automobile": 1230.8410736675373,
        "bird": 1276.0425614072103,
        "cat": 1146.0124772636955,
        "deer": 1163.170690361388,
        "dog": 1311.1580398447475,
        "frog": 1433.359175199265,
        "horse": 1299.1948632219808,
        "ship": 915.6509968093478,
        "truck": 1127.9402286826744
    },
    "fid": 875.8050696282064,
    "wasserstein_distance": null,
    "g_loss": null,
    "g_cost": null,
    "d_loss_real": null,
    "d_loss_fake": null
}