{
    "epoch": 147,
    "avg_current_window": 784.6539121434681,
    "avg_prior_window": 793.2853375032109,
    "inception_score_mean": 1.9562679377004948,
    "inception_score_std": 0.1257816278186162,
    "fid_per_class": {
        "airplane": 912.3977628136618,
        "automobile": 1130.5296260778096,
        "bird": 1240.774527506327,
        "cat": 1006.9292621015854,
        "deer": 1224.9159383146066,
        "dog": 1031.0426323451254,
        "frog": 1402.8346946240702,
        "horse": 1194.5647218741522,
        "ship": 826.8878012148432,
        "truck": 1059.788680802939
    },
    "fid": 713.8830423338661,
    "wasserstein_distance": null,
    "g_loss": null,
    "g_cost": null,
    "d_loss_real": null,
    "d_loss_fake": null
}