{
    "epoch": 151,
    "avg_current_window": 782.5017279442727,
    "avg_prior_window": 790.0282540074645,
    "inception_score_mean": 1.9535661504691675,
    "inception_score_std": 0.17930867886891305,
    "fid_per_class": {
        "airplane": 996.7660811592921,
        "automobile": 1133.4026721866019,
        "bird": 1240.0719963307986,
        "cat": 1047.279109323638,
        "deer": 1259.5095662803312,
        "dog": 1060.7063080854355,
        "frog": 1391.4298682109409,
        "horse": 1146.9992582290927,
        "ship": 793.281583800799,
        "truck": 1136.2615588346866
    },
    "fid": 719.9391532497538,
    "wasserstein_distance": null,
    "g_loss": null,
    "g_cost": null,
    "d_loss_real": null,
    "d_loss_fake": null
}