{
    "epoch": 44,
    "avg_current_window": 884.7955741321643,
    "avg_prior_window": 921.1305866004998,
    "inception_score_mean": 1.7831429731337394,
    "inception_score_std": 0.08897831688055106,
    "fid_per_class": {
        "airplane": 958.070707349342,
        "automobile": 1223.56289413928,
        "bird": 1197.9531654521843,
        "cat": 927.7238616780095,
        "deer": 1132.4275929552277,
        "dog": 938.1852139914474,
        "frog": 1353.7402755618978,
        "horse": 1189.8482532752462,
        "ship": 893.9702457325104,
        "truck": 1190.1641815282396
    },
    "fid": 714.4031695022395,
    "wasserstein_distance": null,
    "g_loss": null,
    "g_cost": null,
    "d_loss_real": null,
    "d_loss_fake": null
}