{
    "epoch": 182,
    "avg_current_window": 751.5204783653718,
    "avg_prior_window": 757.617377980501,
    "inception_score_mean": 1.953577593092439,
    "inception_score_std": 0.07308993980917518,
    "fid_per_class": {
        "airplane": 950.6020276671968,
        "automobile": 1081.1622235797613,
        "bird": 1228.8218158160191,
        "cat": 920.1121960441099,
        "deer": 1198.7352017257426,
        "dog": 968.5939653475416,
        "frog": 1253.0967438027958,
        "horse": 1105.544779063815,
        "ship": 830.210313991397,
        "truck": 1050.1837966778612
    },
    "fid": 667.7794315948119,
    "wasserstein_distance": null,
    "g_loss": null,
    "g_cost": null,
    "d_loss_real": null,
    "d_loss_fake": null
}