{
    "epoch": 19,
    "avg_current_window": 1000.9709492742904,
    "avg_prior_window": 1121.3650044389308,
    "inception_score_mean": 1.6479513883194028,
    "inception_score_std": 0.1221833321997439,
    "fid_per_class": {
        "airplane": 1139.4350633054871,
        "automobile": 1462.5368011136409,
        "bird": 1245.9956708998402,
        "cat": 1035.0338858042792,
        "deer": 1173.554091885813,
        "dog": 1078.982677754776,
        "frog": 1308.6997169126732,
        "horse": 1321.7122883618515,
        "ship": 1007.4948549729004,
        "truck": 1266.4639200331792
    },
    "fid": 840.4593753729214,
    "wasserstein_distance": null,
    "g_loss": null,
    "g_cost": null,
    "d_loss_real": null,
    "d_loss_fake": null
}