{
    "epoch": 60,
    "avg_current_window": 846.9395915037334,
    "avg_prior_window": 870.531060871341,
    "inception_score_mean": 1.7909979028412668,
    "inception_score_std": 0.0698511864190107,
    "fid_per_class": {
        "airplane": 1049.6551099756557,
        "automobile": 1264.289052349984,
        "bird": 1190.8611869451406,
        "cat": 943.5890512491496,
        "deer": 1228.9364242329939,
        "dog": 1000.6387991099912,
        "frog": 1298.1183604707107,
        "horse": 1176.314966071933,
        "ship": 902.957259562595,
        "truck": 1165.597176123205
    },
    "fid": 723.2420162543619,
    "wasserstein_distance": null,
    "g_loss": null,
    "g_cost": null,
    "d_loss_real": null,
    "d_loss_fake": null
}