{
    "epoch": 87,
    "avg_current_window": 808.110051136362,
    "avg_prior_window": 821.9187647082022,
    "inception_score_mean": 1.8704718005706824,
    "inception_score_std": 0.12064147596655109,
    "fid_per_class": {
        "airplane": 1029.9817607869604,
        "automobile": 1111.6753605096735,
        "bird": 1201.061898095099,
        "cat": 885.5271720693794,
        "deer": 1233.0803704200202,
        "dog": 986.8330572964425,
        "frog": 1388.066425482702,
        "horse": 1158.276764823003,
        "ship": 891.0322355681528,
        "truck": 1209.8675144900835
    },
    "fid": 718.3109985308004,
    "wasserstein_distance": null,
    "g_loss": null,
    "g_cost": null,
    "d_loss_real": null,
    "d_loss_fake": null
}