{
    "epoch": 111,
    "avg_current_window": 787.5405739884728,
    "avg_prior_window": 797.4893027456968,
    "inception_score_mean": 1.8902497877644973,
    "inception_score_std": 0.10042619624439889,
    "fid_per_class": {
        "airplane": 944.9867927508919,
        "automobile": 1125.0292922857548,
        "bird": 1179.6984143810796,
        "cat": 888.5690291713557,
        "deer": 1210.1684907909494,
        "dog": 916.9860900956876,
        "frog": 1315.015592807062,
        "horse": 1111.024891164281,
        "ship": 869.5251912805743,
        "truck": 1111.0213648005551
    },
    "fid": 667.5546975790924,
    "wasserstein_distance": null,
    "g_loss": null,
    "g_cost": null,
    "d_loss_real": null,
    "d_loss_fake": null
}