{
    "epoch": 112,
    "avg_current_window": 786.469271520532,
    "avg_prior_window": 796.9778463433182,
    "inception_score_mean": 1.9277262909282993,
    "inception_score_std": 0.08508801208229952,
    "fid_per_class": {
        "airplane": 946.2766682931219,
        "automobile": 1172.4629947656672,
        "bird": 1178.6953169425817,
        "cat": 946.3614573808027,
        "deer": 1241.6691876139134,
        "dog": 948.1020647806148,
        "frog": 1375.4011746808505,
        "horse": 1120.048084007782,
        "ship": 859.2843913628656,
        "truck": 1055.2592803597524
    },
    "fid": 687.3182643018786,
    "wasserstein_distance": null,
    "g_loss": null,
    "g_cost": null,
    "d_loss_real": null,
    "d_loss_fake": null
}