{
    "epoch": 108,
    "avg_current_window": 789.5984218401393,
    "avg_prior_window": 799.9269436221789,
    "inception_score_mean": 1.88248613516054,
    "inception_score_std": 0.12672277776315194,
    "fid_per_class": {
        "airplane": 1024.7121243250986,
        "automobile": 1156.4825364287694,
        "bird": 1213.132689868486,
        "cat": 967.6403408573749,
        "deer": 1280.5011419739512,
        "dog": 984.174953714805,
        "frog": 1473.352790884025,
        "horse": 1218.7971836312208,
        "ship": 895.7002991198709,
        "truck": 1084.119827829631
    },
    "fid": 747.3012114115036,
    "wasserstein_distance": null,
    "g_loss": null,
    "g_cost": null,
    "d_loss_real": null,
    "d_loss_fake": null
}