{
    "epoch": 191,
    "avg_current_window": 748.5035352201483,
    "avg_prior_window": 754.1967136442032,
    "inception_score_mean": 1.9601394213281638,
    "inception_score_std": 0.13691618396441688,
    "fid_per_class": {
        "airplane": 953.3407422923126,
        "automobile": 1063.613117837106,
        "bird": 1234.93573329339,
        "cat": 912.1241619046267,
        "deer": 1286.1690221889648,
        "dog": 968.5825666973888,
        "frog": 1341.2493219800397,
        "horse": 1141.1633456484383,
        "ship": 825.1823058179536,
        "truck": 1051.6433691423317
    },
    "fid": 682.1229220219121,
    "wasserstein_distance": null,
    "g_loss": null,
    "g_cost": null,
    "d_loss_real": null,
    "d_loss_fake": null
}