{
    "epoch": 21,
    "avg_current_window": 985.5706326536513,
    "avg_prior_window": 1086.1072096881733,
    "inception_score_mean": 1.7448976604296682,
    "inception_score_std": 0.058598281567102076,
    "fid_per_class": {
        "airplane": 1120.986479823956,
        "automobile": 1303.6982952649023,
        "bird": 1305.3491967853106,
        "cat": 1049.4355661183854,
        "deer": 1183.520718098482,
        "dog": 1064.9159221580621,
        "frog": 1384.076585751633,
        "horse": 1247.9968335097358,
        "ship": 962.9119356763238,
        "truck": 1113.132115055477
    },
    "fid": 794.1715412972336,
    "wasserstein_distance": null,
    "g_loss": null,
    "g_cost": null,
    "d_loss_real": null,
    "d_loss_fake": null
}