{
    "epoch": 47,
    "avg_current_window": 874.9287849895765,
    "avg_prior_window": 908.026873551624,
    "inception_score_mean": 1.792515555321761,
    "inception_score_std": 0.08112195993751435,
    "fid_per_class": {
        "airplane": 936.3671927342639,
        "automobile": 1195.352380957954,
        "bird": 1228.1764199409538,
        "cat": 969.2070796115481,
        "deer": 1245.1530651012042,
        "dog": 995.9764259220642,
        "frog": 1342.5945821495793,
        "horse": 1177.1122533617067,
        "ship": 884.7377505754756,
        "truck": 1067.1099310957206
    },
    "fid": 704.564906782236,
    "wasserstein_distance": null,
    "g_loss": null,
    "g_cost": null,
    "d_loss_real": null,
    "d_loss_fake": null
}