{
    "epoch": 156,
    "avg_current_window": 762.7891152436648,
    "avg_prior_window": 769.1344482035008,
    "inception_score_mean": 1.9112683354886832,
    "inception_score_std": 0.13412865638292698,
    "fid_per_class": {
        "airplane": 1021.3871028353284,
        "automobile": 1037.0458293875367,
        "bird": 1248.438066491472,
        "cat": 903.0132202050838,
        "deer": 1282.5120691974148,
        "dog": 990.7691064863814,
        "frog": 1366.769308345259,
        "horse": 1160.06900711228,
        "ship": 882.137291873529,
        "truck": 1063.371666435617
    },
    "fid": 695.5859727605125,
    "wasserstein_distance": null,
    "g_loss": null,
    "g_cost": null,
    "d_loss_real": null,
    "d_loss_fake": null
}