{
    "epoch": 117,
    "avg_current_window": 783.3486963460989,
    "avg_prior_window": 792.606041737513,
    "inception_score_mean": 1.9004357115792978,
    "inception_score_std": 0.14291423742801737,
    "fid_per_class": {
        "airplane": 975.6212033653321,
        "automobile": 1157.8456681063312,
        "bird": 1255.0470037947086,
        "cat": 943.235240062917,
        "deer": 1316.005947175414,
        "dog": 1008.9216841378034,
        "frog": 1393.9834153992574,
        "horse": 1208.377026385017,
        "ship": 841.6713469004159,
        "truck": 1137.4414392762283
    },
    "fid": 732.2232675788864,
    "wasserstein_distance": null,
    "g_loss": null,
    "g_cost": null,
    "d_loss_real": null,
    "d_loss_fake": null
}