{
    "epoch": 184,
    "avg_current_window": 750.6354636654421,
    "avg_prior_window": 756.6615225846408,
    "inception_score_mean": 1.8642946090096957,
    "inception_score_std": 0.11829995431649543,
    "fid_per_class": {
        "airplane": 995.5116279352081,
        "automobile": 1109.7379727678015,
        "bird": 1316.6728292214516,
        "cat": 970.0398014848349,
        "deer": 1361.041928969113,
        "dog": 1071.7810641579606,
        "frog": 1431.2603097234248,
        "horse": 1281.6589408453344,
        "ship": 847.5084742408812,
        "truck": 1120.7382944336034
    },
    "fid": 771.4856954814732,
    "wasserstein_distance": null,
    "g_loss": null,
    "g_cost": null,
    "d_loss_real": null,
    "d_loss_fake": null
}