{
    "epoch": 24,
    "avg_current_window": 967.3991482657242,
    "avg_prior_window": 1045.2056532412862,
    "inception_score_mean": 1.6764219596404448,
    "inception_score_std": 0.12107963884831004,
    "fid_per_class": {
        "airplane": 1155.807686074786,
        "automobile": 1363.8313070624258,
        "bird": 1254.3287833418206,
        "cat": 1029.2438459628506,
        "deer": 1115.6296312214138,
        "dog": 1029.053691880117,
        "frog": 1362.357261717208,
        "horse": 1234.5851359834946,
        "ship": 979.1929626343059,
        "truck": 1223.4283980452497
    },
    "fid": 784.5997498752242,
    "wasserstein_distance": null,
    "g_loss": null,
    "g_cost": null,
    "d_loss_real": null,
    "d_loss_fake": null
}