{
    "epoch": 65,
    "avg_current_window": 837.8131379312576,
    "avg_prior_window": 858.9936251079728,
    "inception_score_mean": 1.801765098515101,
    "inception_score_std": 0.12970622378162597,
    "fid_per_class": {
        "airplane": 1015.7157729542041,
        "automobile": 1205.8095494252925,
        "bird": 1210.161436301406,
        "cat": 946.4099641992459,
        "deer": 1178.0298315151042,
        "dog": 914.9445534079705,
        "frog": 1341.6111114595235,
        "horse": 1130.5824635818908,
        "ship": 896.1917630985772,
        "truck": 1146.2666650535834
    },
    "fid": 704.8697070619563,
    "wasserstein_distance": null,
    "g_loss": null,
    "g_cost": null,
    "d_loss_real": null,
    "d_loss_fake": null
}