{
    "epoch": 161,
    "avg_current_window": 760.2677390148535,
    "avg_prior_window": 767.2479996844373,
    "inception_score_mean": 1.9343170354824923,
    "inception_score_std": 0.12537000003779528,
    "fid_per_class": {
        "airplane": 998.7055648522521,
        "automobile": 1084.4424656663134,
        "bird": 1227.8801712307404,
        "cat": 889.2567442298587,
        "deer": 1247.8571201204315,
        "dog": 964.0771634150503,
        "frog": 1303.1968973794917,
        "horse": 1110.3664592270227,
        "ship": 845.3157484523903,
        "truck": 1087.3750464442537
    },
    "fid": 678.1421171277983,
    "wasserstein_distance": null,
    "g_loss": null,
    "g_cost": null,
    "d_loss_real": null,
    "d_loss_fake": null
}