{
    "epoch": 78,
    "avg_current_window": 817.5770607042169,
    "avg_prior_window": 833.9055358937749,
    "inception_score_mean": 1.8822886483814596,
    "inception_score_std": 0.10281099916259356,
    "fid_per_class": {
        "airplane": 954.8335522581126,
        "automobile": 1198.4900742189761,
        "bird": 1267.0219772602054,
        "cat": 949.0226367321237,
        "deer": 1243.705305080411,
        "dog": 1010.3342646855735,
        "frog": 1477.4216218514455,
        "horse": 1203.992031857406,
        "ship": 868.7748561409479,
        "truck": 1139.0247878682899
    },
    "fid": 751.9980872787207,
    "wasserstein_distance": null,
    "g_loss": null,
    "g_cost": null,
    "d_loss_real": null,
    "d_loss_fake": null
}