{
    "epoch": 52,
    "avg_current_window": 862.6597981408103,
    "avg_prior_window": 889.9195276870709,
    "inception_score_mean": 1.6969160587599117,
    "inception_score_std": 0.14159347865493419,
    "fid_per_class": {
        "airplane": 994.6806424203139,
        "automobile": 1268.9492622752418,
        "bird": 1349.824681425355,
        "cat": 1040.568045899879,
        "deer": 1281.6491119124403,
        "dog": 1003.9333119975811,
        "frog": 1417.0456888857195,
        "horse": 1263.8897999391452,
        "ship": 938.6870592748803,
        "truck": 1211.4876949189038
    },
    "fid": 798.250701503609,
    "wasserstein_distance": null,
    "g_loss": null,
    "g_cost": null,
    "d_loss_real": null,
    "d_loss_fake": null
}