{
    "epoch": 134,
    "avg_current_window": 773.1747676236562,
    "avg_prior_window": 781.4716403196337,
    "inception_score_mean": 1.885418577339553,
    "inception_score_std": 0.0654242619456338,
    "fid_per_class": {
        "airplane": 1006.6542304833135,
        "automobile": 1187.7524998125054,
        "bird": 1217.4632875490454,
        "cat": 938.2628048925283,
        "deer": 1323.9348291863755,
        "dog": 1006.0392984844566,
        "frog": 1375.4316354417797,
        "horse": 1161.1161365552562,
        "ship": 842.6449636069658,
        "truck": 1112.5534890266838
    },
    "fid": 726.4525715177701,
    "wasserstein_distance": null,
    "g_loss": null,
    "g_cost": null,
    "d_loss_real": null,
    "d_loss_fake": null
}