{
    "epoch": 104,
    "avg_current_window": 792.2353383950425,
    "avg_prior_window": 803.4961114330326,
    "inception_score_mean": 1.8741298956513202,
    "inception_score_std": 0.11489716738712152,
    "fid_per_class": {
        "airplane": 1092.3983684299922,
        "automobile": 1136.9343014595825,
        "bird": 1233.148431738922,
        "cat": 903.091921896485,
        "deer": 1233.1273286555036,
        "dog": 948.7535282183069,
        "frog": 1393.5357097803098,
        "horse": 1100.6053882881888,
        "ship": 889.0455782492928,
        "truck": 1073.6019014190683
    },
    "fid": 696.2060912775113,
    "wasserstein_distance": null,
    "g_loss": null,
    "g_cost": null,
    "d_loss_real": null,
    "d_loss_fake": null
}