{
    "epoch": 28,
    "avg_current_window": 946.1543702814973,
    "avg_prior_window": 1009.4599807990165,
    "inception_score_mean": 1.7692970312520533,
    "inception_score_std": 0.12402563184281451,
    "fid_per_class": {
        "airplane": 1056.3451312482387,
        "automobile": 1258.5748207227382,
        "bird": 1332.2467403714923,
        "cat": 1028.1910457965132,
        "deer": 1265.6215632032165,
        "dog": 1091.2521569343712,
        "frog": 1501.9894307019767,
        "horse": 1301.2170330104059,
        "ship": 868.1553067332,
        "truck": 1074.8833037903646
    },
    "fid": 803.3830510322816,
    "wasserstein_distance": null,
    "g_loss": null,
    "g_cost": null,
    "d_loss_real": null,
    "d_loss_fake": null
}