{
    "epoch": 102,
    "avg_current_window": 793.9560436961993,
    "avg_prior_window": 805.2054949250177,
    "inception_score_mean": 1.9157961162692392,
    "inception_score_std": 0.17955288514920728,
    "fid_per_class": {
        "airplane": 1011.0395990028537,
        "automobile": 1093.915946197609,
        "bird": 1261.6839009433688,
        "cat": 922.7152858647001,
        "deer": 1218.7139087171925,
        "dog": 969.4415751084791,
        "frog": 1473.3086405327012,
        "horse": 1162.7619001741455,
        "ship": 861.6537064821713,
        "truck": 1073.6007237834137
    },
    "fid": 716.8204803063296,
    "wasserstein_distance": null,
    "g_loss": null,
    "g_cost": null,
    "d_loss_real": null,
    "d_loss_fake": null
}