{
    "epoch": 81,
    "avg_current_window": 813.4552519905144,
    "avg_prior_window": 830.2691642366985,
    "inception_score_mean": 1.8796638011373177,
    "inception_score_std": 0.12646250389190647,
    "fid_per_class": {
        "airplane": 1040.6377969321234,
        "automobile": 1207.016269099484,
        "bird": 1277.5254578643962,
        "cat": 972.3295382041385,
        "deer": 1252.0675310152965,
        "dog": 1010.9325643495562,
        "frog": 1475.0362383899887,
        "horse": 1213.2733889689268,
        "ship": 861.0520174989474,
        "truck": 1137.850037458103
    },
    "fid": 757.3632057574687,
    "wasserstein_distance": null,
    "g_loss": null,
    "g_cost": null,
    "d_loss_real": null,
    "d_loss_fake": null
}