{
    "epoch": 136,
    "avg_current_window": 772.4426384296679,
    "avg_prior_window": 780.2672198515172,
    "inception_score_mean": 1.8595875855888095,
    "inception_score_std": 0.12976734827507694,
    "fid_per_class": {
        "airplane": 1010.8933598783585,
        "automobile": 1170.0978036913648,
        "bird": 1186.5493553459696,
        "cat": 904.6361345382335,
        "deer": 1210.6524248022529,
        "dog": 985.0611860518935,
        "frog": 1358.555029661464,
        "horse": 1185.2496335176074,
        "ship": 895.0063066499107,
        "truck": 1092.3070888406107
    },
    "fid": 705.9328001108712,
    "wasserstein_distance": null,
    "g_loss": null,
    "g_cost": null,
    "d_loss_real": null,
    "d_loss_fake": null
}