{
    "epoch": 93,
    "avg_current_window": 802.8623140114609,
    "avg_prior_window": 815.2938618735517,
    "inception_score_mean": 1.9223384558502097,
    "inception_score_std": 0.09024978244114533,
    "fid_per_class": {
        "airplane": 1004.7417826854769,
        "automobile": 1126.6896959844382,
        "bird": 1229.6262172927386,
        "cat": 915.4861337816163,
        "deer": 1208.5705872953433,
        "dog": 956.8408052241921,
        "frog": 1382.8233291497645,
        "horse": 1143.439665744101,
        "ship": 858.6141433375906,
        "truck": 1082.2331143559504
    },
    "fid": 697.6382192374485,
    "wasserstein_distance": null,
    "g_loss": null,
    "g_cost": null,
    "d_loss_real": null,
    "d_loss_fake": null
}