{
    "epoch": 129,
    "avg_current_window": 776.1807337319673,
    "avg_prior_window": 785.1613646185782,
    "inception_score_mean": 1.9129486355376333,
    "inception_score_std": 0.11542903372165554,
    "fid_per_class": {
        "airplane": 1007.5724071718587,
        "automobile": 1133.410829368176,
        "bird": 1189.4970796930893,
        "cat": 975.9239117158855,
        "deer": 1201.296646243523,
        "dog": 939.193822155798,
        "frog": 1362.01601228539,
        "horse": 1106.6823162740652,
        "ship": 840.8261925533197,
        "truck": 1096.7393689663859
    },
    "fid": 682.5269498089741,
    "wasserstein_distance": null,
    "g_loss": null,
    "g_cost": null,
    "d_loss_real": null,
    "d_loss_fake": null
}