{
    "epoch": 118,
    "avg_current_window": 782.915430000614,
    "avg_prior_window": 791.800252282776,
    "inception_score_mean": 1.869153330847848,
    "inception_score_std": 0.09560734225849965,
    "fid_per_class": {
        "airplane": 1007.6594824842509,
        "automobile": 1216.7251699215321,
        "bird": 1284.47964225089,
        "cat": 931.8686374602971,
        "deer": 1288.2369876164623,
        "dog": 1043.9391688048677,
        "frog": 1444.9317811394644,
        "horse": 1194.6727380089287,
        "ship": 884.7270758728893,
        "truck": 1136.8283114669532
    },
    "fid": 760.1379883438966,
    "wasserstein_distance": null,
    "g_loss": null,
    "g_cost": null,
    "d_loss_real": null,
    "d_loss_fake": null
}