{
    "epoch": 100,
    "avg_current_window": 795.4611503187023,
    "avg_prior_window": 807.4616195079165,
    "inception_score_mean": 1.9315068641385245,
    "inception_score_std": 0.140747538038564,
    "fid_per_class": {
        "airplane": 1036.218017565945,
        "automobile": 1186.3189032862201,
        "bird": 1277.7787269236896,
        "cat": 950.1702264137775,
        "deer": 1315.2825810513032,
        "dog": 949.1191148097918,
        "frog": 1424.727549633664,
        "horse": 1193.5611914434248,
        "ship": 885.2614880928385,
        "truck": 1190.3602189182684
    },
    "fid": 752.8121817241167,
    "wasserstein_distance": null,
    "g_loss": null,
    "g_cost": null,
    "d_loss_real": null,
    "d_loss_fake": null
}