{
    "epoch": 190,
    "avg_current_window": 749.0439519889804,
    "avg_prior_window": 754.4653269556493,
    "inception_score_mean": 1.9943383016662684,
    "inception_score_std": 0.09816413666169513,
    "fid_per_class": {
        "airplane": 931.7313778720495,
        "automobile": 1083.0106419456836,
        "bird": 1193.9504566865162,
        "cat": 872.5910855200754,
        "deer": 1197.1145426681642,
        "dog": 987.8837819310519,
        "frog": 1291.5149045913115,
        "horse": 1074.1369511512255,
        "ship": 800.9271827165705,
        "truck": 1025.6732179826497
    },
    "fid": 645.8243491420318,
    "wasserstein_distance": null,
    "g_loss": null,
    "g_cost": null,
    "d_loss_real": null,
    "d_loss_fake": null
}