{
    "epoch": 30,
    "avg_current_window": 938.7219320818512,
    "avg_prior_window": 995.6810450399739,
    "inception_score_mean": 1.6934562567511062,
    "inception_score_std": 0.08743728305961844,
    "fid_per_class": {
        "airplane": 1083.3172240260337,
        "automobile": 1339.9133624767983,
        "bird": 1300.27304264757,
        "cat": 1022.7336052051775,
        "deer": 1284.1123710007455,
        "dog": 1030.3985664561715,
        "frog": 1452.6642452074593,
        "horse": 1306.4023754513987,
        "ship": 915.4253534149411,
        "truck": 1132.7016918082497
    },
    "fid": 821.5152024507906,
    "wasserstein_distance": null,
    "g_loss": null,
    "g_cost": null,
    "d_loss_real": null,
    "d_loss_fake": null
}