{
    "epoch": 185,
    "avg_current_window": 750.7481676212045,
    "avg_prior_window": 756.1306810129298,
    "inception_score_mean": 1.8697056054936372,
    "inception_score_std": 0.12649389513822112,
    "fid_per_class": {
        "airplane": 999.1638471253334,
        "automobile": 1121.6820190256678,
        "bird": 1196.0576376771915,
        "cat": 922.8253665450736,
        "deer": 1212.9421997634922,
        "dog": 951.6193832189606,
        "frog": 1346.1213814715134,
        "horse": 1181.7157167967687,
        "ship": 883.4599979502983,
        "truck": 1064.163236270578
    },
    "fid": 687.6744768722899,
    "wasserstein_distance": null,
    "g_loss": null,
    "g_cost": null,
    "d_loss_real": null,
    "d_loss_fake": null
}