{
    "epoch": 66,
    "avg_current_window": 835.798843524147,
    "avg_prior_window": 856.4117409550377,
    "inception_score_mean": 1.849340995486686,
    "inception_score_std": 0.11974167550049776,
    "fid_per_class": {
        "airplane": 989.894722537896,
        "automobile": 1233.9813998894845,
        "bird": 1186.7847894100535,
        "cat": 977.7664607456929,
        "deer": 1218.2556698466024,
        "dog": 990.3357288857576,
        "frog": 1342.0147067364715,
        "horse": 1198.5047381800302,
        "ship": 876.064157247978,
        "truck": 1205.6965876135612
    },
    "fid": 736.7090040371362,
    "wasserstein_distance": null,
    "g_loss": null,
    "g_cost": null,
    "d_loss_real": null,
    "d_loss_fake": null
}