{
    "epoch": 13,
    "avg_current_window": 1063.7701146621448,
    "avg_prior_window": 1276.5570227247147,
    "inception_score_mean": 1.564883649849369,
    "inception_score_std": 0.09958064357658808,
    "fid_per_class": {
        "airplane": 1083.0808754535744,
        "automobile": 1279.2667253069944,
        "bird": 1498.519494408809,
        "cat": 1249.0524053174263,
        "deer": 1581.7268593526544,
        "dog": 1399.3324275493774,
        "frog": 1723.1252597106356,
        "horse": 1399.8236412772712,
        "ship": 965.5252962569871,
        "truck": 1036.5142295707012
    },
    "fid": 1005.1348118634596,
    "wasserstein_distance": null,
    "g_loss": null,
    "g_cost": null,
    "d_loss_real": null,
    "d_loss_fake": null
}