{
    "epoch": 64,
    "avg_current_window": 839.1431765578166,
    "avg_prior_window": 861.2944998343052,
    "inception_score_mean": 1.8033776686813212,
    "inception_score_std": 0.10417598142755775,
    "fid_per_class": {
        "airplane": 998.9417615031748,
        "automobile": 1239.4884019271685,
        "bird": 1239.220520529424,
        "cat": 993.5626863380498,
        "deer": 1242.6980292550336,
        "dog": 967.1874785352765,
        "frog": 1398.8123376391118,
        "horse": 1213.286390897962,
        "ship": 915.3882379774536,
        "truck": 1185.9036040200135
    },
    "fid": 752.6906658314815,
    "wasserstein_distance": null,
    "g_loss": null,
    "g_cost": null,
    "d_loss_real": null,
    "d_loss_fake": null
}