{
    "epoch": 17,
    "avg_current_window": 1022.2185502947514,
    "avg_prior_window": 1152.4176242173235,
    "inception_score_mean": 1.6494928540329543,
    "inception_score_std": 0.0880138754512044,
    "fid_per_class": {
        "airplane": 1151.3154796791637,
        "automobile": 1394.742738060876,
        "bird": 1229.3045037719826,
        "cat": 1117.195612205126,
        "deer": 1141.3739562250662,
        "dog": 1096.6011629624243,
        "frog": 1368.2902705897425,
        "horse": 1293.8143223182383,
        "ship": 1015.9551132775659,
        "truck": 1206.9748499288107
    },
    "fid": 865.546821717369,
    "wasserstein_distance": null,
    "g_loss": null,
    "g_cost": null,
    "d_loss_real": null,
    "d_loss_fake": null
}