{
    "epoch": 197,
    "avg_current_window": 747.0023867706187,
    "avg_prior_window": 751.8653611780902,
    "inception_score_mean": 1.8729166788080795,
    "inception_score_std": 0.09562643335692249,
    "fid_per_class": {
        "airplane": 946.8860967389942,
        "automobile": 1165.252620615186,
        "bird": 1288.5925052055964,
        "cat": 885.445280101366,
        "deer": 1200.7075744000902,
        "dog": 988.521064018079,
        "frog": 1291.034247647603,
        "horse": 1142.3317640181317,
        "ship": 805.4396390343952,
        "truck": 1050.8605908828772
    },
    "fid": 671.8353549207951,
    "wasserstein_distance": null,
    "g_loss": null,
    "g_cost": null,
    "d_loss_real": null,
    "d_loss_fake": null
}