{
    "epoch": 23,
    "avg_current_window": 970.5821914134066,
    "avg_prior_window": 1056.5804464561954,
    "inception_score_mean": 1.6166549054736166,
    "inception_score_std": 0.07799261713741915,
    "fid_per_class": {
        "airplane": 1129.9917020924972,
        "automobile": 1392.265156501509,
        "bird": 1466.5418463650747,
        "cat": 1077.7833005444486,
        "deer": 1308.1771888160965,
        "dog": 1214.0300722669535,
        "frog": 1543.2984681511923,
        "horse": 1295.7055259702631,
        "ship": 978.6303772951089,
        "truck": 1208.8732427333784
    },
    "fid": 894.1891558690295,
    "wasserstein_distance": null,
    "g_loss": null,
    "g_cost": null,
    "d_loss_real": null,
    "d_loss_fake": null
}