{
    "epoch": 88,
    "avg_current_window": 807.0896073567533,
    "avg_prior_window": 820.663198400087,
    "inception_score_mean": 1.9359373406484142,
    "inception_score_std": 0.10099524361681864,
    "fid_per_class": {
        "airplane": 1002.0188575142048,
        "automobile": 1161.519609830034,
        "bird": 1234.4005104836174,
        "cat": 927.1226402207462,
        "deer": 1303.7190682061876,
        "dog": 975.2287948389883,
        "frog": 1499.608097773893,
        "horse": 1139.4640888085066,
        "ship": 900.3400655862006,
        "truck": 1075.905392543438
    },
    "fid": 721.974397478265,
    "wasserstein_distance": null,
    "g_loss": null,
    "g_cost": null,
    "d_loss_real": null,
    "d_loss_fake": null
}