{
    "epoch": 55,
    "avg_current_window": 857.1599366057927,
    "avg_prior_window": 882.3499995532502,
    "inception_score_mean": 1.777599433161522,
    "inception_score_std": 0.07203487780407462,
    "fid_per_class": {
        "airplane": 973.1932399424184,
        "automobile": 1273.4293329562936,
        "bird": 1204.5336326732127,
        "cat": 938.9624152300528,
        "deer": 1228.1681150059908,
        "dog": 1013.1907075088992,
        "frog": 1326.040455533169,
        "horse": 1197.5919543129885,
        "ship": 865.7106078487323,
        "truck": 1190.6493211478933
    },
    "fid": 735.4118346051521,
    "wasserstein_distance": null,
    "g_loss": null,
    "g_cost": null,
    "d_loss_real": null,
    "d_loss_fake": null
}