{
    "epoch": 179,
    "avg_current_window": 753.0562133137635,
    "avg_prior_window": 759.0996779797331,
    "inception_score_mean": 1.9032534524118838,
    "inception_score_std": 0.10768527154112223,
    "fid_per_class": {
        "airplane": 912.4513419239956,
        "automobile": 1033.3923134567592,
        "bird": 1194.2263287372166,
        "cat": 911.6083805600059,
        "deer": 1168.0019897476927,
        "dog": 1023.6729359102451,
        "frog": 1265.2471540096965,
        "horse": 1118.6227759586227,
        "ship": 824.5772671949148,
        "truck": 1009.3596921086169
    },
    "fid": 645.3503594870508,
    "wasserstein_distance": null,
    "g_loss": null,
    "g_cost": null,
    "d_loss_real": null,
    "d_loss_fake": null
}