{
    "epoch": 152,
    "avg_current_window": 764.0743531495305,
    "avg_prior_window": 771.725175739578,
    "inception_score_mean": 1.8689682208568974,
    "inception_score_std": 0.08776149070402402,
    "fid_per_class": {
        "airplane": 954.8007345221675,
        "automobile": 1133.877851004651,
        "bird": 1229.289673644427,
        "cat": 925.982481092653,
        "deer": 1234.4033361879688,
        "dog": 983.3196735561621,
        "frog": 1313.6837177690263,
        "horse": 1163.1437696054147,
        "ship": 822.8630823558331,
        "truck": 1143.026914832004
    },
    "fid": 701.1672544322394,
    "wasserstein_distance": null,
    "g_loss": null,
    "g_cost": null,
    "d_loss_real": null,
    "d_loss_fake": null
}