{
    "epoch": 49,
    "avg_current_window": 869.291899822173,
    "avg_prior_window": 901.0320098026699,
    "inception_score_mean": 1.8193355396059778,
    "inception_score_std": 0.11824230784808179,
    "fid_per_class": {
        "airplane": 955.4933732362408,
        "automobile": 1231.1038538417795,
        "bird": 1255.483500349765,
        "cat": 940.0327676524141,
        "deer": 1162.5743933193035,
        "dog": 986.5489233619713,
        "frog": 1240.8644358333315,
        "horse": 1233.2604901351508,
        "ship": 878.426101265695,
        "truck": 1169.2585649042255
    },
    "fid": 716.8821930538511,
    "wasserstein_distance": null,
    "g_loss": null,
    "g_cost": null,
    "d_loss_real": null,
    "d_loss_fake": null
}