{
    "epoch": 150,
    "avg_current_window": 765.5659808614291,
    "avg_prior_window": 772.892116600082,
    "inception_score_mean": 1.9640798024657182,
    "inception_score_std": 0.08443788717628367,
    "fid_per_class": {
        "airplane": 972.7634709075472,
        "automobile": 1140.6061096810658,
        "bird": 1170.6860256619439,
        "cat": 888.04506349352,
        "deer": 1137.629242537879,
        "dog": 946.2903294025245,
        "frog": 1280.9454133806935,
        "horse": 1129.7513922936455,
        "ship": 843.7055249238514,
        "truck": 1055.0518477751762
    },
    "fid": 652.9147598867067,
    "wasserstein_distance": null,
    "g_loss": null,
    "g_cost": null,
    "d_loss_real": null,
    "d_loss_fake": null
}