{
    "epoch": 120,
    "avg_current_window": 781.9762712656001,
    "avg_prior_window": 790.7474808564273,
    "inception_score_mean": 1.8877190495793976,
    "inception_score_std": 0.08883839363469073,
    "fid_per_class": {
        "airplane": 973.4164323648326,
        "automobile": 1144.4138735624683,
        "bird": 1230.114755485866,
        "cat": 905.4997991966601,
        "deer": 1258.383070491207,
        "dog": 980.674381507535,
        "frog": 1374.8697128660478,
        "horse": 1131.8216868990346,
        "ship": 842.2029349692871,
        "truck": 1082.307044052093
    },
    "fid": 710.0159167590633,
    "wasserstein_distance": null,
    "g_loss": null,
    "g_cost": null,
    "d_loss_real": null,
    "d_loss_fake": null
}