{
    "epoch": 53,
    "avg_current_window": 861.4445321665235,
    "avg_prior_window": 887.4021477351349,
    "inception_score_mean": 1.7994368033956332,
    "inception_score_std": 0.09847127713773547,
    "fid_per_class": {
        "airplane": 944.6722630191693,
        "automobile": 1208.3607720861983,
        "bird": 1203.0757789096053,
        "cat": 939.3802754062937,
        "deer": 1159.3971096587497,
        "dog": 924.9698372066698,
        "frog": 1260.2592919094122,
        "horse": 1205.4941809857091,
        "ship": 903.8509526627824,
        "truck": 1228.2067465786195
    },
    "fid": 703.6144909599432,
    "wasserstein_distance": null,
    "g_loss": null,
    "g_cost": null,
    "d_loss_real": null,
    "d_loss_fake": null
}