{
    "epoch": 84,
    "avg_current_window": 810.8933984191336,
    "avg_prior_window": 825.2802834736771,
    "inception_score_mean": 1.9047014108299347,
    "inception_score_std": 0.09602882219659921,
    "fid_per_class": {
        "airplane": 982.4485131443239,
        "automobile": 1169.3878664677895,
        "bird": 1226.6370016385604,
        "cat": 955.2333013457842,
        "deer": 1163.3976763538858,
        "dog": 948.2917555151142,
        "frog": 1369.046086967268,
        "horse": 1153.6164478834346,
        "ship": 881.2769308998223,
        "truck": 1156.597714441064
    },
    "fid": 711.7589060843078,
    "wasserstein_distance": null,
    "g_loss": null,
    "g_cost": null,
    "d_loss_real": null,
    "d_loss_fake": null
}