{
    "epoch": 192,
    "avg_current_window": 748.1578028597409,
    "avg_prior_window": 753.6858242420401,
    "inception_score_mean": 1.863335412239105,
    "inception_score_std": 0.07431916114681106,
    "fid_per_class": {
        "airplane": 1013.6776325952127,
        "automobile": 1088.2409478082704,
        "bird": 1218.5878403226018,
        "cat": 930.0434015301317,
        "deer": 1256.8593107942281,
        "dog": 1018.0502760755453,
        "frog": 1359.4005918465257,
        "horse": 1176.0826808628017,
        "ship": 874.3155432701321,
        "truck": 1074.1687939450626
    },
    "fid": 711.8511971230778,
    "wasserstein_distance": null,
    "g_loss": null,
    "g_cost": null,
    "d_loss_real": null,
    "d_loss_fake": null
}