{
    "epoch": 159,
    "avg_current_window": 761.1639578535448,
    "avg_prior_window": 768.240225562891,
    "inception_score_mean": 1.9134250061260967,
    "inception_score_std": 0.10771527232044097,
    "fid_per_class": {
        "airplane": 912.4717204181871,
        "automobile": 1141.749576405116,
        "bird": 1201.2159775756413,
        "cat": 909.980293462099,
        "deer": 1250.9700339063152,
        "dog": 927.370829919868,
        "frog": 1345.1076254395794,
        "horse": 1149.9493263883505,
        "ship": 912.8735671457366,
        "truck": 1056.8771329286606
    },
    "fid": 676.6165353232686,
    "wasserstein_distance": null,
    "g_loss": null,
    "g_cost": null,
    "d_loss_real": null,
    "d_loss_fake": null
}