{
    "epoch": 171,
    "avg_current_window": 756.5441542256715,
    "avg_prior_window": 762.8945674072619,
    "inception_score_mean": 1.9160769917217741,
    "inception_score_std": 0.0980630144738308,
    "fid_per_class": {
        "airplane": 922.7890034039999,
        "automobile": 1073.185787530728,
        "bird": 1219.0817011226295,
        "cat": 897.5413752292569,
        "deer": 1175.8830507941611,
        "dog": 995.5356210088306,
        "frog": 1342.5174071426507,
        "horse": 1105.0239763676605,
        "ship": 830.1142258014453,
        "truck": 970.4664239853772
    },
    "fid": 648.1677721112981,
    "wasserstein_distance": null,
    "g_loss": null,
    "g_cost": null,
    "d_loss_real": null,
    "d_loss_fake": null
}