{
    "epoch": 69,
    "avg_current_window": 830.5407598014596,
    "avg_prior_window": 850.9039682114335,
    "inception_score_mean": 1.8885444491878753,
    "inception_score_std": 0.11043019516592115,
    "fid_per_class": {
        "airplane": 1046.4933080519331,
        "automobile": 1170.270252196059,
        "bird": 1179.1402331030365,
        "cat": 918.7715394642886,
        "deer": 1176.5392122593498,
        "dog": 927.9958398806576,
        "frog": 1298.9320729041947,
        "horse": 1128.8757559063047,
        "ship": 891.9589834519093,
        "truck": 1206.5927233493494
    },
    "fid": 713.424396715393,
    "wasserstein_distance": null,
    "g_loss": null,
    "g_cost": null,
    "d_loss_real": null,
    "d_loss_fake": null
}