{
    "epoch": 114,
    "avg_current_window": 784.8546360346816,
    "avg_prior_window": 795.6338897610526,
    "inception_score_mean": 1.8746227634470398,
    "inception_score_std": 0.13686428637519688,
    "fid_per_class": {
        "airplane": 1019.3087947523198,
        "automobile": 1157.5272790402023,
        "bird": 1223.9682128668342,
        "cat": 925.4026490335543,
        "deer": 1291.9821493958157,
        "dog": 968.3691613938904,
        "frog": 1354.9156166054865,
        "horse": 1101.291505591309,
        "ship": 831.329382198614,
        "truck": 1116.4828085004715
    },
    "fid": 704.5844727328467,
    "wasserstein_distance": null,
    "g_loss": null,
    "g_cost": null,
    "d_loss_real": null,
    "d_loss_fake": null
}