{
    "epoch": 56,
    "avg_current_window": 854.9858633557814,
    "avg_prior_window": 879.5746961435713,
    "inception_score_mean": 1.822785432554582,
    "inception_score_std": 0.09226349631768056,
    "fid_per_class": {
        "airplane": 1030.8688192996333,
        "automobile": 1207.2461359378922,
        "bird": 1245.113260203916,
        "cat": 942.8435084184644,
        "deer": 1227.5952129308887,
        "dog": 935.890236125551,
        "frog": 1318.896704014387,
        "horse": 1178.939074093387,
        "ship": 904.1209845667473,
        "truck": 1187.4840869863842
    },
    "fid": 723.6287659198879,
    "wasserstein_distance": null,
    "g_loss": null,
    "g_cost": null,
    "d_loss_real": null,
    "d_loss_fake": null
}