{
    "epoch": 61,
    "avg_current_window": 844.9117624012847,
    "avg_prior_window": 867.9078056043508,
    "inception_score_mean": 1.773245200844912,
    "inception_score_std": 0.1033354106594451,
    "fid_per_class": {
        "airplane": 954.5343742506471,
        "automobile": 1235.2244145055786,
        "bird": 1206.2452374250956,
        "cat": 943.1465464352023,
        "deer": 1146.684639339981,
        "dog": 959.0752475927518,
        "frog": 1253.2269949806414,
        "horse": 1159.8475465145536,
        "ship": 916.5614667859613,
        "truck": 1117.541956597323
    },
    "fid": 701.4986917789306,
    "wasserstein_distance": null,
    "g_loss": null,
    "g_cost": null,
    "d_loss_real": null,
    "d_loss_fake": null
}