{
    "epoch": 138,
    "avg_current_window": 771.308738189878,
    "avg_prior_window": 778.9881117411272,
    "inception_score_mean": 1.956015087090139,
    "inception_score_std": 0.13060618084103248,
    "fid_per_class": {
        "airplane": 1001.541984901616,
        "automobile": 1097.6847524325296,
        "bird": 1215.1557911496343,
        "cat": 887.72221919867,
        "deer": 1151.0071175662845,
        "dog": 949.5951287452385,
        "frog": 1287.3953493452643,
        "horse": 1095.9000653828612,
        "ship": 869.8311785751838,
        "truck": 1085.4702173979294
    },
    "fid": 662.81117289292,
    "wasserstein_distance": null,
    "g_loss": null,
    "g_cost": null,
    "d_loss_real": null,
    "d_loss_fake": null
}