{
    "epoch": 1,
    "avg_current_window": 3.0,
    "avg_prior_window": 8.0,
    "inception_score_mean": 1.4172791486184164,
    "inception_score_std": 0.05229057175007684,
    "fid_per_class": {
        "airplane": 1584.597352982041,
        "automobile": 1700.9240665661207,
        "bird": 1671.7712969404001,
        "cat": 1743.0178116785964,
        "deer": 1985.89705726266,
        "dog": 1568.2953554124902,
        "frog": 1889.9885048232322,
        "horse": 1958.1546407751885,
        "ship": 1820.7594875437833,
        "truck": 1716.4363708581736
    },
    "fid": 1585.5823358356286,
    "wasserstein_distance": null,
    "g_loss": null,
    "g_cost": null,
    "d_loss_real": null,
    "d_loss_fake": null
}