{
    "epoch": 41,
    "avg_current_window": 893.8488674964306,
    "avg_prior_window": 932.3007143316097,
    "inception_score_mean": 1.7809100501992272,
    "inception_score_std": 0.12969934708996944,
    "fid_per_class": {
        "airplane": 1008.3644592710143,
        "automobile": 1263.9919530409993,
        "bird": 1206.2401919889057,
        "cat": 974.3441572136802,
        "deer": 1204.2236756736313,
        "dog": 987.8859111680285,
        "frog": 1368.6807622051626,
        "horse": 1201.4330915908267,
        "ship": 881.5498728467905,
        "truck": 1171.1944642950273
    },
    "fid": 742.5864668139528,
    "wasserstein_distance": null,
    "g_loss": null,
    "g_cost": null,
    "d_loss_real": null,
    "d_loss_fake": null
}