{
    "epoch": 76,
    "avg_current_window": 820.8827152281159,
    "avg_prior_window": 837.256406748312,
    "inception_score_mean": 1.8811328575377733,
    "inception_score_std": 0.14369732708026442,
    "fid_per_class": {
        "airplane": 1040.2055526814784,
        "automobile": 1284.6301084529682,
        "bird": 1134.2331855148586,
        "cat": 976.5359967776262,
        "deer": 1181.8192613228734,
        "dog": 931.7365079485262,
        "frog": 1353.2922664942053,
        "horse": 1185.9466574549472,
        "ship": 908.6231038709911,
        "truck": 1174.5232726664406
    },
    "fid": 713.370124652283,
    "wasserstein_distance": null,
    "g_loss": null,
    "g_cost": null,
    "d_loss_real": null,
    "d_loss_fake": null
}