{
    "epoch": 124,
    "avg_current_window": 779.4274994557921,
    "avg_prior_window": 788.5475004358993,
    "inception_score_mean": 1.8781232524462503,
    "inception_score_std": 0.14336535903462674,
    "fid_per_class": {
        "airplane": 996.0044488571416,
        "automobile": 1147.8309920873592,
        "bird": 1229.2642621973018,
        "cat": 918.5600269211592,
        "deer": 1269.751495799711,
        "dog": 952.0778482768308,
        "frog": 1438.219201109062,
        "horse": 1158.6911844775466,
        "ship": 890.5333467817932,
        "truck": 1145.4374634864744
    },
    "fid": 710.9992801854712,
    "wasserstein_distance": null,
    "g_loss": null,
    "g_cost": null,
    "d_loss_real": null,
    "d_loss_fake": null
}