{
    "epoch": 155,
    "avg_current_window": 763.2838370108724,
    "avg_prior_window": 769.9187459273405,
    "inception_score_mean": 1.9189385598733715,
    "inception_score_std": 0.10747157553558759,
    "fid_per_class": {
        "airplane": 996.6124548193106,
        "automobile": 1095.1774283019213,
        "bird": 1216.9362367216954,
        "cat": 928.2478788592509,
        "deer": 1242.6494031782454,
        "dog": 980.7005171209164,
        "frog": 1344.1556837584035,
        "horse": 1164.1391861747013,
        "ship": 862.8390577351145,
        "truck": 1016.5910365992596
    },
    "fid": 686.1072413264837,
    "wasserstein_distance": null,
    "g_loss": null,
    "g_cost": null,
    "d_loss_real": null,
    "d_loss_fake": null
}