{
    "epoch": 146,
    "avg_current_window": 767.5983349795334,
    "avg_prior_window": 774.6230883544112,
    "inception_score_mean": 1.9455215714291847,
    "inception_score_std": 0.10584618610897717,
    "fid_per_class": {
        "airplane": 952.0719746677099,
        "automobile": 1179.9601025031131,
        "bird": 1224.521591083167,
        "cat": 908.5400518157754,
        "deer": 1210.1401392695752,
        "dog": 968.3103420519219,
        "frog": 1320.050312135628,
        "horse": 1133.3196864969084,
        "ship": 886.080225283097,
        "truck": 1135.607243773829
    },
    "fid": 693.9013021647336,
    "wasserstein_distance": null,
    "g_loss": null,
    "g_cost": null,
    "d_loss_real": null,
    "d_loss_fake": null
}