{
    "epoch": 135,
    "avg_current_window": 772.8286772821311,
    "avg_prior_window": 780.6927936462562,
    "inception_score_mean": 1.865879634652599,
    "inception_score_std": 0.10937736962286161,
    "fid_per_class": {
        "airplane": 992.1573702595123,
        "automobile": 1093.122090368288,
        "bird": 1238.335128634811,
        "cat": 925.0218767452764,
        "deer": 1286.5593305697096,
        "dog": 984.5421011109654,
        "frog": 1315.464809747636,
        "horse": 1204.4184837766988,
        "ship": 850.7873558025856,
        "truck": 1086.612139538065
    },
    "fid": 720.3273933471373,
    "wasserstein_distance": null,
    "g_loss": null,
    "g_cost": null,
    "d_loss_real": null,
    "d_loss_fake": null
}