{
    "epoch": 47,
    "avg_current_window": 1571.790494918261,
    "avg_prior_window": 1659.7629116808491,
    "inception_score_mean": 1.7445686233974893,
    "inception_score_std": 0.13588049250229023,
    "fid_per_class": {
        "airplane": 1290.4784418962324,
        "automobile": 1251.1111086876926,
        "bird": 1425.860956843154,
        "cat": 1137.2290321171608,
        "deer": 1572.4282633391172,
        "dog": 1341.2028651626288,
        "frog": 1763.0525643452547,
        "horse": 1458.3104233593463,
        "ship": 1059.0066434734938,
        "truck": 1167.19761408479
    },
    "fid": 1001.4506980024624,
    "wasserstein_distance": null,
    "g_loss": null,
    "g_cost": null,
    "d_loss_real": null,
    "d_loss_fake": null
}