{
    "epoch": 154,
    "avg_current_window": 1093.5294070869581,
    "avg_prior_window": 1106.1278457177298,
    "inception_score_mean": 1.7798425976333676,
    "inception_score_std": 0.1268888949293438,
    "fid_per_class": {
        "airplane": 1112.6216121331927,
        "automobile": 1264.9666926740265,
        "bird": 1352.9544536526887,
        "cat": 1120.0592627744059,
        "deer": 1492.3047687996077,
        "dog": 1291.2759824538011,
        "frog": 1647.9547965732534,
        "horse": 1327.9767711776149,
        "ship": 1013.5894099478301,
        "truck": 1151.7478467983742
    },
    "fid": 905.4985382043242,
    "wasserstein_distance": null,
    "g_loss": null,
    "g_cost": null,
    "d_loss_real": null,
    "d_loss_fake": null
}