{
    "epoch": 131,
    "avg_current_window": 1133.9984014181061,
    "avg_prior_window": 1151.5707563841913,
    "inception_score_mean": 1.8774777519165038,
    "inception_score_std": 0.1644057693652746,
    "fid_per_class": {
        "airplane": 1108.1052563511134,
        "automobile": 1152.5404899698285,
        "bird": 1301.6451334072608,
        "cat": 964.5647148578629,
        "deer": 1474.5990765127074,
        "dog": 1166.9167516126852,
        "frog": 1592.2420538118367,
        "horse": 1287.1480092192546,
        "ship": 1051.5672346024035,
        "truck": 1097.4258222054018
    },
    "fid": 839.8999217268959,
    "wasserstein_distance": null,
    "g_loss": null,
    "g_cost": null,
    "d_loss_real": null,
    "d_loss_fake": null
}