{
    "epoch": 155,
    "avg_current_window": 1092.3163047070702,
    "avg_prior_window": 1104.9809115896574,
    "inception_score_mean": 1.8658018700227417,
    "inception_score_std": 0.1328544966308615,
    "fid_per_class": {
        "airplane": 1126.8995183553434,
        "automobile": 1276.8071742868901,
        "bird": 1327.5252553700802,
        "cat": 1059.7510776956644,
        "deer": 1327.8225178167154,
        "dog": 1140.1982987235638,
        "frog": 1580.337353489821,
        "horse": 1262.5536248605388,
        "ship": 1004.2896933172474,
        "truck": 1171.0278387181777
    },
    "fid": 840.7583125255171,
    "wasserstein_distance": null,
    "g_loss": null,
    "g_cost": null,
    "d_loss_real": null,
    "d_loss_fake": null
}