{
    "epoch": 146,
    "avg_current_window": 1105.2179640580825,
    "avg_prior_window": 1119.276318204375,
    "inception_score_mean": 1.8517045208219964,
    "inception_score_std": 0.11996922817280463,
    "fid_per_class": {
        "airplane": 1066.6675402376477,
        "automobile": 1071.7837701100118,
        "bird": 1250.1978614678487,
        "cat": 991.2930919210687,
        "deer": 1291.589376559304,
        "dog": 1203.2384448702405,
        "frog": 1557.95827994617,
        "horse": 1218.483612204,
        "ship": 923.4274649451643,
        "truck": 1006.0480963815824
    },
    "fid": 782.6685778562849,
    "wasserstein_distance": null,
    "g_loss": null,
    "g_cost": null,
    "d_loss_real": null,
    "d_loss_fake": null
}