{
    "epoch": 183,
    "avg_current_window": 1058.8896466705892,
    "avg_prior_window": 1070.6913510275258,
    "inception_score_mean": 1.8332649714877385,
    "inception_score_std": 0.19593741589691904,
    "fid_per_class": {
        "airplane": 1078.1381556212286,
        "automobile": 1176.9294705510622,
        "bird": 1264.0321342645684,
        "cat": 1033.655813548639,
        "deer": 1337.3424096226022,
        "dog": 1164.1338430471847,
        "frog": 1603.2201538879856,
        "horse": 1240.4000358604712,
        "ship": 893.0992460908103,
        "truck": 1076.6396764599313
    },
    "fid": 797.0667363262837,
    "wasserstein_distance": null,
    "g_loss": null,
    "g_cost": null,
    "d_loss_real": null,
    "d_loss_fake": null
}