{
    "epoch": 5,
    "avg_current_window": 1402.6112110594045,
    "avg_prior_window": 2016.1502094941202,
    "inception_score_mean": 1.2657685144343036,
    "inception_score_std": 0.15560995700004723,
    "fid_per_class": {
        "airplane": 1893.5519979061246,
        "automobile": 1821.1517243948551,
        "bird": 1992.6066331114332,
        "cat": 1915.6791694448916,
        "deer": 1869.9565994465115,
        "dog": 1877.1471274509568,
        "frog": 2053.990503437245,
        "horse": 1835.316083407446,
        "ship": 1838.2782324034752,
        "truck": 1647.1784119938081
    },
    "fid": 1656.665845277599,
    "wasserstein_distance": null,
    "g_loss": null,
    "g_cost": null,
    "d_loss_real": null,
    "d_loss_fake": null
}