{
    "epoch": 31,
    "avg_current_window": 1772.8930329536126,
    "avg_prior_window": 1938.145542031259,
    "inception_score_mean": 1.363088470859632,
    "inception_score_std": 0.07213689497004926,
    "fid_per_class": {
        "airplane": 1422.7327201990913,
        "automobile": 1384.12645766186,
        "bird": 1669.1828402119806,
        "cat": 1404.9966573290435,
        "deer": 1668.8556200377602,
        "dog": 1776.9181074407147,
        "frog": 2066.6211049596695,
        "horse": 1663.030379491316,
        "ship": 1343.2694799664905,
        "truck": 1295.5774515304852
    },
    "fid": 1295.9202681463278,
    "wasserstein_distance": null,
    "g_loss": null,
    "g_cost": null,
    "d_loss_real": null,
    "d_loss_fake": null
}