{
    "epoch": 20,
    "avg_current_window": 1953.3046322139264,
    "avg_prior_window": 1925.3017842652746,
    "inception_score_mean": 1.000000006880193,
    "inception_score_std": 7.3775836432901594e-09,
    "fid_per_class": {
        "airplane": 2328.6779239111875,
        "automobile": 2514.799148954265,
        "bird": 2619.5367878108796,
        "cat": 2651.792771833858,
        "deer": 3057.1256212995077,
        "dog": 2662.174207740271,
        "frog": 2877.2465278059863,
        "horse": 2728.249808262687,
        "ship": 2501.8488918566177,
        "truck": 2474.080192956767
    },
    "fid": 2633.998765290871,
    "wasserstein_distance": null,
    "g_loss": null,
    "g_cost": null,
    "d_loss_real": null,
    "d_loss_fake": null
}