{
    "epoch": 191,
    "avg_current_window": 1048.8652577526486,
    "avg_prior_window": 1059.1256941401846,
    "inception_score_mean": 1.8742615319377909,
    "inception_score_std": 0.19201372290029733,
    "fid_per_class": {
        "airplane": 1058.4012308829026,
        "automobile": 1163.7691958964947,
        "bird": 1342.3133416913427,
        "cat": 1062.537100430997,
        "deer": 1501.7641709605384,
        "dog": 1238.2283828515592,
        "frog": 1666.140783299194,
        "horse": 1337.2107563077457,
        "ship": 910.9787152392945,
        "truck": 1162.024521841153
    },
    "fid": 860.5537279722441,
    "wasserstein_distance": null,
    "g_loss": null,
    "g_cost": null,
    "d_loss_real": null,
    "d_loss_fake": null
}