{
    "epoch": 52,
    "avg_current_window": 1521.3714369081108,
    "avg_prior_window": 1593.0979565778878,
    "inception_score_mean": 1.7217451609651568,
    "inception_score_std": 0.13938573903411478,
    "fid_per_class": {
        "airplane": 1216.5905888867442,
        "automobile": 1295.3357526623763,
        "bird": 1484.6354145977489,
        "cat": 1126.1267198403107,
        "deer": 1530.8458609333215,
        "dog": 1355.5780259675898,
        "frog": 1709.878346826669,
        "horse": 1536.6223170554297,
        "ship": 1046.2108926702529,
        "truck": 1231.6178730135211
    },
    "fid": 1013.943937081267,
    "wasserstein_distance": null,
    "g_loss": null,
    "g_cost": null,
    "d_loss_real": null,
    "d_loss_fake": null
}