{
    "epoch": 103,
    "avg_current_window": 1209.301897488704,
    "avg_prior_window": 1235.4642314147159,
    "inception_score_mean": 1.7542299606047032,
    "inception_score_std": 0.10342802381123609,
    "fid_per_class": {
        "airplane": 1101.0885823522365,
        "automobile": 1179.669013991848,
        "bird": 1207.4843011790017,
        "cat": 969.5444629707845,
        "deer": 1333.9600329847376,
        "dog": 1023.738099841599,
        "frog": 1501.4583790526965,
        "horse": 1284.1171662589747,
        "ship": 965.2859780586225,
        "truck": 1112.0009358971047
    },
    "fid": 788.8433692639983,
    "wasserstein_distance": null,
    "g_loss": null,
    "g_cost": null,
    "d_loss_real": null,
    "d_loss_fake": null
}