{
    "epoch": 113,
    "avg_current_window": 1177.9962410855499,
    "avg_prior_window": 1200.3459859301036,
    "inception_score_mean": 1.7855597019983365,
    "inception_score_std": 0.14079313354358639,
    "fid_per_class": {
        "airplane": 1149.6848664453796,
        "automobile": 1182.6553647831452,
        "bird": 1211.6398925471767,
        "cat": 980.6953957620083,
        "deer": 1339.5665070251393,
        "dog": 1178.3645578324404,
        "frog": 1409.1042791255345,
        "horse": 1171.9422445977643,
        "ship": 974.3093249766282,
        "truck": 1174.256031549513
    },
    "fid": 803.857424943907,
    "wasserstein_distance": null,
    "g_loss": null,
    "g_cost": null,
    "d_loss_real": null,
    "d_loss_fake": null
}