{
    "epoch": 96,
    "avg_current_window": 1233.0689654375105,
    "avg_prior_window": 1263.6117836303256,
    "inception_score_mean": 1.745014492251339,
    "inception_score_std": 0.13046876926127554,
    "fid_per_class": {
        "airplane": 1115.8411220316505,
        "automobile": 1256.626874755435,
        "bird": 1381.914160459552,
        "cat": 1030.5999679142292,
        "deer": 1427.543628108911,
        "dog": 1179.9135686871693,
        "frog": 1598.2636932166406,
        "horse": 1338.065244235548,
        "ship": 1060.8118690246888,
        "truck": 1161.6684261303185
    },
    "fid": 897.5621430803308,
    "wasserstein_distance": null,
    "g_loss": null,
    "g_cost": null,
    "d_loss_real": null,
    "d_loss_fake": null
}