{
    "epoch": 37,
    "avg_current_window": 1676.3055030086898,
    "avg_prior_window": 1799.0999675954083,
    "inception_score_mean": 1.371031507195905,
    "inception_score_std": 0.11369775834860736,
    "fid_per_class": {
        "airplane": 1485.367493700012,
        "automobile": 1546.1084901462355,
        "bird": 1799.8196562833903,
        "cat": 1480.5600934644372,
        "deer": 1980.3102607523847,
        "dog": 1816.5805887021827,
        "frog": 2150.6560746738387,
        "horse": 1816.1092291807722,
        "ship": 1295.1679767095993,
        "truck": 1396.613545187526
    },
    "fid": 1415.0939120934227,
    "wasserstein_distance": null,
    "g_loss": null,
    "g_cost": null,
    "d_loss_real": null,
    "d_loss_fake": null
}