{
    "epoch": 139,
    "avg_current_window": 1117.8705171835418,
    "avg_prior_window": 1134.1534887979706,
    "inception_score_mean": 1.7292752633322686,
    "inception_score_std": 0.12134603713925024,
    "fid_per_class": {
        "airplane": 1195.4146824197046,
        "automobile": 1203.3216662177379,
        "bird": 1326.9512871832808,
        "cat": 1036.6026945719273,
        "deer": 1306.9985539401005,
        "dog": 1131.521144080435,
        "frog": 1409.3295018470258,
        "horse": 1294.152939744108,
        "ship": 1025.8199227146265,
        "truck": 1194.4517653218638
    },
    "fid": 848.848295804499,
    "wasserstein_distance": null,
    "g_loss": null,
    "g_cost": null,
    "d_loss_real": null,
    "d_loss_fake": null
}