{
    "epoch": 106,
    "avg_current_window": 1198.3260026084452,
    "avg_prior_window": 1224.6569252219324,
    "inception_score_mean": 1.75729201005699,
    "inception_score_std": 0.10023909729600859,
    "fid_per_class": {
        "airplane": 1141.6367374191964,
        "automobile": 1188.2586659937292,
        "bird": 1277.3417385895737,
        "cat": 952.0100845941043,
        "deer": 1385.650272029429,
        "dog": 1161.729270385921,
        "frog": 1478.828901198688,
        "horse": 1237.7058106887089,
        "ship": 981.582649559947,
        "truck": 1121.707743110077
    },
    "fid": 825.6870153368777,
    "wasserstein_distance": null,
    "g_loss": null,
    "g_cost": null,
    "d_loss_real": null,
    "d_loss_fake": null
}