{
    "epoch": 134,
    "avg_current_window": 1127.8226771105767,
    "avg_prior_window": 1144.7166833228252,
    "inception_score_mean": 1.9339982176963164,
    "inception_score_std": 0.1790656672173724,
    "fid_per_class": {
        "airplane": 1110.246512525749,
        "automobile": 1229.118554312768,
        "bird": 1274.4185314663691,
        "cat": 1015.3360217897225,
        "deer": 1479.3411876939197,
        "dog": 1230.4898757937779,
        "frog": 1573.7081046484561,
        "horse": 1269.802915319894,
        "ship": 1082.2397468948698,
        "truck": 1115.7786267466975
    },
    "fid": 848.3287661107734,
    "wasserstein_distance": null,
    "g_loss": null,
    "g_cost": null,
    "d_loss_real": null,
    "d_loss_fake": null
}