{
    "epoch": 195,
    "avg_current_window": 1045.333762323366,
    "avg_prior_window": 1054.3856012145047,
    "inception_score_mean": 1.8038761594771955,
    "inception_score_std": 0.1572957311401633,
    "fid_per_class": {
        "airplane": 1073.4577053097012,
        "automobile": 1241.0918922120388,
        "bird": 1277.3755087742834,
        "cat": 1119.901717027273,
        "deer": 1563.7648659547604,
        "dog": 1154.9443169106419,
        "frog": 1549.1998544754122,
        "horse": 1360.4546029766375,
        "ship": 1002.3435995300123,
        "truck": 1164.488533585938
    },
    "fid": 879.2048896758877,
    "wasserstein_distance": null,
    "g_loss": null,
    "g_cost": null,
    "d_loss_real": null,
    "d_loss_fake": null
}