{
    "epoch": 153,
    "avg_current_window": 1094.7858617731754,
    "avg_prior_window": 1107.3527024902633,
    "inception_score_mean": 1.8243017927950063,
    "inception_score_std": 0.1459812202462522,
    "fid_per_class": {
        "airplane": 996.2636959409692,
        "automobile": 1219.8656383209222,
        "bird": 1331.2715280515145,
        "cat": 1116.3692627416556,
        "deer": 1484.400279286148,
        "dog": 1418.5999603626628,
        "frog": 1697.5616582690038,
        "horse": 1456.7340242586167,
        "ship": 959.919221015979,
        "truck": 1148.8757019918476
    },
    "fid": 901.2918400957271,
    "wasserstein_distance": null,
    "g_loss": null,
    "g_cost": null,
    "d_loss_real": null,
    "d_loss_fake": null
}