{
    "epoch": 192,
    "avg_current_window": 1047.8844685350423,
    "avg_prior_window": 1057.9614112128309,
    "inception_score_mean": 1.8623928689704539,
    "inception_score_std": 0.1495901261422304,
    "fid_per_class": {
        "airplane": 1153.9508427483256,
        "automobile": 1206.7573120565955,
        "bird": 1247.8762905259964,
        "cat": 973.3257037768344,
        "deer": 1318.4960037520893,
        "dog": 1033.9191334160773,
        "frog": 1491.5439927921198,
        "horse": 1256.8657390124645,
        "ship": 969.6547508426642,
        "truck": 1146.5425262768415
    },
    "fid": 766.664472383193,
    "wasserstein_distance": null,
    "g_loss": null,
    "g_cost": null,
    "d_loss_real": null,
    "d_loss_fake": null
}