{
    "epoch": 184,
    "avg_current_window": 1057.4666960708919,
    "avg_prior_window": 1069.1899848916278,
    "inception_score_mean": 2.0266060694889805,
    "inception_score_std": 0.16233269607168094,
    "fid_per_class": {
        "airplane": 1015.7544528499747,
        "automobile": 1191.706659037736,
        "bird": 1261.5692224202407,
        "cat": 954.1475867446588,
        "deer": 1419.3919150666245,
        "dog": 1048.3561617159044,
        "frog": 1453.71677756988,
        "horse": 1161.232336016513,
        "ship": 983.2665721753681,
        "truck": 1192.2966458922456
    },
    "fid": 755.4482153278888,
    "wasserstein_distance": null,
    "g_loss": null,
    "g_cost": null,
    "d_loss_real": null,
    "d_loss_fake": null
}