{
    "epoch": 118,
    "avg_current_window": 1163.4238824010963,
    "avg_prior_window": 1185.1100236071775,
    "inception_score_mean": 1.7254003601505776,
    "inception_score_std": 0.08632067908125966,
    "fid_per_class": {
        "airplane": 1143.5417104691276,
        "automobile": 1138.0844536600846,
        "bird": 1340.3175657928364,
        "cat": 1014.7481930307088,
        "deer": 1506.4969631353008,
        "dog": 1133.5126641585966,
        "frog": 1609.276110037838,
        "horse": 1271.006503255845,
        "ship": 937.8420314740699,
        "truck": 1134.9361031116568
    },
    "fid": 845.7848530492513,
    "wasserstein_distance": null,
    "g_loss": null,
    "g_cost": null,
    "d_loss_real": null,
    "d_loss_fake": null
}