{
    "epoch": 33,
    "avg_current_window": 1744.5817867591838,
    "avg_prior_window": 1880.8116564660106,
    "inception_score_mean": 1.378527483336304,
    "inception_score_std": 0.06016763877696033,
    "fid_per_class": {
        "airplane": 1347.3453594820999,
        "automobile": 1378.0385834865779,
        "bird": 1373.1915008884275,
        "cat": 1322.466562541172,
        "deer": 1430.6507301370502,
        "dog": 1655.8765040078565,
        "frog": 1783.4690815710767,
        "horse": 1460.4000475252249,
        "ship": 1215.7162027519526,
        "truck": 1179.394856544258
    },
    "fid": 1132.591690919456,
    "wasserstein_distance": null,
    "g_loss": null,
    "g_cost": null,
    "d_loss_real": null,
    "d_loss_fake": null
}