{
    "epoch": 71,
    "avg_current_window": 1362.4089790903058,
    "avg_prior_window": 1412.2771344466028,
    "inception_score_mean": 1.69321907385884,
    "inception_score_std": 0.10359536598757375,
    "fid_per_class": {
        "airplane": 992.5230212846664,
        "automobile": 1167.8905774178675,
        "bird": 1267.459291101808,
        "cat": 1000.6469988623942,
        "deer": 1299.3314509971403,
        "dog": 1241.877746144904,
        "frog": 1487.3897371583682,
        "horse": 1266.982539657873,
        "ship": 949.4009010504018,
        "truck": 1109.9634951837647
    },
    "fid": 827.7207484239424,
    "wasserstein_distance": null,
    "g_loss": null,
    "g_cost": null,
    "d_loss_real": null,
    "d_loss_fake": null
}