{
    "epoch": 145,
    "avg_current_window": 1106.2020305664907,
    "avg_prior_window": 1121.5598383114168,
    "inception_score_mean": 1.7796995218160336,
    "inception_score_std": 0.08636559215694342,
    "fid_per_class": {
        "airplane": 1173.6170802969489,
        "automobile": 1168.8341270161782,
        "bird": 1382.6617527157127,
        "cat": 1143.13794572829,
        "deer": 1738.9981649436381,
        "dog": 1315.9508160630457,
        "frog": 1823.0574188652527,
        "horse": 1509.7875708345177,
        "ship": 982.8668817278184,
        "truck": 1146.5671670153893
    },
    "fid": 962.5283203389043,
    "wasserstein_distance": null,
    "g_loss": null,
    "g_cost": null,
    "d_loss_real": null,
    "d_loss_fake": null
}