{
    "epoch": 122,
    "avg_current_window": 1153.3461706760586,
    "avg_prior_window": 1173.3676762677724,
    "inception_score_mean": 1.8364063840393459,
    "inception_score_std": 0.16356996298575976,
    "fid_per_class": {
        "airplane": 1109.8469204687156,
        "automobile": 1226.3271500326787,
        "bird": 1268.349396389588,
        "cat": 1024.183941146564,
        "deer": 1448.485184291286,
        "dog": 1190.424448398484,
        "frog": 1566.5574341169047,
        "horse": 1170.0004706956506,
        "ship": 991.1817309612869,
        "truck": 1182.1695592169772
    },
    "fid": 828.98273986209,
    "wasserstein_distance": null,
    "g_loss": null,
    "g_cost": null,
    "d_loss_real": null,
    "d_loss_fake": null
}