{
    "epoch": 27,
    "avg_current_window": 1866.362373807879,
    "avg_prior_window": 2064.205345883265,
    "inception_score_mean": 1.183235188395239,
    "inception_score_std": 0.012328890285427906,
    "fid_per_class": {
        "airplane": 1383.0669597177912,
        "automobile": 1500.3991157854791,
        "bird": 1261.681409472092,
        "cat": 1181.6676865584568,
        "deer": 1302.3679598716658,
        "dog": 1361.5532616497908,
        "frog": 1375.5982718619052,
        "horse": 1421.8463830596522,
        "ship": 1371.703292184282,
        "truck": 1396.2902027940684
    },
    "fid": 1068.2182084710412,
    "wasserstein_distance": null,
    "g_loss": null,
    "g_cost": null,
    "d_loss_real": null,
    "d_loss_fake": null
}