{
    "epoch": 61,
    "avg_current_window": 1440.6850242483001,
    "avg_prior_window": 1501.3699894454585,
    "inception_score_mean": 1.680506953550139,
    "inception_score_std": 0.1143361972218201,
    "fid_per_class": {
        "airplane": 1097.543996908104,
        "automobile": 1198.1740210651076,
        "bird": 1281.1095456305643,
        "cat": 1047.8086328485338,
        "deer": 1442.4591733261755,
        "dog": 1264.5987497640044,
        "frog": 1451.1884145065237,
        "horse": 1377.836836361147,
        "ship": 950.7020506608716,
        "truck": 1099.3712757859478
    },
    "fid": 869.5264752512312,
    "wasserstein_distance": null,
    "g_loss": null,
    "g_cost": null,
    "d_loss_real": null,
    "d_loss_fake": null
}