{
    "epoch": 193,
    "avg_current_window": 1046.427370109385,
    "avg_prior_window": 1056.9280467745725,
    "inception_score_mean": 1.8323051999433422,
    "inception_score_std": 0.11409458606835357,
    "fid_per_class": {
        "airplane": 1061.2774289575448,
        "automobile": 1199.082788940525,
        "bird": 1401.0256205752198,
        "cat": 1153.8025191881743,
        "deer": 1654.741193559964,
        "dog": 1288.938446427048,
        "frog": 1850.0526887284163,
        "horse": 1305.264294183228,
        "ship": 987.2580255283341,
        "truck": 1164.0942546860042
    },
    "fid": 932.8646398296767,
    "wasserstein_distance": null,
    "g_loss": null,
    "g_cost": null,
    "d_loss_real": null,
    "d_loss_fake": null
}