{
    "epoch": 51,
    "avg_current_window": 1529.609176792095,
    "avg_prior_window": 1605.9598535034406,
    "inception_score_mean": 1.6580927111731918,
    "inception_score_std": 0.14782606261267,
    "fid_per_class": {
        "airplane": 1323.8004306863281,
        "automobile": 1350.6058981048034,
        "bird": 1525.4529632283159,
        "cat": 1257.8584933709476,
        "deer": 1652.636827306532,
        "dog": 1435.619624548097,
        "frog": 1809.2579466533437,
        "horse": 1581.9637273600565,
        "ship": 1072.8098166200434,
        "truck": 1275.729669159452
    },
    "fid": 1101.2467028249011,
    "wasserstein_distance": null,
    "g_loss": null,
    "g_cost": null,
    "d_loss_real": null,
    "d_loss_fake": null
}