{
    "epoch": 50,
    "avg_current_window": 1540.2605526617137,
    "avg_prior_window": 1618.053352046497,
    "inception_score_mean": 1.7341867301078036,
    "inception_score_std": 0.1421791886600223,
    "fid_per_class": {
        "airplane": 1210.8678017309553,
        "automobile": 1342.2482605866996,
        "bird": 1519.088720189286,
        "cat": 1166.8284529923033,
        "deer": 1587.0694206559447,
        "dog": 1429.6234333657467,
        "frog": 1685.939092418399,
        "horse": 1444.885472775372,
        "ship": 1028.9209853586867,
        "truck": 1215.114770637273
    },
    "fid": 997.0403833111576,
    "wasserstein_distance": null,
    "g_loss": null,
    "g_cost": null,
    "d_loss_real": null,
    "d_loss_fake": null
}