{
    "epoch": 2,
    "avg_current_window": 1008.0751047470601,
    "avg_prior_window": 2019.1502094941202,
    "inception_score_mean": 1.1985103829173764,
    "inception_score_std": 0.0881868712383132,
    "fid_per_class": {
        "airplane": 1862.9803056160254,
        "automobile": 2112.4680767211657,
        "bird": 1980.1185068867123,
        "cat": 1660.1822153893897,
        "deer": 2137.591758957567,
        "dog": 1899.5446875346686,
        "frog": 2247.496860460639,
        "horse": 1852.2889666009953,
        "ship": 1617.0627469520116,
        "truck": 1614.8859985306904
    },
    "fid": 1577.9905526455386,
    "wasserstein_distance": null,
    "g_loss": null,
    "g_cost": null,
    "d_loss_real": null,
    "d_loss_fake": null
}