{
    "epoch": 12,
    "avg_current_window": 1672.2946911924435,
    "avg_prior_window": 1742.587016202611,
    "inception_score_mean": 1.180087349704824,
    "inception_score_std": 0.08247209723972554,
    "fid_per_class": {
        "airplane": 2287.785556113623,
        "automobile": 2378.0034262778195,
        "bird": 2445.3611317868663,
        "cat": 2419.1718438527387,
        "deer": 2395.790905599323,
        "dog": 2284.448122190167,
        "frog": 2543.711787257822,
        "horse": 2225.569297223051,
        "ship": 2211.6994480502226,
        "truck": 2096.321215193875
    },
    "fid": 2139.1493387844207,
    "wasserstein_distance": null,
    "g_loss": null,
    "g_cost": null,
    "d_loss_real": null,
    "d_loss_fake": null
}