{
    "epoch": 109,
    "avg_current_window": 1189.333637435332,
    "avg_prior_window": 1213.7321583272742,
    "inception_score_mean": 1.747867251811296,
    "inception_score_std": 0.11783665948591235,
    "fid_per_class": {
        "airplane": 1118.932261200643,
        "automobile": 1143.788224531325,
        "bird": 1279.170398481545,
        "cat": 996.9996209642752,
        "deer": 1358.9944095294695,
        "dog": 1147.375808704639,
        "frog": 1544.5731247494007,
        "horse": 1296.2098411513966,
        "ship": 1011.0449052660344,
        "truck": 1100.90024217584
    },
    "fid": 828.9489402155672,
    "wasserstein_distance": null,
    "g_loss": null,
    "g_cost": null,
    "d_loss_real": null,
    "d_loss_fake": null
}