{
    "epoch": 36,
    "avg_current_window": 1689.1359149820942,
    "avg_prior_window": 1814.696912571236,
    "inception_score_mean": 1.4169645231735035,
    "inception_score_std": 0.09010390392261748,
    "fid_per_class": {
        "airplane": 1378.5653728214006,
        "automobile": 1309.9140633413815,
        "bird": 1682.2830869872273,
        "cat": 1516.820865628648,
        "deer": 1665.4908853053753,
        "dog": 1879.2435869404476,
        "frog": 1924.8427111496824,
        "horse": 1623.1492897984888,
        "ship": 1029.657787662059,
        "truck": 1161.1783350658807
    },
    "fid": 1214.4106719661252,
    "wasserstein_distance": null,
    "g_loss": null,
    "g_cost": null,
    "d_loss_real": null,
    "d_loss_fake": null
}