{
    "epoch": 81,
    "avg_current_window": 1301.1867950908304,
    "avg_prior_window": 1342.3930498631753,
    "inception_score_mean": 1.7211280602532355,
    "inception_score_std": 0.09675851663701276,
    "fid_per_class": {
        "airplane": 1123.5081606651465,
        "automobile": 1180.7894534900377,
        "bird": 1232.2915349689943,
        "cat": 940.5011267236723,
        "deer": 1342.478066045339,
        "dog": 1104.9437811558082,
        "frog": 1468.4429308690985,
        "horse": 1365.4288430755612,
        "ship": 1026.5241126729964,
        "truck": 1127.601701435504
    },
    "fid": 841.2511501599317,
    "wasserstein_distance": null,
    "g_loss": null,
    "g_cost": null,
    "d_loss_real": null,
    "d_loss_fake": null
}