{
    "epoch": 73,
    "avg_current_window": 1347.7455710640181,
    "avg_prior_window": 1396.2635329136824,
    "inception_score_mean": 1.65282632794586,
    "inception_score_std": 0.10102024763461237,
    "fid_per_class": {
        "airplane": 1120.4221765009452,
        "automobile": 1270.5062059008858,
        "bird": 1381.8900406666019,
        "cat": 1145.358566534603,
        "deer": 1485.2625304586988,
        "dog": 1281.9963367627056,
        "frog": 1624.8005473028861,
        "horse": 1429.5285026036204,
        "ship": 1070.0783648917313,
        "truck": 1177.8155151741948
    },
    "fid": 958.9685107904911,
    "wasserstein_distance": null,
    "g_loss": null,
    "g_cost": null,
    "d_loss_real": null,
    "d_loss_fake": null
}