{
    "epoch": 75,
    "avg_current_window": 1336.7123486581206,
    "avg_prior_window": 1381.8719645058818,
    "inception_score_mean": 1.70004097323704,
    "inception_score_std": 0.09592580860446284,
    "fid_per_class": {
        "airplane": 1171.1830833254921,
        "automobile": 1160.591469106748,
        "bird": 1322.4082122597397,
        "cat": 1042.1274045544765,
        "deer": 1423.3638057703956,
        "dog": 1138.790719956131,
        "frog": 1416.9575034950708,
        "horse": 1338.6181092705526,
        "ship": 996.2389715913954,
        "truck": 1152.8324846214139
    },
    "fid": 871.3679334447401,
    "wasserstein_distance": null,
    "g_loss": null,
    "g_cost": null,
    "d_loss_real": null,
    "d_loss_fake": null
}