{
    "epoch": 68,
    "avg_current_window": 1383.476824016385,
    "avg_prior_window": 1437.6039592665309,
    "inception_score_mean": 1.7035282830399783,
    "inception_score_std": 0.14324379549193683,
    "fid_per_class": {
        "airplane": 1150.8900150710224,
        "automobile": 1250.592493558257,
        "bird": 1338.46062249721,
        "cat": 1001.8440858021133,
        "deer": 1409.2112926404116,
        "dog": 1167.8494577183808,
        "frog": 1455.426774251223,
        "horse": 1252.8436801518985,
        "ship": 1068.0343980706525,
        "truck": 1200.897271571935
    },
    "fid": 869.4962050162189,
    "wasserstein_distance": null,
    "g_loss": null,
    "g_cost": null,
    "d_loss_real": null,
    "d_loss_fake": null
}