{
    "epoch": 101,
    "avg_current_window": 1216.783835061,
    "avg_prior_window": 1242.4185710945974,
    "inception_score_mean": 1.7225731046603934,
    "inception_score_std": 0.13361093478284355,
    "fid_per_class": {
        "airplane": 1110.2745832316955,
        "automobile": 1235.8425940904274,
        "bird": 1279.7047398536172,
        "cat": 939.1382319138493,
        "deer": 1293.580689170128,
        "dog": 1145.1253941520254,
        "frog": 1396.839263237564,
        "horse": 1251.9567768478576,
        "ship": 941.0343121875779,
        "truck": 1152.38898918782
    },
    "fid": 795.1821062541927,
    "wasserstein_distance": null,
    "g_loss": null,
    "g_cost": null,
    "d_loss_real": null,
    "d_loss_fake": null
}