{
    "epoch": 137,
    "avg_current_window": 1121.9552943605936,
    "avg_prior_window": 1138.289163695554,
    "inception_score_mean": 1.7521672805431983,
    "inception_score_std": 0.10488641479840462,
    "fid_per_class": {
        "airplane": 1183.8155155045713,
        "automobile": 1152.536630592227,
        "bird": 1244.9506516742888,
        "cat": 994.3287600353469,
        "deer": 1444.5696367925466,
        "dog": 1141.1800627235943,
        "frog": 1500.1163340987694,
        "horse": 1257.0046344836228,
        "ship": 1083.7919777038,
        "truck": 1116.5551778633287
    },
    "fid": 835.7288858219237,
    "wasserstein_distance": null,
    "g_loss": null,
    "g_cost": null,
    "d_loss_real": null,
    "d_loss_fake": null
}