{
    "epoch": 76,
    "avg_current_window": 1330.5893958263655,
    "avg_prior_window": 1374.0670178005023,
    "inception_score_mean": 1.6932243184313358,
    "inception_score_std": 0.13187361845408627,
    "fid_per_class": {
        "airplane": 1169.4503653982163,
        "automobile": 1265.7272188940076,
        "bird": 1312.6487278392642,
        "cat": 1032.4674297035358,
        "deer": 1393.959659363743,
        "dog": 1222.3193844194946,
        "frog": 1480.0232234447426,
        "horse": 1411.5170803342105,
        "ship": 1032.0934312353324,
        "truck": 1130.481705679666
    },
    "fid": 897.0777067975462,
    "wasserstein_distance": null,
    "g_loss": null,
    "g_cost": null,
    "d_loss_real": null,
    "d_loss_fake": null
}