{
    "epoch": 22,
    "avg_current_window": 1977.997808333687,
    "avg_prior_window": 1988.0833856658141,
    "inception_score_mean": 1.2950113713402878,
    "inception_score_std": 0.07072055957035374,
    "fid_per_class": {
        "airplane": 1986.4037761313107,
        "automobile": 1950.9748905987722,
        "bird": 2439.1482601189437,
        "cat": 2343.4535782021526,
        "deer": 2424.304837492007,
        "dog": 2278.570296188477,
        "frog": 2637.393316284555,
        "horse": 2322.450983416789,
        "ship": 2139.286950126553,
        "truck": 1650.2439556104355
    },
    "fid": 1896.5658260907198,
    "wasserstein_distance": null,
    "g_loss": null,
    "g_cost": null,
    "d_loss_real": null,
    "d_loss_fake": null
}