{
    "epoch": 197,
    "avg_current_window": 1042.8130689345312,
    "avg_prior_window": 1051.877512662038,
    "inception_score_mean": 1.91487221382268,
    "inception_score_std": 0.21061182485915808,
    "fid_per_class": {
        "airplane": 1109.6160836214567,
        "automobile": 1235.251632648737,
        "bird": 1358.874640122822,
        "cat": 1051.769742978141,
        "deer": 1609.5951383716886,
        "dog": 1120.8909551435947,
        "frog": 1521.836426714726,
        "horse": 1373.683801485618,
        "ship": 856.6859086690074,
        "truck": 1177.1717034187718
    },
    "fid": 863.7442557642713,
    "wasserstein_distance": null,
    "g_loss": null,
    "g_cost": null,
    "d_loss_real": null,
    "d_loss_fake": null
}