{
    "epoch": 150,
    "avg_current_window": 1098.7536600796116,
    "avg_prior_window": 1112.8401569136554,
    "inception_score_mean": 1.7361951490469696,
    "inception_score_std": 0.08799788199800991,
    "fid_per_class": {
        "airplane": 1162.4983017233953,
        "automobile": 1181.7598728042085,
        "bird": 1412.04968353709,
        "cat": 1115.159825409078,
        "deer": 1652.3416024712565,
        "dog": 1181.7019356157293,
        "frog": 1600.4996786212364,
        "horse": 1486.8549948511773,
        "ship": 1040.8420149074132,
        "truck": 1054.2705467116925
    },
    "fid": 934.0877265068826,
    "wasserstein_distance": null,
    "g_loss": null,
    "g_cost": null,
    "d_loss_real": null,
    "d_loss_fake": null
}