{
    "epoch": 194,
    "avg_current_window": 1045.841995211036,
    "avg_prior_window": 1055.8327792162086,
    "inception_score_mean": 1.7812769265082586,
    "inception_score_std": 0.14420330353504704,
    "fid_per_class": {
        "airplane": 1155.931581438238,
        "automobile": 1244.9356006308985,
        "bird": 1485.3038195383683,
        "cat": 1143.0553682454108,
        "deer": 1542.6110493143635,
        "dog": 1297.6884446815175,
        "frog": 1667.0181686940105,
        "horse": 1365.0800051809726,
        "ship": 909.2289578973465,
        "truck": 1189.8694511570234
    },
    "fid": 946.7365821153951,
    "wasserstein_distance": null,
    "g_loss": null,
    "g_cost": null,
    "d_loss_real": null,
    "d_loss_fake": null
}