{
    "epoch": 177,
    "avg_current_window": 1066.4554153572822,
    "avg_prior_window": 1077.0078799443486,
    "inception_score_mean": 1.7946837389825692,
    "inception_score_std": 0.14534500081029889,
    "fid_per_class": {
        "airplane": 1182.8377218264227,
        "automobile": 1285.8157030855373,
        "bird": 1442.5441070890515,
        "cat": 1132.3569019425602,
        "deer": 1529.5372559589953,
        "dog": 1290.6391126100607,
        "frog": 1714.5309252055915,
        "horse": 1349.6752463894056,
        "ship": 1029.6551910405701,
        "truck": 1256.3906167792954
    },
    "fid": 948.7823297153657,
    "wasserstein_distance": null,
    "g_loss": null,
    "g_cost": null,
    "d_loss_real": null,
    "d_loss_fake": null
}