{
    "epoch": 164,
    "avg_current_window": 1081.6896551537827,
    "avg_prior_window": 1094.130022011903,
    "inception_score_mean": 1.800805117203533,
    "inception_score_std": 0.16180787898903287,
    "fid_per_class": {
        "airplane": 1030.5891603062942,
        "automobile": 1177.1571569211803,
        "bird": 1342.074357141366,
        "cat": 1181.10899786043,
        "deer": 1392.3212982524303,
        "dog": 1368.146548419773,
        "frog": 1775.7903857823521,
        "horse": 1387.2476925522983,
        "ship": 945.7499553456882,
        "truck": 1101.9893195996287
    },
    "fid": 894.4107505057709,
    "wasserstein_distance": null,
    "g_loss": null,
    "g_cost": null,
    "d_loss_real": null,
    "d_loss_fake": null
}