{
    "epoch": 168,
    "avg_current_window": 1077.2939075677375,
    "avg_prior_window": 1088.3257880074868,
    "inception_score_mean": 1.9369109720275752,
    "inception_score_std": 0.1612668326708132,
    "fid_per_class": {
        "airplane": 1079.5987656282393,
        "automobile": 1141.7826729305575,
        "bird": 1312.0950267215471,
        "cat": 1034.3788794486302,
        "deer": 1481.5253619764885,
        "dog": 1195.844479820353,
        "frog": 1536.1963921415543,
        "horse": 1156.9524956984155,
        "ship": 954.8027734294062,
        "truck": 1159.4318851038522
    },
    "fid": 801.7914886555457,
    "wasserstein_distance": null,
    "g_loss": null,
    "g_cost": null,
    "d_loss_real": null,
    "d_loss_fake": null
}