{
    "epoch": 119,
    "avg_current_window": 1160.7546468603246,
    "avg_prior_window": 1182.3551481822115,
    "inception_score_mean": 1.804710475537124,
    "inception_score_std": 0.17645235080619387,
    "fid_per_class": {
        "airplane": 1110.238564325543,
        "automobile": 1148.301877385355,
        "bird": 1293.2635226331463,
        "cat": 1016.2148440279626,
        "deer": 1439.7977035791596,
        "dog": 1239.3311192051938,
        "frog": 1603.6741117357856,
        "horse": 1311.471337342813,
        "ship": 979.0958989006567,
        "truck": 1114.455559808471
    },
    "fid": 868.245260310171,
    "wasserstein_distance": null,
    "g_loss": null,
    "g_cost": null,
    "d_loss_real": null,
    "d_loss_fake": null
}