{
    "epoch": 16,
    "avg_current_window": 1804.970422748695,
    "avg_prior_window": 1824.3214813008474,
    "inception_score_mean": 1.1447499733419182,
    "inception_score_std": 0.03887878872709686,
    "fid_per_class": {
        "airplane": 2438.9838929846574,
        "automobile": 2585.8143350542487,
        "bird": 2666.158352016623,
        "cat": 2571.867563315024,
        "deer": 2567.880679678665,
        "dog": 2413.2282495460636,
        "frog": 2544.3262549476503,
        "horse": 2273.724985077136,
        "ship": 2375.7791181616476,
        "truck": 2286.5017699833443
    },
    "fid": 2265.4175445648434,
    "wasserstein_distance": null,
    "g_loss": null,
    "g_cost": null,
    "d_loss_real": null,
    "d_loss_fake": null
}