{
    "epoch": 35,
    "avg_current_window": 1703.0448240672747,
    "avg_prior_window": 1831.9894673853996,
    "inception_score_mean": 1.3415519372188318,
    "inception_score_std": 0.07749809212374713,
    "fid_per_class": {
        "airplane": 1457.9727473440832,
        "automobile": 1381.1139521649566,
        "bird": 1517.0346348359576,
        "cat": 1348.0854193617383,
        "deer": 1626.9891270941332,
        "dog": 1683.6245813648266,
        "frog": 1883.0698462322878,
        "horse": 1576.1358998830788,
        "ship": 1148.512260348974,
        "truck": 1151.0791151584015
    },
    "fid": 1202.3240970007778,
    "wasserstein_distance": null,
    "g_loss": null,
    "g_cost": null,
    "d_loss_real": null,
    "d_loss_fake": null
}