{
    "epoch": 144,
    "avg_current_window": 1107.3513992807175,
    "avg_prior_window": 1123.9773394555166,
    "inception_score_mean": 1.797303699408414,
    "inception_score_std": 0.12194527785910435,
    "fid_per_class": {
        "airplane": 1170.1210173519016,
        "automobile": 1215.820996580085,
        "bird": 1366.0593323032442,
        "cat": 1173.789853641802,
        "deer": 1568.6733223633942,
        "dog": 1262.119167296201,
        "frog": 1761.929130134692,
        "horse": 1381.3593464001833,
        "ship": 1027.7016586936347,
        "truck": 1177.7983949158865
    },
    "fid": 940.692935717834,
    "wasserstein_distance": null,
    "g_loss": null,
    "g_cost": null,
    "d_loss_real": null,
    "d_loss_fake": null
}