{
    "epoch": 84,
    "avg_current_window": 1285.521281816137,
    "avg_prior_window": 1323.594877456615,
    "inception_score_mean": 1.6455496343093095,
    "inception_score_std": 0.09223192495066684,
    "fid_per_class": {
        "airplane": 1167.5861174194144,
        "automobile": 1289.4350846618734,
        "bird": 1366.8359797283701,
        "cat": 1023.9954188667659,
        "deer": 1487.680828970048,
        "dog": 1181.281118649134,
        "frog": 1561.7284907428648,
        "horse": 1480.7473960176449,
        "ship": 1075.1427497689715,
        "truck": 1137.4948273725681
    },
    "fid": 939.9111499205194,
    "wasserstein_distance": null,
    "g_loss": null,
    "g_cost": null,
    "d_loss_real": null,
    "d_loss_fake": null
}