{
    "epoch": 19,
    "avg_current_window": 1917.4842649371112,
    "avg_prior_window": 1901.0284798124817,
    "inception_score_mean": 1.0000000388631936,
    "inception_score_std": 2.7965265544529815e-08,
    "fid_per_class": {
        "airplane": 2328.6645367119863,
        "automobile": 2514.9989414034144,
        "bird": 2619.610675811169,
        "cat": 2651.937866803544,
        "deer": 3057.0978460907627,
        "dog": 2662.315407660889,
        "frog": 2877.5455962988553,
        "horse": 2728.316896270156,
        "ship": 2501.3494037904597,
        "truck": 2473.94799545224
    },
    "fid": 2633.8916104734126,
    "wasserstein_distance": null,
    "g_loss": null,
    "g_cost": null,
    "d_loss_real": null,
    "d_loss_fake": null
}