{
    "epoch": 196,
    "avg_current_window": 1044.4861660343483,
    "avg_prior_window": 1053.3707746530267,
    "inception_score_mean": 1.9695757302053007,
    "inception_score_std": 0.19040518370775394,
    "fid_per_class": {
        "airplane": 1030.3465121909703,
        "automobile": 1216.1357937560201,
        "bird": 1170.8428998776876,
        "cat": 989.173707457303,
        "deer": 1332.6804984401217,
        "dog": 1121.6195256927151,
        "frog": 1352.4215449502803,
        "horse": 1102.770925455192,
        "ship": 854.9039661726665,
        "truck": 1120.2150388856317
    },
    "fid": 714.8860373703511,
    "wasserstein_distance": null,
    "g_loss": null,
    "g_cost": null,
    "d_loss_real": null,
    "d_loss_fake": null
}