{
    "epoch": 86,
    "avg_current_window": 1276.5179764888298,
    "avg_prior_window": 1311.5726117594716,
    "inception_score_mean": 1.7096998799893015,
    "inception_score_std": 0.1621430845569712,
    "fid_per_class": {
        "airplane": 1084.7244026455014,
        "automobile": 1194.8016618939582,
        "bird": 1292.33220473756,
        "cat": 1040.2118392482218,
        "deer": 1463.3858730931443,
        "dog": 1208.5244971385266,
        "frog": 1531.8068041159265,
        "horse": 1391.9397825536616,
        "ship": 1005.4309563146498,
        "truck": 1182.9238248459415
    },
    "fid": 886.87358795598,
    "wasserstein_distance": null,
    "g_loss": null,
    "g_cost": null,
    "d_loss_real": null,
    "d_loss_fake": null
}