{
    "epoch": 121,
    "avg_current_window": 1155.760544042438,
    "avg_prior_window": 1175.9238880266912,
    "inception_score_mean": 1.8355480371258086,
    "inception_score_std": 0.13711411106151117,
    "fid_per_class": {
        "airplane": 1067.9351056565815,
        "automobile": 1230.135230906059,
        "bird": 1248.2575657322673,
        "cat": 1037.1201631687527,
        "deer": 1341.8391631298516,
        "dog": 1207.176087269608,
        "frog": 1578.8896929892483,
        "horse": 1326.5384470777701,
        "ship": 996.1263938826157,
        "truck": 1140.3919797597805
    },
    "fid": 861.206993344196,
    "wasserstein_distance": null,
    "g_loss": null,
    "g_cost": null,
    "d_loss_real": null,
    "d_loss_fake": null
}