{
    "epoch": 8,
    "avg_current_window": 1524.7636391772846,
    "avg_prior_window": 1.0,
    "inception_score_mean": 1.1898661046459977,
    "inception_score_std": 0.08723242999447255,
    "fid_per_class": {
        "airplane": 2060.323610699644,
        "automobile": 2068.700073917501,
        "bird": 2009.661211470249,
        "cat": 2119.2685515164367,
        "deer": 2018.30434116498,
        "dog": 1999.8241992694739,
        "frog": 2243.6296187456314,
        "horse": 1977.1447606466159,
        "ship": 1960.927208626735,
        "truck": 1885.8054601243523
    },
    "fid": 1859.3495763357123,
    "wasserstein_distance": null,
    "g_loss": null,
    "g_cost": null,
    "d_loss_real": null,
    "d_loss_fake": null
}