{
    "epoch": 7,
    "avg_current_window": 1488.1376910139152,
    "avg_prior_window": 2.0,
    "inception_score_mean": 1.1616880522467763,
    "inception_score_std": 0.07503213289672118,
    "fid_per_class": {
        "airplane": 1921.1852190563932,
        "automobile": 1957.8722824765014,
        "bird": 1939.3993632654572,
        "cat": 1983.9721860942084,
        "deer": 2003.6083017636408,
        "dog": 1877.5779459943706,
        "frog": 2076.3993785092,
        "horse": 2004.5320287880659,
        "ship": 1907.670828487973,
        "truck": 1761.1554407512347
    },
    "fid": 1781.145276320871,
    "wasserstein_distance": null,
    "g_loss": null,
    "g_cost": null,
    "d_loss_real": null,
    "d_loss_fake": null
}