{
    "epoch": 58,
    "avg_current_window": 1452.2486819173314,
    "avg_prior_window": 1511.4397179128994,
    "inception_score_mean": 1.767112362539272,
    "inception_score_std": 0.20125503474935286,
    "fid_per_class": {
        "airplane": 1131.0249406285325,
        "automobile": 1254.7215571578222,
        "bird": 1619.5366690315177,
        "cat": 1283.426660871006,
        "deer": 1980.4679136929196,
        "dog": 1390.1526634969869,
        "frog": 2073.409127232567,
        "horse": 1429.7056039188778,
        "ship": 987.7531941629859,
        "truck": 1269.840548615225
    },
    "fid": 1052.4318881551285,
    "wasserstein_distance": null,
    "g_loss": null,
    "g_cost": null,
    "d_loss_real": null,
    "d_loss_fake": null
}