{
    "epoch": 42,
    "avg_current_window": 1595.3769442333116,
    "avg_prior_window": 1683.329285986528,
    "inception_score_mean": 1.7572288470294926,
    "inception_score_std": 0.19212541852449608,
    "fid_per_class": {
        "airplane": 1224.8635084425396,
        "automobile": 1342.2817294299703,
        "bird": 1653.9856817849231,
        "cat": 1362.8934427131999,
        "deer": 1945.3473515666224,
        "dog": 1538.6670795140897,
        "frog": 2116.7021763189064,
        "horse": 1578.0525467280731,
        "ship": 1072.0416345827039,
        "truck": 1332.9685640053535
    },
    "fid": 1097.2049054863583,
    "wasserstein_distance": null,
    "g_loss": null,
    "g_cost": null,
    "d_loss_real": null,
    "d_loss_fake": null
}