{
    "epoch": 80,
    "avg_current_window": 1322.5809386809922,
    "avg_prior_window": 1360.782092996749,
    "inception_score_mean": 1.8740277433488164,
    "inception_score_std": 0.11253565143264768,
    "fid_per_class": {
        "airplane": 1024.889679728763,
        "automobile": 1157.6216257509113,
        "bird": 1486.3306039593358,
        "cat": 1359.2293844233777,
        "deer": 1832.3226364278712,
        "dog": 1305.0952437192498,
        "frog": 2159.7391699091067,
        "horse": 1412.6154942971189,
        "ship": 1035.3912007609806,
        "truck": 1209.0762465472303
    },
    "fid": 1003.8927677451002,
    "wasserstein_distance": null,
    "g_loss": null,
    "g_cost": null,
    "d_loss_real": null,
    "d_loss_fake": null
}