{
    "epoch": 64,
    "avg_current_window": 1413.570254613905,
    "avg_prior_window": 1460.9598354709594,
    "inception_score_mean": 1.667621299539198,
    "inception_score_std": 0.14047272930504173,
    "fid_per_class": {
        "airplane": 1172.9698201156712,
        "automobile": 1283.8022636933385,
        "bird": 1603.4367717664343,
        "cat": 1426.0228058661755,
        "deer": 1756.6637162553584,
        "dog": 1399.355708646058,
        "frog": 2078.9918243279417,
        "horse": 1511.1124546422673,
        "ship": 979.0736980501308,
        "truck": 1210.3690453567951
    },
    "fid": 1081.6532712509402,
    "wasserstein_distance": null,
    "g_loss": null,
    "g_cost": null,
    "d_loss_real": null,
    "d_loss_fake": null
}