{
    "epoch": 69,
    "avg_current_window": 1381.2408684832626,
    "avg_prior_window": 1430.471086977201,
    "inception_score_mean": 1.985432943886496,
    "inception_score_std": 0.13606861691929334,
    "fid_per_class": {
        "airplane": 1019.4492798438528,
        "automobile": 1131.34258673886,
        "bird": 1435.6720221305031,
        "cat": 1293.5934086223137,
        "deer": 1675.767503930992,
        "dog": 1246.4529941526143,
        "frog": 1954.7560894197109,
        "horse": 1352.6590474363816,
        "ship": 1023.834761144818,
        "truck": 1225.5126020099474
    },
    "fid": 916.1756660259325,
    "wasserstein_distance": null,
    "g_loss": null,
    "g_cost": null,
    "d_loss_real": null,
    "d_loss_fake": null
}