{
    "epoch": 4,
    "avg_current_window": 1793.2656987313562,
    "avg_prior_window": 2262.2047958180897,
    "inception_score_mean": 1.0000007137779718,
    "inception_score_std": 2.2092176478053264e-07,
    "fid_per_class": {
        "airplane": 2163.439903104323,
        "automobile": 2426.4184853436595,
        "bird": 2622.8402401703343,
        "cat": 2863.514010020503,
        "deer": 3103.8880345206157,
        "dog": 2827.6228040505366,
        "frog": 3041.8003875769978,
        "horse": 2825.213143900967,
        "ship": 2443.017982764103,
        "truck": 2427.981935545326
    },
    "fid": 2666.5783697340275,
    "wasserstein_distance": null,
    "g_loss": null,
    "g_cost": null,
    "d_loss_real": null,
    "d_loss_fake": null
}