{
    "epoch": 90,
    "avg_current_window": 1280.362890554933,
    "avg_prior_window": 1312.1003387635196,
    "inception_score_mean": 1.8856847397534107,
    "inception_score_std": 0.09975958825711358,
    "fid_per_class": {
        "airplane": 1090.842926063728,
        "automobile": 1240.7949767893344,
        "bird": 1375.1436728575409,
        "cat": 1294.6392974347455,
        "deer": 1641.540714689963,
        "dog": 1271.158875005713,
        "frog": 1843.3668423576828,
        "horse": 1309.4098949832376,
        "ship": 968.6075904569667,
        "truck": 1181.6078218696798
    },
    "fid": 909.9714438649142,
    "wasserstein_distance": null,
    "g_loss": null,
    "g_cost": null,
    "d_loss_real": null,
    "d_loss_fake": null
}