{
    "epoch": 38,
    "avg_current_window": 1639.0311468816194,
    "avg_prior_window": 1730.8136054534941,
    "inception_score_mean": 1.6985106861181112,
    "inception_score_std": 0.14096524947126554,
    "fid_per_class": {
        "airplane": 1443.2917960322882,
        "automobile": 1416.2339353127827,
        "bird": 1811.089535384339,
        "cat": 1483.1630949527125,
        "deer": 2145.854422300976,
        "dog": 1668.0141524459343,
        "frog": 2221.493937614673,
        "horse": 1887.056099173092,
        "ship": 1215.4777608938305,
        "truck": 1432.8574328838067
    },
    "fid": 1315.263948911111,
    "wasserstein_distance": null,
    "g_loss": null,
    "g_cost": null,
    "d_loss_real": null,
    "d_loss_fake": null
}