{
    "epoch": 87,
    "avg_current_window": 1292.8632487737505,
    "avg_prior_window": 1325.523756159588,
    "inception_score_mean": 1.8890960270208292,
    "inception_score_std": 0.1243920515436242,
    "fid_per_class": {
        "airplane": 1020.9432851603765,
        "automobile": 1106.9410855317096,
        "bird": 1427.893305577898,
        "cat": 1280.6101925406715,
        "deer": 1659.294152706981,
        "dog": 1380.2131796214626,
        "frog": 2054.0016990936165,
        "horse": 1280.9150793538518,
        "ship": 989.237421858868,
        "truck": 1117.5663871869685
    },
    "fid": 921.7386985917535,
    "wasserstein_distance": null,
    "g_loss": null,
    "g_cost": null,
    "d_loss_real": null,
    "d_loss_fake": null
}