{
    "epoch": 1,
    "avg_current_window": 3.0,
    "avg_prior_window": 8.0,
    "inception_score_mean": 1.0158340710713867,
    "inception_score_std": 0.0016166962662253225,
    "fid_per_class": {
        "airplane": 2027.6285796891543,
        "automobile": 1963.515629198209,
        "bird": 2484.5040470052686,
        "cat": 2495.357735199022,
        "deer": 2698.77251291864,
        "dog": 2558.7503128617836,
        "frog": 2854.1725933737093,
        "horse": 2409.7633865514945,
        "ship": 1962.9765757224159,
        "truck": 1743.8612435556058
    },
    "fid": 2257.2047958180897,
    "wasserstein_distance": null,
    "g_loss": null,
    "g_cost": null,
    "d_loss_real": null,
    "d_loss_fake": null
}