{
    "epoch": 30,
    "avg_current_window": 1720.8921118354053,
    "avg_prior_window": 1830.9376001419264,
    "inception_score_mean": 1.6978992013203875,
    "inception_score_std": 0.16016372522325817,
    "fid_per_class": {
        "airplane": 1355.3226125211133,
        "automobile": 1412.8933998489829,
        "bird": 1897.3672363505143,
        "cat": 1724.4510706156661,
        "deer": 2145.1026051357985,
        "dog": 1782.8124972704966,
        "frog": 2394.6244990358796,
        "horse": 1726.8699457487787,
        "ship": 1251.2046211478169,
        "truck": 1394.7633765657947
    },
    "fid": 1339.670854921669,
    "wasserstein_distance": null,
    "g_loss": null,
    "g_cost": null,
    "d_loss_real": null,
    "d_loss_fake": null
}