{
    "epoch": 49,
    "avg_current_window": 1529.6536622585602,
    "avg_prior_window": 1603.0901553381,
    "inception_score_mean": 1.7023682456664766,
    "inception_score_std": 0.15274162880109313,
    "fid_per_class": {
        "airplane": 1207.2929490942424,
        "automobile": 1205.207062009918,
        "bird": 1715.4169341222193,
        "cat": 1380.450869372993,
        "deer": 1851.4499347867404,
        "dog": 1383.974815331664,
        "frog": 2291.040370765203,
        "horse": 1500.8751905120973,
        "ship": 927.8973334727816,
        "truck": 1242.0205545975705
    },
    "fid": 1084.7389949153994,
    "wasserstein_distance": null,
    "g_loss": null,
    "g_cost": null,
    "d_loss_real": null,
    "d_loss_fake": null
}