{
    "epoch": 19,
    "avg_current_window": 1837.6585267714293,
    "avg_prior_window": 2011.923575579016,
    "inception_score_mean": 1.2057868850111608,
    "inception_score_std": 0.04913821153956716,
    "fid_per_class": {
        "airplane": 1480.5743446274375,
        "automobile": 1635.539650897831,
        "bird": 2137.121232528165,
        "cat": 1997.159904882874,
        "deer": 2318.3125170885287,
        "dog": 2169.3816958846382,
        "frog": 2517.1487778037845,
        "horse": 2320.260746580575,
        "ship": 1358.2126731048288,
        "truck": 1620.5588386918039
    },
    "fid": 1673.1884794308173,
    "wasserstein_distance": null,
    "g_loss": null,
    "g_cost": null,
    "d_loss_real": null,
    "d_loss_fake": null
}