{
    "epoch": 97,
    "avg_current_window": 1253.9673014255295,
    "avg_prior_window": 1281.3816209546144,
    "inception_score_mean": 1.8849454605579439,
    "inception_score_std": 0.12550388838531695,
    "fid_per_class": {
        "airplane": 1081.3515404889486,
        "automobile": 1121.2040686486225,
        "bird": 1323.7413564077492,
        "cat": 1157.971882951993,
        "deer": 1447.2750267977253,
        "dog": 1134.9256399144763,
        "frog": 1784.1664073447682,
        "horse": 1234.294189287146,
        "ship": 990.1448254034609,
        "truck": 1051.7927070854234
    },
    "fid": 825.8009490574578,
    "wasserstein_distance": null,
    "g_loss": null,
    "g_cost": null,
    "d_loss_real": null,
    "d_loss_fake": null
}