{
    "epoch": 50,
    "avg_current_window": 1520.755368911697,
    "avg_prior_window": 1593.0540270002634,
    "inception_score_mean": 1.7266712979476684,
    "inception_score_std": 0.1189975516085103,
    "fid_per_class": {
        "airplane": 1219.5694815713732,
        "automobile": 1242.3130277741716,
        "bird": 1557.5828402285194,
        "cat": 1416.1551374885278,
        "deer": 1769.000993158229,
        "dog": 1412.2487283044343,
        "frog": 2073.075483312915,
        "horse": 1534.1624056196626,
        "ship": 1117.2603912809159,
        "truck": 1301.413996219058
    },
    "fid": 1091.903569531071,
    "wasserstein_distance": null,
    "g_loss": null,
    "g_cost": null,
    "d_loss_real": null,
    "d_loss_fake": null
}