{
    "epoch": 10,
    "avg_current_window": 1977.25112140573,
    "avg_prior_window": 2424.8521067722613,
    "inception_score_mean": 1.0716778122631516,
    "inception_score_std": 0.015826424239594395,
    "fid_per_class": {
        "airplane": 1746.9316471129305,
        "automobile": 1819.3542000974103,
        "bird": 2098.2961414799975,
        "cat": 2000.8341440086347,
        "deer": 2176.8523481942893,
        "dog": 2073.590170385416,
        "frog": 2344.729440942346,
        "horse": 2115.651674379392,
        "ship": 1784.420291398491,
        "truck": 1774.6626634504526
    },
    "fid": 1825.2750476392964,
    "wasserstein_distance": null,
    "g_loss": null,
    "g_cost": null,
    "d_loss_real": null,
    "d_loss_fake": null
}