{
    "epoch": 36,
    "avg_current_window": 1663.2296231829487,
    "avg_prior_window": 1754.7818109798277,
    "inception_score_mean": 1.781591143842844,
    "inception_score_std": 0.21375248240039757,
    "fid_per_class": {
        "airplane": 1168.832840009372,
        "automobile": 1209.3118226814631,
        "bird": 1584.1236593444137,
        "cat": 1370.7022526834494,
        "deer": 1790.5659052288406,
        "dog": 1333.7064739407706,
        "frog": 1879.8419436982072,
        "horse": 1428.7402721095443,
        "ship": 1131.2175960936406,
        "truck": 1272.6022296923536
    },
    "fid": 1063.605291124626,
    "wasserstein_distance": null,
    "g_loss": null,
    "g_cost": null,
    "d_loss_real": null,
    "d_loss_fake": null
}