{
    "epoch": 59,
    "avg_current_window": 1445.4721260908534,
    "avg_prior_window": 1503.4660438140525,
    "inception_score_mean": 1.8880070338281059,
    "inception_score_std": 0.11983016398972321,
    "fid_per_class": {
        "airplane": 1131.477157007937,
        "automobile": 1224.047367342792,
        "bird": 1487.7790780243786,
        "cat": 1153.1632487633935,
        "deer": 1688.5617933362682,
        "dog": 1159.026718932852,
        "frog": 1814.3652350785985,
        "horse": 1223.5415520817555,
        "ship": 1092.9797690797116,
        "truck": 1234.1236795342556
    },
    "fid": 913.7748534262468,
    "wasserstein_distance": null,
    "g_loss": null,
    "g_cost": null,
    "d_loss_real": null,
    "d_loss_fake": null
}