{
    "epoch": 28,
    "avg_current_window": 1740.9312128348163,
    "avg_prior_window": 1860.7765248123762,
    "inception_score_mean": 1.652632588695625,
    "inception_score_std": 0.15779515251123236,
    "fid_per_class": {
        "airplane": 1267.9539994038382,
        "automobile": 1572.7802062919063,
        "bird": 1755.1607824137473,
        "cat": 1914.2028760702722,
        "deer": 2104.582382300287,
        "dog": 1462.1746916611323,
        "frog": 2381.910840074362,
        "horse": 1894.1829273025646,
        "ship": 1262.6372898395748,
        "truck": 1472.9273781751265
    },
    "fid": 1350.8174267724958,
    "wasserstein_distance": null,
    "g_loss": null,
    "g_cost": null,
    "d_loss_real": null,
    "d_loss_fake": null
}