{
    "epoch": 33,
    "avg_current_window": 1689.745439644523,
    "avg_prior_window": 1789.1746923624055,
    "inception_score_mean": 1.604089097739368,
    "inception_score_std": 0.09453961833733011,
    "fid_per_class": {
        "airplane": 1269.7837446394024,
        "automobile": 1376.3997840035381,
        "bird": 1897.8798910205908,
        "cat": 1653.6696342295659,
        "deer": 2067.746654540426,
        "dog": 1778.9976413997647,
        "frog": 2547.0959602352664,
        "horse": 1730.067710489917,
        "ship": 1284.9576975031337,
        "truck": 1323.4016512313856
    },
    "fid": 1355.2494716960448,
    "wasserstein_distance": null,
    "g_loss": null,
    "g_cost": null,
    "d_loss_real": null,
    "d_loss_fake": null
}