{
    "epoch": 91,
    "avg_current_window": 1276.2926548770208,
    "avg_prior_window": 1307.896542364143,
    "inception_score_mean": 1.977326568070326,
    "inception_score_std": 0.18188982674498336,
    "fid_per_class": {
        "airplane": 1053.8155615125308,
        "automobile": 1228.5252484621633,
        "bird": 1324.6215733985375,
        "cat": 1180.9424729151347,
        "deer": 1584.0979722914203,
        "dog": 1181.980813918996,
        "frog": 1934.4163386573264,
        "horse": 1268.396930282247,
        "ship": 903.1017143701879,
        "truck": 1118.719888235803
    },
    "fid": 859.1149914667742,
    "wasserstein_distance": null,
    "g_loss": null,
    "g_cost": null,
    "d_loss_real": null,
    "d_loss_fake": null
}