{
    "epoch": 18,
    "avg_current_window": 1845.7596161201893,
    "avg_prior_window": 2037.6843347080192,
    "inception_score_mean": 1.1872432757592075,
    "inception_score_std": 0.07255879496584942,
    "fid_per_class": {
        "airplane": 1609.587151419978,
        "automobile": 1675.9283509569225,
        "bird": 2129.6581186934686,
        "cat": 2121.3338619313,
        "deer": 2251.683016623376,
        "dog": 2054.9038049309393,
        "frog": 2359.621257888951,
        "horse": 2108.676341646701,
        "ship": 1551.219764745737,
        "truck": 1564.3159193154022
    },
    "fid": 1691.8389184937498,
    "wasserstein_distance": null,
    "g_loss": null,
    "g_cost": null,
    "d_loss_real": null,
    "d_loss_fake": null
}