{
    "epoch": 76,
    "avg_current_window": 1342.8770654573182,
    "avg_prior_window": 1382.9180442319307,
    "inception_score_mean": 1.9815896328616098,
    "inception_score_std": 0.15091652470641417,
    "fid_per_class": {
        "airplane": 1022.3235043778923,
        "automobile": 1163.9696313901302,
        "bird": 1468.8447853492758,
        "cat": 1274.7183443501822,
        "deer": 1638.8849052705605,
        "dog": 1269.0284426882574,
        "frog": 1885.2334096808192,
        "horse": 1309.3773548218714,
        "ship": 1079.5840567005393,
        "truck": 1110.9480022626103
    },
    "fid": 917.097463568136,
    "wasserstein_distance": null,
    "g_loss": null,
    "g_cost": null,
    "d_loss_real": null,
    "d_loss_fake": null
}