{
    "epoch": 47,
    "avg_current_window": 1547.9100245122731,
    "avg_prior_window": 1621.5008705544155,
    "inception_score_mean": 1.741193174186615,
    "inception_score_std": 0.08912909004322073,
    "fid_per_class": {
        "airplane": 1157.1014086257617,
        "automobile": 1218.231841601607,
        "bird": 1684.8199267797067,
        "cat": 1338.7774639472298,
        "deer": 1966.0934378711554,
        "dog": 1486.2895260460405,
        "frog": 2400.846662710738,
        "horse": 1416.9098967497516,
        "ship": 988.290623160198,
        "truck": 1252.8560871929917
    },
    "fid": 1104.5112095683312,
    "wasserstein_distance": null,
    "g_loss": null,
    "g_cost": null,
    "d_loss_real": null,
    "d_loss_fake": null
}