{
    "epoch": 88,
    "avg_current_window": 1288.6459243398642,
    "avg_prior_window": 1321.026054084161,
    "inception_score_mean": 1.8605952212972503,
    "inception_score_std": 0.19808102622766377,
    "fid_per_class": {
        "airplane": 1016.2386103040116,
        "automobile": 1217.2730097154413,
        "bird": 1463.8510467308215,
        "cat": 1198.70858918952,
        "deer": 1641.5168098942893,
        "dog": 1239.5220736796532,
        "frog": 1857.34273455803,
        "horse": 1285.2649938091686,
        "ship": 975.0598187284488,
        "truck": 1188.7570483950738
    },
    "fid": 905.6268755915115,
    "wasserstein_distance": null,
    "g_loss": null,
    "g_cost": null,
    "d_loss_real": null,
    "d_loss_fake": null
}