{
    "epoch": 35,
    "avg_current_window": 1671.06837016054,
    "avg_prior_window": 1765.547806999461,
    "inception_score_mean": 1.6283294941049913,
    "inception_score_std": 0.1467121862899964,
    "fid_per_class": {
        "airplane": 1367.3582458696142,
        "automobile": 1399.813365385583,
        "bird": 1842.2191922541258,
        "cat": 1694.6341416344835,
        "deer": 2023.727277979882,
        "dog": 1726.432946634989,
        "frog": 2328.9120788107975,
        "horse": 1816.4700105305897,
        "ship": 1389.0431876540922,
        "truck": 1347.2957537046523
    },
    "fid": 1388.8734789672444,
    "wasserstein_distance": null,
    "g_loss": null,
    "g_cost": null,
    "d_loss_real": null,
    "d_loss_fake": null
}