{
    "epoch": 27,
    "avg_current_window": 1753.538443353715,
    "avg_prior_window": 1878.932047407636,
    "inception_score_mean": 1.4226767148860264,
    "inception_score_std": 0.11264627450617719,
    "fid_per_class": {
        "airplane": 1342.4169486914539,
        "automobile": 1442.5368821893842,
        "bird": 1774.726217235785,
        "cat": 1615.4783190814478,
        "deer": 2176.9694271632325,
        "dog": 1745.6129216829697,
        "frog": 2445.093028007441,
        "horse": 1810.3684772730549,
        "ship": 1327.1781833510004,
        "truck": 1414.7026641960426
    },
    "fid": 1400.535988824559,
    "wasserstein_distance": null,
    "g_loss": null,
    "g_cost": null,
    "d_loss_real": null,
    "d_loss_fake": null
}