{
    "epoch": 65,
    "avg_current_window": 1408.463839485244,
    "avg_prior_window": 1454.2011824116755,
    "inception_score_mean": 1.9260098023197585,
    "inception_score_std": 0.10144354883510211,
    "fid_per_class": {
        "airplane": 1058.3668449175568,
        "automobile": 1189.8588566942713,
        "bird": 1386.4794214941871,
        "cat": 1253.568881544838,
        "deer": 1621.8504550270334,
        "dog": 1229.6498954202625,
        "frog": 1945.0157113674836,
        "horse": 1361.1966408726682,
        "ship": 1014.3157473783968,
        "truck": 1306.1965691004252
    },
    "fid": 924.6771694456588,
    "wasserstein_distance": null,
    "g_loss": null,
    "g_cost": null,
    "d_loss_real": null,
    "d_loss_fake": null
}