{
    "epoch": 94,
    "avg_current_window": 1264.1313887128788,
    "avg_prior_window": 1294.7489904488089,
    "inception_score_mean": 1.7345403976625637,
    "inception_score_std": 0.09216022791804508,
    "fid_per_class": {
        "airplane": 1124.406622284515,
        "automobile": 1246.7727968339736,
        "bird": 1484.8742502431633,
        "cat": 1310.9209781798372,
        "deer": 1694.1092671954345,
        "dog": 1306.273883287006,
        "frog": 1954.7123499179488,
        "horse": 1411.6800531848498,
        "ship": 973.2906098804993,
        "truck": 1219.215855824227
    },
    "fid": 986.4002628399028,
    "wasserstein_distance": null,
    "g_loss": null,
    "g_cost": null,
    "d_loss_real": null,
    "d_loss_fake": null
}