{
    "epoch": 83,
    "avg_current_window": 1309.5535904227254,
    "avg_prior_window": 1345.0079927229388,
    "inception_score_mean": 1.9040420872146668,
    "inception_score_std": 0.14767154142207237,
    "fid_per_class": {
        "airplane": 1064.4312104314454,
        "automobile": 1267.247517593014,
        "bird": 1457.6424522408695,
        "cat": 1235.0391293440475,
        "deer": 1696.4563667476998,
        "dog": 1329.4247007272058,
        "frog": 1887.6509244038352,
        "horse": 1309.1661624538308,
        "ship": 983.4120762950556,
        "truck": 1254.8883985891564
    },
    "fid": 952.2144838991456,
    "wasserstein_distance": null,
    "g_loss": null,
    "g_cost": null,
    "d_loss_real": null,
    "d_loss_fake": null
}