{
    "epoch": 14,
    "avg_current_window": 1892.1354536574465,
    "avg_prior_window": 2196.945690450811,
    "inception_score_mean": 1.172413798631984,
    "inception_score_std": 0.0480436393589492,
    "fid_per_class": {
        "airplane": 1744.2364879962925,
        "automobile": 1639.3002725603458,
        "bird": 2068.9776711838604,
        "cat": 1866.62054488582,
        "deer": 2311.478039542094,
        "dog": 2008.6816536118013,
        "frog": 2570.737187575823,
        "horse": 1965.5990729415312,
        "ship": 1520.9478758641296,
        "truck": 1574.5742882308136
    },
    "fid": 1677.0337069019727,
    "wasserstein_distance": null,
    "g_loss": null,
    "g_cost": null,
    "d_loss_real": null,
    "d_loss_fake": null
}