{
    "epoch": 86,
    "avg_current_window": 1296.8433580802227,
    "avg_prior_window": 1330.3828833584953,
    "inception_score_mean": 1.8864979964944228,
    "inception_score_std": 0.17590682436327304,
    "fid_per_class": {
        "airplane": 1035.8659280282204,
        "automobile": 1204.7944951035997,
        "bird": 1451.9899307855064,
        "cat": 1311.0153109666192,
        "deer": 1700.310415083673,
        "dog": 1295.1025209210195,
        "frog": 2014.0544020688633,
        "horse": 1364.4785837772918,
        "ship": 973.7684106710847,
        "truck": 1199.9362347412168
    },
    "fid": 950.5738484171245,
    "wasserstein_distance": null,
    "g_loss": null,
    "g_cost": null,
    "d_loss_real": null,
    "d_loss_fake": null
}