{
    "epoch": 16,
    "avg_current_window": 1864.3202890392995,
    "avg_prior_window": 2100.135557730806,
    "inception_score_mean": 1.1670103850579667,
    "inception_score_std": 0.04939772535176346,
    "fid_per_class": {
        "airplane": 1620.9856792389885,
        "automobile": 1664.502116114426,
        "bird": 1951.4663986736932,
        "cat": 1742.985137381324,
        "deer": 2221.7284491784485,
        "dog": 1822.8614938859089,
        "frog": 2361.9571803048757,
        "horse": 1990.6615471190248,
        "ship": 1669.4172772410602,
        "truck": 1564.355624116376
    },
    "fid": 1618.9564491827316,
    "wasserstein_distance": null,
    "g_loss": null,
    "g_cost": null,
    "d_loss_real": null,
    "d_loss_fake": null
}