{
    "epoch": 51,
    "avg_current_window": 1512.3465101003123,
    "avg_prior_window": 1581.5602424364529,
    "inception_score_mean": 1.8043878921957237,
    "inception_score_std": 0.10860065313709295,
    "fid_per_class": {
        "airplane": 1215.2552277905475,
        "automobile": 1234.8110452093595,
        "bird": 1566.6143413032244,
        "cat": 1285.9205109588213,
        "deer": 1806.785818369381,
        "dog": 1273.7102007915773,
        "frog": 1973.6786535361198,
        "horse": 1479.4849181703403,
        "ship": 1125.402618813306,
        "truck": 1298.5733189891675
    },
    "fid": 1035.5759097594023,
    "wasserstein_distance": null,
    "g_loss": null,
    "g_cost": null,
    "d_loss_real": null,
    "d_loss_fake": null
}