{
    "epoch": 79,
    "avg_current_window": 1327.9825750935345,
    "avg_prior_window": 1366.505680010376,
    "inception_score_mean": 1.9889580652878827,
    "inception_score_std": 0.24245716427071118,
    "fid_per_class": {
        "airplane": 1022.95872922746,
        "automobile": 1168.3357119693023,
        "bird": 1428.5267844274053,
        "cat": 1260.733467753841,
        "deer": 1645.3477730081606,
        "dog": 1222.4267286992078,
        "frog": 1932.0661287404919,
        "horse": 1266.407216951595,
        "ship": 1017.794916017993,
        "truck": 1096.1258442947174
    },
    "fid": 895.8516620901459,
    "wasserstein_distance": null,
    "g_loss": null,
    "g_cost": null,
    "d_loss_real": null,
    "d_loss_fake": null
}