{
    "epoch": 81,
    "avg_current_window": 1318.6465168175862,
    "avg_prior_window": 1354.9441373463724,
    "inception_score_mean": 1.8570521942306086,
    "inception_score_std": 0.11723791110933302,
    "fid_per_class": {
        "airplane": 996.0908357107176,
        "automobile": 1183.3071094048241,
        "bird": 1456.21117514582,
        "cat": 1307.4092054054613,
        "deer": 1751.8948345437109,
        "dog": 1338.8093138980391,
        "frog": 2072.0371149857374,
        "horse": 1356.9982382176775,
        "ship": 948.3579832302077,
        "truck": 1154.847334369659
    },
    "fid": 950.645689813645,
    "wasserstein_distance": null,
    "g_loss": null,
    "g_cost": null,
    "d_loss_real": null,
    "d_loss_fake": null
}