{
    "epoch": 74,
    "avg_current_window": 1353.4214159965836,
    "avg_prior_window": 1394.518776686537,
    "inception_score_mean": 1.8467615892831049,
    "inception_score_std": 0.09783797082270951,
    "fid_per_class": {
        "airplane": 1036.2377904003547,
        "automobile": 1188.3392718078371,
        "bird": 1527.500687976991,
        "cat": 1352.8910285993647,
        "deer": 1676.102788149062,
        "dog": 1337.7070199806783,
        "frog": 1959.9962055545047,
        "horse": 1379.8153046862985,
        "ship": 1010.8932347635038,
        "truck": 1183.7423725942372
    },
    "fid": 968.2355370206283,
    "wasserstein_distance": null,
    "g_loss": null,
    "g_cost": null,
    "d_loss_real": null,
    "d_loss_fake": null
}