{
    "epoch": 50,
    "avg_current_window": 1360.5586317755885,
    "avg_prior_window": 1416.7025188608143,
    "inception_score_mean": 1.6925380530379595,
    "inception_score_std": 0.12610239041262294,
    "fid_per_class": {
        "airplane": 1167.51837810396,
        "automobile": 1361.0759400183315,
        "bird": 1315.2611250592063,
        "cat": 1314.8647225296122,
        "deer": 1473.6691078468307,
        "dog": 1280.718604669811,
        "frog": 1884.5629060462238,
        "horse": 1547.22050691524,
        "ship": 1086.5152062368682,
        "truck": 1282.4313701560861
    },
    "fid": 1013.2909747694814,
    "wasserstein_distance": null,
    "g_loss": null,
    "g_cost": null,
    "d_loss_real": null,
    "d_loss_fake": null
}