{
    "epoch": 40,
    "avg_current_window": 1429.7731558174307,
    "avg_prior_window": 1507.0663673341583,
    "inception_score_mean": 1.5477408697120876,
    "inception_score_std": 0.0546394439680783,
    "fid_per_class": {
        "airplane": 1182.8125427014634,
        "automobile": 1292.568926117798,
        "bird": 1466.4139007118954,
        "cat": 1360.3519714014176,
        "deer": 1468.513011481008,
        "dog": 1289.9313895833727,
        "frog": 1902.6065883683302,
        "horse": 1424.7709225423125,
        "ship": 1120.7484487650909,
        "truck": 1150.8070124717315
    },
    "fid": 1041.7955087251187,
    "wasserstein_distance": null,
    "g_loss": null,
    "g_cost": null,
    "d_loss_real": null,
    "d_loss_fake": null
}