{
    "epoch": 91,
    "avg_current_window": 1179.993760531556,
    "avg_prior_window": 1204.3689512140775,
    "inception_score_mean": 1.7724649529822751,
    "inception_score_std": 0.10070839806466324,
    "fid_per_class": {
        "airplane": 1112.9689026656172,
        "automobile": 1241.239992715178,
        "bird": 1336.1984951029747,
        "cat": 1093.6481141865906,
        "deer": 1396.869450232188,
        "dog": 1164.97741962352,
        "frog": 1689.3500189110875,
        "horse": 1333.3071370485795,
        "ship": 965.9145830574633,
        "truck": 1186.5195952257998
    },
    "fid": 870.5526387747791,
    "wasserstein_distance": null,
    "g_loss": null,
    "g_cost": null,
    "d_loss_real": null,
    "d_loss_fake": null
}