{
    "epoch": 71,
    "avg_current_window": 1247.5225131351804,
    "avg_prior_window": 1284.0755689379985,
    "inception_score_mean": 1.6544862453685654,
    "inception_score_std": 0.08570698475425516,
    "fid_per_class": {
        "airplane": 1178.2610469489096,
        "automobile": 1287.9547272353923,
        "bird": 1429.8697107324738,
        "cat": 1230.6366969398225,
        "deer": 1515.9076118222563,
        "dog": 1265.343377973782,
        "frog": 1695.6770926353943,
        "horse": 1439.505695363768,
        "ship": 1013.6684339379849,
        "truck": 1224.4370754704064
    },
    "fid": 967.0807396665977,
    "wasserstein_distance": null,
    "g_loss": null,
    "g_cost": null,
    "d_loss_real": null,
    "d_loss_fake": null
}