{
    "epoch": 66,
    "avg_current_window": 1269.9121614599833,
    "avg_prior_window": 1311.9396348337793,
    "inception_score_mean": 1.722681032185897,
    "inception_score_std": 0.12258065328648077,
    "fid_per_class": {
        "airplane": 1180.1037260435576,
        "automobile": 1255.101393045913,
        "bird": 1447.8744739965234,
        "cat": 1234.6778556392883,
        "deer": 1443.7585749971513,
        "dog": 1235.6315696523577,
        "frog": 1634.63479208558,
        "horse": 1401.767642645811,
        "ship": 989.9536615602354,
        "truck": 1220.416506071815
    },
    "fid": 934.7848935490001,
    "wasserstein_distance": null,
    "g_loss": null,
    "g_cost": null,
    "d_loss_real": null,
    "d_loss_fake": null
}