{
    "epoch": 100,
    "avg_current_window": 1155.1101283961975,
    "avg_prior_window": 1176.9439429721447,
    "inception_score_mean": 1.7820695071846466,
    "inception_score_std": 0.1295434062877916,
    "fid_per_class": {
        "airplane": 1102.6430271314262,
        "automobile": 1233.724000349584,
        "bird": 1332.6204750346142,
        "cat": 1114.8199481490476,
        "deer": 1339.0674686049613,
        "dog": 1193.921297130421,
        "frog": 1681.7375856003746,
        "horse": 1295.3418025629383,
        "ship": 984.0410633523398,
        "truck": 1199.3014822007192
    },
    "fid": 892.2156522009059,
    "wasserstein_distance": null,
    "g_loss": null,
    "g_cost": null,
    "d_loss_real": null,
    "d_loss_fake": null
}