{
    "epoch": 126,
    "avg_current_window": 1104.7296957522144,
    "avg_prior_window": 1120.3197560418841,
    "inception_score_mean": 1.811452146620659,
    "inception_score_std": 0.16114972518205686,
    "fid_per_class": {
        "airplane": 1124.0040802781546,
        "automobile": 1227.4639267859463,
        "bird": 1394.1750377721564,
        "cat": 1186.7377259373102,
        "deer": 1352.3048837285558,
        "dog": 1256.69517818545,
        "frog": 1668.4636360108298,
        "horse": 1394.6476284865357,
        "ship": 967.4530649042686,
        "truck": 1157.2646286418708
    },
    "fid": 901.8789758153595,
    "wasserstein_distance": null,
    "g_loss": null,
    "g_cost": null,
    "d_loss_real": null,
    "d_loss_fake": null
}