{
    "epoch": 187,
    "avg_current_window": 1027.5504458287926,
    "avg_prior_window": 1036.888964954125,
    "inception_score_mean": 1.862790452332646,
    "inception_score_std": 0.174300392515652,
    "fid_per_class": {
        "airplane": 1072.3139922426385,
        "automobile": 1289.1489479208872,
        "bird": 1320.7110080672273,
        "cat": 1045.038687591223,
        "deer": 1387.7425502058104,
        "dog": 1026.4036384475107,
        "frog": 1583.02930397663,
        "horse": 1312.7380505870963,
        "ship": 953.0169553054891,
        "truck": 1189.0770708007713
    },
    "fid": 820.2928192654349,
    "wasserstein_distance": null,
    "g_loss": null,
    "g_cost": null,
    "d_loss_real": null,
    "d_loss_fake": null
}