{
    "epoch": 34,
    "avg_current_window": 1482.5829945952564,
    "avg_prior_window": 1560.7063016264274,
    "inception_score_mean": 1.4757427890414385,
    "inception_score_std": 0.10359553876436917,
    "fid_per_class": {
        "airplane": 1329.2692861097585,
        "automobile": 1405.6801630633095,
        "bird": 1765.6667952117807,
        "cat": 1464.856593228486,
        "deer": 1690.5185201698787,
        "dog": 1448.5843066766251,
        "frog": 2281.345114078432,
        "horse": 1638.5285805562635,
        "ship": 1210.5519872390369,
        "truck": 1273.8220633079588
    },
    "fid": 1227.2539013838382,
    "wasserstein_distance": null,
    "g_loss": null,
    "g_cost": null,
    "d_loss_real": null,
    "d_loss_fake": null
}