{
    "epoch": 158,
    "avg_current_window": 1058.4283970246452,
    "avg_prior_window": 1071.379742155121,
    "inception_score_mean": 1.9356434833085292,
    "inception_score_std": 0.14876487420782686,
    "fid_per_class": {
        "airplane": 1013.5854661682856,
        "automobile": 1158.6119582527356,
        "bird": 1328.2353833256198,
        "cat": 1087.9979371268769,
        "deer": 1325.5981633876977,
        "dog": 1122.5471151789288,
        "frog": 1318.024351766323,
        "horse": 1261.400495096152,
        "ship": 925.4768116766061,
        "truck": 1120.6220714087408
    },
    "fid": 778.1099652394893,
    "wasserstein_distance": null,
    "g_loss": null,
    "g_cost": null,
    "d_loss_real": null,
    "d_loss_fake": null
}