{
    "epoch": 181,
    "avg_current_window": 1032.964922977262,
    "avg_prior_window": 1042.443759665726,
    "inception_score_mean": 1.8719490947684734,
    "inception_score_std": 0.1602038495901903,
    "fid_per_class": {
        "airplane": 1074.3507730508775,
        "automobile": 1268.3246835925424,
        "bird": 1275.6337814774272,
        "cat": 1087.1498411489315,
        "deer": 1402.557790081608,
        "dog": 1108.1569724388553,
        "frog": 1338.3988862455149,
        "horse": 1250.4027977198164,
        "ship": 977.1046240001006,
        "truck": 1265.5024670742196
    },
    "fid": 814.3943665061333,
    "wasserstein_distance": null,
    "g_loss": null,
    "g_cost": null,
    "d_loss_real": null,
    "d_loss_fake": null
}