{
    "epoch": 166,
    "avg_current_window": 1048.8011088271676,
    "avg_prior_window": 1060.214208000935,
    "inception_score_mean": 1.921834746486999,
    "inception_score_std": 0.14224308076776238,
    "fid_per_class": {
        "airplane": 1055.6973145426336,
        "automobile": 1249.9325404607112,
        "bird": 1281.2408622956993,
        "cat": 1119.9026813867308,
        "deer": 1380.8090746614466,
        "dog": 1108.581163004525,
        "frog": 1466.9634576368176,
        "horse": 1185.0404690740024,
        "ship": 943.3409122961423,
        "truck": 1224.7461342057736
    },
    "fid": 809.2998958399066,
    "wasserstein_distance": null,
    "g_loss": null,
    "g_cost": null,
    "d_loss_real": null,
    "d_loss_fake": null
}