{
    "epoch": 41,
    "avg_current_window": 1420.3102863761549,
    "avg_prior_window": 1494.449754709276,
    "inception_score_mean": 1.5939748863203194,
    "inception_score_std": 0.12127886213516256,
    "fid_per_class": {
        "airplane": 1216.753250467794,
        "automobile": 1343.8030289935189,
        "bird": 1729.3949032417063,
        "cat": 1645.5534109589034,
        "deer": 1699.9311649611627,
        "dog": 1396.1726960846468,
        "frog": 2103.2074822921977,
        "horse": 1614.7575561618205,
        "ship": 1062.9585930998571,
        "truck": 1167.7977174794255
    },
    "fid": 1170.333062099428,
    "wasserstein_distance": null,
    "g_loss": null,
    "g_cost": null,
    "d_loss_real": null,
    "d_loss_fake": null
}