{
    "epoch": 157,
    "avg_current_window": 1059.8587040233278,
    "avg_prior_window": 1073.140772162457,
    "inception_score_mean": 1.849470800712033,
    "inception_score_std": 0.13561265982688778,
    "fid_per_class": {
        "airplane": 1085.4753969201995,
        "automobile": 1229.8405849512123,
        "bird": 1253.0521672996433,
        "cat": 1123.1037961549594,
        "deer": 1380.7986964791057,
        "dog": 1154.938743695758,
        "frog": 1440.6615276359755,
        "horse": 1285.8472643964383,
        "ship": 971.6352385483648,
        "truck": 1114.21848100448
    },
    "fid": 833.8701982314542,
    "wasserstein_distance": null,
    "g_loss": null,
    "g_cost": null,
    "d_loss_real": null,
    "d_loss_fake": null
}