{
    "epoch": 70,
    "avg_current_window": 1251.843472826535,
    "avg_prior_window": 1289.4492716362909,
    "inception_score_mean": 1.712031337243046,
    "inception_score_std": 0.135024627871598,
    "fid_per_class": {
        "airplane": 1197.6012698146674,
        "automobile": 1237.9682907067204,
        "bird": 1383.7179303184464,
        "cat": 1188.682593992085,
        "deer": 1491.081670077354,
        "dog": 1274.12175978168,
        "frog": 1753.6837423289014,
        "horse": 1371.9845539700032,
        "ship": 1046.5091407298025,
        "truck": 1277.7142804772175
    },
    "fid": 945.0553347403606,
    "wasserstein_distance": null,
    "g_loss": null,
    "g_cost": null,
    "d_loss_real": null,
    "d_loss_fake": null
}