{
    "epoch": 98,
    "avg_current_window": 1159.601764195613,
    "avg_prior_window": 1183.2520339065916,
    "inception_score_mean": 1.733603335780766,
    "inception_score_std": 0.11300115609048955,
    "fid_per_class": {
        "airplane": 1101.2540288579034,
        "automobile": 1220.4053823010577,
        "bird": 1276.0521545040974,
        "cat": 1143.0228288153066,
        "deer": 1383.5205503972757,
        "dog": 1148.718465920305,
        "frog": 1699.2683332434328,
        "horse": 1420.0366979894702,
        "ship": 1023.1584256464403,
        "truck": 1191.6104388193885
    },
    "fid": 896.0462342542496,
    "wasserstein_distance": null,
    "g_loss": null,
    "g_cost": null,
    "d_loss_real": null,
    "d_loss_fake": null
}