{
    "epoch": 94,
    "avg_current_window": 1170.6642463118405,
    "avg_prior_window": 1195.6844953311522,
    "inception_score_mean": 1.848251237908956,
    "inception_score_std": 0.13966908456305943,
    "fid_per_class": {
        "airplane": 1191.9515767544642,
        "automobile": 1318.848536102737,
        "bird": 1278.2259257641297,
        "cat": 1101.1588791810827,
        "deer": 1351.671972670352,
        "dog": 1181.5663291750536,
        "frog": 1596.9994011175809,
        "horse": 1381.2068662665479,
        "ship": 1061.047393981878,
        "truck": 1204.5083556806192
    },
    "fid": 895.1275913748592,
    "wasserstein_distance": null,
    "g_loss": null,
    "g_cost": null,
    "d_loss_real": null,
    "d_loss_fake": null
}