{
    "epoch": 198,
    "avg_current_window": 1017.2790298369277,
    "avg_prior_window": 1026.2496940850644,
    "inception_score_mean": 1.829394483290244,
    "inception_score_std": 0.1272985650803592,
    "fid_per_class": {
        "airplane": 1037.6306919206168,
        "automobile": 1260.8036098605305,
        "bird": 1383.3106058084031,
        "cat": 1197.8952994184644,
        "deer": 1469.895153837404,
        "dog": 1121.8143437503602,
        "frog": 1551.9973807271213,
        "horse": 1437.9219290862188,
        "ship": 949.1320624625831,
        "truck": 1187.7868722372589
    },
    "fid": 881.2317158900477,
    "wasserstein_distance": null,
    "g_loss": null,
    "g_cost": null,
    "d_loss_real": null,
    "d_loss_fake": null
}