{
    "epoch": 44,
    "avg_current_window": 1399.86207975836,
    "avg_prior_window": 1466.4340059665956,
    "inception_score_mean": 1.6605982519176312,
    "inception_score_std": 0.11819999011119584,
    "fid_per_class": {
        "airplane": 1162.1689000438666,
        "automobile": 1324.433636316215,
        "bird": 1528.4514687147212,
        "cat": 1405.8997635694154,
        "deer": 1556.3631762978264,
        "dog": 1336.8956278682717,
        "frog": 1873.8599896501826,
        "horse": 1540.1047634349352,
        "ship": 1059.7209926207017,
        "truck": 1211.3293482621457
    },
    "fid": 1066.2329689658504,
    "wasserstein_distance": null,
    "g_loss": null,
    "g_cost": null,
    "d_loss_real": null,
    "d_loss_fake": null
}