{
    "epoch": 76,
    "avg_current_window": 1227.0491851948477,
    "avg_prior_window": 1261.1433686234423,
    "inception_score_mean": 1.6763539638809992,
    "inception_score_std": 0.11174537361928676,
    "fid_per_class": {
        "airplane": 1188.403374475602,
        "automobile": 1328.9511159729225,
        "bird": 1355.2635119295094,
        "cat": 1206.9106392835224,
        "deer": 1460.5342567068112,
        "dog": 1180.2046395173911,
        "frog": 1797.7801911264926,
        "horse": 1397.940971594931,
        "ship": 979.118698573295,
        "truck": 1225.5715808094553
    },
    "fid": 953.0203301506144,
    "wasserstein_distance": null,
    "g_loss": null,
    "g_cost": null,
    "d_loss_real": null,
    "d_loss_fake": null
}