{
    "epoch": 14,
    "avg_current_window": 1762.4146091485306,
    "avg_prior_window": 1837.7201448729984,
    "inception_score_mean": 1.1308365167540868,
    "inception_score_std": 0.05531134721183592,
    "fid_per_class": {
        "airplane": 1550.938886763443,
        "automobile": 2069.608072021156,
        "bird": 2004.6278797335312,
        "cat": 1976.0364536530742,
        "deer": 1972.1028317014072,
        "dog": 1840.479412584595,
        "frog": 2136.476535071325,
        "horse": 2184.675810054189,
        "ship": 1751.5255641798426,
        "truck": 1865.591729760551
    },
    "fid": 1605.0352221585488,
    "wasserstein_distance": null,
    "g_loss": null,
    "g_cost": null,
    "d_loss_real": null,
    "d_loss_fake": null
}