{
    "epoch": 84,
    "avg_current_window": 1199.302351272451,
    "avg_prior_window": 1227.432049788812,
    "inception_score_mean": 1.720053943115063,
    "inception_score_std": 0.09212113265155596,
    "fid_per_class": {
        "airplane": 1139.6600962680243,
        "automobile": 1258.8334857004,
        "bird": 1395.6161517592184,
        "cat": 1148.9631823953814,
        "deer": 1451.3091489936903,
        "dog": 1177.3531398480327,
        "frog": 1776.9359887463936,
        "horse": 1408.2259052297857,
        "ship": 1016.3051984742972,
        "truck": 1230.4118004829966
    },
    "fid": 923.6376132120797,
    "wasserstein_distance": null,
    "g_loss": null,
    "g_cost": null,
    "d_loss_real": null,
    "d_loss_fake": null
}