{
    "epoch": 160,
    "avg_current_window": 1056.1876893597894,
    "avg_prior_window": 1068.272541278856,
    "inception_score_mean": 1.812489300987739,
    "inception_score_std": 0.13659597741547294,
    "fid_per_class": {
        "airplane": 1098.724234039537,
        "automobile": 1256.2443675025104,
        "bird": 1311.0921777531805,
        "cat": 1111.3681929160016,
        "deer": 1369.2720405837608,
        "dog": 1110.9957141896493,
        "frog": 1380.3768267125672,
        "horse": 1319.7659854881956,
        "ship": 1007.3171414402083,
        "truck": 1169.9286743931675
    },
    "fid": 847.0274094594395,
    "wasserstein_distance": null,
    "g_loss": null,
    "g_cost": null,
    "d_loss_real": null,
    "d_loss_fake": null
}