{
    "epoch": 191,
    "avg_current_window": 1023.6585512543298,
    "avg_prior_window": 1033.074910591313,
    "inception_score_mean": 1.9287535533941438,
    "inception_score_std": 0.1551075586265215,
    "fid_per_class": {
        "airplane": 1091.376889125051,
        "automobile": 1185.773844206752,
        "bird": 1352.9805283984874,
        "cat": 1123.106351074875,
        "deer": 1512.8637328000382,
        "dog": 1100.85591728584,
        "frog": 1608.873951919798,
        "horse": 1356.1483907716563,
        "ship": 1029.1604410881425,
        "truck": 1139.8893510652902
    },
    "fid": 864.9495622273018,
    "wasserstein_distance": null,
    "g_loss": null,
    "g_cost": null,
    "d_loss_real": null,
    "d_loss_fake": null
}