{
    "epoch": 123,
    "avg_current_window": 1109.4124617529487,
    "avg_prior_window": 1126.9385276923497,
    "inception_score_mean": 1.8184147306651934,
    "inception_score_std": 0.10887504583875805,
    "fid_per_class": {
        "airplane": 1104.4103157346822,
        "automobile": 1255.1462717036602,
        "bird": 1303.0956887506654,
        "cat": 1108.085742975095,
        "deer": 1364.3906726791022,
        "dog": 1110.4712681395679,
        "frog": 1616.4990261253809,
        "horse": 1272.7227629193872,
        "ship": 1045.5489591971482,
        "truck": 1125.4928271293622
    },
    "fid": 866.3352859220096,
    "wasserstein_distance": null,
    "g_loss": null,
    "g_cost": null,
    "d_loss_real": null,
    "d_loss_fake": null
}