{
    "epoch": 80,
    "avg_current_window": 1212.089149166452,
    "avg_prior_window": 1243.4098409974456,
    "inception_score_mean": 1.739290303301317,
    "inception_score_std": 0.14728622018410245,
    "fid_per_class": {
        "airplane": 1123.0730471332754,
        "automobile": 1330.2305576627361,
        "bird": 1360.7970884683173,
        "cat": 1137.7913644411162,
        "deer": 1432.8318398401495,
        "dog": 1119.293337372782,
        "frog": 1756.1856161094781,
        "horse": 1356.1180792355544,
        "ship": 927.7814729694003,
        "truck": 1173.1249115463772
    },
    "fid": 908.5920163836302,
    "wasserstein_distance": null,
    "g_loss": null,
    "g_cost": null,
    "d_loss_real": null,
    "d_loss_fake": null
}