{
    "epoch": 179,
    "avg_current_window": 1034.2857867202779,
    "avg_prior_window": 1044.7200860138885,
    "inception_score_mean": 1.7840409792303267,
    "inception_score_std": 0.13439514094175853,
    "fid_per_class": {
        "airplane": 1200.5188590877387,
        "automobile": 1338.6080278704221,
        "bird": 1339.952706486378,
        "cat": 1154.2237548379787,
        "deer": 1530.6584419448259,
        "dog": 1110.718842584196,
        "frog": 1638.94952597753,
        "horse": 1473.4446449575507,
        "ship": 1104.2216024798486,
        "truck": 1288.3512732200338
    },
    "fid": 944.0662194062911,
    "wasserstein_distance": null,
    "g_loss": null,
    "g_cost": null,
    "d_loss_real": null,
    "d_loss_fake": null
}