{
    "epoch": 46,
    "avg_current_window": 1385.904638016014,
    "avg_prior_window": 1448.8549952078483,
    "inception_score_mean": 1.6261454390635326,
    "inception_score_std": 0.07727344371524986,
    "fid_per_class": {
        "airplane": 1180.097958897864,
        "automobile": 1390.8569771767322,
        "bird": 1430.277711525126,
        "cat": 1295.2416282009683,
        "deer": 1585.610425763265,
        "dog": 1334.9841712933971,
        "frog": 1873.7305628693248,
        "horse": 1570.779459522836,
        "ship": 1128.6846442200172,
        "truck": 1220.6185728384849
    },
    "fid": 1078.849746972635,
    "wasserstein_distance": null,
    "g_loss": null,
    "g_cost": null,
    "d_loss_real": null,
    "d_loss_fake": null
}