{
    "epoch": 116,
    "avg_current_window": 1124.1648375004536,
    "avg_prior_window": 1142.2398560281306,
    "inception_score_mean": 1.8723733260297801,
    "inception_score_std": 0.14469185816426441,
    "fid_per_class": {
        "airplane": 1144.5774702263063,
        "automobile": 1211.4274108484615,
        "bird": 1372.1550286389934,
        "cat": 1030.5168585755096,
        "deer": 1375.2011356122193,
        "dog": 1057.9083666480242,
        "frog": 1470.0973622487163,
        "horse": 1291.5169657674337,
        "ship": 979.4767623160819,
        "truck": 1164.0962457446494
    },
    "fid": 844.6452297407366,
    "wasserstein_distance": null,
    "g_loss": null,
    "g_cost": null,
    "d_loss_real": null,
    "d_loss_fake": null
}