{
    "epoch": 132,
    "avg_current_window": 1095.6752442372403,
    "avg_prior_window": 1110.3986201921523,
    "inception_score_mean": 1.7662334308656167,
    "inception_score_std": 0.06163976460793042,
    "fid_per_class": {
        "airplane": 1085.599689881044,
        "automobile": 1299.803798430872,
        "bird": 1332.6235465728214,
        "cat": 1128.3476678741117,
        "deer": 1465.0334932669266,
        "dog": 1219.6260860319655,
        "frog": 1582.6017047718992,
        "horse": 1309.9041057246077,
        "ship": 988.6071292140421,
        "truck": 1209.9146300759721
    },
    "fid": 887.3058342327872,
    "wasserstein_distance": null,
    "g_loss": null,
    "g_cost": null,
    "d_loss_real": null,
    "d_loss_fake": null
}