{
    "epoch": 61,
    "avg_current_window": 1296.4889443555387,
    "avg_prior_window": 1342.753765578154,
    "inception_score_mean": 1.7546190470689194,
    "inception_score_std": 0.1034062024831714,
    "fid_per_class": {
        "airplane": 1183.5473539305333,
        "automobile": 1273.3731377972395,
        "bird": 1338.0843583594585,
        "cat": 1193.658458305607,
        "deer": 1440.5139891519216,
        "dog": 1345.2264384861326,
        "frog": 1769.5272575721663,
        "horse": 1351.7147893085107,
        "ship": 1033.6009676283002,
        "truck": 1186.6976735035785
    },
    "fid": 942.4921191726785,
    "wasserstein_distance": null,
    "g_loss": null,
    "g_cost": null,
    "d_loss_real": null,
    "d_loss_fake": null
}