{
    "epoch": 86,
    "avg_current_window": 1193.2137638752142,
    "avg_prior_window": 1220.9116992098666,
    "inception_score_mean": 1.7703424851810563,
    "inception_score_std": 0.1037741272263396,
    "fid_per_class": {
        "airplane": 1047.0580505942985,
        "automobile": 1270.6004138135627,
        "bird": 1411.7150086848083,
        "cat": 1213.9739728409647,
        "deer": 1584.328953235979,
        "dog": 1274.9407132998904,
        "frog": 1892.2340328731696,
        "horse": 1442.8992650579821,
        "ship": 935.6287662727948,
        "truck": 1171.336472646509
    },
    "fid": 959.3461111422525,
    "wasserstein_distance": null,
    "g_loss": null,
    "g_cost": null,
    "d_loss_real": null,
    "d_loss_fake": null
}