{
    "epoch": 149,
    "avg_current_window": 1071.5750896020895,
    "avg_prior_window": 1083.9835058108085,
    "inception_score_mean": 1.8201924206139313,
    "inception_score_std": 0.1213544643784112,
    "fid_per_class": {
        "airplane": 1108.3469459090238,
        "automobile": 1251.2582167716746,
        "bird": 1356.4736561730838,
        "cat": 1138.377462323809,
        "deer": 1435.8425609505323,
        "dog": 1179.8688316720595,
        "frog": 1654.9563971593743,
        "horse": 1346.8914561361244,
        "ship": 1027.9953328857478,
        "truck": 1143.7677078183567
    },
    "fid": 902.3220104949486,
    "wasserstein_distance": null,
    "g_loss": null,
    "g_cost": null,
    "d_loss_real": null,
    "d_loss_fake": null
}