{
    "epoch": 73,
    "avg_current_window": 1239.7626560418748,
    "avg_prior_window": 1274.8096472508448,
    "inception_score_mean": 1.725168291962286,
    "inception_score_std": 0.09923226387602671,
    "fid_per_class": {
        "airplane": 1087.1895595526612,
        "automobile": 1265.3013201257074,
        "bird": 1345.2458054463148,
        "cat": 1142.8026682759541,
        "deer": 1410.8793477546192,
        "dog": 1221.2396801449972,
        "frog": 1785.256979741253,
        "horse": 1325.8268442538008,
        "ship": 954.3647694427607,
        "truck": 1198.3219779277579
    },
    "fid": 900.5744763880389,
    "wasserstein_distance": null,
    "g_loss": null,
    "g_cost": null,
    "d_loss_real": null,
    "d_loss_fake": null
}