{
    "epoch": 52,
    "avg_current_window": 1347.6696143715412,
    "avg_prior_window": 1401.9553076983004,
    "inception_score_mean": 1.6434186083084896,
    "inception_score_std": 0.14223057663842156,
    "fid_per_class": {
        "airplane": 1188.8666147132992,
        "automobile": 1358.1925357018547,
        "bird": 1466.693693210895,
        "cat": 1337.1947846228077,
        "deer": 1445.2830204463617,
        "dog": 1308.347882890619,
        "frog": 1743.1738165744284,
        "horse": 1407.9006798934165,
        "ship": 1072.2831041977452,
        "truck": 1306.4275588314629
    },
    "fid": 1017.7145150354283,
    "wasserstein_distance": null,
    "g_loss": null,
    "g_cost": null,
    "d_loss_real": null,
    "d_loss_fake": null
}