{
    "epoch": 167,
    "avg_current_window": 1047.366969827244,
    "avg_prior_window": 1058.3014609992158,
    "inception_score_mean": 1.8178329045916808,
    "inception_score_std": 0.13053954399742837,
    "fid_per_class": {
        "airplane": 1075.0672171866279,
        "automobile": 1275.2702950333696,
        "bird": 1236.752179028142,
        "cat": 1082.0677978825913,
        "deer": 1383.3299320875585,
        "dog": 1125.036156073464,
        "frog": 1488.152049913189,
        "horse": 1243.7824743490487,
        "ship": 980.1776243839423,
        "truck": 1193.8898656131084
    },
    "fid": 844.3895280775668,
    "wasserstein_distance": null,
    "g_loss": null,
    "g_cost": null,
    "d_loss_real": null,
    "d_loss_fake": null
}