{
    "epoch": 62,
    "avg_current_window": 1290.779318142912,
    "avg_prior_window": 1336.3282608396885,
    "inception_score_mean": 1.7192546865164857,
    "inception_score_std": 0.09943992132691672,
    "fid_per_class": {
        "airplane": 1163.2975562054141,
        "automobile": 1339.3257981668585,
        "bird": 1396.3769161043074,
        "cat": 1154.1322693120617,
        "deer": 1526.9263011387611,
        "dog": 1312.4821368220082,
        "frog": 1698.4789525242775,
        "horse": 1444.9963961900298,
        "ship": 1064.670830432072,
        "truck": 1219.1028117696615
    },
    "fid": 972.3180939024948,
    "wasserstein_distance": null,
    "g_loss": null,
    "g_cost": null,
    "d_loss_real": null,
    "d_loss_fake": null
}