{
    "epoch": 9,
    "avg_current_window": 1590.2829673021367,
    "avg_prior_window": 1539.1785690303566,
    "inception_score_mean": 1.257908080373484,
    "inception_score_std": 0.11455466424533949,
    "fid_per_class": {
        "airplane": 2218.650749265894,
        "automobile": 2550.5631655072284,
        "bird": 2693.2093456489383,
        "cat": 2621.917882155703,
        "deer": 2311.190236968441,
        "dog": 2820.9422713094386,
        "frog": 2810.7148882029655,
        "horse": 2879.811685515377,
        "ship": 2567.174939294818,
        "truck": 2289.5433481181512
    },
    "fid": 2226.934598137753,
    "wasserstein_distance": null,
    "g_loss": null,
    "g_cost": null,
    "d_loss_real": null,
    "d_loss_fake": null
}