{
    "epoch": 82,
    "avg_current_window": 1206.0225321463315,
    "avg_prior_window": 1235.714318066798,
    "inception_score_mean": 1.738869676805733,
    "inception_score_std": 0.11307221717478035,
    "fid_per_class": {
        "airplane": 1109.3708764083358,
        "automobile": 1297.1286412095478,
        "bird": 1387.5285289954118,
        "cat": 1158.1385324331627,
        "deer": 1449.7448523166063,
        "dog": 1227.2131042066683,
        "frog": 1820.8151222017511,
        "horse": 1361.978793431513,
        "ship": 926.1051485871534,
        "truck": 1159.2057470533964
    },
    "fid": 935.4926196759402,
    "wasserstein_distance": null,
    "g_loss": null,
    "g_cost": null,
    "d_loss_real": null,
    "d_loss_fake": null
}