{
    "epoch": 136,
    "avg_current_window": 1089.1012238002406,
    "avg_prior_window": 1104.0391773993567,
    "inception_score_mean": 1.743860060179895,
    "inception_score_std": 0.09565466180831803,
    "fid_per_class": {
        "airplane": 1135.2200348413437,
        "automobile": 1243.693053606949,
        "bird": 1401.3890405922798,
        "cat": 1167.717834792198,
        "deer": 1487.9342815545529,
        "dog": 1148.7072591111712,
        "frog": 1636.5532215097178,
        "horse": 1447.3716775677092,
        "ship": 996.8618189758587,
        "truck": 1143.4672211848003
    },
    "fid": 929.1235823521147,
    "wasserstein_distance": null,
    "g_loss": null,
    "g_cost": null,
    "d_loss_real": null,
    "d_loss_fake": null
}