{
    "epoch": 8,
    "avg_current_window": 1522.1733865023891,
    "avg_prior_window": 1.0,
    "inception_score_mean": 1.2463370250428798,
    "inception_score_std": 0.1116429620864018,
    "fid_per_class": {
        "airplane": 2014.0744889573766,
        "automobile": 2426.4680956626457,
        "bird": 2541.5342605921705,
        "cat": 2497.4812030149506,
        "deer": 2422.7616103177115,
        "dog": 2908.4109602999865,
        "frog": 2718.4446537157314,
        "horse": 2665.006161991181,
        "ship": 2345.2297809610327,
        "truck": 1989.4080683548632
    },
    "fid": 2135.1596137001184,
    "wasserstein_distance": null,
    "g_loss": null,
    "g_cost": null,
    "d_loss_real": null,
    "d_loss_fake": null
}