{
    "epoch": 30,
    "avg_current_window": 1508.6827582388798,
    "avg_prior_window": 1599.1731750199638,
    "inception_score_mean": 1.4366347140703974,
    "inception_score_std": 0.10629284919115901,
    "fid_per_class": {
        "airplane": 1304.834771127597,
        "automobile": 1394.3701948722498,
        "bird": 1869.3915528316907,
        "cat": 1669.4465565867267,
        "deer": 1909.034896357971,
        "dog": 1545.9915344856613,
        "frog": 2238.937156498021,
        "horse": 1807.7653844563647,
        "ship": 1209.8360599240586,
        "truck": 1254.149284188768
    },
    "fid": 1315.9895950992143,
    "wasserstein_distance": null,
    "g_loss": null,
    "g_cost": null,
    "d_loss_real": null,
    "d_loss_fake": null
}