{
    "epoch": 194,
    "avg_current_window": 1020.9597472083373,
    "avg_prior_window": 1030.1799618516097,
    "inception_score_mean": 2.005926102486306,
    "inception_score_std": 0.18441218025285144,
    "fid_per_class": {
        "airplane": 1058.2393982211133,
        "automobile": 1182.17566914698,
        "bird": 1322.094902804535,
        "cat": 1131.6441618852857,
        "deer": 1457.5725818997732,
        "dog": 1355.0343297792529,
        "frog": 1532.5778694868563,
        "horse": 1343.129484782296,
        "ship": 991.7595548394232,
        "truck": 1175.2297953358038
    },
    "fid": 840.1248018930559,
    "wasserstein_distance": null,
    "g_loss": null,
    "g_cost": null,
    "d_loss_real": null,
    "d_loss_fake": null
}