{
    "epoch": 13,
    "avg_current_window": 1747.5873911596123,
    "avg_prior_window": 1789.0683382149039,
    "inception_score_mean": 1.2354394421181898,
    "inception_score_std": 0.0779049052884241,
    "fid_per_class": {
        "airplane": 1909.9966432694457,
        "automobile": 1965.9473677235815,
        "bird": 2137.4118581360653,
        "cat": 2525.8766707712007,
        "deer": 2474.707075790482,
        "dog": 2269.4559012548634,
        "frog": 2818.6616996915895,
        "horse": 2238.3533698072347,
        "ship": 2233.0393888829562,
        "truck": 2024.6692649764127
    },
    "fid": 1955.1684430044702,
    "wasserstein_distance": null,
    "g_loss": null,
    "g_cost": null,
    "d_loss_real": null,
    "d_loss_fake": null
}