{
    "epoch": 140,
    "avg_current_window": 1083.8293485388701,
    "avg_prior_window": 1097.168640272835,
    "inception_score_mean": 1.8064364726851792,
    "inception_score_std": 0.1474592924085217,
    "fid_per_class": {
        "airplane": 1114.6567812353444,
        "automobile": 1276.00032658955,
        "bird": 1307.4416849499053,
        "cat": 1120.2919785805802,
        "deer": 1495.3036728407023,
        "dog": 1115.3978316820348,
        "frog": 1747.210566101362,
        "horse": 1331.5311767345186,
        "ship": 952.4291894579869,
        "truck": 1185.584787222111
    },
    "fid": 887.777426987164,
    "wasserstein_distance": null,
    "g_loss": null,
    "g_cost": null,
    "d_loss_real": null,
    "d_loss_fake": null
}