{
    "epoch": 175,
    "avg_current_window": 1038.7502569509518,
    "avg_prior_window": 1049.1137205448467,
    "inception_score_mean": 1.7892045933649108,
    "inception_score_std": 0.1700048751672533,
    "fid_per_class": {
        "airplane": 1054.1938775214994,
        "automobile": 1271.6260989577452,
        "bird": 1347.7736973130131,
        "cat": 1185.0971246352042,
        "deer": 1553.583125264232,
        "dog": 1176.9278047855798,
        "frog": 1542.729983592722,
        "horse": 1379.4658477621253,
        "ship": 987.5803191376549,
        "truck": 1189.292321123816
    },
    "fid": 894.4398697855466,
    "wasserstein_distance": null,
    "g_loss": null,
    "g_cost": null,
    "d_loss_real": null,
    "d_loss_fake": null
}