{
    "epoch": 195,
    "avg_current_window": 1020.0323885144127,
    "avg_prior_window": 1029.0462278398788,
    "inception_score_mean": 1.8421887582945762,
    "inception_score_std": 0.1493293843445419,
    "fid_per_class": {
        "airplane": 972.0061784501312,
        "automobile": 1215.0962080200638,
        "bird": 1389.1203371248312,
        "cat": 1157.8956939393233,
        "deer": 1546.1949157492595,
        "dog": 1160.0517724419142,
        "frog": 1545.7700515129875,
        "horse": 1412.0893492413538,
        "ship": 992.9025202497273,
        "truck": 1106.6272824654363
    },
    "fid": 878.386067414442,
    "wasserstein_distance": null,
    "g_loss": null,
    "g_cost": null,
    "d_loss_real": null,
    "d_loss_fake": null
}