{
    "epoch": 49,
    "avg_current_window": 1366.1892749331914,
    "avg_prior_window": 1424.0946472348567,
    "inception_score_mean": 1.621561684587471,
    "inception_score_std": 0.12295824772508664,
    "fid_per_class": {
        "airplane": 1133.5536118886428,
        "automobile": 1404.3013910886875,
        "bird": 1436.4585509105405,
        "cat": 1297.6746295901683,
        "deer": 1571.4175375370328,
        "dog": 1364.543826346262,
        "frog": 1867.6722865537017,
        "horse": 1618.1435690835817,
        "ship": 1114.061210325412,
        "truck": 1292.2523599937422
    },
    "fid": 1084.6571170530317,
    "wasserstein_distance": null,
    "g_loss": null,
    "g_cost": null,
    "d_loss_real": null,
    "d_loss_fake": null
}