{
    "epoch": 72,
    "avg_current_window": 1243.627488503672,
    "avg_prior_window": 1279.760667479465,
    "inception_score_mean": 1.6869988944908294,
    "inception_score_std": 0.14490727124883185,
    "fid_per_class": {
        "airplane": 1139.6783803546664,
        "automobile": 1258.2346911881696,
        "bird": 1446.3999254045145,
        "cat": 1220.265377431995,
        "deer": 1440.3029455197757,
        "dog": 1315.5688524307595,
        "frog": 1790.3304490245687,
        "horse": 1397.9937354682152,
        "ship": 1016.9828387962259,
        "truck": 1162.7667125642108
    },
    "fid": 961.4947187924695,
    "wasserstein_distance": null,
    "g_loss": null,
    "g_cost": null,
    "d_loss_real": null,
    "d_loss_fake": null
}