{
    "epoch": 111,
    "avg_current_window": 1133.4220648246887,
    "avg_prior_window": 1151.5242403051327,
    "inception_score_mean": 1.6998293515594523,
    "inception_score_std": 0.11599421793922826,
    "fid_per_class": {
        "airplane": 1159.4845766644407,
        "automobile": 1302.7855789884788,
        "bird": 1438.322851288888,
        "cat": 1238.2273829712146,
        "deer": 1590.1512496434948,
        "dog": 1197.7080221291692,
        "frog": 1761.8113888855628,
        "horse": 1466.4875907874743,
        "ship": 1009.9563319641536,
        "truck": 1228.3589522591003
    },
    "fid": 978.7748235820352,
    "wasserstein_distance": null,
    "g_loss": null,
    "g_cost": null,
    "d_loss_real": null,
    "d_loss_fake": null
}