{
    "epoch": 146,
    "avg_current_window": 1075.379199421767,
    "avg_prior_window": 1088.3723471234448,
    "inception_score_mean": 1.9151311545910326,
    "inception_score_std": 0.10638775998209497,
    "fid_per_class": {
        "airplane": 1080.2368114407677,
        "automobile": 1251.1344553776964,
        "bird": 1295.0213604994533,
        "cat": 1117.6591484720016,
        "deer": 1379.4210107432348,
        "dog": 1153.1937119208255,
        "frog": 1583.8711461051744,
        "horse": 1296.2046428761905,
        "ship": 941.0020147109857,
        "truck": 1175.996924595709
    },
    "fid": 849.0900071908053,
    "wasserstein_distance": null,
    "g_loss": null,
    "g_cost": null,
    "d_loss_real": null,
    "d_loss_fake": null
}