{
    "epoch": 67,
    "avg_current_window": 1264.910261938924,
    "avg_prior_window": 1306.4618680445649,
    "inception_score_mean": 1.667901286015061,
    "inception_score_std": 0.08548264340010082,
    "fid_per_class": {
        "airplane": 1144.625555902227,
        "automobile": 1299.0052733825978,
        "bird": 1451.1318629846457,
        "cat": 1266.3763841717046,
        "deer": 1503.5117782188136,
        "dog": 1351.493125016078,
        "frog": 1804.1586273438386,
        "horse": 1433.420052733806,
        "ship": 1018.5253541302269,
        "truck": 1186.5195104357485
    },
    "fid": 994.9771712162453,
    "wasserstein_distance": null,
    "g_loss": null,
    "g_cost": null,
    "d_loss_real": null,
    "d_loss_fake": null
}