{
    "epoch": 183,
    "avg_current_window": 1031.2229050363428,
    "avg_prior_window": 1040.0963810276953,
    "inception_score_mean": 1.807801498576066,
    "inception_score_std": 0.13376728094952148,
    "fid_per_class": {
        "airplane": 1119.610938776541,
        "automobile": 1252.042415507405,
        "bird": 1491.2703210848263,
        "cat": 1212.989147739907,
        "deer": 1649.5090647183997,
        "dog": 1194.5014159668056,
        "frog": 1559.4064263904356,
        "horse": 1531.230912505729,
        "ship": 948.6059840679266,
        "truck": 1197.204949004022
    },
    "fid": 935.5342193181436,
    "wasserstein_distance": null,
    "g_loss": null,
    "g_cost": null,
    "d_loss_real": null,
    "d_loss_fake": null
}