{
    "epoch": 57,
    "avg_current_window": 1319.1966819715196,
    "avg_prior_window": 1367.2410473529917,
    "inception_score_mean": 1.6649624994952272,
    "inception_score_std": 0.08587205367228534,
    "fid_per_class": {
        "airplane": 1114.2818683869018,
        "automobile": 1342.392152689063,
        "bird": 1380.0308386574998,
        "cat": 1194.6163995567722,
        "deer": 1471.5340931669932,
        "dog": 1290.6100589772366,
        "frog": 1876.7857511479378,
        "horse": 1376.6867271049923,
        "ship": 1080.1121081830897,
        "truck": 1201.0183416716422
    },
    "fid": 976.4999954856287,
    "wasserstein_distance": null,
    "g_loss": null,
    "g_cost": null,
    "d_loss_real": null,
    "d_loss_fake": null
}