{
    "epoch": 174,
    "avg_current_window": 1039.728025404779,
    "avg_prior_window": 1049.8909564900255,
    "inception_score_mean": 1.8603945536706743,
    "inception_score_std": 0.1149192641754028,
    "fid_per_class": {
        "airplane": 1016.7043625237595,
        "automobile": 1251.8138314010262,
        "bird": 1340.620838733296,
        "cat": 1153.691806819267,
        "deer": 1444.1157587994467,
        "dog": 1221.5683665391307,
        "frog": 1578.3263062952353,
        "horse": 1321.7844926063908,
        "ship": 988.6861335231929,
        "truck": 1149.1749419925973
    },
    "fid": 868.6185459850453,
    "wasserstein_distance": null,
    "g_loss": null,
    "g_cost": null,
    "d_loss_real": null,
    "d_loss_fake": null
}