{
    "epoch": 85,
    "avg_current_window": 1196.0592367070349,
    "avg_prior_window": 1223.4465493712473,
    "inception_score_mean": 1.7422785260878726,
    "inception_score_std": 0.12581451590477924,
    "fid_per_class": {
        "airplane": 1115.349444327541,
        "automobile": 1225.239067909646,
        "bird": 1450.2097265668913,
        "cat": 1199.3500407540955,
        "deer": 1513.1080050898772,
        "dog": 1235.6335173991042,
        "frog": 1771.7093888502861,
        "horse": 1338.3920857215899,
        "ship": 1006.9534243335323,
        "truck": 1160.7704027542652
    },
    "fid": 951.3485731704598,
    "wasserstein_distance": null,
    "g_loss": null,
    "g_cost": null,
    "d_loss_real": null,
    "d_loss_fake": null
}