{
    "epoch": 119,
    "avg_current_window": 1117.4684560310693,
    "avg_prior_window": 1135.4791431419603,
    "inception_score_mean": 1.8704734686017788,
    "inception_score_std": 0.11736792019448379,
    "fid_per_class": {
        "airplane": 1063.953535473654,
        "automobile": 1229.4417403486643,
        "bird": 1274.750778270676,
        "cat": 1081.908122712851,
        "deer": 1318.3558311873726,
        "dog": 1107.3025328722601,
        "frog": 1559.7389192493486,
        "horse": 1246.2157410175541,
        "ship": 983.0520369644994,
        "truck": 1134.8799765307685
    },
    "fid": 840.3041907375871,
    "wasserstein_distance": null,
    "g_loss": null,
    "g_cost": null,
    "d_loss_real": null,
    "d_loss_fake": null
}