{
    "epoch": 159,
    "avg_current_window": 1056.665388019707,
    "avg_prior_window": 1069.7765947743655,
    "inception_score_mean": 1.720962137113668,
    "inception_score_std": 0.09668717452614531,
    "fid_per_class": {
        "airplane": 1105.7560285373577,
        "automobile": 1301.2421910234373,
        "bird": 1449.8680684018125,
        "cat": 1279.937263408679,
        "deer": 1558.9497232952328,
        "dog": 1294.830279721094,
        "frog": 1628.3211310544516,
        "horse": 1437.5481614402083,
        "ship": 954.0773856832898,
        "truck": 1203.2117429032824
    },
    "fid": 980.2336024328944,
    "wasserstein_distance": null,
    "g_loss": null,
    "g_cost": null,
    "d_loss_real": null,
    "d_loss_fake": null
}