{
    "epoch": 118,
    "avg_current_window": 1119.8177259041695,
    "avg_prior_window": 1137.7366932447917,
    "inception_score_mean": 1.8113053914911432,
    "inception_score_std": 0.10880851152914858,
    "fid_per_class": {
        "airplane": 1054.7172210909705,
        "automobile": 1192.650564567014,
        "bird": 1354.7784490004299,
        "cat": 1083.7192242380245,
        "deer": 1419.5696184709657,
        "dog": 1081.9960821433922,
        "frog": 1517.3543823373761,
        "horse": 1322.9307829492245,
        "ship": 933.1000844207202,
        "truck": 1153.758477640545
    },
    "fid": 840.254611005259,
    "wasserstein_distance": null,
    "g_loss": null,
    "g_cost": null,
    "d_loss_real": null,
    "d_loss_fake": null
}