{
    "epoch": 131,
    "avg_current_window": 1097.5630799355076,
    "avg_prior_window": 1111.8874654015426,
    "inception_score_mean": 1.844607613817449,
    "inception_score_std": 0.10061287240499951,
    "fid_per_class": {
        "airplane": 1097.9659642209012,
        "automobile": 1261.8441265827917,
        "bird": 1329.4382813556153,
        "cat": 1125.849618966804,
        "deer": 1308.004275096525,
        "dog": 1114.4989042928462,
        "frog": 1574.4423184113116,
        "horse": 1278.5438802120157,
        "ship": 1011.3297441802627,
        "truck": 1161.812923489833
    },
    "fid": 848.3687677642226,
    "wasserstein_distance": null,
    "g_loss": null,
    "g_cost": null,
    "d_loss_real": null,
    "d_loss_fake": null
}