{
    "epoch": 87,
    "avg_current_window": 1190.5256299357548,
    "avg_prior_window": 1217.4309787277455,
    "inception_score_mean": 1.6924820442473376,
    "inception_score_std": 0.12841559057820381,
    "fid_per_class": {
        "airplane": 1162.7822087239115,
        "automobile": 1263.2513383208388,
        "bird": 1397.0864317873657,
        "cat": 1221.4824578336338,
        "deer": 1574.9853295472906,
        "dog": 1277.7593244033567,
        "frog": 1948.7000242967788,
        "horse": 1465.7894159319112,
        "ship": 968.4786825207163,
        "truck": 1201.8325573136933
    },
    "fid": 988.8518269883118,
    "wasserstein_distance": null,
    "g_loss": null,
    "g_cost": null,
    "d_loss_real": null,
    "d_loss_fake": null
}