{
    "epoch": 36,
    "avg_current_window": 1465.2034126859871,
    "avg_prior_window": 1543.719813644025,
    "inception_score_mean": 1.5403854498387612,
    "inception_score_std": 0.11307432997702183,
    "fid_per_class": {
        "airplane": 1229.525463636227,
        "automobile": 1258.0579104184542,
        "bird": 1546.6572455854691,
        "cat": 1409.3278740134137,
        "deer": 1496.295687785573,
        "dog": 1336.8009110072385,
        "frog": 2062.6909645814007,
        "horse": 1503.9603521329518,
        "ship": 1117.146885238798,
        "truck": 1179.844519875447
    },
    "fid": 1052.8683128384023,
    "wasserstein_distance": null,
    "g_loss": null,
    "g_cost": null,
    "d_loss_real": null,
    "d_loss_fake": null
}