{
    "epoch": 124,
    "avg_current_window": 1107.4521619478605,
    "avg_prior_window": 1124.5298357851666,
    "inception_score_mean": 1.7629333354250025,
    "inception_score_std": 0.1293705335341712,
    "fid_per_class": {
        "airplane": 1096.8679951803629,
        "automobile": 1292.0396122003385,
        "bird": 1388.697797634819,
        "cat": 1233.9391759882938,
        "deer": 1482.168500133105,
        "dog": 1127.6257652544487,
        "frog": 1675.3717725844233,
        "horse": 1436.6266085802263,
        "ship": 964.7671120033107,
        "truck": 1164.1510959865516
    },
    "fid": 916.7081282834826,
    "wasserstein_distance": null,
    "g_loss": null,
    "g_cost": null,
    "d_loss_real": null,
    "d_loss_fake": null
}