{
    "epoch": 142,
    "avg_current_window": 930.5543732669645,
    "avg_prior_window": 945.6547314463548,
    "inception_score_mean": 2.0120744721237256,
    "inception_score_std": 0.13310533619040268,
    "fid_per_class": {
        "airplane": 840.08118704174,
        "automobile": 1047.104904151251,
        "bird": 1132.358219339948,
        "cat": 881.6416281473132,
        "deer": 1132.6046380207763,
        "dog": 907.3247270963366,
        "frog": 1149.9295699597405,
        "horse": 1017.5367738791789,
        "ship": 801.0762042412241,
        "truck": 983.9351132742381
    },
    "fid": 588.4035513026122,
    "wasserstein_distance": null,
    "g_loss": null,
    "g_cost": null,
    "d_loss_real": null,
    "d_loss_fake": null
}