{
    "epoch": 52,
    "avg_current_window": 1438.6752723872523,
    "avg_prior_window": 1535.723929312836,
    "inception_score_mean": 1.812119614853867,
    "inception_score_std": 0.08990814526744478,
    "fid_per_class": {
        "airplane": 969.3974676737703,
        "automobile": 1176.204435296143,
        "bird": 1257.5682039765459,
        "cat": 893.7986900338708,
        "deer": 1192.167447644062,
        "dog": 1012.9401268982685,
        "frog": 1329.2933351161614,
        "horse": 1183.9475262959006,
        "ship": 818.1447689456585,
        "truck": 1211.1245765874614
    },
    "fid": 713.2059112298302,
    "wasserstein_distance": null,
    "g_loss": null,
    "g_cost": null,
    "d_loss_real": null,
    "d_loss_fake": null
}