{
    "epoch": 145,
    "avg_current_window": 924.1114634511458,
    "avg_prior_window": 939.5591883502044,
    "inception_score_mean": 1.9475747010971696,
    "inception_score_std": 0.19742642019910842,
    "fid_per_class": {
        "airplane": 801.3786304612398,
        "automobile": 1057.4698286552518,
        "bird": 1061.8141831116354,
        "cat": 822.9121201160623,
        "deer": 995.0354938577497,
        "dog": 897.6809969015515,
        "frog": 1115.4518729717738,
        "horse": 975.0546984972333,
        "ship": 739.7068623671853,
        "truck": 965.262156016227
    },
    "fid": 539.5836026814427,
    "wasserstein_distance": null,
    "g_loss": null,
    "g_cost": null,
    "d_loss_real": null,
    "d_loss_fake": null
}