{
    "epoch": 73,
    "avg_current_window": 1214.4909017313435,
    "avg_prior_window": 1267.4421250395199,
    "inception_score_mean": 1.9219623472706302,
    "inception_score_std": 0.1523624644810358,
    "fid_per_class": {
        "airplane": 856.0198714308433,
        "automobile": 1128.645778497123,
        "bird": 1131.2074542718474,
        "cat": 911.7537867153717,
        "deer": 1161.8942399616171,
        "dog": 1007.358741603113,
        "frog": 1088.938259193579,
        "horse": 1089.698494643468,
        "ship": 809.4448776448853,
        "truck": 1137.8244439692114
    },
    "fid": 619.1962060164429,
    "wasserstein_distance": null,
    "g_loss": null,
    "g_cost": null,
    "d_loss_real": null,
    "d_loss_fake": null
}