{
    "epoch": 91,
    "avg_current_window": 1098.6885278659747,
    "avg_prior_window": 1133.5597604476252,
    "inception_score_mean": 1.8738896081800551,
    "inception_score_std": 0.10683671257949623,
    "fid_per_class": {
        "airplane": 895.7870613397574,
        "automobile": 1174.8582997534181,
        "bird": 1158.583308869669,
        "cat": 943.7085279732692,
        "deer": 1135.5915865352454,
        "dog": 1011.7309540010358,
        "frog": 1237.926217306956,
        "horse": 1151.673641078428,
        "ship": 819.5988314377503,
        "truck": 1102.3837935759148
    },
    "fid": 665.0148353764329,
    "wasserstein_distance": null,
    "g_loss": null,
    "g_cost": null,
    "d_loss_real": null,
    "d_loss_fake": null
}