{
    "epoch": 62,
    "avg_current_window": 1315.055049845688,
    "avg_prior_window": 1384.5612137358462,
    "inception_score_mean": 1.84165577121357,
    "inception_score_std": 0.09847716707355296,
    "fid_per_class": {
        "airplane": 908.7586619000293,
        "automobile": 1095.3003036965556,
        "bird": 1190.056767596304,
        "cat": 858.9740887715559,
        "deer": 1164.618049238904,
        "dog": 967.9857297087456,
        "frog": 1228.5892283075882,
        "horse": 1051.6475990395936,
        "ship": 803.7056656662566,
        "truck": 1063.0628622518852
    },
    "fid": 633.510083906445,
    "wasserstein_distance": null,
    "g_loss": null,
    "g_cost": null,
    "d_loss_real": null,
    "d_loss_fake": null
}