{
    "epoch": 98,
    "avg_current_window": 1065.6558604806257,
    "avg_prior_window": 1096.5827897359381,
    "inception_score_mean": 1.9489701986284218,
    "inception_score_std": 0.13362066269122144,
    "fid_per_class": {
        "airplane": 830.8356096421439,
        "automobile": 1118.6805763935072,
        "bird": 1093.6893584952097,
        "cat": 826.2895927493762,
        "deer": 1027.405487751681,
        "dog": 929.1924182235441,
        "frog": 984.5004778012111,
        "horse": 1036.0758426203242,
        "ship": 843.9667417119861,
        "truck": 1068.2749044379043
    },
    "fid": 557.8119205799139,
    "wasserstein_distance": null,
    "g_loss": null,
    "g_cost": null,
    "d_loss_real": null,
    "d_loss_fake": null
}