{
    "epoch": 34,
    "avg_current_window": 1801.6043730541708,
    "avg_prior_window": 1997.1821783374214,
    "inception_score_mean": 1.5789964746805336,
    "inception_score_std": 0.08131469880136753,
    "fid_per_class": {
        "airplane": 1042.2099998000874,
        "automobile": 1336.2054022348364,
        "bird": 1357.6405918561188,
        "cat": 1142.9583636843272,
        "deer": 1344.3841001365352,
        "dog": 1237.9362902075948,
        "frog": 1489.860912741659,
        "horse": 1247.108715962438,
        "ship": 984.7969886742841,
        "truck": 1219.2448075818654
    },
    "fid": 870.392365989373,
    "wasserstein_distance": null,
    "g_loss": null,
    "g_cost": null,
    "d_loss_real": null,
    "d_loss_fake": null
}