{
    "epoch": 180,
    "avg_current_window": 867.7110174689877,
    "avg_prior_window": 878.0680455335163,
    "inception_score_mean": 2.0630542149346147,
    "inception_score_std": 0.12168103710377345,
    "fid_per_class": {
        "airplane": 870.1574565977506,
        "automobile": 1133.4703476821576,
        "bird": 1118.4984308509909,
        "cat": 847.9871010334289,
        "deer": 1178.1198726083528,
        "dog": 916.5591525781496,
        "frog": 1131.407927310985,
        "horse": 1028.502955189449,
        "ship": 833.7596454997943,
        "truck": 1025.0287426283146
    },
    "fid": 586.3722634730779,
    "wasserstein_distance": null,
    "g_loss": null,
    "g_cost": null,
    "d_loss_real": null,
    "d_loss_fake": null
}