{
    "epoch": 196,
    "avg_current_window": 848.0189643243173,
    "avg_prior_window": 857.1611824025584,
    "inception_score_mean": 2.0149434304591822,
    "inception_score_std": 0.1859993710057629,
    "fid_per_class": {
        "airplane": 818.7011587129425,
        "automobile": 1099.5126114437385,
        "bird": 1063.1437334445372,
        "cat": 867.5310880474253,
        "deer": 1179.0329539737838,
        "dog": 887.6841110780276,
        "frog": 1154.3770910694734,
        "horse": 996.3544558769117,
        "ship": 774.5658065383527,
        "truck": 1026.0611621671103
    },
    "fid": 584.1723494301835,
    "wasserstein_distance": null,
    "g_loss": null,
    "g_cost": null,
    "d_loss_real": null,
    "d_loss_fake": null
}