{
    "epoch": 53,
    "avg_current_window": 1424.9871712333388,
    "avg_prior_window": 1518.3534763213609,
    "inception_score_mean": 1.7449664290028732,
    "inception_score_std": 0.05896489799416384,
    "fid_per_class": {
        "airplane": 911.4342282347036,
        "automobile": 1193.256716550099,
        "bird": 1238.631301069293,
        "cat": 937.5732524108779,
        "deer": 1201.3402995817382,
        "dog": 1062.0540728558985,
        "frog": 1328.9502726780233,
        "horse": 1164.409284853611,
        "ship": 813.2112465771211,
        "truck": 1170.22314118398
    },
    "fid": 719.441454755345,
    "wasserstein_distance": null,
    "g_loss": null,
    "g_cost": null,
    "d_loss_real": null,
    "d_loss_fake": null
}