{
    "epoch": 85,
    "avg_current_window": 1132.9766858352082,
    "avg_prior_window": 1171.6950961059517,
    "inception_score_mean": 1.9318557756633346,
    "inception_score_std": 0.13267792714843302,
    "fid_per_class": {
        "airplane": 818.869599313821,
        "automobile": 1130.8576727929649,
        "bird": 1184.1569221091668,
        "cat": 910.2972713306799,
        "deer": 1099.9004665468817,
        "dog": 946.4121297945383,
        "frog": 1127.0827378394224,
        "horse": 1115.9019787791296,
        "ship": 816.3564727703898,
        "truck": 1118.5452675360177
    },
    "fid": 612.6678565536937,
    "wasserstein_distance": null,
    "g_loss": null,
    "g_cost": null,
    "d_loss_real": null,
    "d_loss_fake": null
}