{
    "epoch": 55,
    "avg_current_window": 1398.2195988281264,
    "avg_prior_window": 1483.7124116184991,
    "inception_score_mean": 1.77124996272437,
    "inception_score_std": 0.1447183587791205,
    "fid_per_class": {
        "airplane": 930.6572368220304,
        "automobile": 1295.3624875908095,
        "bird": 1227.8256267329266,
        "cat": 941.837799538418,
        "deer": 1187.5341531892966,
        "dog": 1020.8010442749475,
        "frog": 1354.2456908275435,
        "horse": 1197.2501033056628,
        "ship": 888.1934162967926,
        "truck": 1284.476794334466
    },
    "fid": 742.4424358032147,
    "wasserstein_distance": null,
    "g_loss": null,
    "g_cost": null,
    "d_loss_real": null,
    "d_loss_fake": null
}