{
    "epoch": 188,
    "avg_current_window": 857.154837152774,
    "avg_prior_window": 866.5628738421145,
    "inception_score_mean": 2.012117756033617,
    "inception_score_std": 0.10780837435178524,
    "fid_per_class": {
        "airplane": 836.9650925528915,
        "automobile": 1051.2765139905234,
        "bird": 1119.2991764271378,
        "cat": 915.7766810670214,
        "deer": 1184.6018474565662,
        "dog": 934.0578075568183,
        "frog": 1124.1294769393926,
        "horse": 1069.765491412859,
        "ship": 826.5264938553429,
        "truck": 1048.5537955478844
    },
    "fid": 605.8699337835087,
    "wasserstein_distance": null,
    "g_loss": null,
    "g_cost": null,
    "d_loss_real": null,
    "d_loss_fake": null
}