{
    "epoch": 160,
    "avg_current_window": 896.413081606358,
    "avg_prior_window": 909.3500637173878,
    "inception_score_mean": 2.017159628952303,
    "inception_score_std": 0.12781596532423267,
    "fid_per_class": {
        "airplane": 935.1051292383127,
        "automobile": 1125.8219361374206,
        "bird": 1114.586633820751,
        "cat": 852.5736168131798,
        "deer": 1201.8345330320963,
        "dog": 921.2979801567324,
        "frog": 1092.2913392267858,
        "horse": 1076.5269443296431,
        "ship": 819.858579484977,
        "truck": 1049.1680971676976
    },
    "fid": 597.6467740667381,
    "wasserstein_distance": null,
    "g_loss": null,
    "g_cost": null,
    "d_loss_real": null,
    "d_loss_fake": null
}