{
    "epoch": 182,
    "avg_current_window": 864.4374482799458,
    "avg_prior_window": 874.9041942779709,
    "inception_score_mean": 2.000181544291043,
    "inception_score_std": 0.14042184817322229,
    "fid_per_class": {
        "airplane": 867.3402555102205,
        "automobile": 1051.7884114629583,
        "bird": 1216.15301584736,
        "cat": 887.2805969170132,
        "deer": 1187.5844413832674,
        "dog": 898.386126538368,
        "frog": 1151.290389001294,
        "horse": 1044.2217188553054,
        "ship": 893.0869129449162,
        "truck": 1096.061146571032
    },
    "fid": 619.3909841326492,
    "wasserstein_distance": null,
    "g_loss": null,
    "g_cost": null,
    "d_loss_real": null,
    "d_loss_fake": null
}