{
    "epoch": 174,
    "avg_current_window": 875.5437525191609,
    "avg_prior_window": 886.6760948941408,
    "inception_score_mean": 1.966821790901075,
    "inception_score_std": 0.09140833343001761,
    "fid_per_class": {
        "airplane": 891.1414118575597,
        "automobile": 1068.9932442728007,
        "bird": 1204.4552744915889,
        "cat": 938.5809636138945,
        "deer": 1287.0848686978632,
        "dog": 981.5035397511912,
        "frog": 1323.7139062284332,
        "horse": 1034.1975623622982,
        "ship": 816.1730737850996,
        "truck": 1106.0714926963947
    },
    "fid": 659.4231442676593,
    "wasserstein_distance": null,
    "g_loss": null,
    "g_cost": null,
    "d_loss_real": null,
    "d_loss_fake": null
}