{
    "epoch": 33,
    "avg_current_window": 1833.1447524267319,
    "avg_prior_window": 2037.8116443880378,
    "inception_score_mean": 1.6411380842081478,
    "inception_score_std": 0.1142054385309019,
    "fid_per_class": {
        "airplane": 865.3573641448713,
        "automobile": 1250.0785517539946,
        "bird": 1191.4623262166801,
        "cat": 1070.2264259172066,
        "deer": 1165.998572199384,
        "dog": 1183.0658483189945,
        "frog": 1377.0139732756465,
        "horse": 1198.711327391243,
        "ship": 789.3414822809016,
        "truck": 1200.9299145551086
    },
    "fid": 760.7718537596526,
    "wasserstein_distance": null,
    "g_loss": null,
    "g_cost": null,
    "d_loss_real": null,
    "d_loss_fake": null
}