{
    "epoch": 131,
    "avg_current_window": 956.7465183152037,
    "avg_prior_window": 975.6450600270338,
    "inception_score_mean": 2.009433288838574,
    "inception_score_std": 0.15059120933287526,
    "fid_per_class": {
        "airplane": 920.9243609089689,
        "automobile": 1053.9613615263372,
        "bird": 1131.7280333630488,
        "cat": 887.5095393537531,
        "deer": 1096.615766293863,
        "dog": 930.0942506934729,
        "frog": 1171.3105996040856,
        "horse": 1019.0124883306257,
        "ship": 822.5755817925992,
        "truck": 967.1310980950047
    },
    "fid": 580.7820469604076,
    "wasserstein_distance": null,
    "g_loss": null,
    "g_cost": null,
    "d_loss_real": null,
    "d_loss_fake": null
}