{
    "epoch": 49,
    "avg_current_window": 1487.3666706821493,
    "avg_prior_window": 1589.1228478716127,
    "inception_score_mean": 1.8000759033407498,
    "inception_score_std": 0.13090262616817833,
    "fid_per_class": {
        "airplane": 954.1198201383556,
        "automobile": 1149.711649705666,
        "bird": 1218.4715574222475,
        "cat": 912.2525789243903,
        "deer": 1089.8043344594766,
        "dog": 1003.131852881253,
        "frog": 1272.736720831605,
        "horse": 1083.4285098344442,
        "ship": 919.5466918145211,
        "truck": 1121.1967033351489
    },
    "fid": 666.707951188678,
    "wasserstein_distance": null,
    "g_loss": null,
    "g_cost": null,
    "d_loss_real": null,
    "d_loss_fake": null
}