{
    "epoch": 163,
    "avg_current_window": 891.4665683906242,
    "avg_prior_window": 903.7529697398597,
    "inception_score_mean": 2.0149573760912363,
    "inception_score_std": 0.0763525067766024,
    "fid_per_class": {
        "airplane": 853.3439517832808,
        "automobile": 1095.0904135410728,
        "bird": 1174.8928262598401,
        "cat": 874.2147614646267,
        "deer": 1223.5024113530849,
        "dog": 975.3219981591812,
        "frog": 1166.1858770297047,
        "horse": 1057.2383661477468,
        "ship": 871.6210508819273,
        "truck": 1090.996952411975
    },
    "fid": 632.8615380817496,
    "wasserstein_distance": null,
    "g_loss": null,
    "g_cost": null,
    "d_loss_real": null,
    "d_loss_fake": null
}