{
    "epoch": 44,
    "avg_current_window": 1571.3337702357414,
    "avg_prior_window": 1697.2487037161582,
    "inception_score_mean": 1.7696516501005537,
    "inception_score_std": 0.12639917499827513,
    "fid_per_class": {
        "airplane": 1029.4731133183805,
        "automobile": 1325.134823292615,
        "bird": 1299.2308172271937,
        "cat": 960.5454216513723,
        "deer": 1253.909219519283,
        "dog": 1074.9087720322027,
        "frog": 1370.4105054897254,
        "horse": 1183.9165243764917,
        "ship": 944.8300381061429,
        "truck": 1254.6560455889883
    },
    "fid": 782.7194159783448,
    "wasserstein_distance": null,
    "g_loss": null,
    "g_cost": null,
    "d_loss_real": null,
    "d_loss_fake": null
}