{
    "epoch": 183,
    "avg_current_window": 863.0983965632938,
    "avg_prior_window": 874.0520672046825,
    "inception_score_mean": 1.9452712306169686,
    "inception_score_std": 0.10727326604652127,
    "fid_per_class": {
        "airplane": 913.484984813382,
        "automobile": 1096.6080622669851,
        "bird": 1167.9245050684337,
        "cat": 885.0251704477473,
        "deer": 1150.438228484119,
        "dog": 927.2636101212038,
        "frog": 1241.2045236128365,
        "horse": 1014.7822097246001,
        "ship": 895.3188474875378,
        "truck": 1044.6595364532752
    },
    "fid": 633.9993420241711,
    "wasserstein_distance": null,
    "g_loss": null,
    "g_cost": null,
    "d_loss_real": null,
    "d_loss_fake": null
}