{
    "epoch": 177,
    "avg_current_window": 871.5283903007023,
    "avg_prior_window": 882.1323406486744,
    "inception_score_mean": 2.0370569098368483,
    "inception_score_std": 0.135580757212648,
    "fid_per_class": {
        "airplane": 787.041525566582,
        "automobile": 1044.1887638228784,
        "bird": 1173.7546746420585,
        "cat": 856.2454716825075,
        "deer": 1194.947748231387,
        "dog": 948.7601785178873,
        "frog": 1136.5433456375779,
        "horse": 1076.0129399896487,
        "ship": 829.7811004883401,
        "truck": 1013.8633828339828
    },
    "fid": 597.5173039765343,
    "wasserstein_distance": null,
    "g_loss": null,
    "g_cost": null,
    "d_loss_real": null,
    "d_loss_fake": null
}