{
    "epoch": 184,
    "avg_current_window": 861.8532930060161,
    "avg_prior_window": 872.5585650526133,
    "inception_score_mean": 2.0069492901691754,
    "inception_score_std": 0.12587301094962827,
    "fid_per_class": {
        "airplane": 845.2324790385669,
        "automobile": 1033.1545885272817,
        "bird": 1205.5451584445746,
        "cat": 916.1814019175672,
        "deer": 1188.658593508966,
        "dog": 949.955339905363,
        "frog": 1111.6646336925255,
        "horse": 1066.0500845356282,
        "ship": 834.7543158679799,
        "truck": 959.7989858026024
    },
    "fid": 606.6053702223178,
    "wasserstein_distance": null,
    "g_loss": null,
    "g_cost": null,
    "d_loss_real": null,
    "d_loss_fake": null
}