{
    "epoch": 87,
    "avg_current_window": 1120.5303379137445,
    "avg_prior_window": 1157.8980083462282,
    "inception_score_mean": 1.9326182491075046,
    "inception_score_std": 0.15360143386277975,
    "fid_per_class": {
        "airplane": 917.8736337731108,
        "automobile": 1092.4425971328337,
        "bird": 1202.0785173369818,
        "cat": 937.4868554824111,
        "deer": 1201.9340738649,
        "dog": 999.8220909769116,
        "frog": 1289.5967960267892,
        "horse": 1103.9488204784093,
        "ship": 873.4477756670358,
        "truck": 1030.6733320557205
    },
    "fid": 662.284862687648,
    "wasserstein_distance": null,
    "g_loss": null,
    "g_cost": null,
    "d_loss_real": null,
    "d_loss_fake": null
}