{
    "epoch": 192,
    "avg_current_window": 852.6968012442118,
    "avg_prior_window": 861.7385528594734,
    "inception_score_mean": 2.000974603066889,
    "inception_score_std": 0.11744978015247132,
    "fid_per_class": {
        "airplane": 854.671812680522,
        "automobile": 1084.3592003844938,
        "bird": 1070.0920832412346,
        "cat": 852.4344544880788,
        "deer": 1142.813071523999,
        "dog": 959.163799280331,
        "frog": 1125.1503960791392,
        "horse": 979.7196653610152,
        "ship": 845.9569219953978,
        "truck": 1078.4945814705077
    },
    "fid": 583.1124370175253,
    "wasserstein_distance": null,
    "g_loss": null,
    "g_cost": null,
    "d_loss_real": null,
    "d_loss_fake": null
}