{
    "epoch": 197,
    "avg_current_window": 846.679641406073,
    "avg_prior_window": 855.7338451870114,
    "inception_score_mean": 1.9922565129009822,
    "inception_score_std": 0.1414754740614718,
    "fid_per_class": {
        "airplane": 831.8297489712911,
        "automobile": 1101.8393234474127,
        "bird": 1119.5888148116169,
        "cat": 959.0752290139881,
        "deer": 1189.0721014403066,
        "dog": 943.9150672630993,
        "frog": 1226.986753479048,
        "horse": 1056.6070351668006,
        "ship": 827.5968205012135,
        "truck": 1002.1495981557075
    },
    "fid": 618.2069358012142,
    "wasserstein_distance": null,
    "g_loss": null,
    "g_cost": null,
    "d_loss_real": null,
    "d_loss_fake": null
}