{
    "epoch": 75,
    "avg_current_window": 1199.468091553121,
    "avg_prior_window": 1249.2495461626002,
    "inception_score_mean": 1.9731076436123076,
    "inception_score_std": 0.19608619311435016,
    "fid_per_class": {
        "airplane": 865.3032434979427,
        "automobile": 1183.7589854416997,
        "bird": 1140.6541601519598,
        "cat": 893.7253740095723,
        "deer": 1151.702226482284,
        "dog": 950.5548235094,
        "frog": 1241.9841585417062,
        "horse": 1092.5861284182888,
        "ship": 920.8590651955474,
        "truck": 1082.880129788528
    },
    "fid": 643.9020392388923,
    "wasserstein_distance": null,
    "g_loss": null,
    "g_cost": null,
    "d_loss_real": null,
    "d_loss_fake": null
}