{
    "epoch": 181,
    "avg_current_window": 866.1566597121042,
    "avg_prior_window": 876.4802561546836,
    "inception_score_mean": 2.037256603892994,
    "inception_score_std": 0.11829744947931357,
    "fid_per_class": {
        "airplane": 840.6253584073088,
        "automobile": 1115.3226763712319,
        "bird": 1064.9270156937682,
        "cat": 796.3692092217301,
        "deer": 1136.2256754904001,
        "dog": 872.7293570068025,
        "frog": 1102.5377368748127,
        "horse": 1047.724128254219,
        "ship": 765.0947968256754,
        "truck": 1049.0832974631094
    },
    "fid": 553.2601790592527,
    "wasserstein_distance": null,
    "g_loss": null,
    "g_cost": null,
    "d_loss_real": null,
    "d_loss_fake": null
}