{
    "epoch": 63,
    "avg_current_window": 1304.2368757831603,
    "avg_prior_window": 1371.9749854299187,
    "inception_score_mean": 1.8552072320245165,
    "inception_score_std": 0.09843142933915064,
    "fid_per_class": {
        "airplane": 914.7385824410499,
        "automobile": 1166.7240023792965,
        "bird": 1196.7281717678616,
        "cat": 894.7742139050466,
        "deer": 1177.6353155492936,
        "dog": 1021.3730150974319,
        "frog": 1284.4288456036913,
        "horse": 1116.7560389784633,
        "ship": 835.5615237057509,
        "truck": 1045.2352374506222
    },
    "fid": 664.5825266449874,
    "wasserstein_distance": null,
    "g_loss": null,
    "g_cost": null,
    "d_loss_real": null,
    "d_loss_fake": null
}