{
    "epoch": 17,
    "avg_current_window": 2351.677010260594,
    "avg_prior_window": 2520.223492745297,
    "inception_score_mean": 1.0923810572066281,
    "inception_score_std": 0.028593061012675797,
    "fid_per_class": {
        "airplane": 2023.5731781062825,
        "automobile": 2028.6757489364431,
        "bird": 2304.79679665599,
        "cat": 2492.241057830642,
        "deer": 2785.474729588037,
        "dog": 2274.045986480961,
        "frog": 2698.4248479875514,
        "horse": 2304.292234307296,
        "ship": 2064.2714212111214,
        "truck": 2281.830481204686
    },
    "fid": 2112.61081382109,
    "wasserstein_distance": null,
    "g_loss": null,
    "g_cost": null,
    "d_loss_real": null,
    "d_loss_fake": null
}