{
    "epoch": 190,
    "avg_current_window": 854.8642074828828,
    "avg_prior_window": 864.1373035405953,
    "inception_score_mean": 2.0101670873301094,
    "inception_score_std": 0.13062540715608328,
    "fid_per_class": {
        "airplane": 882.9904593915942,
        "automobile": 1108.7142078728934,
        "bird": 1196.376191867396,
        "cat": 947.922462722486,
        "deer": 1226.4182703150302,
        "dog": 1024.7224198792187,
        "frog": 1351.9830701532376,
        "horse": 1103.5459985610362,
        "ship": 820.0888466652959,
        "truck": 1033.041169292129
    },
    "fid": 679.1853382161784,
    "wasserstein_distance": null,
    "g_loss": null,
    "g_cost": null,
    "d_loss_real": null,
    "d_loss_fake": null
}