{
    "epoch": 40,
    "avg_current_window": 1654.8174861232542,
    "avg_prior_window": 1797.8976705981831,
    "inception_score_mean": 1.62345850011312,
    "inception_score_std": 0.06477456963814737,
    "fid_per_class": {
        "airplane": 1185.1241488210621,
        "automobile": 1410.7745882921913,
        "bird": 1155.6823447069623,
        "cat": 910.1142612065048,
        "deer": 1087.6543264377935,
        "dog": 1041.0901570323979,
        "frog": 1178.2701299503492,
        "horse": 1184.5579545187777,
        "ship": 1182.3332129935143,
        "truck": 1358.1946734942726
    },
    "fid": 775.1815574653981,
    "wasserstein_distance": null,
    "g_loss": null,
    "g_cost": null,
    "d_loss_real": null,
    "d_loss_fake": null
}