{
    "epoch": 159,
    "avg_current_window": 898.0689887980996,
    "avg_prior_window": 911.1177733605454,
    "inception_score_mean": 1.9527286533427373,
    "inception_score_std": 0.08979358807938345,
    "fid_per_class": {
        "airplane": 889.444268732379,
        "automobile": 1124.5002213679077,
        "bird": 1159.2773005141187,
        "cat": 876.9142098175605,
        "deer": 1229.946711823618,
        "dog": 996.231733599938,
        "frog": 1165.9704038724487,
        "horse": 1017.5547734874169,
        "ship": 899.7002900636921,
        "truck": 1000.1974805157869
    },
    "fid": 633.1238381194366,
    "wasserstein_distance": null,
    "g_loss": null,
    "g_cost": null,
    "d_loss_real": null,
    "d_loss_fake": null
}