{
    "epoch": 84,
    "avg_current_window": 1138.550596350057,
    "avg_prior_window": 1178.8078360555185,
    "inception_score_mean": 1.9221137317861436,
    "inception_score_std": 0.10350250011205402,
    "fid_per_class": {
        "airplane": 859.6409395688218,
        "automobile": 1213.1441422017201,
        "bird": 1166.6301390673584,
        "cat": 876.6576885839356,
        "deer": 1155.152810364104,
        "dog": 998.0261971749464,
        "frog": 1226.2061128360033,
        "horse": 1107.519126829316,
        "ship": 878.1952294781715,
        "truck": 1155.7933869354592
    },
    "fid": 664.768202587897,
    "wasserstein_distance": null,
    "g_loss": null,
    "g_cost": null,
    "d_loss_real": null,
    "d_loss_fake": null
}