{
    "epoch": 176,
    "avg_current_window": 873.0790225475304,
    "avg_prior_window": 883.7157797521827,
    "inception_score_mean": 2.0524888962357974,
    "inception_score_std": 0.11633944615331497,
    "fid_per_class": {
        "airplane": 821.5638854107955,
        "automobile": 1132.5991067402351,
        "bird": 1129.1401601995767,
        "cat": 839.8647669755571,
        "deer": 1193.5496105462528,
        "dog": 914.8144749364014,
        "frog": 1128.8255470303811,
        "horse": 1076.2962346671154,
        "ship": 844.1060712510025,
        "truck": 1035.2200864162264
    },
    "fid": 598.6171148589499,
    "wasserstein_distance": null,
    "g_loss": null,
    "g_cost": null,
    "d_loss_real": null,
    "d_loss_fake": null
}