{
    "epoch": 70,
    "avg_current_window": 1240.3328412578053,
    "avg_prior_window": 1295.4382749050167,
    "inception_score_mean": 1.8762471875307394,
    "inception_score_std": 0.12783483490233846,
    "fid_per_class": {
        "airplane": 862.2438056246549,
        "automobile": 1165.4489444384644,
        "bird": 1128.1421642816492,
        "cat": 848.3740061153271,
        "deer": 1195.8136319801627,
        "dog": 963.7781258134321,
        "frog": 1072.7767739870765,
        "horse": 1102.1792327735802,
        "ship": 885.3495208968877,
        "truck": 1051.7760651095837
    },
    "fid": 624.1693433356469,
    "wasserstein_distance": null,
    "g_loss": null,
    "g_cost": null,
    "d_loss_real": null,
    "d_loss_fake": null
}