{
    "epoch": 144,
    "avg_current_window": 926.180019860951,
    "avg_prior_window": 941.5930689945466,
    "inception_score_mean": 1.9944631100439516,
    "inception_score_std": 0.1530180564307732,
    "fid_per_class": {
        "airplane": 836.0169238369276,
        "automobile": 1140.6472421229246,
        "bird": 1162.275230603722,
        "cat": 897.5865649517759,
        "deer": 1183.9618769662725,
        "dog": 935.0284504470412,
        "frog": 1182.5583938348218,
        "horse": 1133.228732112426,
        "ship": 841.9110393198565,
        "truck": 1094.2014968346255
    },
    "fid": 626.2393404391928,
    "wasserstein_distance": null,
    "g_loss": null,
    "g_cost": null,
    "d_loss_real": null,
    "d_loss_fake": null
}