{
    "epoch": 108,
    "avg_current_window": 1027.277857099249,
    "avg_prior_window": 1051.6803843397743,
    "inception_score_mean": 1.9989175128875865,
    "inception_score_std": 0.12353711279196648,
    "fid_per_class": {
        "airplane": 878.2366425897317,
        "automobile": 1150.6156218017768,
        "bird": 1145.219064691304,
        "cat": 846.6977794778509,
        "deer": 1233.3588608516147,
        "dog": 935.0718977343387,
        "frog": 1220.832856219186,
        "horse": 1068.4536330380147,
        "ship": 903.2560082964428,
        "truck": 1062.1274327089093
    },
    "fid": 632.5229491575453,
    "wasserstein_distance": null,
    "g_loss": null,
    "g_cost": null,
    "d_loss_real": null,
    "d_loss_fake": null
}