{
    "epoch": 48,
    "avg_current_window": 1503.7296807854852,
    "avg_prior_window": 1607.8764160551773,
    "inception_score_mean": 1.808654281137289,
    "inception_score_std": 0.11698579588814448,
    "fid_per_class": {
        "airplane": 966.5960509082076,
        "automobile": 1180.752877519237,
        "bird": 1222.864623803035,
        "cat": 950.0911637079759,
        "deer": 1137.4181167887932,
        "dog": 998.3417973576722,
        "frog": 1325.5011386391661,
        "horse": 1119.3389063424927,
        "ship": 852.1302800411249,
        "truck": 1156.4699928911832
    },
    "fid": 701.942185722031,
    "wasserstein_distance": null,
    "g_loss": null,
    "g_cost": null,
    "d_loss_real": null,
    "d_loss_fake": null
}