{
    "epoch": 99,
    "avg_current_window": 1060.5261237139518,
    "avg_prior_window": 1091.5430992517606,
    "inception_score_mean": 1.9229288619839475,
    "inception_score_std": 0.10107073556704374,
    "fid_per_class": {
        "airplane": 818.9163735113068,
        "automobile": 1112.595740808656,
        "bird": 1186.6668952129426,
        "cat": 919.2274731552418,
        "deer": 1262.2330819038793,
        "dog": 993.3207429072403,
        "frog": 1335.7646528962857,
        "horse": 1098.1921719090778,
        "ship": 867.6583695529506,
        "truck": 1101.8437375836145
    },
    "fid": 674.1042995929511,
    "wasserstein_distance": null,
    "g_loss": null,
    "g_cost": null,
    "d_loss_real": null,
    "d_loss_fake": null
}