{
    "epoch": 141,
    "avg_current_window": 932.8956480072951,
    "avg_prior_window": 948.0926268091043,
    "inception_score_mean": 2.005507834321632,
    "inception_score_std": 0.1585836813016094,
    "fid_per_class": {
        "airplane": 849.0664242227806,
        "automobile": 1055.7915376864864,
        "bird": 1129.124296801309,
        "cat": 872.6780966418042,
        "deer": 1165.1180315853564,
        "dog": 916.6798942663783,
        "frog": 1206.0491308221065,
        "horse": 1079.9798232500366,
        "ship": 843.9602828267208,
        "truck": 1074.206160883883
    },
    "fid": 600.4346348803256,
    "wasserstein_distance": null,
    "g_loss": null,
    "g_cost": null,
    "d_loss_real": null,
    "d_loss_fake": null
}