{
    "epoch": 150,
    "avg_current_window": 913.9765466926166,
    "avg_prior_window": 927.8327296765351,
    "inception_score_mean": 1.9483647802757538,
    "inception_score_std": 0.09546830674932297,
    "fid_per_class": {
        "airplane": 930.9438609828217,
        "automobile": 1139.9099775264476,
        "bird": 1185.6072762133772,
        "cat": 926.6037802529429,
        "deer": 1139.956183033786,
        "dog": 946.8302150205361,
        "frog": 1304.6288939437554,
        "horse": 1080.007944587766,
        "ship": 866.7166299183065,
        "truck": 1067.4336624553318
    },
    "fid": 656.383530925307,
    "wasserstein_distance": null,
    "g_loss": null,
    "g_cost": null,
    "d_loss_real": null,
    "d_loss_fake": null
}