{
    "epoch": 21,
    "avg_current_window": 2272.392088790646,
    "avg_prior_window": 2498.6568234018814,
    "inception_score_mean": 1.2780824075380175,
    "inception_score_std": 0.0736889148068749,
    "fid_per_class": {
        "airplane": 2068.140597217416,
        "automobile": 2105.156805574908,
        "bird": 1608.7251389238027,
        "cat": 1951.3096451236638,
        "deer": 2088.126989289545,
        "dog": 1928.042736353485,
        "frog": 1898.106536410432,
        "horse": 1990.1911864284891,
        "ship": 2127.759271654704,
        "truck": 2162.6459321587113
    },
    "fid": 1754.7950573246758,
    "wasserstein_distance": null,
    "g_loss": null,
    "g_cost": null,
    "d_loss_real": null,
    "d_loss_fake": null
}