{
    "epoch": 24,
    "avg_current_window": 2175.6287818004025,
    "avg_prior_window": 2412.7502304036225,
    "inception_score_mean": 1.4808882205731266,
    "inception_score_std": 0.12018748660102788,
    "fid_per_class": {
        "airplane": 1410.7651555229331,
        "automobile": 1407.1402677575677,
        "bird": 1133.6795038885846,
        "cat": 1166.94568521148,
        "deer": 1284.7016855100599,
        "dog": 1360.3311719972485,
        "frog": 1297.2087475002609,
        "horse": 1325.858626939633,
        "ship": 1442.587136486738,
        "truck": 1408.448690393875
    },
    "fid": 991.3425454434971,
    "wasserstein_distance": null,
    "g_loss": null,
    "g_cost": null,
    "d_loss_real": null,
    "d_loss_fake": null
}