{
    "epoch": 169,
    "avg_current_window": 883.1440966176623,
    "avg_prior_window": 893.85686230632,
    "inception_score_mean": 1.9342727615777957,
    "inception_score_std": 0.14664499763166974,
    "fid_per_class": {
        "airplane": 906.9856424193327,
        "automobile": 1044.4736797967817,
        "bird": 1132.807166860148,
        "cat": 854.754648459795,
        "deer": 1165.7236887154104,
        "dog": 962.3390204799633,
        "frog": 1103.8505525624962,
        "horse": 1042.5770565219516,
        "ship": 855.0914651095428,
        "truck": 970.1789593066195
    },
    "fid": 596.9077087248471,
    "wasserstein_distance": null,
    "g_loss": null,
    "g_cost": null,
    "d_loss_real": null,
    "d_loss_fake": null
}