{
    "epoch": 136,
    "avg_current_window": 943.7285382714192,
    "avg_prior_window": 961.1799690553595,
    "inception_score_mean": 2.003497605316803,
    "inception_score_std": 0.14210326324359437,
    "fid_per_class": {
        "airplane": 907.8450303990675,
        "automobile": 1159.1896154800604,
        "bird": 1089.317963387242,
        "cat": 850.2876623266444,
        "deer": 1128.1466983181638,
        "dog": 889.3836101871193,
        "frog": 1073.672821049179,
        "horse": 1054.7246966896705,
        "ship": 872.5365492920306,
        "truck": 1145.9689506095324
    },
    "fid": 593.5160411251676,
    "wasserstein_distance": null,
    "g_loss": null,
    "g_cost": null,
    "d_loss_real": null,
    "d_loss_fake": null
}