{
    "epoch": 135,
    "avg_current_window": 946.327655660321,
    "avg_prior_window": 964.1061069176284,
    "inception_score_mean": 2.0176807853302323,
    "inception_score_std": 0.14863186599885275,
    "fid_per_class": {
        "airplane": 870.3985418365772,
        "automobile": 1067.879099513531,
        "bird": 1114.1663025530388,
        "cat": 883.3921856762106,
        "deer": 1124.3241707859706,
        "dog": 976.1888317806303,
        "frog": 1093.999802302103,
        "horse": 1056.593041306739,
        "ship": 795.1822246854197,
        "truck": 1057.2236900845583
    },
    "fid": 592.8476907696704,
    "wasserstein_distance": null,
    "g_loss": null,
    "g_cost": null,
    "d_loss_real": null,
    "d_loss_fake": null
}