{
    "epoch": 86,
    "avg_current_window": 1126.9265831691441,
    "avg_prior_window": 1165.279970493489,
    "inception_score_mean": 2.0367379733880453,
    "inception_score_std": 0.08479198919915587,
    "fid_per_class": {
        "airplane": 795.1516062092096,
        "automobile": 1172.5293026765082,
        "bird": 1068.694357167666,
        "cat": 903.9531532512872,
        "deer": 1062.9179447639285,
        "dog": 940.873102042872,
        "frog": 1087.4434241593558,
        "horse": 1043.3567800281837,
        "ship": 818.6693698158529,
        "truck": 1048.7631723295033
    },
    "fid": 570.4532459493802,
    "wasserstein_distance": null,
    "g_loss": null,
    "g_cost": null,
    "d_loss_real": null,
    "d_loss_fake": null
}