{
    "epoch": 29,
    "avg_current_window": 1967.5422773401747,
    "avg_prior_window": 2216.9347211938816,
    "inception_score_mean": 1.585447333674408,
    "inception_score_std": 0.07375484253647391,
    "fid_per_class": {
        "airplane": 949.0396285505924,
        "automobile": 1185.2088187951654,
        "bird": 1310.6654155341516,
        "cat": 1153.3420381609844,
        "deer": 1243.4009045048588,
        "dog": 1296.7807770350023,
        "frog": 1482.6870395041237,
        "horse": 1197.3519552693385,
        "ship": 938.5167070430933,
        "truck": 1181.060156284176
    },
    "fid": 859.5571289201637,
    "wasserstein_distance": null,
    "g_loss": null,
    "g_cost": null,
    "d_loss_real": null,
    "d_loss_fake": null
}