{
    "epoch": 175,
    "avg_current_window": 874.3087776148667,
    "avg_prior_window": 885.2682816217132,
    "inception_score_mean": 1.9557064906859178,
    "inception_score_std": 0.07895652395643171,
    "fid_per_class": {
        "airplane": 839.6682040617827,
        "automobile": 1110.2366647840931,
        "bird": 1170.2287482283361,
        "cat": 990.554744199327,
        "deer": 1248.640451781952,
        "dog": 974.6193802424918,
        "frog": 1282.0330606245627,
        "horse": 1052.633259503113,
        "ship": 889.1194946500425,
        "truck": 989.7553811566114
    },
    "fid": 657.8718857636867,
    "wasserstein_distance": null,
    "g_loss": null,
    "g_cost": null,
    "d_loss_real": null,
    "d_loss_fake": null
}