{
    "epoch": 129,
    "avg_current_window": 962.6552709104641,
    "avg_prior_window": 981.0131315788983,
    "inception_score_mean": 2.0155216673884317,
    "inception_score_std": 0.12480763198823006,
    "fid_per_class": {
        "airplane": 853.1527077818178,
        "automobile": 1014.2728703658272,
        "bird": 1142.2037633353184,
        "cat": 850.5889114950178,
        "deer": 1125.1207724351796,
        "dog": 889.9031332085049,
        "frog": 1144.6287755508051,
        "horse": 984.0918713068438,
        "ship": 831.9434137423709,
        "truck": 929.9188328104328
    },
    "fid": 562.7539191706896,
    "wasserstein_distance": null,
    "g_loss": null,
    "g_cost": null,
    "d_loss_real": null,
    "d_loss_fake": null
}