{
    "epoch": 9,
    "avg_current_window": 2246.3606085422393,
    "avg_prior_window": 2601.434789888232,
    "inception_score_mean": 1.00026075642408,
    "inception_score_std": 0.0004398463208687955,
    "fid_per_class": {
        "airplane": 2140.6993952568264,
        "automobile": 2696.6877280610943,
        "bird": 2618.3961051705182,
        "cat": 2554.1823522849263,
        "deer": 3119.5514626312392,
        "dog": 2770.9394517490737,
        "frog": 2688.076667959055,
        "horse": 2631.869211801877,
        "ship": 2486.180215178774,
        "truck": 2196.2507135097053
    },
    "fid": 2462.381391464699,
    "wasserstein_distance": null,
    "g_loss": null,
    "g_cost": null,
    "d_loss_real": null,
    "d_loss_fake": null
}