{
    "epoch": 30,
    "avg_current_window": 1930.6094390595074,
    "avg_prior_window": 2168.1554301629803,
    "inception_score_mean": 1.6120600648280707,
    "inception_score_std": 0.07859766938155234,
    "fid_per_class": {
        "airplane": 993.8610113149471,
        "automobile": 1217.5167334137864,
        "bird": 1343.3819088734265,
        "cat": 1055.950673312642,
        "deer": 1296.5980933641752,
        "dog": 1192.8655000960234,
        "frog": 1405.981762545106,
        "horse": 1217.9611415343184,
        "ship": 841.2585796468783,
        "truck": 1198.3156313152515
    },
    "fid": 834.0069686160847,
    "wasserstein_distance": null,
    "g_loss": null,
    "g_cost": null,
    "d_loss_real": null,
    "d_loss_fake": null
}