{
    "epoch": 162,
    "avg_current_window": 892.9194769437041,
    "avg_prior_window": 905.7953737472294,
    "inception_score_mean": 2.0015303236159503,
    "inception_score_std": 0.12428323289550663,
    "fid_per_class": {
        "airplane": 890.7274241301028,
        "automobile": 1145.105932797598,
        "bird": 1155.5785331405862,
        "cat": 900.0368924722849,
        "deer": 1230.5675947457846,
        "dog": 953.1050610164735,
        "frog": 1209.334925215749,
        "horse": 1118.3923586051014,
        "ship": 863.1032828891114,
        "truck": 1087.9180194964547
    },
    "fid": 656.0953827916878,
    "wasserstein_distance": null,
    "g_loss": null,
    "g_cost": null,
    "d_loss_real": null,
    "d_loss_fake": null
}