{
    "epoch": 102,
    "avg_current_window": 1049.1626146057338,
    "avg_prior_window": 1076.6420033721786,
    "inception_score_mean": 1.9752188759351974,
    "inception_score_std": 0.1068254536867991,
    "fid_per_class": {
        "airplane": 822.9405098707048,
        "automobile": 1101.4821056689004,
        "bird": 1199.6853914597957,
        "cat": 898.4803901294903,
        "deer": 1251.0995396076069,
        "dog": 930.081051011286,
        "frog": 1348.980634186393,
        "horse": 1103.5364599262248,
        "ship": 804.6750957948391,
        "truck": 1099.420841716038
    },
    "fid": 646.294329362658,
    "wasserstein_distance": null,
    "g_loss": null,
    "g_cost": null,
    "d_loss_real": null,
    "d_loss_fake": null
}