{
    "epoch": 50,
    "avg_current_window": 1470.95349629228,
    "avg_prior_window": 1569.6971866422712,
    "inception_score_mean": 1.6896556446579367,
    "inception_score_std": 0.09201232872262445,
    "fid_per_class": {
        "airplane": 815.9878118113868,
        "automobile": 1103.0597766442665,
        "bird": 1086.3691910074472,
        "cat": 949.5605819413126,
        "deer": 1067.051263961962,
        "dog": 1000.6853685233629,
        "frog": 1099.3086276792478,
        "horse": 1132.3626090011107,
        "ship": 823.617788660282,
        "truck": 1063.7768072972087
    },
    "fid": 637.9457663109463,
    "wasserstein_distance": null,
    "g_loss": null,
    "g_cost": null,
    "d_loss_real": null,
    "d_loss_fake": null
}