{
    "epoch": 146,
    "avg_current_window": 921.4777109801204,
    "avg_prior_window": 937.1540496731131,
    "inception_score_mean": 1.9883703083255124,
    "inception_score_std": 0.13403140473470074,
    "fid_per_class": {
        "airplane": 875.0313752505238,
        "automobile": 1064.8077284278936,
        "bird": 1117.5581482367443,
        "cat": 823.5885411079031,
        "deer": 1206.6088816688389,
        "dog": 927.3502815814938,
        "frog": 1133.1873869336496,
        "horse": 1062.0831219197944,
        "ship": 847.1184413891917,
        "truck": 1037.530012072154
    },
    "fid": 600.1897062475703,
    "wasserstein_distance": null,
    "g_loss": null,
    "g_cost": null,
    "d_loss_real": null,
    "d_loss_fake": null
}