{
    "epoch": 111,
    "avg_current_window": 1017.0745927443368,
    "avg_prior_window": 1040.7699989213438,
    "inception_score_mean": 1.9444109588505931,
    "inception_score_std": 0.08942235246582537,
    "fid_per_class": {
        "airplane": 866.5972704823557,
        "automobile": 1125.07074208099,
        "bird": 1266.896427991047,
        "cat": 919.2674357109581,
        "deer": 1244.9776396448683,
        "dog": 1026.7558874289425,
        "frog": 1286.9237403610055,
        "horse": 1128.6480693409644,
        "ship": 903.037529660339,
        "truck": 1116.3447484174285
    },
    "fid": 695.2683838143097,
    "wasserstein_distance": null,
    "g_loss": null,
    "g_cost": null,
    "d_loss_real": null,
    "d_loss_fake": null
}