{
    "epoch": 151,
    "avg_current_window": 912.2706326809126,
    "avg_prior_window": 925.5885993790763,
    "inception_score_mean": 1.904787763555386,
    "inception_score_std": 0.12125488925611899,
    "fid_per_class": {
        "airplane": 853.6566190109133,
        "automobile": 1073.5847584570326,
        "bird": 1256.047212890905,
        "cat": 949.9170516000358,
        "deer": 1270.723836886846,
        "dog": 1023.5779628638538,
        "frog": 1311.8367312923115,
        "horse": 1167.3735879235403,
        "ship": 832.2042481071836,
        "truck": 1160.0396823093902
    },
    "fid": 685.0301663217459,
    "wasserstein_distance": null,
    "g_loss": null,
    "g_cost": null,
    "d_loss_real": null,
    "d_loss_fake": null
}