{
    "epoch": 67,
    "avg_current_window": 1266.3236075710001,
    "avg_prior_window": 1325.272954424824,
    "inception_score_mean": 1.880057207047391,
    "inception_score_std": 0.16042409263078752,
    "fid_per_class": {
        "airplane": 879.5118821339934,
        "automobile": 1187.932221931303,
        "bird": 1141.5111018243595,
        "cat": 966.2156121775846,
        "deer": 1223.4175656627021,
        "dog": 1005.8786064196552,
        "frog": 1225.7337254621468,
        "horse": 1111.521942978668,
        "ship": 912.1897081329189,
        "truck": 1118.4342680027278
    },
    "fid": 653.3546652547911,
    "wasserstein_distance": null,
    "g_loss": null,
    "g_cost": null,
    "d_loss_real": null,
    "d_loss_fake": null
}