{
    "epoch": 20,
    "avg_current_window": 2292.112718883441,
    "avg_prior_window": 2536.2419698541835,
    "inception_score_mean": 1.3255101438413557,
    "inception_score_std": 0.0754362345351389,
    "fid_per_class": {
        "airplane": 1796.1433690836482,
        "automobile": 2331.696465813993,
        "bird": 1921.0043312883386,
        "cat": 2151.159894514992,
        "deer": 2550.8968143644856,
        "dog": 1825.7200572600148,
        "frog": 2133.8851990304997,
        "horse": 2296.3318034912368,
        "ship": 2040.4690597191084,
        "truck": 2058.6476990124693
    },
    "fid": 1877.9794869347365,
    "wasserstein_distance": null,
    "g_loss": null,
    "g_cost": null,
    "d_loss_real": null,
    "d_loss_fake": null
}