{
    "epoch": 158,
    "avg_current_window": 900.0624916349052,
    "avg_prior_window": 912.9360127585295,
    "inception_score_mean": 2.018458454428391,
    "inception_score_std": 0.13280438678494666,
    "fid_per_class": {
        "airplane": 866.1779836483272,
        "automobile": 1104.6817128464604,
        "bird": 1159.2791258969048,
        "cat": 882.8437622229619,
        "deer": 1160.6445986063372,
        "dog": 908.9014522363086,
        "frog": 1126.9006201245727,
        "horse": 1042.6291904617296,
        "ship": 819.7751424439805,
        "truck": 1049.4182526297268
    },
    "fid": 583.0955405828156,
    "wasserstein_distance": null,
    "g_loss": null,
    "g_cost": null,
    "d_loss_real": null,
    "d_loss_fake": null
}