{
    "epoch": 116,
    "avg_current_window": 1000.0254424568859,
    "avg_prior_window": 1023.3382718777991,
    "inception_score_mean": 2.0567503589648597,
    "inception_score_std": 0.14398975552222618,
    "fid_per_class": {
        "airplane": 806.2907695626066,
        "automobile": 1090.4141906957154,
        "bird": 1188.0853592859398,
        "cat": 921.8860777590489,
        "deer": 1143.5564355055658,
        "dog": 931.7060521350871,
        "frog": 1278.249591205254,
        "horse": 1034.8976900477555,
        "ship": 793.44496507153,
        "truck": 1028.0554227347209
    },
    "fid": 614.6154496691738,
    "wasserstein_distance": null,
    "g_loss": null,
    "g_cost": null,
    "d_loss_real": null,
    "d_loss_fake": null
}