{
    "epoch": 168,
    "avg_current_window": 884.3168023321242,
    "avg_prior_window": 895.349154513825,
    "inception_score_mean": 1.9700902170469259,
    "inception_score_std": 0.08466511293658026,
    "fid_per_class": {
        "airplane": 920.4727998104016,
        "automobile": 1138.5081302334395,
        "bird": 1192.43143756069,
        "cat": 973.7283633015716,
        "deer": 1244.9916311894565,
        "dog": 953.9277091810504,
        "frog": 1335.342512758784,
        "horse": 1115.0677027858574,
        "ship": 844.3193520632608,
        "truck": 1137.9156071815416
    },
    "fid": 686.1295365880643,
    "wasserstein_distance": null,
    "g_loss": null,
    "g_cost": null,
    "d_loss_real": null,
    "d_loss_fake": null
}