{
    "epoch": 113,
    "avg_current_window": 1010.6888886656168,
    "avg_prior_window": 1033.13455107293,
    "inception_score_mean": 1.9391870409151948,
    "inception_score_std": 0.12480482651919864,
    "fid_per_class": {
        "airplane": 889.2498057088012,
        "automobile": 1135.485538105326,
        "bird": 1248.0233563599677,
        "cat": 865.2268231692838,
        "deer": 1201.2883924221078,
        "dog": 928.3128548053357,
        "frog": 1134.4246856559184,
        "horse": 1054.9106259599953,
        "ship": 841.045001610811,
        "truck": 1022.5957689276502
    },
    "fid": 621.1704488971525,
    "wasserstein_distance": null,
    "g_loss": null,
    "g_cost": null,
    "d_loss_real": null,
    "d_loss_fake": null
}