{
    "epoch": 76,
    "avg_current_window": 1192.1580119174075,
    "avg_prior_window": 1240.0304779984863,
    "inception_score_mean": 1.9796745918879992,
    "inception_score_std": 0.17342064908565763,
    "fid_per_class": {
        "airplane": 917.2437628142723,
        "automobile": 1092.9874989096527,
        "bird": 1167.6618633755033,
        "cat": 864.6384675640322,
        "deer": 1195.6856093561128,
        "dog": 966.8551038768744,
        "frog": 1204.394512013646,
        "horse": 1045.2839300141131,
        "ship": 851.5967041317267,
        "truck": 1041.6025022093095
    },
    "fid": 617.9939910105081,
    "wasserstein_distance": null,
    "g_loss": null,
    "g_cost": null,
    "d_loss_real": null,
    "d_loss_fake": null
}