{
    "epoch": 59,
    "avg_current_window": 1348.7211721175472,
    "avg_prior_window": 1424.1125543619808,
    "inception_score_mean": 1.8336600816206041,
    "inception_score_std": 0.14610673091964763,
    "fid_per_class": {
        "airplane": 835.4142299435257,
        "automobile": 1070.490632430109,
        "bird": 1220.3945109022297,
        "cat": 864.3385291769932,
        "deer": 1109.7246686591716,
        "dog": 986.3085003393617,
        "frog": 1198.1279335888391,
        "horse": 1101.1470007246423,
        "ship": 832.6008053543269,
        "truck": 1037.3514520749316
    },
    "fid": 622.9222956322866,
    "wasserstein_distance": null,
    "g_loss": null,
    "g_cost": null,
    "d_loss_real": null,
    "d_loss_fake": null
}