{
    "epoch": 58,
    "avg_current_window": 1360.689468671435,
    "avg_prior_window": 1438.5615383041943,
    "inception_score_mean": 1.8611316112073122,
    "inception_score_std": 0.10041850458833329,
    "fid_per_class": {
        "airplane": 867.4083199564097,
        "automobile": 1153.6305216913324,
        "bird": 1202.0342240070947,
        "cat": 889.4856600544362,
        "deer": 1255.171910029249,
        "dog": 938.1577971484464,
        "frog": 1335.8701904945142,
        "horse": 1146.662512776708,
        "ship": 802.4039180054149,
        "truck": 1131.4721348180015
    },
    "fid": 654.5599719920548,
    "wasserstein_distance": null,
    "g_loss": null,
    "g_cost": null,
    "d_loss_real": null,
    "d_loss_fake": null
}