{
    "epoch": 193,
    "avg_current_window": 851.2999910668715,
    "avg_prior_window": 860.3775495665161,
    "inception_score_mean": 1.9442360627015973,
    "inception_score_std": 0.09525503118227668,
    "fid_per_class": {
        "airplane": 835.7341194347493,
        "automobile": 1151.903531072806,
        "bird": 1170.527091264795,
        "cat": 943.8437173738538,
        "deer": 1235.9549217452318,
        "dog": 1019.8155699494433,
        "frog": 1297.5792823959846,
        "horse": 1133.6218647542046,
        "ship": 868.7294120139185,
        "truck": 1065.1408001293369
    },
    "fid": 666.4025840152207,
    "wasserstein_distance": null,
    "g_loss": null,
    "g_cost": null,
    "d_loss_real": null,
    "d_loss_fake": null
}