{
    "epoch": 126,
    "avg_current_window": 970.4525812785104,
    "avg_prior_window": 989.2073427426255,
    "inception_score_mean": 1.9281647775289994,
    "inception_score_std": 0.1230787684270592,
    "fid_per_class": {
        "airplane": 867.0783744062203,
        "automobile": 1186.1806828842196,
        "bird": 1203.8097845935781,
        "cat": 902.2089027330669,
        "deer": 1282.7943379422113,
        "dog": 969.16820256583,
        "frog": 1264.860170864429,
        "horse": 1039.1571549843181,
        "ship": 821.4321657236866,
        "truck": 1101.9042244896295
    },
    "fid": 654.2523223139485,
    "wasserstein_distance": null,
    "g_loss": null,
    "g_cost": null,
    "d_loss_real": null,
    "d_loss_fake": null
}