{
    "epoch": 13,
    "avg_current_window": 1363.9971981890872,
    "avg_prior_window": 1735.0048642011689,
    "inception_score_mean": 1.5228717069416473,
    "inception_score_std": 0.07825801893281809,
    "fid_per_class": {
        "airplane": 1067.3907511710095,
        "automobile": 1353.7633728502472,
        "bird": 1214.9153491924494,
        "cat": 1162.185493155437,
        "deer": 1270.0549160391647,
        "dog": 1229.1211903293004,
        "frog": 1286.087390898313,
        "horse": 1346.5577558413422,
        "ship": 1045.2135748360192,
        "truck": 1208.529246385229
    },
    "fid": 881.1070209474924,
    "wasserstein_distance": null,
    "g_loss": null,
    "g_cost": null,
    "d_loss_real": null,
    "d_loss_fake": null
}