{
    "epoch": 6,
    "avg_current_window": 1624.9572073228228,
    "avg_prior_window": 3.0,
    "inception_score_mean": 1.3375212838938206,
    "inception_score_std": 0.07690806366026763,
    "fid_per_class": {
        "airplane": 1529.4620477378755,
        "automobile": 1722.6432957152506,
        "bird": 1496.1918817444882,
        "cat": 1537.5835448626326,
        "deer": 1717.9676299978494,
        "dog": 1617.355803641689,
        "frog": 1797.0280447437249,
        "horse": 1666.6797106413153,
        "ship": 1619.8620274854338,
        "truck": 1592.3185712090071
    },
    "fid": 1339.7352700739546,
    "wasserstein_distance": null,
    "g_loss": null,
    "g_cost": null,
    "d_loss_real": null,
    "d_loss_fake": null
}