{
    "epoch": 26,
    "avg_current_window": 1088.6923739286356,
    "avg_prior_window": 1209.7875045453977,
    "inception_score_mean": 2.07097866198505,
    "inception_score_std": 0.1743258684046514,
    "fid_per_class": {
        "airplane": 856.8939749061028,
        "automobile": 1119.574056798204,
        "bird": 1187.2044962816167,
        "cat": 1035.3511132195467,
        "deer": 1387.967794258215,
        "dog": 1169.6362464379697,
        "frog": 1409.6053832886616,
        "horse": 1353.3779032177981,
        "ship": 805.3834203064972,
        "truck": 1013.1717279361428
    },
    "fid": 726.0506190339113,
    "wasserstein_distance": null,
    "g_loss": null,
    "g_cost": null,
    "d_loss_real": null,
    "d_loss_fake": null
}