{
    "epoch": 12,
    "avg_current_window": 1409.8794553142304,
    "avg_prior_window": 1785.3423176294707,
    "inception_score_mean": 1.788363744749231,
    "inception_score_std": 0.1677736208201109,
    "fid_per_class": {
        "airplane": 1149.8969149122934,
        "automobile": 1259.5393192914366,
        "bird": 1227.7898523773515,
        "cat": 1132.411394540386,
        "deer": 1270.2296970743846,
        "dog": 1234.9977728549502,
        "frog": 1405.1186604087106,
        "horse": 1321.9016821979822,
        "ship": 1101.3665201586487,
        "truck": 1276.6913126710479
    },
    "fid": 813.4101126873668,
    "wasserstein_distance": null,
    "g_loss": null,
    "g_cost": null,
    "d_loss_real": null,
    "d_loss_fake": null
}