{
    "epoch": 162,
    "avg_current_window": 783.1703915833523,
    "avg_prior_window": 792.1650925561161,
    "inception_score_mean": 2.095311363013006,
    "inception_score_std": 0.13145262826224244,
    "fid_per_class": {
        "airplane": 848.8657932692283,
        "automobile": 1020.9326318064848,
        "bird": 1193.4601970613148,
        "cat": 917.6122577605345,
        "deer": 1235.8665438634107,
        "dog": 947.5806234537068,
        "frog": 1241.1868478960826,
        "horse": 1043.2986693284874,
        "ship": 866.352635411982,
        "truck": 894.5233950287608
    },
    "fid": 603.6190472865981,
    "wasserstein_distance": null,
    "g_loss": null,
    "g_cost": null,
    "d_loss_real": null,
    "d_loss_fake": null
}