{
    "epoch": 100,
    "avg_current_window": 785.146715244807,
    "avg_prior_window": 800.5503766784346,
    "inception_score_mean": 1.9821687963808947,
    "inception_score_std": 0.09730876837142478,
    "fid_per_class": {
        "airplane": 858.2397294635957,
        "automobile": 1100.155361983055,
        "bird": 1109.992861945205,
        "cat": 903.2953573176875,
        "deer": 1226.9107826516467,
        "dog": 950.910639860497,
        "frog": 1307.2520865586891,
        "horse": 1185.7910863656566,
        "ship": 807.9306042997589,
        "truck": 1066.2532889129318
    },
    "fid": 649.4865047165661,
    "wasserstein_distance": null,
    "g_loss": null,
    "g_cost": null,
    "d_loss_real": null,
    "d_loss_fake": null
}