{
    "epoch": 38,
    "avg_current_window": 977.8519435338413,
    "avg_prior_window": 1038.0064536131117,
    "inception_score_mean": 1.9599973094038414,
    "inception_score_std": 0.09965108809046304,
    "fid_per_class": {
        "airplane": 870.5580674323405,
        "automobile": 1228.5173411764672,
        "bird": 1166.6563543444522,
        "cat": 979.6219264907123,
        "deer": 1358.0677851307005,
        "dog": 1042.2074071025863,
        "frog": 1529.573224351005,
        "horse": 1281.0047519664358,
        "ship": 854.446359967292,
        "truck": 1049.7132530853166
    },
    "fid": 728.986631426702,
    "wasserstein_distance": null,
    "g_loss": null,
    "g_cost": null,
    "d_loss_real": null,
    "d_loss_fake": null
}