{
    "epoch": 118,
    "avg_current_window": 835.846083829047,
    "avg_prior_window": 849.5186191766298,
    "inception_score_mean": 2.0560916279330836,
    "inception_score_std": 0.16870265419254968,
    "fid_per_class": {
        "airplane": 861.0075842486007,
        "automobile": 1076.747114399502,
        "bird": 1134.340648686673,
        "cat": 907.6952125871488,
        "deer": 1206.1506146973927,
        "dog": 866.5337883322778,
        "frog": 1182.131279039564,
        "horse": 1012.889520902592,
        "ship": 820.6429468983516,
        "truck": 1110.6520997831874
    },
    "fid": 600.7345143703533,
    "wasserstein_distance": null,
    "g_loss": null,
    "g_cost": null,
    "d_loss_real": null,
    "d_loss_fake": null
}