{
    "epoch": 153,
    "avg_current_window": 792.4073083678966,
    "avg_prior_window": 802.1166058915331,
    "inception_score_mean": 2.012462222562291,
    "inception_score_std": 0.10836453912638427,
    "fid_per_class": {
        "airplane": 827.0124297673395,
        "automobile": 1065.3453969125349,
        "bird": 1152.6695961679013,
        "cat": 931.0080105389673,
        "deer": 1258.886811690208,
        "dog": 907.3983295723453,
        "frog": 1180.8446387816355,
        "horse": 1053.8684628868978,
        "ship": 828.7951400219264,
        "truck": 945.0490938672153
    },
    "fid": 605.367503826011,
    "wasserstein_distance": null,
    "g_loss": null,
    "g_cost": null,
    "d_loss_real": null,
    "d_loss_fake": null
}