{
    "epoch": 31,
    "avg_current_window": 1031.2913140724686,
    "avg_prior_window": 1116.6173977376322,
    "inception_score_mean": 2.04519525222047,
    "inception_score_std": 0.10527722306247946,
    "fid_per_class": {
        "airplane": 858.568056135083,
        "automobile": 1141.5188694206213,
        "bird": 1267.0060766324577,
        "cat": 1046.6597324196573,
        "deer": 1413.9611421448553,
        "dog": 1164.3029759366618,
        "frog": 1675.9573192318835,
        "horse": 1352.8944415073966,
        "ship": 889.2025986430863,
        "truck": 1137.45445452951
    },
    "fid": 774.9271737439327,
    "wasserstein_distance": null,
    "g_loss": null,
    "g_cost": null,
    "d_loss_real": null,
    "d_loss_fake": null
}