{
    "epoch": 186,
    "avg_current_window": 763.6375410057368,
    "avg_prior_window": 770.8787320391606,
    "inception_score_mean": 2.0708400367792583,
    "inception_score_std": 0.17789075979094926,
    "fid_per_class": {
        "airplane": 861.2691070076012,
        "automobile": 1023.1770654754724,
        "bird": 1228.5859962172478,
        "cat": 932.4051920593023,
        "deer": 1264.3366284288281,
        "dog": 973.3452482193682,
        "frog": 1337.0779887587605,
        "horse": 1146.991522839523,
        "ship": 863.450943786261,
        "truck": 971.5735393587108
    },
    "fid": 653.9851567181581,
    "wasserstein_distance": null,
    "g_loss": null,
    "g_cost": null,
    "d_loss_real": null,
    "d_loss_fake": null
}