{
    "epoch": 17,
    "avg_current_window": 1246.549892014186,
    "avg_prior_window": 1477.663631371511,
    "inception_score_mean": 1.8951114535350413,
    "inception_score_std": 0.1107911276553499,
    "fid_per_class": {
        "airplane": 878.2847183308037,
        "automobile": 1259.6332433341245,
        "bird": 1131.9637386528607,
        "cat": 936.1822584205938,
        "deer": 1327.8536471947032,
        "dog": 1043.660076556391,
        "frog": 1405.5720681728558,
        "horse": 1310.1133581027975,
        "ship": 870.7021232643945,
        "truck": 1086.9055584001828
    },
    "fid": 727.8050591352281,
    "wasserstein_distance": null,
    "g_loss": null,
    "g_cost": null,
    "d_loss_real": null,
    "d_loss_fake": null
}