{
    "epoch": 182,
    "avg_current_window": 766.643134610374,
    "avg_prior_window": 774.1832536625494,
    "inception_score_mean": 2.020909262978136,
    "inception_score_std": 0.1316027566028617,
    "fid_per_class": {
        "airplane": 825.9427236512406,
        "automobile": 1036.750823029336,
        "bird": 1194.0110963919494,
        "cat": 926.0761580189787,
        "deer": 1218.5367062031582,
        "dog": 906.59636762214,
        "frog": 1313.171265293364,
        "horse": 1048.843289448497,
        "ship": 846.1489971963347,
        "truck": 992.6115605855199
    },
    "fid": 621.4365018992768,
    "wasserstein_distance": null,
    "g_loss": null,
    "g_cost": null,
    "d_loss_real": null,
    "d_loss_fake": null
}