{
    "epoch": 197,
    "avg_current_window": 755.4964884212285,
    "avg_prior_window": 762.207225884838,
    "inception_score_mean": 1.9629450308012366,
    "inception_score_std": 0.1562303788060568,
    "fid_per_class": {
        "airplane": 889.9999240860132,
        "automobile": 1139.9346813153443,
        "bird": 1234.0997142701917,
        "cat": 1000.4881522643103,
        "deer": 1254.2483293738246,
        "dog": 945.5029401863228,
        "frog": 1266.0120937825398,
        "horse": 1081.2115651828058,
        "ship": 895.2562672472509,
        "truck": 992.4440428434151
    },
    "fid": 669.2435068455236,
    "wasserstein_distance": null,
    "g_loss": null,
    "g_cost": null,
    "d_loss_real": null,
    "d_loss_fake": null
}