{
    "epoch": 120,
    "avg_current_window": 832.4444262143218,
    "avg_prior_window": 846.5716067462301,
    "inception_score_mean": 1.9952944205122218,
    "inception_score_std": 0.16622403123181087,
    "fid_per_class": {
        "airplane": 829.3208942755224,
        "automobile": 1049.4832035454235,
        "bird": 1196.0681928336644,
        "cat": 985.2446895294634,
        "deer": 1245.2716965264053,
        "dog": 951.1727699892717,
        "frog": 1335.5950348281574,
        "horse": 1173.7634030725883,
        "ship": 835.3296194808887,
        "truck": 1013.3778232490215
    },
    "fid": 659.2946751618839,
    "wasserstein_distance": null,
    "g_loss": null,
    "g_cost": null,
    "d_loss_real": null,
    "d_loss_fake": null
}