{
    "epoch": 15,
    "avg_current_window": 1297.3830509514942,
    "avg_prior_window": 1596.3199805501592,
    "inception_score_mean": 1.6835881832445332,
    "inception_score_std": 0.08057389879946074,
    "fid_per_class": {
        "airplane": 967.6238409918215,
        "automobile": 1370.7437020807824,
        "bird": 1348.879462007464,
        "cat": 1280.7292929893872,
        "deer": 1516.9346671601063,
        "dog": 1307.5425306286782,
        "frog": 1631.8910610305606,
        "horse": 1440.6005699168463,
        "ship": 950.194162272764,
        "truck": 1292.7308193856657
    },
    "fid": 953.3111396722389,
    "wasserstein_distance": null,
    "g_loss": null,
    "g_cost": null,
    "d_loss_real": null,
    "d_loss_fake": null
}