{
    "epoch": 163,
    "avg_current_window": 782.0688495938017,
    "avg_prior_window": 791.2417334428377,
    "inception_score_mean": 2.1166660759157905,
    "inception_score_std": 0.16232025974183054,
    "fid_per_class": {
        "airplane": 823.8871970508144,
        "automobile": 1091.9470228343828,
        "bird": 1220.474740020537,
        "cat": 1023.2244580336592,
        "deer": 1304.941814458481,
        "dog": 1022.3790347723175,
        "frog": 1404.5092230366076,
        "horse": 1138.7612314913197,
        "ship": 808.4607811312499,
        "truck": 979.4828169170802
    },
    "fid": 675.5484097243941,
    "wasserstein_distance": null,
    "g_loss": null,
    "g_cost": null,
    "d_loss_real": null,
    "d_loss_fake": null
}