{
    "epoch": 4,
    "avg_current_window": 1623.3002038098118,
    "avg_prior_window": 2319.5396606229233,
    "inception_score_mean": 1.367680234065575,
    "inception_score_std": 0.0651447203170395,
    "fid_per_class": {
        "airplane": 1768.5457742282895,
        "automobile": 2048.07883024277,
        "bird": 2019.797054749451,
        "cat": 2165.5927754551835,
        "deer": 2333.0085399538393,
        "dog": 2180.0455671458203,
        "frog": 2494.072049870166,
        "horse": 2201.0179481909745,
        "ship": 1780.1453221565407,
        "truck": 1911.0422628161339
    },
    "fid": 1843.983041131621,
    "wasserstein_distance": null,
    "g_loss": null,
    "g_cost": null,
    "d_loss_real": null,
    "d_loss_fake": null
}