{
    "epoch": 48,
    "avg_current_window": 923.0754873320151,
    "avg_prior_window": 961.9849181553828,
    "inception_score_mean": 2.076758664586141,
    "inception_score_std": 0.21033331572774877,
    "fid_per_class": {
        "airplane": 863.8809013112697,
        "automobile": 1090.6459568565454,
        "bird": 1130.2274608803668,
        "cat": 890.2083522192531,
        "deer": 1293.5664732769683,
        "dog": 933.578489104522,
        "frog": 1328.0865873359078,
        "horse": 1255.918772777699,
        "ship": 820.8889331216465,
        "truck": 1095.5632333986332
    },
    "fid": 653.416357180412,
    "wasserstein_distance": null,
    "g_loss": null,
    "g_cost": null,
    "d_loss_real": null,
    "d_loss_fake": null
}