{
    "epoch": 35,
    "avg_current_window": 1003.1082131613401,
    "avg_prior_window": 1065.6676912082175,
    "inception_score_mean": 2.0031206677096023,
    "inception_score_std": 0.14927898203139028,
    "fid_per_class": {
        "airplane": 807.7555464244344,
        "automobile": 1061.8156889387355,
        "bird": 1114.3007462016071,
        "cat": 936.7542646280473,
        "deer": 1258.3185400345744,
        "dog": 1004.2123556374761,
        "frog": 1292.1875973920323,
        "horse": 1303.5501930934715,
        "ship": 814.3305592858385,
        "truck": 1079.5067801032706
    },
    "fid": 644.3153485062193,
    "wasserstein_distance": null,
    "g_loss": null,
    "g_cost": null,
    "d_loss_real": null,
    "d_loss_fake": null
}