{
    "epoch": 39,
    "avg_current_window": 971.4707816849404,
    "avg_prior_window": 1032.6113959013796,
    "inception_score_mean": 2.0034958725702454,
    "inception_score_std": 0.14459330805145407,
    "fid_per_class": {
        "airplane": 888.5925665295281,
        "automobile": 1138.9960298041265,
        "bird": 1162.19162838798,
        "cat": 995.2937992327576,
        "deer": 1254.9593746687658,
        "dog": 1083.661860074602,
        "frog": 1436.6071288553999,
        "horse": 1288.4452949851193,
        "ship": 810.114509729065,
        "truck": 1090.0477030057075
    },
    "fid": 708.7133495932003,
    "wasserstein_distance": null,
    "g_loss": null,
    "g_cost": null,
    "d_loss_real": null,
    "d_loss_fake": null
}