{
    "epoch": 51,
    "avg_current_window": 911.7255831822644,
    "avg_prior_window": 946.2466627243059,
    "inception_score_mean": 1.9118978175784331,
    "inception_score_std": 0.15574319529268008,
    "fid_per_class": {
        "airplane": 794.1966367746079,
        "automobile": 1040.484349025386,
        "bird": 1163.9926940076068,
        "cat": 996.1026346215244,
        "deer": 1303.9392739501004,
        "dog": 1029.6510816693358,
        "frog": 1267.14943414225,
        "horse": 1246.272646436536,
        "ship": 814.1321647331304,
        "truck": 1117.7813913013765
    },
    "fid": 671.6370169593278,
    "wasserstein_distance": null,
    "g_loss": null,
    "g_cost": null,
    "d_loss_real": null,
    "d_loss_fake": null
}