{
    "epoch": 84,
    "avg_current_window": 816.7149332397364,
    "avg_prior_window": 835.3152551019139,
    "inception_score_mean": 2.0344873425782835,
    "inception_score_std": 0.15649661793709715,
    "fid_per_class": {
        "airplane": 858.763642612872,
        "automobile": 1033.377062162512,
        "bird": 1053.1538878871663,
        "cat": 938.7368797772424,
        "deer": 1298.2429346707686,
        "dog": 1001.1513195443974,
        "frog": 1360.2360313462273,
        "horse": 1191.0480540636095,
        "ship": 766.7495146046691,
        "truck": 993.3614249171823
    },
    "fid": 645.9457610262594,
    "wasserstein_distance": null,
    "g_loss": null,
    "g_cost": null,
    "d_loss_real": null,
    "d_loss_fake": null
}