{
    "epoch": 56,
    "avg_current_window": 892.4849125728441,
    "avg_prior_window": 924.8949364559767,
    "inception_score_mean": 1.9919086094351095,
    "inception_score_std": 0.17631390534080404,
    "fid_per_class": {
        "airplane": 803.1751267390725,
        "automobile": 1054.1724075021316,
        "bird": 1151.870519989694,
        "cat": 945.5727244053621,
        "deer": 1233.7276032676302,
        "dog": 1015.4884621921173,
        "frog": 1442.8732762911186,
        "horse": 1175.4207543374755,
        "ship": 761.9001610647117,
        "truck": 1021.7268264778099
    },
    "fid": 645.3915266156641,
    "wasserstein_distance": null,
    "g_loss": null,
    "g_cost": null,
    "d_loss_real": null,
    "d_loss_fake": null
}