{
    "epoch": 68,
    "avg_current_window": 855.0099515823223,
    "avg_prior_window": 878.8473395662003,
    "inception_score_mean": 2.0084179237001263,
    "inception_score_std": 0.17604979830596562,
    "fid_per_class": {
        "airplane": 824.2000977797005,
        "automobile": 1064.9598662128237,
        "bird": 1201.2135993923148,
        "cat": 951.2875304932285,
        "deer": 1277.3522711001497,
        "dog": 1038.3644165920732,
        "frog": 1353.49995193481,
        "horse": 1277.1973689251386,
        "ship": 837.4510219150939,
        "truck": 1043.7277345691696
    },
    "fid": 671.1396625915613,
    "wasserstein_distance": null,
    "g_loss": null,
    "g_cost": null,
    "d_loss_real": null,
    "d_loss_fake": null
}