{
    "epoch": 143,
    "avg_current_window": 802.566583795564,
    "avg_prior_window": 812.7506721754655,
    "inception_score_mean": 1.9491904236858264,
    "inception_score_std": 0.11403059132223346,
    "fid_per_class": {
        "airplane": 889.3554620474818,
        "automobile": 977.46545764552,
        "bird": 1191.714869438812,
        "cat": 961.4967113552543,
        "deer": 1277.459535656463,
        "dog": 942.6324579744276,
        "frog": 1257.4475809566734,
        "horse": 1103.7341500835767,
        "ship": 797.2111967080009,
        "truck": 989.0416643630201
    },
    "fid": 632.7843752855154,
    "wasserstein_distance": null,
    "g_loss": null,
    "g_cost": null,
    "d_loss_real": null,
    "d_loss_fake": null
}