{
    "epoch": 30,
    "avg_current_window": 1042.1069821512306,
    "avg_prior_window": 1132.240068885781,
    "inception_score_mean": 1.9809185049965585,
    "inception_score_std": 0.11814839959899695,
    "fid_per_class": {
        "airplane": 881.2932820135429,
        "automobile": 1145.6365161269707,
        "bird": 1186.597248999131,
        "cat": 1037.1708022937673,
        "deer": 1323.0661360583563,
        "dog": 1071.9117680805834,
        "frog": 1529.970754117435,
        "horse": 1252.0916988377062,
        "ship": 774.3251459624298,
        "truck": 1018.2075981698968
    },
    "fid": 706.8212717096154,
    "wasserstein_distance": null,
    "g_loss": null,
    "g_cost": null,
    "d_loss_real": null,
    "d_loss_fake": null
}