{
    "epoch": 58,
    "avg_current_window": 884.9886948558028,
    "avg_prior_window": 916.7207412750658,
    "inception_score_mean": 1.972400914163502,
    "inception_score_std": 0.09886456073976427,
    "fid_per_class": {
        "airplane": 856.9645924112938,
        "automobile": 1126.7865085593662,
        "bird": 1149.7458491143775,
        "cat": 942.9297160142842,
        "deer": 1262.3228479342497,
        "dog": 948.9773314271214,
        "frog": 1262.9353123417038,
        "horse": 1281.2399305839356,
        "ship": 856.8428167951537,
        "truck": 1145.8742284871798
    },
    "fid": 672.5384372628733,
    "wasserstein_distance": null,
    "g_loss": null,
    "g_cost": null,
    "d_loss_real": null,
    "d_loss_fake": null
}