{
    "epoch": 157,
    "avg_current_window": 788.3275856447341,
    "avg_prior_window": 797.6205143440011,
    "inception_score_mean": 2.003040193570802,
    "inception_score_std": 0.13143689480114534,
    "fid_per_class": {
        "airplane": 829.775875197626,
        "automobile": 1013.3832940601199,
        "bird": 1119.4090862500548,
        "cat": 918.1420238049841,
        "deer": 1210.0168667473292,
        "dog": 922.3278908151201,
        "frog": 1253.2898017464145,
        "horse": 1071.1759710897995,
        "ship": 760.477929414677,
        "truck": 976.5858988566305
    },
    "fid": 602.4885850869753,
    "wasserstein_distance": null,
    "g_loss": null,
    "g_cost": null,
    "d_loss_real": null,
    "d_loss_fake": null
}