{
    "epoch": 29,
    "avg_current_window": 1051.3501878240236,
    "avg_prior_window": 1148.0218176490773,
    "inception_score_mean": 2.094740662150338,
    "inception_score_std": 0.15425624420462966,
    "fid_per_class": {
        "airplane": 938.7218994303844,
        "automobile": 1126.6970710004891,
        "bird": 1250.4641857633526,
        "cat": 1050.1364634669565,
        "deer": 1439.1717962171424,
        "dog": 1045.4920188336137,
        "frog": 1520.186697671977,
        "horse": 1396.5297709202835,
        "ship": 771.5401246676237,
        "truck": 1065.2810430327227
    },
    "fid": 774.0540176402271,
    "wasserstein_distance": null,
    "g_loss": null,
    "g_cost": null,
    "d_loss_real": null,
    "d_loss_fake": null
}