{
    "epoch": 55,
    "avg_current_window": 895.7672458485537,
    "avg_prior_window": 929.9600948459097,
    "inception_score_mean": 1.9049580219958817,
    "inception_score_std": 0.13412848919492415,
    "fid_per_class": {
        "airplane": 795.9502123293829,
        "automobile": 1053.7072566618426,
        "bird": 1161.6490909680435,
        "cat": 1001.319086356724,
        "deer": 1338.5228847967137,
        "dog": 1146.758208718979,
        "frog": 1467.2501084725827,
        "horse": 1287.3550851082637,
        "ship": 768.5291788055101,
        "truck": 1034.2354170649342
    },
    "fid": 711.9565824088236,
    "wasserstein_distance": null,
    "g_loss": null,
    "g_cost": null,
    "d_loss_real": null,
    "d_loss_fake": null
}