{
    "epoch": 129,
    "avg_current_window": 819.6349549996838,
    "avg_prior_window": 830.7631521179453,
    "inception_score_mean": 2.0575623796732514,
    "inception_score_std": 0.14093541186895733,
    "fid_per_class": {
        "airplane": 892.4918303797397,
        "automobile": 1004.0081429206398,
        "bird": 1227.9380950775926,
        "cat": 930.6448850112959,
        "deer": 1213.573655465516,
        "dog": 966.3517722451986,
        "frog": 1258.1515574252887,
        "horse": 1173.3373896236938,
        "ship": 807.5737868111082,
        "truck": 929.6606798521083
    },
    "fid": 636.4805503804378,
    "wasserstein_distance": null,
    "g_loss": null,
    "g_cost": null,
    "d_loss_real": null,
    "d_loss_fake": null
}