{
    "epoch": 141,
    "avg_current_window": 804.2471211202713,
    "avg_prior_window": 815.1370592698967,
    "inception_score_mean": 1.9730046005173456,
    "inception_score_std": 0.14086900706260785,
    "fid_per_class": {
        "airplane": 830.946120742685,
        "automobile": 1067.1615787799544,
        "bird": 1287.68902034959,
        "cat": 1033.6740268457052,
        "deer": 1345.1111987251052,
        "dog": 967.700294006404,
        "frog": 1409.9764821557492,
        "horse": 1113.440523191449,
        "ship": 913.2691554108392,
        "truck": 1033.3191987277871
    },
    "fid": 702.3425480406938,
    "wasserstein_distance": null,
    "g_loss": null,
    "g_cost": null,
    "d_loss_real": null,
    "d_loss_fake": null
}