{
    "epoch": 173,
    "avg_current_window": 774.1270240186118,
    "avg_prior_window": 781.5933091408896,
    "inception_score_mean": 2.0686089939528367,
    "inception_score_std": 0.16783308289953433,
    "fid_per_class": {
        "airplane": 797.3641916290702,
        "automobile": 991.0272283157271,
        "bird": 1214.6035987773319,
        "cat": 917.3783861467186,
        "deer": 1274.5311123789113,
        "dog": 879.8332956924396,
        "frog": 1349.972974251179,
        "horse": 1051.5575836655132,
        "ship": 851.5576494510199,
        "truck": 964.3413133613752
    },
    "fid": 620.0993638484904,
    "wasserstein_distance": null,
    "g_loss": null,
    "g_cost": null,
    "d_loss_real": null,
    "d_loss_fake": null
}