{
    "epoch": 101,
    "avg_current_window": 863.8649858388628,
    "avg_prior_window": 881.1120572667409,
    "inception_score_mean": 2.118447452450007,
    "inception_score_std": 0.156520639481462,
    "fid_per_class": {
        "airplane": 910.326248986748,
        "automobile": 1059.5267407134472,
        "bird": 1252.4768699882977,
        "cat": 956.106546951481,
        "deer": 1284.6101910630287,
        "dog": 989.4648569324877,
        "frog": 1361.5320132112647,
        "horse": 1132.4893956271208,
        "ship": 849.9591987543633,
        "truck": 994.4459029259733
    },
    "fid": 657.5779468140522,
    "wasserstein_distance": null,
    "g_loss": null,
    "g_cost": null,
    "d_loss_real": null,
    "d_loss_fake": null
}