{
    "epoch": 167,
    "avg_current_window": 778.6358146236042,
    "avg_prior_window": 786.8964350851214,
    "inception_score_mean": 2.03328964470651,
    "inception_score_std": 0.1775379665202449,
    "fid_per_class": {
        "airplane": 858.0120948106396,
        "automobile": 956.7723915575098,
        "bird": 1241.6928643725862,
        "cat": 960.2893941515958,
        "deer": 1307.0547569096088,
        "dog": 952.4724248411329,
        "frog": 1264.8668961432497,
        "horse": 1114.5414389080934,
        "ship": 817.2477874297849,
        "truck": 924.3812548416815
    },
    "fid": 629.9377738990903,
    "wasserstein_distance": null,
    "g_loss": null,
    "g_cost": null,
    "d_loss_real": null,
    "d_loss_fake": null
}