{
    "epoch": 130,
    "avg_current_window": 818.2260749641512,
    "avg_prior_window": 829.3933061278852,
    "inception_score_mean": 2.07132698709761,
    "inception_score_std": 0.1171026653797911,
    "fid_per_class": {
        "airplane": 877.3674764369105,
        "automobile": 1014.6566529208543,
        "bird": 1215.4833886107847,
        "cat": 955.2365223907914,
        "deer": 1386.2068971612043,
        "dog": 960.4494316438162,
        "frog": 1246.6965008415893,
        "horse": 1202.3669771527163,
        "ship": 782.0321768509184,
        "truck": 1016.0529925896924
    },
    "fid": 651.7559660242895,
    "wasserstein_distance": null,
    "g_loss": null,
    "g_cost": null,
    "d_loss_real": null,
    "d_loss_fake": null
}