{
    "epoch": 89,
    "avg_current_window": 805.6775030821904,
    "avg_prior_window": 824.4047637281443,
    "inception_score_mean": 1.9823505455748098,
    "inception_score_std": 0.14720133047396872,
    "fid_per_class": {
        "airplane": 836.3202886046622,
        "automobile": 1119.6268096125264,
        "bird": 1113.8192871524286,
        "cat": 933.0118757099378,
        "deer": 1255.4743311266145,
        "dog": 1001.5864611299248,
        "frog": 1283.3445448399532,
        "horse": 1183.613456493953,
        "ship": 819.2957388383727,
        "truck": 1003.2099097577552
    },
    "fid": 638.5551425911069,
    "wasserstein_distance": null,
    "g_loss": null,
    "g_cost": null,
    "d_loss_real": null,
    "d_loss_fake": null
}