{
    "epoch": 185,
    "avg_current_window": 764.4159835560035,
    "avg_prior_window": 771.5393843761485,
    "inception_score_mean": 2.0291920373421304,
    "inception_score_std": 0.13510019254634673,
    "fid_per_class": {
        "airplane": 854.6050101297758,
        "automobile": 1017.7862137048455,
        "bird": 1213.8813544334903,
        "cat": 915.5423558736281,
        "deer": 1236.645124131925,
        "dog": 879.3457635468596,
        "frog": 1299.951886344421,
        "horse": 1048.350362216038,
        "ship": 814.2074842535975,
        "truck": 923.9931864871417
    },
    "fid": 619.6256692064114,
    "wasserstein_distance": null,
    "g_loss": null,
    "g_cost": null,
    "d_loss_real": null,
    "d_loss_fake": null
}