{
    "epoch": 99,
    "avg_current_window": 787.0325062582891,
    "avg_prior_window": 802.2754170914626,
    "inception_score_mean": 2.0252465339436387,
    "inception_score_std": 0.10895221333964986,
    "fid_per_class": {
        "airplane": 887.2614206184644,
        "automobile": 1062.6348484069174,
        "bird": 1057.503532455617,
        "cat": 891.1386013129047,
        "deer": 1141.7064777414846,
        "dog": 958.219436471081,
        "frog": 1139.2206326504552,
        "horse": 1109.2217420020534,
        "ship": 790.8794171240559,
        "truck": 953.456120979639
    },
    "fid": 598.4534049100798,
    "wasserstein_distance": null,
    "g_loss": null,
    "g_cost": null,
    "d_loss_real": null,
    "d_loss_fake": null
}