{
    "epoch": 128,
    "avg_current_window": 820.9975154425647,
    "avg_prior_window": 832.5434469197025,
    "inception_score_mean": 2.0219039659017155,
    "inception_score_std": 0.12780990475434217,
    "fid_per_class": {
        "airplane": 869.9354797460546,
        "automobile": 1124.43097233068,
        "bird": 1216.733312721598,
        "cat": 896.2344455474922,
        "deer": 1310.8495951276263,
        "dog": 977.2780259685333,
        "frog": 1279.1908340993527,
        "horse": 1070.951313998999,
        "ship": 821.4299510533247,
        "truck": 962.2654727283937
    },
    "fid": 645.2272183109282,
    "wasserstein_distance": null,
    "g_loss": null,
    "g_cost": null,
    "d_loss_real": null,
    "d_loss_fake": null
}