{
    "epoch": 42,
    "avg_current_window": 952.9732891944923,
    "avg_prior_window": 1004.2803744401614,
    "inception_score_mean": 2.07369900973664,
    "inception_score_std": 0.13619813584847917,
    "fid_per_class": {
        "airplane": 877.4546158757805,
        "automobile": 1113.197680620049,
        "bird": 1160.4625490146843,
        "cat": 917.8238932321769,
        "deer": 1221.481990328653,
        "dog": 1050.5803162035545,
        "frog": 1356.430688320635,
        "horse": 1246.916561313636,
        "ship": 793.267654075981,
        "truck": 1046.317961660843
    },
    "fid": 638.1108682335689,
    "wasserstein_distance": null,
    "g_loss": null,
    "g_cost": null,
    "d_loss_real": null,
    "d_loss_fake": null
}