{
    "epoch": 154,
    "avg_current_window": 791.1927641825597,
    "avg_prior_window": 801.1918379301256,
    "inception_score_mean": 2.068209847715802,
    "inception_score_std": 0.16241310692211525,
    "fid_per_class": {
        "airplane": 817.1441670682638,
        "automobile": 1072.3563049258769,
        "bird": 1251.728616512168,
        "cat": 997.1838750814486,
        "deer": 1299.4843797112583,
        "dog": 982.0220180679524,
        "frog": 1318.3498035295404,
        "horse": 1086.4329125683998,
        "ship": 781.7434743597328,
        "truck": 984.1188132640262
    },
    "fid": 653.1897308204267,
    "wasserstein_distance": null,
    "g_loss": null,
    "g_cost": null,
    "d_loss_real": null,
    "d_loss_fake": null
}