{
    "epoch": 52,
    "avg_current_window": 907.1084953702848,
    "avg_prior_window": 942.7153913178026,
    "inception_score_mean": 2.0097704090763875,
    "inception_score_std": 0.17057131834290712,
    "fid_per_class": {
        "airplane": 879.2173462391265,
        "automobile": 1088.6955898972917,
        "bird": 1184.3590791637876,
        "cat": 943.5224455068355,
        "deer": 1373.2183313753044,
        "dog": 1044.54425669678,
        "frog": 1386.5530902613905,
        "horse": 1198.7653087222047,
        "ship": 864.0596837551277,
        "truck": 1118.1279349161969
    },
    "fid": 685.908097462406,
    "wasserstein_distance": null,
    "g_loss": null,
    "g_cost": null,
    "d_loss_real": null,
    "d_loss_fake": null
}