{
    "epoch": 62,
    "avg_current_window": 870.8461965822613,
    "avg_prior_window": 900.5148123094134,
    "inception_score_mean": 1.9442176532047317,
    "inception_score_std": 0.1246258660906192,
    "fid_per_class": {
        "airplane": 863.9362237442306,
        "automobile": 1100.6162314564142,
        "bird": 1178.0996033304882,
        "cat": 990.053467609622,
        "deer": 1287.1912136287915,
        "dog": 1066.8442638077038,
        "frog": 1389.5618574768082,
        "horse": 1266.9778955935446,
        "ship": 877.9575215680085,
        "truck": 1116.7615082789027
    },
    "fid": 706.3610767694398,
    "wasserstein_distance": null,
    "g_loss": null,
    "g_cost": null,
    "d_loss_real": null,
    "d_loss_fake": null
}