{
    "epoch": 9,
    "avg_current_window": 1542.2265459565945,
    "avg_prior_window": 2084.295964092717,
    "inception_score_mean": 1.510934896335005,
    "inception_score_std": 0.06321278588767046,
    "fid_per_class": {
        "airplane": 1293.9505722787696,
        "automobile": 1594.8957158343505,
        "bird": 1500.143709208131,
        "cat": 1458.376691843899,
        "deer": 1864.6137526635382,
        "dog": 1673.4882854898888,
        "frog": 1894.2666458769506,
        "horse": 1709.3982819519406,
        "ship": 1257.271262085095,
        "truck": 1542.8916064803373
    },
    "fid": 1218.2703075689185,
    "wasserstein_distance": null,
    "g_loss": null,
    "g_cost": null,
    "d_loss_real": null,
    "d_loss_fake": null
}