{
    "epoch": 23,
    "avg_current_window": 1135.2424012091499,
    "avg_prior_window": 1261.2637849503735,
    "inception_score_mean": 2.0622220711334123,
    "inception_score_std": 0.18230361331920691,
    "fid_per_class": {
        "airplane": 911.4022178273871,
        "automobile": 1177.2496183293601,
        "bird": 1095.690664765552,
        "cat": 994.7773005157823,
        "deer": 1216.013686422339,
        "dog": 1123.6506940081815,
        "frog": 1357.8461676616755,
        "horse": 1272.8903663702663,
        "ship": 918.1075041488382,
        "truck": 1260.128374440364
    },
    "fid": 685.5536551285397,
    "wasserstein_distance": null,
    "g_loss": null,
    "g_cost": null,
    "d_loss_real": null,
    "d_loss_fake": null
}