{
    "epoch": 140,
    "avg_current_window": 805.5888088635772,
    "avg_prior_window": 816.8191174534388,
    "inception_score_mean": 2.025404394651132,
    "inception_score_std": 0.14845945814371359,
    "fid_per_class": {
        "airplane": 805.1171039506958,
        "automobile": 1058.8926929040465,
        "bird": 1194.1977175460097,
        "cat": 957.2338400428555,
        "deer": 1147.1479777238264,
        "dog": 977.9228317585371,
        "frog": 1324.6500148465268,
        "horse": 1078.6718982881948,
        "ship": 809.1769719035361,
        "truck": 943.7116894505808
    },
    "fid": 616.4108370574395,
    "wasserstein_distance": null,
    "g_loss": null,
    "g_cost": null,
    "d_loss_real": null,
    "d_loss_fake": null
}