{
    "epoch": 54,
    "avg_current_window": 899.7444312514535,
    "avg_prior_window": 933.6460239247206,
    "inception_score_mean": 1.8708681336573434,
    "inception_score_std": 0.14280030510999087,
    "fid_per_class": {
        "airplane": 792.7990102327284,
        "automobile": 1004.3661718773669,
        "bird": 1219.6254300831927,
        "cat": 968.0866462896346,
        "deer": 1276.8697860564232,
        "dog": 1075.4812394499654,
        "frog": 1441.0228360060453,
        "horse": 1290.054312568084,
        "ship": 788.35737952955,
        "truck": 990.7669241646626
    },
    "fid": 680.9992340919562,
    "wasserstein_distance": null,
    "g_loss": null,
    "g_cost": null,
    "d_loss_real": null,
    "d_loss_fake": null
}