{
    "epoch": 172,
    "avg_current_window": 775.0098846132204,
    "avg_prior_window": 782.4078971020418,
    "inception_score_mean": 2.0048063318058107,
    "inception_score_std": 0.16851320255686983,
    "fid_per_class": {
        "airplane": 812.0270305119902,
        "automobile": 1036.5679605525947,
        "bird": 1194.4849652201046,
        "cat": 909.8437225596981,
        "deer": 1243.1385796584445,
        "dog": 941.5208940871117,
        "frog": 1241.6003224951146,
        "horse": 1119.6023588402038,
        "ship": 767.9676812497844,
        "truck": 959.023922393352
    },
    "fid": 622.2750017459332,
    "wasserstein_distance": null,
    "g_loss": null,
    "g_cost": null,
    "d_loss_real": null,
    "d_loss_fake": null
}