{
    "epoch": 136,
    "avg_current_window": 810.813094530987,
    "avg_prior_window": 821.729769084963,
    "inception_score_mean": 2.0361504427588484,
    "inception_score_std": 0.11452561390010142,
    "fid_per_class": {
        "airplane": 816.7530783709473,
        "automobile": 946.901282868703,
        "bird": 1172.5390896165536,
        "cat": 903.6909537362685,
        "deer": 1221.540586722867,
        "dog": 974.1549083272448,
        "frog": 1126.4884173646997,
        "horse": 1051.3412816899947,
        "ship": 786.9171797580891,
        "truck": 921.3488294046873
    },
    "fid": 588.0592044917202,
    "wasserstein_distance": null,
    "g_loss": null,
    "g_cost": null,
    "d_loss_real": null,
    "d_loss_fake": null
}