{
    "epoch": 97,
    "avg_current_window": 790.0975387576701,
    "avg_prior_window": 806.2213278816032,
    "inception_score_mean": 1.9722723895721281,
    "inception_score_std": 0.15026792097161684,
    "fid_per_class": {
        "airplane": 845.3857312284081,
        "automobile": 1055.0352390827456,
        "bird": 1107.909566028887,
        "cat": 922.8991957997497,
        "deer": 1215.0898061134621,
        "dog": 966.8711820537626,
        "frog": 1292.297660192623,
        "horse": 1133.8314510404455,
        "ship": 787.1811742108112,
        "truck": 1006.0585196122329
    },
    "fid": 644.8527762368486,
    "wasserstein_distance": null,
    "g_loss": null,
    "g_cost": null,
    "d_loss_real": null,
    "d_loss_fake": null
}