{
    "epoch": 131,
    "avg_current_window": 816.9553107737705,
    "avg_prior_window": 828.3538785642123,
    "inception_score_mean": 2.045716675750988,
    "inception_score_std": 0.17576707453462986,
    "fid_per_class": {
        "airplane": 813.5810124627089,
        "automobile": 1085.4831635806045,
        "bird": 1209.7774282562548,
        "cat": 939.3043888107591,
        "deer": 1261.8856515348477,
        "dog": 956.7910201118866,
        "frog": 1201.4514782848466,
        "horse": 1096.6490436179556,
        "ship": 791.5906858024647,
        "truck": 988.072129703599
    },
    "fid": 625.4540387662187,
    "wasserstein_distance": null,
    "g_loss": null,
    "g_cost": null,
    "d_loss_real": null,
    "d_loss_fake": null
}