{
    "epoch": 1,
    "avg_current_window": 3.0,
    "avg_prior_window": 8.0,
    "inception_score_mean": 1.0110434740232865,
    "inception_score_std": 0.00242568867300495,
    "fid_per_class": {
        "airplane": 2398.263233386956,
        "automobile": 2264.054509163482,
        "bird": 2449.523893680294,
        "cat": 2496.365617776987,
        "deer": 2425.8415800424646,
        "dog": 2198.4929647978884,
        "frog": 2432.849213333271,
        "horse": 2309.5457916542655,
        "ship": 2393.599347641227,
        "truck": 2229.0120489476076
    },
    "fid": 2314.5396606229233,
    "wasserstein_distance": null,
    "g_loss": null,
    "g_cost": null,
    "d_loss_real": null,
    "d_loss_fake": null
}