{
    "epoch": 82,
    "avg_current_window": 820.993582650475,
    "avg_prior_window": 838.8944035832988,
    "inception_score_mean": 2.0275259521964943,
    "inception_score_std": 0.16440152486528617,
    "fid_per_class": {
        "airplane": 881.6671295899965,
        "automobile": 1077.8548863236094,
        "bird": 1133.6471582267504,
        "cat": 957.1017475334297,
        "deer": 1300.4175689331978,
        "dog": 1030.8691044959542,
        "frog": 1338.7779646927086,
        "horse": 1220.3118148999033,
        "ship": 773.6533045344463,
        "truck": 1059.2229778473486
    },
    "fid": 676.1231010418176,
    "wasserstein_distance": null,
    "g_loss": null,
    "g_cost": null,
    "d_loss_real": null,
    "d_loss_fake": null
}