{
    "epoch": 103,
    "avg_current_window": 860.7530918330355,
    "avg_prior_window": 876.4691725890943,
    "inception_score_mean": 2.0445992125467383,
    "inception_score_std": 0.15267555386536438,
    "fid_per_class": {
        "airplane": 894.9615578586947,
        "automobile": 1072.7895301104072,
        "bird": 1255.470990177948,
        "cat": 981.0946465702509,
        "deer": 1322.6768465571054,
        "dog": 926.4635676255527,
        "frog": 1439.0256264771024,
        "horse": 1132.1709543513648,
        "ship": 834.5633577449921,
        "truck": 1006.76809679391
    },
    "fid": 689.1530632623874,
    "wasserstein_distance": null,
    "g_loss": null,
    "g_cost": null,
    "d_loss_real": null,
    "d_loss_fake": null
}