{
    "epoch": 3,
    "avg_current_window": 785.2609832678395,
    "avg_prior_window": 2320.5396606229233,
    "inception_score_mean": 1.1956626007490263,
    "inception_score_std": 0.0689747269691434,
    "fid_per_class": {
        "airplane": 1579.2464945391635,
        "automobile": 1735.3536563824673,
        "bird": 2133.9371178667598,
        "cat": 2205.4299185240625,
        "deer": 2172.1808145124996,
        "dog": 2177.4401824201323,
        "frog": 2595.2719619154395,
        "horse": 2065.9531399153066,
        "ship": 1654.692663759349,
        "truck": 1710.2761003593764
    },
    "fid": 1825.8782048128062,
    "wasserstein_distance": null,
    "g_loss": null,
    "g_cost": null,
    "d_loss_real": null,
    "d_loss_fake": null
}