{
    "epoch": 95,
    "avg_current_window": 793.8304127010261,
    "avg_prior_window": 810.8222308299092,
    "inception_score_mean": 1.9362549638914017,
    "inception_score_std": 0.1024758653843379,
    "fid_per_class": {
        "airplane": 863.7302937431003,
        "automobile": 1056.647803250694,
        "bird": 1122.1087382071405,
        "cat": 897.0452314830825,
        "deer": 1228.162760118005,
        "dog": 968.9704128686303,
        "frog": 1279.05097015612,
        "horse": 1195.429054205867,
        "ship": 831.0438124184931,
        "truck": 1010.2621988368784
    },
    "fid": 638.3965778538112,
    "wasserstein_distance": null,
    "g_loss": null,
    "g_cost": null,
    "d_loss_real": null,
    "d_loss_fake": null
}