{
    "epoch": 27,
    "avg_current_window": 1075.2611978214236,
    "avg_prior_window": 1186.8443285368385,
    "inception_score_mean": 1.966035215430256,
    "inception_score_std": 0.15398685863337727,
    "fid_per_class": {
        "airplane": 901.6373930512344,
        "automobile": 1192.2557836019305,
        "bird": 1227.6134277841456,
        "cat": 992.4320289361394,
        "deer": 1409.4529973815056,
        "dog": 1096.9522970999951,
        "frog": 1552.6370602670343,
        "horse": 1272.926595799569,
        "ship": 815.8830556561468,
        "truck": 1089.7392475731958
    },
    "fid": 743.5309122202316,
    "wasserstein_distance": null,
    "g_loss": null,
    "g_cost": null,
    "d_loss_real": null,
    "d_loss_fake": null
}