{
    "epoch": 125,
    "avg_current_window": 824.1170469010017,
    "avg_prior_window": 837.9385485073375,
    "inception_score_mean": 2.0130114999977584,
    "inception_score_std": 0.14005804431030544,
    "fid_per_class": {
        "airplane": 854.4591316968641,
        "automobile": 1034.5567849025624,
        "bird": 1190.567616941628,
        "cat": 934.6373294936097,
        "deer": 1364.9023173594212,
        "dog": 936.4445718484843,
        "frog": 1289.4244147573731,
        "horse": 1132.604014409285,
        "ship": 834.4840006561623,
        "truck": 1000.4260384258243
    },
    "fid": 659.5324033604381,
    "wasserstein_distance": null,
    "g_loss": null,
    "g_cost": null,
    "d_loss_real": null,
    "d_loss_fake": null
}