{
    "epoch": 166,
    "avg_current_window": 779.9796675751317,
    "avg_prior_window": 788.0348039534352,
    "inception_score_mean": 2.0690432505519345,
    "inception_score_std": 0.13146711390856258,
    "fid_per_class": {
        "airplane": 772.2219501004346,
        "automobile": 972.1278543208414,
        "bird": 1117.7061073468055,
        "cat": 858.7528421868681,
        "deer": 1206.2330217202139,
        "dog": 910.5008309163909,
        "frog": 1176.5856059775008,
        "horse": 1014.9154022171797,
        "ship": 751.302677933207,
        "truck": 882.9728107905046
    },
    "fid": 555.5562246700371,
    "wasserstein_distance": null,
    "g_loss": null,
    "g_cost": null,
    "d_loss_real": null,
    "d_loss_fake": null
}