{
    "epoch": 149,
    "avg_current_window": 796.7332729660866,
    "avg_prior_window": 806.2966987328834,
    "inception_score_mean": 1.9893087378362715,
    "inception_score_std": 0.11209458162308492,
    "fid_per_class": {
        "airplane": 929.10567239118,
        "automobile": 1088.4756463689073,
        "bird": 1209.9626055600647,
        "cat": 918.7763471815144,
        "deer": 1229.2644803886378,
        "dog": 1023.2224814064226,
        "frog": 1288.2668478912747,
        "horse": 1075.427279077329,
        "ship": 915.2570472144671,
        "truck": 1025.3850976367598
    },
    "fid": 664.3261796418046,
    "wasserstein_distance": null,
    "g_loss": null,
    "g_cost": null,
    "d_loss_real": null,
    "d_loss_fake": null
}