{
    "epoch": 96,
    "avg_current_window": 792.211310254701,
    "avg_prior_window": 808.3196677792635,
    "inception_score_mean": 2.0398168967239654,
    "inception_score_std": 0.11771357651303392,
    "fid_per_class": {
        "airplane": 834.6982728551571,
        "automobile": 1062.924220954004,
        "bird": 1069.3202121581342,
        "cat": 910.6483854804579,
        "deer": 1077.1611212569471,
        "dog": 990.6491798524089,
        "frog": 1124.28820525018,
        "horse": 1126.4282776237078,
        "ship": 764.4725109497962,
        "truck": 935.5028649907981
    },
    "fid": 587.1754750427087,
    "wasserstein_distance": null,
    "g_loss": null,
    "g_cost": null,
    "d_loss_real": null,
    "d_loss_fake": null
}