{
    "epoch": 46,
    "avg_current_window": 932.1576357479414,
    "avg_prior_window": 976.2165401504554,
    "inception_score_mean": 1.989884757248492,
    "inception_score_std": 0.1590398764514514,
    "fid_per_class": {
        "airplane": 855.0058514648015,
        "automobile": 1005.3273811062346,
        "bird": 1154.233364686629,
        "cat": 937.8253601707594,
        "deer": 1260.8924327473087,
        "dog": 1002.3993486451319,
        "frog": 1460.0968071866282,
        "horse": 1255.30891748311,
        "ship": 819.5899353933413,
        "truck": 1023.7765272694288
    },
    "fid": 648.095240912764,
    "wasserstein_distance": null,
    "g_loss": null,
    "g_cost": null,
    "d_loss_real": null,
    "d_loss_fake": null
}