{
    "epoch": 98,
    "avg_current_window": 788.6154493441923,
    "avg_prior_window": 804.6945759851318,
    "inception_score_mean": 2.0595455593340075,
    "inception_score_std": 0.17042813091551123,
    "fid_per_class": {
        "airplane": 811.0655661811188,
        "automobile": 1009.4364799027483,
        "bird": 1166.4319978551198,
        "cat": 866.4290176996668,
        "deer": 1306.201545658764,
        "dog": 939.5171639941138,
        "frog": 1337.8526934759336,
        "horse": 1155.5352099944632,
        "ship": 822.6536313590661,
        "truck": 960.9959246812978
    },
    "fid": 631.9040838397734,
    "wasserstein_distance": null,
    "g_loss": null,
    "g_cost": null,
    "d_loss_real": null,
    "d_loss_fake": null
}