{
    "epoch": 18,
    "avg_current_window": 1217.730734632022,
    "avg_prior_window": 1431.7746613388942,
    "inception_score_mean": 1.8378282485267885,
    "inception_score_std": 0.09778638065868411,
    "fid_per_class": {
        "airplane": 953.4008685153275,
        "automobile": 1198.0314445733288,
        "bird": 1226.6803856884028,
        "cat": 958.1294351841033,
        "deer": 1357.237888037279,
        "dog": 1065.4911040676834,
        "frog": 1531.908641245936,
        "horse": 1353.8566322996044,
        "ship": 904.8941826698499,
        "truck": 1258.0144987161066
    },
    "fid": 783.594905730331,
    "wasserstein_distance": null,
    "g_loss": null,
    "g_cost": null,
    "d_loss_real": null,
    "d_loss_fake": null
}