{
    "epoch": 193,
    "avg_current_window": 758.2579656470926,
    "avg_prior_window": 765.1867006178437,
    "inception_score_mean": 2.0364193443982335,
    "inception_score_std": 0.11787403803412096,
    "fid_per_class": {
        "airplane": 850.7210538617984,
        "automobile": 1025.8928477600787,
        "bird": 1151.7619331572034,
        "cat": 870.0975055112121,
        "deer": 1214.0076254537785,
        "dog": 928.7836647501075,
        "frog": 1238.4898770962131,
        "horse": 984.7206008650219,
        "ship": 817.8298407151517,
        "truck": 1071.357391018223
    },
    "fid": 598.5578832455417,
    "wasserstein_distance": null,
    "g_loss": null,
    "g_cost": null,
    "d_loss_real": null,
    "d_loss_fake": null
}