{
    "epoch": 184,
    "avg_current_window": 765.2025657212542,
    "avg_prior_window": 772.1324392950748,
    "inception_score_mean": 2.0401068991474736,
    "inception_score_std": 0.14701225776379415,
    "fid_per_class": {
        "airplane": 865.1394332917594,
        "automobile": 1041.6386035214236,
        "bird": 1253.7908482494784,
        "cat": 909.4797600577722,
        "deer": 1266.2170006630893,
        "dog": 898.2857960909844,
        "frog": 1251.532556038901,
        "horse": 1076.9483820490664,
        "ship": 779.1209108072237,
        "truck": 923.8660773383283
    },
    "fid": 619.6848651498808,
    "wasserstein_distance": null,
    "g_loss": null,
    "g_cost": null,
    "d_loss_real": null,
    "d_loss_fake": null
}