{
    "epoch": 135,
    "avg_current_window": 811.7882013073669,
    "avg_prior_window": 823.2395823951072,
    "inception_score_mean": 1.9607904296948948,
    "inception_score_std": 0.1109165699948018,
    "fid_per_class": {
        "airplane": 884.5421702400083,
        "automobile": 1104.6278036782785,
        "bird": 1237.6381523026366,
        "cat": 996.6018687281885,
        "deer": 1314.6537844243317,
        "dog": 955.3836647732385,
        "frog": 1344.0840536212586,
        "horse": 1097.494178075183,
        "ship": 879.4493628238201,
        "truck": 1012.4961498371274
    },
    "fid": 679.1736797197033,
    "wasserstein_distance": null,
    "g_loss": null,
    "g_cost": null,
    "d_loss_real": null,
    "d_loss_fake": null
}