{
    "epoch": 109,
    "avg_current_window": 850.5101871014625,
    "avg_prior_window": 865.82087918511,
    "inception_score_mean": 2.0541277795746167,
    "inception_score_std": 0.17105611618768482,
    "fid_per_class": {
        "airplane": 837.8339434832391,
        "automobile": 1001.1939392759418,
        "bird": 1216.5728402751006,
        "cat": 960.1744998546749,
        "deer": 1157.3785877833513,
        "dog": 946.3681181086199,
        "frog": 1213.3668072928026,
        "horse": 1085.2217108784446,
        "ship": 795.0067518865255,
        "truck": 939.033947795265
    },
    "fid": 603.6980107881625,
    "wasserstein_distance": null,
    "g_loss": null,
    "g_cost": null,
    "d_loss_real": null,
    "d_loss_fake": null
}