{
    "epoch": 74,
    "avg_current_window": 837.5631655610338,
    "avg_prior_window": 862.3726750777042,
    "inception_score_mean": 2.010653703415053,
    "inception_score_std": 0.11595799350811399,
    "fid_per_class": {
        "airplane": 806.4126196243294,
        "automobile": 1059.0517610315082,
        "bird": 1082.792055373336,
        "cat": 873.544412136119,
        "deer": 1100.4829879164988,
        "dog": 915.3263211491161,
        "frog": 1097.3405273141657,
        "horse": 1114.8832412190004,
        "ship": 787.741456371466,
        "truck": 1011.7021687165924
    },
    "fid": 569.3822949388034,
    "wasserstein_distance": null,
    "g_loss": null,
    "g_cost": null,
    "d_loss_real": null,
    "d_loss_fake": null
}