{
    "epoch": 78,
    "avg_current_window": 828.1393471271027,
    "avg_prior_window": 849.0366335824178,
    "inception_score_mean": 1.8983107314557564,
    "inception_score_std": 0.11516260633661914,
    "fid_per_class": {
        "airplane": 834.1530712033369,
        "automobile": 1119.7335075563085,
        "bird": 1243.3220426118673,
        "cat": 1035.8811362516205,
        "deer": 1327.2113743881098,
        "dog": 1022.627436485785,
        "frog": 1417.541863172622,
        "horse": 1316.8496953391966,
        "ship": 772.6555135565729,
        "truck": 1040.8259372102045
    },
    "fid": 715.7039630943475,
    "wasserstein_distance": null,
    "g_loss": null,
    "g_cost": null,
    "d_loss_real": null,
    "d_loss_fake": null
}