{
    "epoch": 150,
    "avg_current_window": 795.8505590105914,
    "avg_prior_window": 805.3375923506455,
    "inception_score_mean": 2.0684285996773246,
    "inception_score_std": 0.10585780804131834,
    "fid_per_class": {
        "airplane": 848.6527668548474,
        "automobile": 1068.0055533595805,
        "bird": 1161.5220920903498,
        "cat": 941.9447601012074,
        "deer": 1176.406339797188,
        "dog": 920.1117408560192,
        "frog": 1310.6748195491841,
        "horse": 1024.1178827113245,
        "ship": 830.3705962707552,
        "truck": 964.7711090475107
    },
    "fid": 612.5204477823451,
    "wasserstein_distance": null,
    "g_loss": null,
    "g_cost": null,
    "d_loss_real": null,
    "d_loss_fake": null
}