{
    "epoch": 200,
    "avg_current_window": 753.7080411353875,
    "avg_prior_window": 760.0094485554331,
    "inception_score_mean": 2.0928170921592573,
    "inception_score_std": 0.17525046071548486,
    "fid_per_class": {
        "airplane": 855.1972900133687,
        "automobile": 989.7757546351479,
        "bird": 1225.4166216372278,
        "cat": 985.3576220127916,
        "deer": 1253.9697307660176,
        "dog": 946.1699131864411,
        "frog": 1393.2162371860713,
        "horse": 1090.964588532513,
        "ship": 798.2948029975391,
        "truck": 931.1013048282159
    },
    "fid": 641.7834364489836,
    "wasserstein_distance": null,
    "g_loss": null,
    "g_cost": null,
    "d_loss_real": null,
    "d_loss_fake": null
}