{
    "epoch": 117,
    "avg_current_window": 837.4298783200624,
    "avg_prior_window": 850.9740565549048,
    "inception_score_mean": 2.0125853757889645,
    "inception_score_std": 0.14760660755440105,
    "fid_per_class": {
        "airplane": 898.3273521738993,
        "automobile": 1022.0283195874595,
        "bird": 1163.1617190480404,
        "cat": 955.4457661164354,
        "deer": 1354.2061041614727,
        "dog": 972.1852558471389,
        "frog": 1263.528354732645,
        "horse": 1161.8995675198198,
        "ship": 851.5548905577293,
        "truck": 1022.7069229006382
    },
    "fid": 650.5421283802486,
    "wasserstein_distance": null,
    "g_loss": null,
    "g_cost": null,
    "d_loss_real": null,
    "d_loss_fake": null
}