{
    "epoch": 145,
    "avg_current_window": 800.7360318450704,
    "avg_prior_window": 809.9917434139876,
    "inception_score_mean": 2.037045708087128,
    "inception_score_std": 0.1425393371705267,
    "fid_per_class": {
        "airplane": 869.2622221220695,
        "automobile": 999.8658641306474,
        "bird": 1247.0814362626782,
        "cat": 952.734081545546,
        "deer": 1349.3449993391364,
        "dog": 985.6956656767809,
        "frog": 1310.1809124300169,
        "horse": 1139.8509818425327,
        "ship": 799.8177987681095,
        "truck": 1008.8566058875372
    },
    "fid": 667.2262733083878,
    "wasserstein_distance": null,
    "g_loss": null,
    "g_cost": null,
    "d_loss_real": null,
    "d_loss_fake": null
}