{
    "epoch": 8,
    "avg_current_window": 2000.5675477347304,
    "avg_prior_window": 1.0,
    "inception_score_mean": 1.0085275776633815,
    "inception_score_std": 0.0035800446696350077,
    "fid_per_class": {
        "airplane": 1950.4086627443892,
        "automobile": 2291.6038321502892,
        "bird": 2523.8186299364875,
        "cat": 2549.178501304161,
        "deer": 2671.3239176054963,
        "dog": 2829.219868947538,
        "frog": 3062.0803067405545,
        "horse": 2705.6985609647027,
        "ship": 2079.2452780448784,
        "truck": 2329.0488193988667
    },
    "fid": 2377.20339401115,
    "wasserstein_distance": null,
    "g_loss": null,
    "g_cost": null,
    "d_loss_real": null,
    "d_loss_fake": null
}