{
    "epoch": 24,
    "avg_current_window": 1589.1804890220828,
    "avg_prior_window": 1825.4160685961883,
    "inception_score_mean": 1.7517974718121017,
    "inception_score_std": 0.08291180453005777,
    "fid_per_class": {
        "airplane": 964.0084519568696,
        "automobile": 1189.0312835157156,
        "bird": 1232.8578662174343,
        "cat": 1044.1291891137114,
        "deer": 1203.0757544717198,
        "dog": 1194.7580103327937,
        "frog": 1380.0441135519932,
        "horse": 1302.0525906932053,
        "ship": 834.5987612020759,
        "truck": 1154.8130682455826
    },
    "fid": 772.8043522097392,
    "wasserstein_distance": null,
    "g_loss": null,
    "g_cost": null,
    "d_loss_real": null,
    "d_loss_fake": null
}