{
    "epoch": 100,
    "avg_current_window": 897.6206680320107,
    "avg_prior_window": 917.6559735214256,
    "inception_score_mean": 2.0406635299548825,
    "inception_score_std": 0.11246622470876255,
    "fid_per_class": {
        "airplane": 833.4792061286644,
        "automobile": 1001.6810985536731,
        "bird": 1133.139536000012,
        "cat": 937.5611324673562,
        "deer": 1073.8004843981566,
        "dog": 966.7489384619442,
        "frog": 1232.3586690727534,
        "horse": 1067.4724000939016,
        "ship": 766.9675641820185,
        "truck": 1029.875304451274
    },
    "fid": 602.5686065202868,
    "wasserstein_distance": null,
    "g_loss": null,
    "g_cost": null,
    "d_loss_real": null,
    "d_loss_fake": null
}