{
    "epoch": 131,
    "avg_current_window": 838.1046802302651,
    "avg_prior_window": 850.6483981704451,
    "inception_score_mean": 1.9707611777490786,
    "inception_score_std": 0.14677155310088805,
    "fid_per_class": {
        "airplane": 860.6011092658721,
        "automobile": 1107.8780757584736,
        "bird": 1158.29102254234,
        "cat": 946.1317798329094,
        "deer": 1153.4882069968362,
        "dog": 959.478153784438,
        "frog": 1239.1937181769895,
        "horse": 1082.3156745570204,
        "ship": 823.0448131658139,
        "truck": 1085.898895682675
    },
    "fid": 635.159616120177,
    "wasserstein_distance": null,
    "g_loss": null,
    "g_cost": null,
    "d_loss_real": null,
    "d_loss_fake": null
}