{
    "epoch": 40,
    "avg_current_window": 1245.8339930902328,
    "avg_prior_window": 1346.8036310646312,
    "inception_score_mean": 1.8487170953741046,
    "inception_score_std": 0.13840618439963837,
    "fid_per_class": {
        "airplane": 911.087160092442,
        "automobile": 1103.522927384564,
        "bird": 1151.5070774160422,
        "cat": 979.5632963582725,
        "deer": 1083.8898700836273,
        "dog": 976.7851519547709,
        "frog": 1275.8881957873793,
        "horse": 1222.7201911879106,
        "ship": 830.4541510801416,
        "truck": 1073.0418723928005
    },
    "fid": 663.863923996789,
    "wasserstein_distance": null,
    "g_loss": null,
    "g_cost": null,
    "d_loss_real": null,
    "d_loss_fake": null
}