{
    "epoch": 109,
    "avg_current_window": 876.8270059500493,
    "avg_prior_window": 893.8055415884374,
    "inception_score_mean": 1.919964967839069,
    "inception_score_std": 0.13125673415214337,
    "fid_per_class": {
        "airplane": 905.9904748892488,
        "automobile": 1132.1854319092326,
        "bird": 1167.0114308992343,
        "cat": 1020.8807023788663,
        "deer": 1119.2401836818822,
        "dog": 1042.5891009062673,
        "frog": 1366.4307693913152,
        "horse": 1189.8561956460278,
        "ship": 799.8124377514528,
        "truck": 1068.0942046537562
    },
    "fid": 692.2656967061072,
    "wasserstein_distance": null,
    "g_loss": null,
    "g_cost": null,
    "d_loss_real": null,
    "d_loss_fake": null
}