{
    "epoch": 37,
    "avg_current_window": 1292.1757252031812,
    "avg_prior_window": 1405.4238042767654,
    "inception_score_mean": 1.768357625645131,
    "inception_score_std": 0.15393886634839105,
    "fid_per_class": {
        "airplane": 986.0950710144986,
        "automobile": 1113.2408281880134,
        "bird": 1199.477184816812,
        "cat": 905.1500125971552,
        "deer": 1124.5032592438465,
        "dog": 1068.8526973948824,
        "frog": 1158.2200558122559,
        "horse": 1169.2745690472352,
        "ship": 762.5872765928709,
        "truck": 1109.1495336902462
    },
    "fid": 643.9594953765233,
    "wasserstein_distance": null,
    "g_loss": null,
    "g_cost": null,
    "d_loss_real": null,
    "d_loss_fake": null
}