{
    "epoch": 3,
    "avg_current_window": 876.7675627501503,
    "avg_prior_window": 2608.762396447267,
    "inception_score_mean": 1.0017296193040202,
    "inception_score_std": 0.0005113089835364287,
    "fid_per_class": {
        "airplane": 2242.3243458659067,
        "automobile": 2385.7601297509786,
        "bird": 2700.7064677150665,
        "cat": 2585.9537759602954,
        "deer": 2901.29549053572,
        "dog": 2623.480013360645,
        "frog": 2894.5197093512584,
        "horse": 2596.805786818656,
        "ship": 2400.094760883726,
        "truck": 2403.512904349463
    },
    "fid": 2543.496676454384,
    "wasserstein_distance": null,
    "g_loss": null,
    "g_cost": null,
    "d_loss_real": null,
    "d_loss_fake": null
}