{
    "epoch": 122,
    "avg_current_window": 852.5507848086122,
    "avg_prior_window": 867.4957236062677,
    "inception_score_mean": 2.041054380706933,
    "inception_score_std": 0.10177945949344136,
    "fid_per_class": {
        "airplane": 897.7085168803387,
        "automobile": 1083.7812062884345,
        "bird": 1102.583257609992,
        "cat": 938.233945119109,
        "deer": 1041.2169407031438,
        "dog": 934.7885878701352,
        "frog": 1191.4498496166611,
        "horse": 1034.2186031112199,
        "ship": 790.3993172702437,
        "truck": 1030.2524001117288
    },
    "fid": 596.6310971347016,
    "wasserstein_distance": null,
    "g_loss": null,
    "g_cost": null,
    "d_loss_real": null,
    "d_loss_fake": null
}