{
    "epoch": 17,
    "avg_current_window": 1864.7124481638607,
    "avg_prior_window": 2211.7242790950236,
    "inception_score_mean": 1.490294769541364,
    "inception_score_std": 0.08989569654426312,
    "fid_per_class": {
        "airplane": 1228.2211738726717,
        "automobile": 1284.5472784050094,
        "bird": 1250.435179572551,
        "cat": 1267.6915680110153,
        "deer": 1314.6297202407982,
        "dog": 1438.9063188966675,
        "frog": 1612.8361486106837,
        "horse": 1406.2395199287528,
        "ship": 1099.9054018480244,
        "truck": 1314.8734197872159
    },
    "fid": 1024.8023049054443,
    "wasserstein_distance": null,
    "g_loss": null,
    "g_cost": null,
    "d_loss_real": null,
    "d_loss_fake": null
}