{
    "epoch": 108,
    "avg_current_window": 878.1779649123598,
    "avg_prior_window": 896.4128628921962,
    "inception_score_mean": 1.9142814427068653,
    "inception_score_std": 0.149533358605843,
    "fid_per_class": {
        "airplane": 945.3217089586716,
        "automobile": 1121.1260433202092,
        "bird": 1237.2243082594662,
        "cat": 1012.7028265215657,
        "deer": 1220.1143769165267,
        "dog": 1133.9140091055276,
        "frog": 1327.9561855750385,
        "horse": 1227.9666879990787,
        "ship": 861.8857420953741,
        "truck": 1125.5842662866073
    },
    "fid": 730.9234380205185,
    "wasserstein_distance": null,
    "g_loss": null,
    "g_cost": null,
    "d_loss_real": null,
    "d_loss_fake": null
}