{
    "epoch": 33,
    "avg_current_window": 1362.8352041471665,
    "avg_prior_window": 1500.9838179471737,
    "inception_score_mean": 1.7711641095547435,
    "inception_score_std": 0.1327199533906013,
    "fid_per_class": {
        "airplane": 947.523481591494,
        "automobile": 1019.9078609272,
        "bird": 1328.8516798317253,
        "cat": 936.5965240515332,
        "deer": 1084.8373199055732,
        "dog": 1118.5361861512238,
        "frog": 1245.6065371917098,
        "horse": 1185.7160185365515,
        "ship": 746.2863902658846,
        "truck": 1065.0320510491358
    },
    "fid": 676.2865064675807,
    "wasserstein_distance": null,
    "g_loss": null,
    "g_cost": null,
    "d_loss_real": null,
    "d_loss_fake": null
}