{
    "epoch": 86,
    "avg_current_window": 935.8585087444466,
    "avg_prior_window": 959.0571618376296,
    "inception_score_mean": 1.9950718333249988,
    "inception_score_std": 0.15915278260532031,
    "fid_per_class": {
        "airplane": 927.2362015572603,
        "automobile": 1166.461289077167,
        "bird": 1182.9056164137605,
        "cat": 981.7371282470112,
        "deer": 1119.3255854695433,
        "dog": 1033.5783578860007,
        "frog": 1266.080530565428,
        "horse": 1140.6496890543478,
        "ship": 822.6731400578683,
        "truck": 1047.890672422499
    },
    "fid": 663.2627737409343,
    "wasserstein_distance": null,
    "g_loss": null,
    "g_cost": null,
    "d_loss_real": null,
    "d_loss_fake": null
}