{
    "epoch": 112,
    "avg_current_window": 871.3501841060096,
    "avg_prior_window": 886.3852356124753,
    "inception_score_mean": 1.9912599859325362,
    "inception_score_std": 0.12909217977683538,
    "fid_per_class": {
        "airplane": 901.5651358147956,
        "automobile": 991.4491257955885,
        "bird": 1194.4235189467013,
        "cat": 964.6035353082999,
        "deer": 1109.118660752706,
        "dog": 995.5056916469092,
        "frog": 1245.6390058111297,
        "horse": 1150.6670360395644,
        "ship": 766.678790812221,
        "truck": 1016.1199133062639
    },
    "fid": 622.2845281233306,
    "wasserstein_distance": null,
    "g_loss": null,
    "g_cost": null,
    "d_loss_real": null,
    "d_loss_fake": null
}