{
    "epoch": 200,
    "avg_current_window": 766.9508756492143,
    "avg_prior_window": 773.8394533962835,
    "inception_score_mean": 2.028393672515519,
    "inception_score_std": 0.0735213268013605,
    "fid_per_class": {
        "airplane": 916.3216635305353,
        "automobile": 1008.7611179863824,
        "bird": 1165.2560336348508,
        "cat": 919.375084695246,
        "deer": 1022.81480454405,
        "dog": 918.2537818336485,
        "frog": 1161.2592099357603,
        "horse": 1048.2264188689257,
        "ship": 793.6730144427107,
        "truck": 986.8913983211398
    },
    "fid": 587.7342127845327,
    "wasserstein_distance": null,
    "g_loss": null,
    "g_cost": null,
    "d_loss_real": null,
    "d_loss_fake": null
}