{
    "epoch": 177,
    "avg_current_window": 783.6074479492478,
    "avg_prior_window": 792.1263921334994,
    "inception_score_mean": 1.9641680434352065,
    "inception_score_std": 0.12412426145083276,
    "fid_per_class": {
        "airplane": 856.5378364560665,
        "automobile": 1094.3686657408364,
        "bird": 1159.2427249550215,
        "cat": 953.8836218794953,
        "deer": 1126.2746126934821,
        "dog": 925.477628594098,
        "frog": 1182.5992152588556,
        "horse": 1113.9955134929464,
        "ship": 771.8694936139914,
        "truck": 1054.3050866601816
    },
    "fid": 629.9913055455082,
    "wasserstein_distance": null,
    "g_loss": null,
    "g_cost": null,
    "d_loss_real": null,
    "d_loss_fake": null
}