{
    "epoch": 151,
    "avg_current_window": 810.09343926599,
    "avg_prior_window": 820.3226590284993,
    "inception_score_mean": 1.9915124040883483,
    "inception_score_std": 0.12997350654470088,
    "fid_per_class": {
        "airplane": 902.5586230894064,
        "automobile": 1062.0570896652594,
        "bird": 1183.5988868380425,
        "cat": 986.1901049024971,
        "deer": 1104.178850668456,
        "dog": 1000.7517654141897,
        "frog": 1222.2492955038078,
        "horse": 1082.4698969512715,
        "ship": 757.8760079511337,
        "truck": 1026.3156736933229
    },
    "fid": 629.2085233251383,
    "wasserstein_distance": null,
    "g_loss": null,
    "g_cost": null,
    "d_loss_real": null,
    "d_loss_fake": null
}