{
    "epoch": 129,
    "avg_current_window": 841.275509662732,
    "avg_prior_window": 854.0325268171385,
    "inception_score_mean": 1.9451677850845137,
    "inception_score_std": 0.1420733413758497,
    "fid_per_class": {
        "airplane": 937.8038187382919,
        "automobile": 1057.324012128575,
        "bird": 1107.2463043623889,
        "cat": 955.9667714255135,
        "deer": 1090.5866956278862,
        "dog": 986.7699557104461,
        "frog": 1248.391606864391,
        "horse": 1122.3987747880667,
        "ship": 809.0799344476185,
        "truck": 1077.054771428388
    },
    "fid": 634.2683163202739,
    "wasserstein_distance": null,
    "g_loss": null,
    "g_cost": null,
    "d_loss_real": null,
    "d_loss_fake": null
}