{
    "epoch": 53,
    "avg_current_window": 1104.4304641653846,
    "avg_prior_window": 1164.225518955436,
    "inception_score_mean": 1.9028944329983564,
    "inception_score_std": 0.1522633747935096,
    "fid_per_class": {
        "airplane": 1041.9818830478873,
        "automobile": 1135.936826126052,
        "bird": 1241.972485266747,
        "cat": 971.7725586851295,
        "deer": 1184.7865557285972,
        "dog": 1001.6935356106915,
        "frog": 1233.748250526622,
        "horse": 1214.9928027251958,
        "ship": 853.4898636445566,
        "truck": 1138.4451747717371
    },
    "fid": 720.6809482953834,
    "wasserstein_distance": null,
    "g_loss": null,
    "g_cost": null,
    "d_loss_real": null,
    "d_loss_fake": null
}