{
    "epoch": 199,
    "avg_current_window": 767.5364041456768,
    "avg_prior_window": 774.8517881943355,
    "inception_score_mean": 1.9984434854900741,
    "inception_score_std": 0.13688317191843324,
    "fid_per_class": {
        "airplane": 893.8402835837983,
        "automobile": 1075.4440988254046,
        "bird": 1227.0972672973367,
        "cat": 981.0147335230238,
        "deer": 1145.8508466395501,
        "dog": 1011.0159632607363,
        "frog": 1268.4388020098963,
        "horse": 1107.404145736447,
        "ship": 814.3592925667563,
        "truck": 1017.2201310480964
    },
    "fid": 650.4307048531896,
    "wasserstein_distance": null,
    "g_loss": null,
    "g_cost": null,
    "d_loss_real": null,
    "d_loss_fake": null
}