{
    "epoch": 80,
    "avg_current_window": 954.5954330764982,
    "avg_prior_window": 984.8878234521819,
    "inception_score_mean": 1.9623237466702317,
    "inception_score_std": 0.14017278076156345,
    "fid_per_class": {
        "airplane": 910.0505529765358,
        "automobile": 1128.5407705519194,
        "bird": 1132.233015409941,
        "cat": 942.5916220082865,
        "deer": 1132.346201854421,
        "dog": 933.9702397599083,
        "frog": 1226.1937017844,
        "horse": 1066.3066264987888,
        "ship": 807.61610501412,
        "truck": 1046.4067863364003
    },
    "fid": 624.4828360487456,
    "wasserstein_distance": null,
    "g_loss": null,
    "g_cost": null,
    "d_loss_real": null,
    "d_loss_fake": null
}