{
    "epoch": 26,
    "avg_current_window": 1528.3122261636267,
    "avg_prior_window": 1736.5374808254426,
    "inception_score_mean": 1.6448843822196664,
    "inception_score_std": 0.12251165791575237,
    "fid_per_class": {
        "airplane": 1015.5200632448307,
        "automobile": 1243.8019051775345,
        "bird": 1418.299362744971,
        "cat": 1131.4922266005226,
        "deer": 1186.4157505926878,
        "dog": 1330.5938844896962,
        "frog": 1392.0986775495717,
        "horse": 1295.8345281857887,
        "ship": 853.3783968800713,
        "truck": 1193.2719440178457
    },
    "fid": 832.5655976062451,
    "wasserstein_distance": null,
    "g_loss": null,
    "g_cost": null,
    "d_loss_real": null,
    "d_loss_fake": null
}