{
    "epoch": 84,
    "avg_current_window": 941.705567927862,
    "avg_prior_window": 966.6789195711374,
    "inception_score_mean": 1.934983606139203,
    "inception_score_std": 0.16920593290029906,
    "fid_per_class": {
        "airplane": 882.3819160381721,
        "automobile": 1073.7389406237758,
        "bird": 1263.281097840746,
        "cat": 985.5144703525764,
        "deer": 1142.8603808820023,
        "dog": 1020.2874320526887,
        "frog": 1321.2052637874565,
        "horse": 1206.2471917409548,
        "ship": 782.0948348359723,
        "truck": 1074.3946859085133
    },
    "fid": 676.7759061306147,
    "wasserstein_distance": null,
    "g_loss": null,
    "g_cost": null,
    "d_loss_real": null,
    "d_loss_fake": null
}