{
    "epoch": 196,
    "avg_current_window": 769.8912929197719,
    "avg_prior_window": 776.6441068962029,
    "inception_score_mean": 1.958893123232953,
    "inception_score_std": 0.10667344778123253,
    "fid_per_class": {
        "airplane": 872.2060812417842,
        "automobile": 1080.481725434155,
        "bird": 1195.018929447152,
        "cat": 934.4795765145564,
        "deer": 1128.3758803545707,
        "dog": 990.1522324785594,
        "frog": 1198.4513136088162,
        "horse": 1087.8947685041767,
        "ship": 794.45738868108,
        "truck": 987.1974419344945
    },
    "fid": 622.2243968001803,
    "wasserstein_distance": null,
    "g_loss": null,
    "g_cost": null,
    "d_loss_real": null,
    "d_loss_fake": null
}