{
    "epoch": 44,
    "avg_current_window": 1196.1872492783318,
    "avg_prior_window": 1277.778454451521,
    "inception_score_mean": 1.8466929028901429,
    "inception_score_std": 0.1601216838559152,
    "fid_per_class": {
        "airplane": 981.9504791702946,
        "automobile": 1115.8900865437013,
        "bird": 1089.7656849767814,
        "cat": 898.7696652543511,
        "deer": 1024.299048606752,
        "dog": 1007.039930242355,
        "frog": 1138.9381410568915,
        "horse": 1126.7802519828165,
        "ship": 837.3296432657397,
        "truck": 1150.336990623256
    },
    "fid": 591.6985807688081,
    "wasserstein_distance": null,
    "g_loss": null,
    "g_cost": null,
    "d_loss_real": null,
    "d_loss_fake": null
}