{
    "epoch": 182,
    "avg_current_window": 779.5295398031249,
    "avg_prior_window": 787.1667208619342,
    "inception_score_mean": 1.9805801401076515,
    "inception_score_std": 0.21875439795638862,
    "fid_per_class": {
        "airplane": 869.2316572144816,
        "automobile": 1104.4913381586953,
        "bird": 1214.96629051942,
        "cat": 999.2997963213963,
        "deer": 1141.8605386604524,
        "dog": 1000.1313135418377,
        "frog": 1146.5679873270653,
        "horse": 1086.1976754999687,
        "ship": 804.7192194227596,
        "truck": 1100.9249613061802
    },
    "fid": 645.4487286686691,
    "wasserstein_distance": null,
    "g_loss": null,
    "g_cost": null,
    "d_loss_real": null,
    "d_loss_fake": null
}