{
    "epoch": 60,
    "avg_current_window": 1056.8504248056722,
    "avg_prior_window": 1101.2930964763875,
    "inception_score_mean": 1.9298160969050564,
    "inception_score_std": 0.08958276045637759,
    "fid_per_class": {
        "airplane": 921.1022796583258,
        "automobile": 1168.261424334668,
        "bird": 1211.1472153543502,
        "cat": 940.024823454408,
        "deer": 1101.14563016916,
        "dog": 949.0457369413364,
        "frog": 1224.211704482187,
        "horse": 1188.2548680991913,
        "ship": 837.6665779331245,
        "truck": 1131.4117267380286
    },
    "fid": 676.5013936396826,
    "wasserstein_distance": null,
    "g_loss": null,
    "g_cost": null,
    "d_loss_real": null,
    "d_loss_fake": null
}