{
    "epoch": 32,
    "avg_current_window": 1382.5846499692493,
    "avg_prior_window": 1530.964807684705,
    "inception_score_mean": 1.7566652586334228,
    "inception_score_std": 0.11351579832759257,
    "fid_per_class": {
        "airplane": 1065.6958484374813,
        "automobile": 1237.6810371447775,
        "bird": 1322.6846951975722,
        "cat": 994.4118384214264,
        "deer": 1138.1042962474557,
        "dog": 1036.9967473805445,
        "frog": 1300.974180405136,
        "horse": 1219.2448177909346,
        "ship": 826.4713171468845,
        "truck": 1201.2487390031804
    },
    "fid": 730.8529378405162,
    "wasserstein_distance": null,
    "g_loss": null,
    "g_cost": null,
    "d_loss_real": null,
    "d_loss_fake": null
}