{
    "epoch": 35,
    "avg_current_window": 1325.690829875499,
    "avg_prior_window": 1448.623640553898,
    "inception_score_mean": 1.8124634941432114,
    "inception_score_std": 0.14186441179861686,
    "fid_per_class": {
        "airplane": 1001.1524013087701,
        "automobile": 1109.7743234851705,
        "bird": 1333.7199836494558,
        "cat": 1004.1661471106353,
        "deer": 1156.2382644491252,
        "dog": 1108.4058463108584,
        "frog": 1310.6363033318169,
        "horse": 1170.8260295340315,
        "ship": 809.2436536421368,
        "truck": 1087.4339981698029
    },
    "fid": 738.9480416196293,
    "wasserstein_distance": null,
    "g_loss": null,
    "g_cost": null,
    "d_loss_real": null,
    "d_loss_fake": null
}