{
    "epoch": 198,
    "avg_current_window": 768.2251079286679,
    "avg_prior_window": 775.6411777583735,
    "inception_score_mean": 1.9639471404829152,
    "inception_score_std": 0.09705942876375777,
    "fid_per_class": {
        "airplane": 871.9577497468006,
        "automobile": 1112.5934976284327,
        "bird": 1175.437528933213,
        "cat": 964.654460765819,
        "deer": 1204.1257352447146,
        "dog": 988.5398374418467,
        "frog": 1245.3876367303562,
        "horse": 1073.4482926167927,
        "ship": 782.3803466583203,
        "truck": 1034.9446504421232
    },
    "fid": 631.1730551134386,
    "wasserstein_distance": null,
    "g_loss": null,
    "g_cost": null,
    "d_loss_real": null,
    "d_loss_fake": null
}