{
    "epoch": 36,
    "avg_current_window": 1309.3924190906137,
    "avg_prior_window": 1427.184154806967,
    "inception_score_mean": 1.759830467444867,
    "inception_score_std": 0.15816775940723737,
    "fid_per_class": {
        "airplane": 1044.5570660061517,
        "automobile": 1118.0810849124173,
        "bird": 1286.0162560067224,
        "cat": 915.9204724419993,
        "deer": 1163.2612757951283,
        "dog": 1046.1632122329486,
        "frog": 1311.5385580028542,
        "horse": 1141.7396511745653,
        "ship": 870.492230018052,
        "truck": 1039.0985746529927
    },
    "fid": 672.3747452556025,
    "wasserstein_distance": null,
    "g_loss": null,
    "g_cost": null,
    "d_loss_real": null,
    "d_loss_fake": null
}