{
    "epoch": 150,
    "avg_current_window": 811.4002429498302,
    "avg_prior_window": 821.9750581803982,
    "inception_score_mean": 1.9988341910790233,
    "inception_score_std": 0.145154533483285,
    "fid_per_class": {
        "airplane": 914.5500107962216,
        "automobile": 1079.4902029510924,
        "bird": 1170.8899120669796,
        "cat": 943.9488392351259,
        "deer": 992.8574187909319,
        "dog": 949.0432267928342,
        "frog": 1195.5824791310974,
        "horse": 1125.4454904553202,
        "ship": 813.1123127595691,
        "truck": 1071.7118129399873
    },
    "fid": 614.0728866899784,
    "wasserstein_distance": null,
    "g_loss": null,
    "g_cost": null,
    "d_loss_real": null,
    "d_loss_fake": null
}