{
    "epoch": 181,
    "avg_current_window": 780.2245796180571,
    "avg_prior_window": 788.059762994414,
    "inception_score_mean": 2.027227401079072,
    "inception_score_std": 0.1718759903816983,
    "fid_per_class": {
        "airplane": 891.3475824014658,
        "automobile": 1118.0488711889982,
        "bird": 1205.6412551909098,
        "cat": 1005.2604361331073,
        "deer": 1133.2936342170804,
        "dog": 1032.391597301641,
        "frog": 1161.3588614815503,
        "horse": 1142.230183404553,
        "ship": 781.6034345485489,
        "truck": 1101.0664263042208
    },
    "fid": 653.7273333004064,
    "wasserstein_distance": null,
    "g_loss": null,
    "g_cost": null,
    "d_loss_real": null,
    "d_loss_fake": null
}