{
    "epoch": 45,
    "avg_current_window": 1182.7541677558982,
    "avg_prior_window": 1262.4305911901524,
    "inception_score_mean": 1.786435737270919,
    "inception_score_std": 0.13573550412430868,
    "fid_per_class": {
        "airplane": 950.206955071005,
        "automobile": 1132.6626079138373,
        "bird": 1252.2977001700413,
        "cat": 1033.2646781925503,
        "deer": 1204.4040984420194,
        "dog": 1130.261198672784,
        "frog": 1260.278841444395,
        "horse": 1265.023456923101,
        "ship": 818.698301249841,
        "truck": 1118.604849068995
    },
    "fid": 727.6251055480578,
    "wasserstein_distance": null,
    "g_loss": null,
    "g_cost": null,
    "d_loss_real": null,
    "d_loss_fake": null
}