{
    "epoch": 160,
    "avg_current_window": 800.0832518310095,
    "avg_prior_window": 809.5485487403804,
    "inception_score_mean": 2.0009192665597895,
    "inception_score_std": 0.1757756853450876,
    "fid_per_class": {
        "airplane": 860.0675863126562,
        "automobile": 1062.0985932276117,
        "bird": 1204.736157292264,
        "cat": 969.3041335121086,
        "deer": 1175.8425168485885,
        "dog": 997.8846000160542,
        "frog": 1249.757661945619,
        "horse": 1139.0338165212822,
        "ship": 858.5984633293554,
        "truck": 926.321827384699
    },
    "fid": 643.6419484678574,
    "wasserstein_distance": null,
    "g_loss": null,
    "g_cost": null,
    "d_loss_real": null,
    "d_loss_fake": null
}