{
    "epoch": 94,
    "avg_current_window": 913.2446000908595,
    "avg_prior_window": 935.0639471080242,
    "inception_score_mean": 1.8995468801360018,
    "inception_score_std": 0.13210236660987934,
    "fid_per_class": {
        "airplane": 938.8434648145401,
        "automobile": 1087.9561136449718,
        "bird": 1144.5500668612115,
        "cat": 990.405241270938,
        "deer": 1164.405928387379,
        "dog": 998.7638748848394,
        "frog": 1331.1991078606093,
        "horse": 1110.6703972292112,
        "ship": 785.4417673408533,
        "truck": 1097.4710119086103
    },
    "fid": 669.9618415040118,
    "wasserstein_distance": null,
    "g_loss": null,
    "g_cost": null,
    "d_loss_real": null,
    "d_loss_fake": null
}