{
    "epoch": 51,
    "avg_current_window": 1121.0570630822908,
    "avg_prior_window": 1186.0694004362451,
    "inception_score_mean": 1.8283638867716259,
    "inception_score_std": 0.24907595286873707,
    "fid_per_class": {
        "airplane": 998.8207167828325,
        "automobile": 1142.8188745746181,
        "bird": 1224.6131748013415,
        "cat": 968.551178121183,
        "deer": 1282.5299145442505,
        "dog": 1076.590668557691,
        "frog": 1204.665505515479,
        "horse": 1212.3569206979741,
        "ship": 820.4605166194815,
        "truck": 1181.6931068145066
    },
    "fid": 718.7527197020023,
    "wasserstein_distance": null,
    "g_loss": null,
    "g_cost": null,
    "d_loss_real": null,
    "d_loss_fake": null
}