{
    "epoch": 178,
    "avg_current_window": 782.7444359132717,
    "avg_prior_window": 791.3475989201677,
    "inception_score_mean": 1.990364773873695,
    "inception_score_std": 0.11688163882246286,
    "fid_per_class": {
        "airplane": 867.2779893012196,
        "automobile": 1015.9932559244357,
        "bird": 1213.8098144763435,
        "cat": 962.2201817689981,
        "deer": 1005.5272545080628,
        "dog": 969.8221947657762,
        "frog": 1240.7488822202613,
        "horse": 1126.625391630772,
        "ship": 772.2112877647538,
        "truck": 1030.1645332446722
    },
    "fid": 628.6001620975725,
    "wasserstein_distance": null,
    "g_loss": null,
    "g_cost": null,
    "d_loss_real": null,
    "d_loss_fake": null
}