{
    "epoch": 31,
    "avg_current_window": 1401.8938456973206,
    "avg_prior_window": 1560.3339799177131,
    "inception_score_mean": 1.710043911809962,
    "inception_score_std": 0.1110899414855342,
    "fid_per_class": {
        "airplane": 1037.9741950496332,
        "automobile": 1230.9150207635566,
        "bird": 1320.5136440376896,
        "cat": 1010.8105021290098,
        "deer": 1270.0687578246393,
        "dog": 1158.3515041573855,
        "frog": 1531.310723865006,
        "horse": 1270.9294004472845,
        "ship": 814.9372042528461,
        "truck": 1181.1808718285179
    },
    "fid": 783.9995823990376,
    "wasserstein_distance": null,
    "g_loss": null,
    "g_cost": null,
    "d_loss_real": null,
    "d_loss_fake": null
}