{
    "epoch": 1,
    "avg_current_window": 3.0,
    "avg_prior_window": 8.0,
    "inception_score_mean": 1.0000722099637351,
    "inception_score_std": 4.2133201841919824e-05,
    "fid_per_class": {
        "airplane": 2234.166197598808,
        "automobile": 2433.4347181516823,
        "bird": 2714.4465061718965,
        "cat": 2578.3305078876397,
        "deer": 3054.587447235909,
        "dog": 2648.400690672923,
        "frog": 2965.667472923532,
        "horse": 2676.9025667010364,
        "ship": 2473.7839578195794,
        "truck": 2470.9203758850776
    },
    "fid": 2602.762396447267,
    "wasserstein_distance": null,
    "g_loss": null,
    "g_cost": null,
    "d_loss_real": null,
    "d_loss_fake": null
}