{
    "epoch": 175,
    "avg_current_window": 785.9115571215815,
    "avg_prior_window": 794.2600147183747,
    "inception_score_mean": 1.972370421934461,
    "inception_score_std": 0.1028570539881831,
    "fid_per_class": {
        "airplane": 933.3222336399444,
        "automobile": 1032.9465193908954,
        "bird": 1165.4941693599594,
        "cat": 896.3818471495678,
        "deer": 1095.7326975489311,
        "dog": 1001.9656355315144,
        "frog": 1144.032887557786,
        "horse": 1041.0769209685986,
        "ship": 750.2249133332259,
        "truck": 985.0710179757098
    },
    "fid": 606.8843192666964,
    "wasserstein_distance": null,
    "g_loss": null,
    "g_cost": null,
    "d_loss_real": null,
    "d_loss_fake": null
}