{
    "epoch": 135,
    "avg_current_window": 832.495535024237,
    "avg_prior_window": 844.5516393089595,
    "inception_score_mean": 2.0194265366736874,
    "inception_score_std": 0.1105530863578428,
    "fid_per_class": {
        "airplane": 849.3619272897824,
        "automobile": 1086.3714923424827,
        "bird": 1224.9544722912274,
        "cat": 986.9951124877008,
        "deer": 1182.1606540647276,
        "dog": 1075.391430464107,
        "frog": 1283.3510256336726,
        "horse": 1096.1851720188147,
        "ship": 809.2947442453737,
        "truck": 1031.180609053455
    },
    "fid": 650.9125335337261,
    "wasserstein_distance": null,
    "g_loss": null,
    "g_cost": null,
    "d_loss_real": null,
    "d_loss_fake": null
}