{
    "epoch": 141,
    "avg_current_window": 823.2640590965799,
    "avg_prior_window": 835.8665601006103,
    "inception_score_mean": 2.0267819004095906,
    "inception_score_std": 0.10957602813431194,
    "fid_per_class": {
        "airplane": 885.4792736767324,
        "automobile": 1126.1635832762067,
        "bird": 1180.3617386640676,
        "cat": 1020.1531331317035,
        "deer": 1137.4331214833094,
        "dog": 1003.9766302624492,
        "frog": 1224.3116653424731,
        "horse": 1108.3625771337208,
        "ship": 725.7575017459756,
        "truck": 1060.2932337066322
    },
    "fid": 648.6635477909392,
    "wasserstein_distance": null,
    "g_loss": null,
    "g_cost": null,
    "d_loss_real": null,
    "d_loss_fake": null
}