{
    "epoch": 79,
    "avg_current_window": 958.4888451016566,
    "avg_prior_window": 989.4177736455035,
    "inception_score_mean": 1.8880190768653715,
    "inception_score_std": 0.13161763581179584,
    "fid_per_class": {
        "airplane": 934.252757509124,
        "automobile": 1113.1221815280292,
        "bird": 1211.8456649522684,
        "cat": 955.2521329391861,
        "deer": 955.1189009804302,
        "dog": 973.982328059603,
        "frog": 1239.6411122205436,
        "horse": 1153.182744356693,
        "ship": 821.2490996716184,
        "truck": 1137.6011416687156
    },
    "fid": 647.015883088987,
    "wasserstein_distance": null,
    "g_loss": null,
    "g_cost": null,
    "d_loss_real": null,
    "d_loss_fake": null
}