{
    "epoch": 97,
    "avg_current_window": 905.0521212411564,
    "avg_prior_window": 925.5319662018579,
    "inception_score_mean": 1.9770618791890437,
    "inception_score_std": 0.14888545079186447,
    "fid_per_class": {
        "airplane": 1014.4664055979358,
        "automobile": 1271.0115770043242,
        "bird": 1277.9834078337515,
        "cat": 1050.0275667008061,
        "deer": 1168.9674542417724,
        "dog": 1053.4103082087047,
        "frog": 1369.4789641798416,
        "horse": 1241.5356390451814,
        "ship": 751.8783721535675,
        "truck": 1169.200993319412
    },
    "fid": 744.2516905669273,
    "wasserstein_distance": null,
    "g_loss": null,
    "g_cost": null,
    "d_loss_real": null,
    "d_loss_fake": null
}