{
    "epoch": 119,
    "avg_current_window": 858.068641124725,
    "avg_prior_window": 873.825444570371,
    "inception_score_mean": 2.0269400995979123,
    "inception_score_std": 0.14774122545183505,
    "fid_per_class": {
        "airplane": 873.5373903562972,
        "automobile": 1094.0902525173487,
        "bird": 1217.070995087036,
        "cat": 1082.4954320677377,
        "deer": 1187.5117118791418,
        "dog": 1085.3130532917503,
        "frog": 1335.8856980415212,
        "horse": 1145.1192327662561,
        "ship": 794.260284434103,
        "truck": 1072.3644260244505
    },
    "fid": 694.5458047103707,
    "wasserstein_distance": null,
    "g_loss": null,
    "g_cost": null,
    "d_loss_real": null,
    "d_loss_fake": null
}