{
    "epoch": 82,
    "avg_current_window": 947.3613427908292,
    "avg_prior_window": 975.6861143201271,
    "inception_score_mean": 1.8902313088491702,
    "inception_score_std": 0.1481524579813839,
    "fid_per_class": {
        "airplane": 827.173904263427,
        "automobile": 1188.2902107910568,
        "bird": 1277.3125972094622,
        "cat": 1073.9958771188153,
        "deer": 1118.3967438392403,
        "dog": 1070.517113049807,
        "frog": 1465.626567862208,
        "horse": 1211.1188369652964,
        "ship": 829.3888458930417,
        "truck": 1241.4711124034952
    },
    "fid": 743.5262227757981,
    "wasserstein_distance": null,
    "g_loss": null,
    "g_cost": null,
    "d_loss_real": null,
    "d_loss_fake": null
}