{
    "epoch": 56,
    "avg_current_window": 1081.6271483250234,
    "avg_prior_window": 1135.150253664683,
    "inception_score_mean": 1.8739128755456527,
    "inception_score_std": 0.14007405692071145,
    "fid_per_class": {
        "airplane": 986.7875562621555,
        "automobile": 1202.7584953752876,
        "bird": 1204.5464799824897,
        "cat": 1017.2101562047999,
        "deer": 1157.6708895382826,
        "dog": 972.2392029812759,
        "frog": 1289.02708730312,
        "horse": 1199.0735649540745,
        "ship": 793.395180486153,
        "truck": 1205.0830559172862
    },
    "fid": 709.9481675724574,
    "wasserstein_distance": null,
    "g_loss": null,
    "g_cost": null,
    "d_loss_real": null,
    "d_loss_fake": null
}