{
    "epoch": 153,
    "avg_current_window": 807.8609996133873,
    "avg_prior_window": 818.0945891033555,
    "inception_score_mean": 1.9676708124827376,
    "inception_score_std": 0.17196157361515316,
    "fid_per_class": {
        "airplane": 865.0120474127334,
        "automobile": 1149.0055930426706,
        "bird": 1163.4658671821599,
        "cat": 992.7927803387023,
        "deer": 1100.2336622841747,
        "dog": 1035.1539132174632,
        "frog": 1301.7446751960235,
        "horse": 1227.0401624022732,
        "ship": 787.1119908497654,
        "truck": 1071.427742670141
    },
    "fid": 667.0693598242774,
    "wasserstein_distance": null,
    "g_loss": null,
    "g_cost": null,
    "d_loss_real": null,
    "d_loss_fake": null
}