{
    "epoch": 13,
    "avg_current_window": 2041.5916422415603,
    "avg_prior_window": 2297.717971986124,
    "inception_score_mean": 1.434620243577304,
    "inception_score_std": 0.11543818558086529,
    "fid_per_class": {
        "airplane": 1475.4803936335861,
        "automobile": 1633.8387219068327,
        "bird": 1560.227437836147,
        "cat": 1849.8260119302665,
        "deer": 1903.8805948863187,
        "dog": 1894.801645853036,
        "frog": 2077.403547999523,
        "horse": 1796.8478081111607,
        "ship": 1446.2120527933776,
        "truck": 1649.226848094435
    },
    "fid": 1439.5949748741311,
    "wasserstein_distance": null,
    "g_loss": null,
    "g_cost": null,
    "d_loss_real": null,
    "d_loss_fake": null
}