{
    "epoch": 42,
    "avg_current_window": 1217.934733297065,
    "avg_prior_window": 1309.580035889033,
    "inception_score_mean": 1.8086552144671075,
    "inception_score_std": 0.10474939952339815,
    "fid_per_class": {
        "airplane": 1026.0440053819204,
        "automobile": 1153.1017247877214,
        "bird": 1295.7332575869927,
        "cat": 965.4691471324421,
        "deer": 1225.506188533007,
        "dog": 1123.7051109248396,
        "frog": 1285.8037287956356,
        "horse": 1298.3601297456162,
        "ship": 935.3568040706962,
        "truck": 1249.586623178252
    },
    "fid": 733.8487452847291,
    "wasserstein_distance": null,
    "g_loss": null,
    "g_cost": null,
    "d_loss_real": null,
    "d_loss_fake": null
}