{
    "epoch": 171,
    "avg_current_window": 789.6152193106649,
    "avg_prior_window": 797.4075991670475,
    "inception_score_mean": 2.000602459602842,
    "inception_score_std": 0.12687546480493314,
    "fid_per_class": {
        "airplane": 860.5432325501505,
        "automobile": 1013.0506453749704,
        "bird": 1167.387131793206,
        "cat": 939.5638285648787,
        "deer": 1047.4312890460462,
        "dog": 994.4999276080833,
        "frog": 1132.7005055348836,
        "horse": 1068.3996639321083,
        "ship": 821.5837702689207,
        "truck": 976.9013327766272
    },
    "fid": 589.4910301400369,
    "wasserstein_distance": null,
    "g_loss": null,
    "g_cost": null,
    "d_loss_real": null,
    "d_loss_fake": null
}