{
    "epoch": 12,
    "avg_current_window": 2082.8246035517645,
    "avg_prior_window": 2286.3629116968345,
    "inception_score_mean": 1.1972122508722454,
    "inception_score_std": 0.04501833235263941,
    "fid_per_class": {
        "airplane": 1419.1449718952097,
        "automobile": 1657.647000336587,
        "bird": 1632.5068106524557,
        "cat": 1878.5268122636107,
        "deer": 2010.695139926369,
        "dog": 1946.269201040961,
        "frog": 2081.464026915808,
        "horse": 1817.3938133649515,
        "ship": 1634.8115068029776,
        "truck": 1667.5297462454762
    },
    "fid": 1546.7961065191082,
    "wasserstein_distance": null,
    "g_loss": null,
    "g_cost": null,
    "d_loss_real": null,
    "d_loss_fake": null
}