{
    "epoch": 47,
    "avg_current_window": 1160.833881278027,
    "avg_prior_window": 1235.4073224705107,
    "inception_score_mean": 1.9068090706296688,
    "inception_score_std": 0.14918633778504947,
    "fid_per_class": {
        "airplane": 891.9361911954238,
        "automobile": 1182.66273173367,
        "bird": 1178.3632800605765,
        "cat": 938.7897149057774,
        "deer": 1025.0640303261046,
        "dog": 939.8909061147999,
        "frog": 1165.4302208122106,
        "horse": 1173.420643349226,
        "ship": 830.1606849549295,
        "truck": 1223.114994789271
    },
    "fid": 639.9000914664801,
    "wasserstein_distance": null,
    "g_loss": null,
    "g_cost": null,
    "d_loss_real": null,
    "d_loss_fake": null
}