{
    "epoch": 106,
    "avg_current_window": 882.5714066901957,
    "avg_prior_window": 901.1548274911352,
    "inception_score_mean": 1.9857127017281293,
    "inception_score_std": 0.15046636608533817,
    "fid_per_class": {
        "airplane": 852.6121895677206,
        "automobile": 1174.6885427609911,
        "bird": 1095.8125656232942,
        "cat": 916.4801919440733,
        "deer": 1031.060037242856,
        "dog": 982.5586319265021,
        "frog": 1184.349616436717,
        "horse": 1091.1589711851425,
        "ship": 793.0048633996266,
        "truck": 1094.7446793349673
    },
    "fid": 615.391924321163,
    "wasserstein_distance": null,
    "g_loss": null,
    "g_cost": null,
    "d_loss_real": null,
    "d_loss_fake": null
}