{
    "epoch": 70,
    "avg_current_window": 1001.401255784301,
    "avg_prior_window": 1037.5009167893577,
    "inception_score_mean": 1.9204738335855729,
    "inception_score_std": 0.08538903124441985,
    "fid_per_class": {
        "airplane": 909.2796132210412,
        "automobile": 1141.181961924805,
        "bird": 1157.195994842413,
        "cat": 895.0073220040692,
        "deer": 1087.6954017904898,
        "dog": 985.3689182381695,
        "frog": 1303.5035709400954,
        "horse": 1158.7372420218896,
        "ship": 797.5767844676138,
        "truck": 1086.1569356794585
    },
    "fid": 647.85018781787,
    "wasserstein_distance": null,
    "g_loss": null,
    "g_cost": null,
    "d_loss_real": null,
    "d_loss_fake": null
}