{
    "epoch": 117,
    "avg_current_window": 862.774634791046,
    "avg_prior_window": 876.9062959642536,
    "inception_score_mean": 2.0333037914993226,
    "inception_score_std": 0.08800654482974894,
    "fid_per_class": {
        "airplane": 883.728693144506,
        "automobile": 1024.0236837754005,
        "bird": 1128.0968821316283,
        "cat": 877.3822362353126,
        "deer": 990.8003927679691,
        "dog": 953.0766395661046,
        "frog": 1108.4723024822752,
        "horse": 974.5930389431944,
        "ship": 730.4428997207713,
        "truck": 1019.2027313370152
    },
    "fid": 552.3673913809537,
    "wasserstein_distance": null,
    "g_loss": null,
    "g_cost": null,
    "d_loss_real": null,
    "d_loss_fake": null
}