{
    "epoch": 166,
    "avg_current_window": 793.6441053619634,
    "avg_prior_window": 803.0496129615982,
    "inception_score_mean": 1.9871371601555263,
    "inception_score_std": 0.18897889944530794,
    "fid_per_class": {
        "airplane": 907.3683239938426,
        "automobile": 1076.7060227640525,
        "bird": 1092.29754891132,
        "cat": 941.2366017293115,
        "deer": 1072.660420292777,
        "dog": 1045.6019102219936,
        "frog": 1109.7102148195163,
        "horse": 1111.3883672087952,
        "ship": 839.3008867021972,
        "truck": 1046.5022707346536
    },
    "fid": 624.7399716439656,
    "wasserstein_distance": null,
    "g_loss": null,
    "g_cost": null,
    "d_loss_real": null,
    "d_loss_fake": null
}