{
    "epoch": 146,
    "avg_current_window": 816.3450920284777,
    "avg_prior_window": 827.8645097901327,
    "inception_score_mean": 2.1317471831658463,
    "inception_score_std": 0.19401286837294962,
    "fid_per_class": {
        "airplane": 850.7905749336348,
        "automobile": 1066.4407523223472,
        "bird": 1117.0687315848108,
        "cat": 907.499554898083,
        "deer": 1068.2459038655154,
        "dog": 973.3213937535158,
        "frog": 1177.9512718660048,
        "horse": 1077.6696826754396,
        "ship": 779.4000119208056,
        "truck": 999.1130851357125
    },
    "fid": 580.7247820031615,
    "wasserstein_distance": null,
    "g_loss": null,
    "g_cost": null,
    "d_loss_real": null,
    "d_loss_fake": null
}