{
    "epoch": 15,
    "avg_current_window": 1948.0715229167074,
    "avg_prior_window": 2279.406145460555,
    "inception_score_mean": 1.237902663699094,
    "inception_score_std": 0.06178598954003742,
    "fid_per_class": {
        "airplane": 1247.9708934712971,
        "automobile": 1599.078702946567,
        "bird": 1568.7916791446642,
        "cat": 1459.370641083846,
        "deer": 1991.6129410527687,
        "dog": 1584.5836430414447,
        "frog": 1873.668556777266,
        "horse": 1684.323373487472,
        "ship": 1306.813482878724,
        "truck": 1662.84357740411
    },
    "fid": 1318.1386244578664,
    "wasserstein_distance": null,
    "g_loss": null,
    "g_cost": null,
    "d_loss_real": null,
    "d_loss_fake": null
}