{
    "epoch": 43,
    "avg_current_window": 1547.9012068555605,
    "avg_prior_window": 1645.5845001312957,
    "inception_score_mean": 1.8480999468865964,
    "inception_score_std": 0.1449148131151369,
    "fid_per_class": {
        "airplane": 1087.5080091163145,
        "automobile": 1260.3782710025998,
        "bird": 1472.1044093469832,
        "cat": 1227.918281884846,
        "deer": 1607.7098954078824,
        "dog": 1413.622577315211,
        "frog": 1983.64336896928,
        "horse": 1584.4268146220938,
        "ship": 1064.7144070739016,
        "truck": 1264.1454448266031
    },
    "fid": 1033.812602324854
}