{
    "epoch": 13,
    "avg_current_window": 2038.4173966013573,
    "avg_prior_window": 2436.8519712852426,
    "inception_score_mean": 1.1603497019622349,
    "inception_score_std": 0.052755986178299845,
    "fid_per_class": {
        "airplane": 1917.8335888642914,
        "automobile": 1777.348854430241,
        "bird": 1996.85854977211,
        "cat": 1916.3989118700777,
        "deer": 2138.197787361885,
        "dog": 2035.85868397775,
        "frog": 2339.561579946374,
        "horse": 2047.0989838701978,
        "ship": 1477.6597532150263,
        "truck": 1584.3781254386977
    },
    "fid": 1696.3993636363184
}