{
    "epoch": 47,
    "avg_current_window": 1499.74875339576,
    "avg_prior_window": 1584.7559974949788,
    "inception_score_mean": 1.9164693591232183,
    "inception_score_std": 0.1564861474630265,
    "fid_per_class": {
        "airplane": 1017.4607746254874,
        "automobile": 1173.1876718869216,
        "bird": 1456.0347523422915,
        "cat": 1221.8348176787158,
        "deer": 1550.070828060986,
        "dog": 1401.2966223036915,
        "frog": 1847.2996351031939,
        "horse": 1553.6426631147515,
        "ship": 1018.0600089294912,
        "truck": 1232.3685860583955
    },
    "fid": 958.7514780040857
}