{
    "epoch": 142,
    "avg_current_window": 1078.0821183387982,
    "avg_prior_window": 1093.895451685568,
    "inception_score_mean": 2.008611115236406,
    "inception_score_std": 0.14524622907725313,
    "fid_per_class": {
        "airplane": 1003.0233388967076,
        "automobile": 1102.5054524613315,
        "bird": 1264.9627126858384,
        "cat": 1084.67616928724,
        "deer": 1464.7857259440598,
        "dog": 1128.2211636469092,
        "frog": 1624.3526258501056,
        "horse": 1342.324564627076,
        "ship": 985.2814063227902,
        "truck": 1041.541087490983
    },
    "fid": 795.576530024871
}