{
    "epoch": 50,
    "avg_current_window": 1467.9111976991026,
    "avg_prior_window": 1545.591408343209,
    "inception_score_mean": 1.8922243391585503,
    "inception_score_std": 0.10460623709011492,
    "fid_per_class": {
        "airplane": 993.9579936820514,
        "automobile": 1239.6961914031076,
        "bird": 1401.3953772351756,
        "cat": 1273.4433443179323,
        "deer": 1578.3801081974875,
        "dog": 1275.0393946054828,
        "frog": 1890.8320483954685,
        "horse": 1557.8444680522834,
        "ship": 927.4340040451887,
        "truck": 1183.0805162064928
    },
    "fid": 958.1589425349973
}