{
    "epoch": 42,
    "avg_current_window": 1560.6453313890702,
    "avg_prior_window": 1661.714476908079,
    "inception_score_mean": 1.890821922951495,
    "inception_score_std": 0.15688275408981517,
    "fid_per_class": {
        "airplane": 1068.0307424533553,
        "automobile": 1293.7954188763338,
        "bird": 1447.1194127496547,
        "cat": 1182.9793560091832,
        "deer": 1655.0158888272008,
        "dog": 1452.840979960195,
        "frog": 1970.634388492888,
        "horse": 1511.822485532486,
        "ship": 1028.2671708378277,
        "truck": 1266.0877645338005
    },
    "fid": 1012.6479764481655
}