{
    "epoch": 126,
    "avg_current_window": 1112.0712431317377,
    "avg_prior_window": 1130.9375012566293,
    "inception_score_mean": 1.98768113171371,
    "inception_score_std": 0.10788767777359738,
    "fid_per_class": {
        "airplane": 1016.1387567405923,
        "automobile": 1081.917525608214,
        "bird": 1312.9134612944438,
        "cat": 1091.5344194979368,
        "deer": 1535.9036975567137,
        "dog": 1136.9386810561705,
        "frog": 1615.4133014671884,
        "horse": 1313.2721721369535,
        "ship": 965.1597938617142,
        "truck": 1065.174945992319
    },
    "fid": 801.9962057416552
}