{
    "epoch": 88,
    "avg_current_window": 1225.4224447863967,
    "avg_prior_window": 1256.554117612962,
    "inception_score_mean": 1.8627083639218622,
    "inception_score_std": 0.12737778570682992,
    "fid_per_class": {
        "airplane": 1058.3366884039542,
        "automobile": 1200.2883441402141,
        "bird": 1413.6107533137579,
        "cat": 1152.6227125457551,
        "deer": 1566.2240047672435,
        "dog": 1225.1913671229527,
        "frog": 1590.1972079972907,
        "horse": 1452.0494408147272,
        "ship": 988.4339423216422,
        "truck": 1198.3618126768706
    },
    "fid": 922.0052731740443
}