{
    "epoch": 187,
    "avg_current_window": 1009.6965290440743,
    "avg_prior_window": 1020.8113926265398,
    "inception_score_mean": 1.95070722460949,
    "inception_score_std": 0.11530750215808748,
    "fid_per_class": {
        "airplane": 983.2298978307625,
        "automobile": 1036.5106472626394,
        "bird": 1263.9688806324582,
        "cat": 1045.9474738142312,
        "deer": 1387.9850900805213,
        "dog": 1046.2662937468394,
        "frog": 1471.9840302161242,
        "horse": 1221.6984798538115,
        "ship": 920.365748729824,
        "truck": 990.321051342884
    },
    "fid": 731.0911502757859
}