{
    "epoch": 15,
    "avg_current_window": 1993.245058948612,
    "avg_prior_window": 2308.473213636761,
    "inception_score_mean": 1.3190273519171927,
    "inception_score_std": 0.13248744386706546,
    "fid_per_class": {
        "airplane": 1842.8404125873103,
        "automobile": 1605.5659352053,
        "bird": 2036.3903576135194,
        "cat": 1794.529007857405,
        "deer": 2246.887601672032,
        "dog": 2021.5142505002377,
        "frog": 2421.194988691685,
        "horse": 1918.649614820212,
        "ship": 1587.0870420166957,
        "truck": 1552.7158373295456
    },
    "fid": 1672.4328681280397
}