{
    "epoch": 132,
    "avg_current_window": 1098.3596433241446,
    "avg_prior_window": 1116.027308346846,
    "inception_score_mean": 2.112124752983414,
    "inception_score_std": 0.14869630086752922,
    "fid_per_class": {
        "airplane": 1020.994789285304,
        "automobile": 1138.667528847997,
        "bird": 1279.9626494682682,
        "cat": 1076.4263997012745,
        "deer": 1390.5085524300694,
        "dog": 1147.5937456704428,
        "frog": 1692.1414947913045,
        "horse": 1286.389270487627,
        "ship": 1013.8542220957363,
        "truck": 1125.4581313485278
    },
    "fid": 819.0365804678804
}