{
    "epoch": 163,
    "avg_current_window": 1042.5016944032802,
    "avg_prior_window": 1055.1784299886917,
    "inception_score_mean": 1.9805232082637172,
    "inception_score_std": 0.12267418746675073,
    "fid_per_class": {
        "airplane": 1049.682003232057,
        "automobile": 1131.8451961880046,
        "bird": 1320.1185033706925,
        "cat": 1067.232931510318,
        "deer": 1522.3320740231334,
        "dog": 1163.8847648402875,
        "frog": 1507.0491337488957,
        "horse": 1338.8033728067837,
        "ship": 925.9490610218493,
        "truck": 1090.2872853362012
    },
    "fid": 811.274993221618
}