{
    "epoch": 199,
    "avg_current_window": 994.8972059896209,
    "avg_prior_window": 1004.6626381993501,
    "inception_score_mean": 2.0312719880639927,
    "inception_score_std": 0.13401879593534924,
    "fid_per_class": {
        "airplane": 977.3803792714572,
        "automobile": 1105.5908699089937,
        "bird": 1309.484646050569,
        "cat": 1012.483932192944,
        "deer": 1484.2222723028892,
        "dog": 1197.85506310554,
        "frog": 1441.649916643118,
        "horse": 1201.5424333601898,
        "ship": 900.5565157151157,
        "truck": 941.4882756713616
    },
    "fid": 736.9425628198003
}