{
    "epoch": 62,
    "avg_current_window": 1361.788479434877,
    "avg_prior_window": 1417.147288127283,
    "inception_score_mean": 1.9395368122998202,
    "inception_score_std": 0.07041302809931675,
    "fid_per_class": {
        "airplane": 1070.0866009692322,
        "automobile": 1156.5426818362696,
        "bird": 1455.8965184684557,
        "cat": 1140.981404835981,
        "deer": 1592.1319003768692,
        "dog": 1184.564727250272,
        "frog": 1798.8621951404955,
        "horse": 1437.6692902340735,
        "ship": 939.718761860297,
        "truck": 1201.4229082484478
    },
    "fid": 911.5803822537566
}