{
    "epoch": 81,
    "avg_current_window": 1254.8517475302372,
    "avg_prior_window": 1290.4226110622128,
    "inception_score_mean": 1.9757293520336052,
    "inception_score_std": 0.15365446268064462,
    "fid_per_class": {
        "airplane": 1026.2984771587758,
        "automobile": 1064.3757115061178,
        "bird": 1347.7253429828747,
        "cat": 1155.944971774797,
        "deer": 1529.8209453701163,
        "dog": 1135.804948562581,
        "frog": 1626.8532655711851,
        "horse": 1395.9172800385602,
        "ship": 1030.3141458024916,
        "truck": 1071.0911200284097
    },
    "fid": 845.0797898526167
}