{
    "epoch": 76,
    "avg_current_window": 1278.922951396028,
    "avg_prior_window": 1318.662843687324,
    "inception_score_mean": 1.990472197802373,
    "inception_score_std": 0.14853208746011998,
    "fid_per_class": {
        "airplane": 1033.9390890297602,
        "automobile": 1104.149334079768,
        "bird": 1392.670200989117,
        "cat": 1127.4337733116938,
        "deer": 1564.113931041822,
        "dog": 1166.1456738560914,
        "frog": 1679.3409352081692,
        "horse": 1491.066832341109,
        "ship": 989.4487737272575,
        "truck": 1138.9356186878736
    },
    "fid": 873.9741346300277
}