{
    "epoch": 35,
    "avg_current_window": 1669.4968441451063,
    "avg_prior_window": 1795.6392208764603,
    "inception_score_mean": 1.960457150977638,
    "inception_score_std": 0.13942194083505333,
    "fid_per_class": {
        "airplane": 1095.6049711035862,
        "automobile": 1261.5798225994188,
        "bird": 1478.5194557444966,
        "cat": 1259.4461428315683,
        "deer": 1754.796571954078,
        "dog": 1497.490017145552,
        "frog": 2041.6399775205464,
        "horse": 1580.6917424835017,
        "ship": 1109.590900226644,
        "truck": 1214.6691192049586
    },
    "fid": 1034.490522646202
}