{
    "epoch": 49,
    "avg_current_window": 1478.3135417379167,
    "avg_prior_window": 1558.9997388737095,
    "inception_score_mean": 1.8794082949476434,
    "inception_score_std": 0.12292356609742734,
    "fid_per_class": {
        "airplane": 1057.779050492688,
        "automobile": 1225.9735388084694,
        "bird": 1481.6836273050312,
        "cat": 1140.9976940012261,
        "deer": 1642.4476578434746,
        "dog": 1215.9500786953256,
        "frog": 1890.869002415202,
        "horse": 1583.840406883086,
        "ship": 996.3507287383576,
        "truck": 1221.989244067385
    },
    "fid": 958.1963397972183
}