{
    "epoch": 128,
    "avg_current_window": 1107.3083450003862,
    "avg_prior_window": 1125.568994555742,
    "inception_score_mean": 2.018304886094538,
    "inception_score_std": 0.13301187137679055,
    "fid_per_class": {
        "airplane": 1027.3357684535977,
        "automobile": 1035.2575897436136,
        "bird": 1408.817713903862,
        "cat": 1069.3255735737985,
        "deer": 1506.6076690589043,
        "dog": 1095.7693459098114,
        "frog": 1558.7021187314044,
        "horse": 1279.363182685106,
        "ship": 967.7578747747541,
        "truck": 1011.4284714004173
    },
    "fid": 785.1164396988029
}