{
    "epoch": 33,
    "avg_current_window": 1703.202395641379,
    "avg_prior_window": 1832.074464142391,
    "inception_score_mean": 1.8796376728630662,
    "inception_score_std": 0.21613597033911738,
    "fid_per_class": {
        "airplane": 1218.378526675209,
        "automobile": 1303.9464305221932,
        "bird": 1623.376860065188,
        "cat": 1357.0083209100105,
        "deer": 1677.368720655357,
        "dog": 1432.4092725899347,
        "frog": 2007.7046833062482,
        "horse": 1698.0227971700479,
        "ship": 1133.530799804177,
        "truck": 1275.1405776796823
    },
    "fid": 1132.7686892510856
}