{
    "epoch": 149,
    "avg_current_window": 1065.5998410418142,
    "avg_prior_window": 1080.1825898039224,
    "inception_score_mean": 2.062743142340429,
    "inception_score_std": 0.15554575558898764,
    "fid_per_class": {
        "airplane": 1059.3071379176447,
        "automobile": 1024.1938514631227,
        "bird": 1352.3677085476734,
        "cat": 1098.1439983675102,
        "deer": 1430.3552388659086,
        "dog": 1133.6811170479516,
        "frog": 1602.9497797579136,
        "horse": 1272.9121807783085,
        "ship": 949.1405378664015,
        "truck": 1045.5985185462305
    },
    "fid": 787.6845798653325
}