{
    "epoch": 14,
    "avg_current_window": 2013.9875371038545,
    "avg_prior_window": 2388.5875871346652,
    "inception_score_mean": 1.3487360622680362,
    "inception_score_std": 0.13147252232212261,
    "fid_per_class": {
        "airplane": 1760.8654246946317,
        "automobile": 1606.008447311298,
        "bird": 2090.450222255248,
        "cat": 1933.3376008576408,
        "deer": 2144.2549476630447,
        "dog": 2164.009197176638,
        "frog": 2351.3977810816923,
        "horse": 2101.2110547046877,
        "ship": 1543.9335597679042,
        "truck": 1552.6674486165505
    },
    "fid": 1702.8503647752168
}