{
    "epoch": 120,
    "avg_current_window": 1126.4980802382336,
    "avg_prior_window": 1146.4805809439792,
    "inception_score_mean": 1.985309867852714,
    "inception_score_std": 0.1237175147913,
    "fid_per_class": {
        "airplane": 1053.9931638055855,
        "automobile": 1143.3762629797473,
        "bird": 1370.5553421505203,
        "cat": 1121.8563398110543,
        "deer": 1547.0357080122922,
        "dog": 1144.1092196046814,
        "frog": 1574.8327929827738,
        "horse": 1315.6339408676909,
        "ship": 1005.7087489877372,
        "truck": 1076.2385850371872
    },
    "fid": 844.0744500463203
}