{
    "epoch": 32,
    "avg_current_window": 1718.4888458122482,
    "avg_prior_window": 1853.438054889815,
    "inception_score_mean": 1.7025229918499456,
    "inception_score_std": 0.11125580163154833,
    "fid_per_class": {
        "airplane": 1222.3405315850264,
        "automobile": 1265.2693684665812,
        "bird": 1741.5501503890075,
        "cat": 1473.128897148648,
        "deer": 1854.545940081232,
        "dog": 1626.4996502616648,
        "frog": 2194.3168245294955,
        "horse": 1673.9003568641892,
        "ship": 1122.219442767233,
        "truck": 1284.9045641211262
    },
    "fid": 1214.035990173567
}