{
    "epoch": 61,
    "avg_current_window": 1369.8328115392258,
    "avg_prior_window": 1424.825880615164,
    "inception_score_mean": 1.9353383227227758,
    "inception_score_std": 0.10095446606594605,
    "fid_per_class": {
        "airplane": 1025.869077049956,
        "automobile": 1123.978913921041,
        "bird": 1370.5821972665058,
        "cat": 1101.4952589146374,
        "deer": 1545.373314027473,
        "dog": 1187.9604911783827,
        "frog": 1737.7081469864438,
        "horse": 1417.3282931568867,
        "ship": 968.9402255597142,
        "truck": 1141.990129403926
    },
    "fid": 871.084221069595
}