{
    "epoch": 2,
    "avg_current_window": 1380.0078787592238,
    "avg_prior_window": 2763.0157575184476,
    "inception_score_mean": 1.032365907600425,
    "inception_score_std": 0.012431980173166112,
    "fid_per_class": {
        "airplane": 1833.2404504250605,
        "automobile": 1913.7368355032036,
        "bird": 2377.7389106776714,
        "cat": 2271.999158914845,
        "deer": 2401.7823244933434,
        "dog": 2648.6396905015163,
        "frog": 2679.888809503712,
        "horse": 2201.5212641177886,
        "ship": 2191.93879593298,
        "truck": 1697.9587154570986
    },
    "fid": 2084.9123938258413
}