{
    "epoch": 53,
    "avg_current_window": 1437.37552737185,
    "avg_prior_window": 1509.1117405241232,
    "inception_score_mean": 2.020483912271575,
    "inception_score_std": 0.16236265575523148,
    "fid_per_class": {
        "airplane": 1077.8557194591472,
        "automobile": 1186.2101132777568,
        "bird": 1447.454695243256,
        "cat": 1203.2176397044427,
        "deer": 1608.4637066626935,
        "dog": 1173.793240812202,
        "frog": 1780.9948091044364,
        "horse": 1487.9902250461305,
        "ship": 904.9403212532418,
        "truck": 1176.3452275762352
    },
    "fid": 911.2825948318912
}