{
    "epoch": 121,
    "avg_current_window": 1124.1640006498706,
    "avg_prior_window": 1143.4804633149529,
    "inception_score_mean": 2.0275396408555872,
    "inception_score_std": 0.1974183350202807,
    "fid_per_class": {
        "airplane": 1006.0118296982857,
        "automobile": 1133.5017215216376,
        "bird": 1362.5963353429338,
        "cat": 1147.04006727401,
        "deer": 1537.3045745455386,
        "dog": 1144.9098363317148,
        "frog": 1541.2408467099722,
        "horse": 1365.8183853790827,
        "ship": 959.5069929531644,
        "truck": 1140.0460194309337
    },
    "fid": 819.5935734177981
}