{
    "epoch": 92,
    "avg_current_window": 1210.8395449058619,
    "avg_prior_window": 1239.5077602437116,
    "inception_score_mean": 1.9721151587294703,
    "inception_score_std": 0.18281561469979377,
    "fid_per_class": {
        "airplane": 1070.908271159972,
        "automobile": 1206.9010733579955,
        "bird": 1436.2464645736004,
        "cat": 1097.5698730906097,
        "deer": 1634.1454089231718,
        "dog": 1245.9351140539611,
        "frog": 1669.5435980022592,
        "horse": 1393.714466099101,
        "ship": 1015.9903020483314,
        "truck": 1157.5656323405497
    },
    "fid": 913.7092592789654
}