{
    "epoch": 56,
    "avg_current_window": 1408.6669299581756,
    "avg_prior_window": 1476.104685353138,
    "inception_score_mean": 1.9201822702166722,
    "inception_score_std": 0.09718369025210792,
    "fid_per_class": {
        "airplane": 1010.4427215231142,
        "automobile": 1185.260270856444,
        "bird": 1368.6149442252665,
        "cat": 1091.4406015207549,
        "deer": 1555.5116008502132,
        "dog": 1202.175077908872,
        "frog": 1925.0061498353598,
        "horse": 1434.2276453630247,
        "ship": 957.6018672898546,
        "truck": 1192.9268767787457
    },
    "fid": 904.901236791341
}