{
    "epoch": 34,
    "avg_current_window": 1686.4249336887233,
    "avg_prior_window": 1814.0722354636664,
    "inception_score_mean": 1.8693109665498173,
    "inception_score_std": 0.12371661057914425,
    "fid_per_class": {
        "airplane": 1081.4803126002696,
        "automobile": 1235.3198251811891,
        "bird": 1557.4863921899455,
        "cat": 1462.7668225978869,
        "deer": 1763.6934993095429,
        "dog": 1580.8588370470818,
        "frog": 1957.3234559387147,
        "horse": 1618.7287652544633,
        "ship": 1085.1137154014443,
        "truck": 1256.4306408033249
    },
    "fid": 1093.941799662125
}