{
    "epoch": 134,
    "avg_current_window": 1094.0477106486699,
    "avg_prior_window": 1110.87924715728,
    "inception_score_mean": 2.052574098671614,
    "inception_score_std": 0.13375302435751438,
    "fid_per_class": {
        "airplane": 1066.6261538584854,
        "automobile": 1143.8641365588069,
        "bird": 1308.3116310174685,
        "cat": 1077.7471821512013,
        "deer": 1486.39226414632,
        "dog": 1077.5265694322657,
        "frog": 1640.9007186951662,
        "horse": 1362.6991487738353,
        "ship": 974.3275642721104,
        "truck": 1113.4822642301633
    },
    "fid": 811.3882473052964
}