{
    "epoch": 101,
    "avg_current_window": 1179.5722938884678,
    "avg_prior_window": 1205.471392199008,
    "inception_score_mean": 1.9870408310094678,
    "inception_score_std": 0.12035321590134068,
    "fid_per_class": {
        "airplane": 1005.782129150814,
        "automobile": 1100.212775772026,
        "bird": 1293.615326193903,
        "cat": 1092.0551070603728,
        "deer": 1446.1391959492755,
        "dog": 1118.2501243277904,
        "frog": 1537.050353515021,
        "horse": 1319.935048124833,
        "ship": 862.8185865048184,
        "truck": 1094.62050555955
    },
    "fid": 795.9956020305956
}