{
    "epoch": 11,
    "avg_current_window": 2098.612012397056,
    "avg_prior_window": 2491.551291219828,
    "inception_score_mean": 1.0348309981540336,
    "inception_score_std": 0.009259997747921179,
    "fid_per_class": {
        "airplane": 1566.7658233466304,
        "automobile": 1590.039941597791,
        "bird": 1786.3946745593948,
        "cat": 1627.7771406267466,
        "deer": 1822.7020690703312,
        "dog": 1805.1586395674926,
        "frog": 1983.613915518389,
        "horse": 1744.2911802433518,
        "ship": 1467.755033037523,
        "truck": 1459.9914562526544
    },
    "fid": 1522.5765932864776
}