{
    "epoch": 184,
    "avg_current_window": 1013.9388676836634,
    "avg_prior_window": 1025.2810393203158,
    "inception_score_mean": 2.1307274728304795,
    "inception_score_std": 0.09889578706324928,
    "fid_per_class": {
        "airplane": 941.6852211430272,
        "automobile": 1004.285883245705,
        "bird": 1342.4492613259654,
        "cat": 1046.3277679911419,
        "deer": 1492.0511962752676,
        "dog": 1001.5188649142306,
        "frog": 1538.6491962577497,
        "horse": 1182.8308385118237,
        "ship": 944.8735669006859,
        "truck": 964.6874289105276
    },
    "fid": 731.0893935501099
}