{
    "epoch": 107,
    "avg_current_window": 1160.1117315371084,
    "avg_prior_window": 1184.0289820342516,
    "inception_score_mean": 1.9809523073851267,
    "inception_score_std": 0.11901955362374124,
    "fid_per_class": {
        "airplane": 998.2949996469745,
        "automobile": 1137.0055950103242,
        "bird": 1340.9912895564112,
        "cat": 1110.660021411016,
        "deer": 1524.8971502559807,
        "dog": 1086.5262297192853,
        "frog": 1504.6105208647796,
        "horse": 1376.8539366754128,
        "ship": 949.9867715197855,
        "truck": 1099.2518924474782
    },
    "fid": 829.4281129951271
}