{
    "epoch": 130,
    "avg_current_window": 1102.334022179147,
    "avg_prior_window": 1120.9678130767916,
    "inception_score_mean": 2.0470580988916196,
    "inception_score_std": 0.13337854331577692,
    "fid_per_class": {
        "airplane": 1023.5881066528704,
        "automobile": 1095.5899556461732,
        "bird": 1332.7395499570152,
        "cat": 1109.2364233790927,
        "deer": 1457.8854652361579,
        "dog": 1084.9873762252912,
        "frog": 1657.5695885750833,
        "horse": 1266.9605439032425,
        "ship": 989.9020943108642,
        "truck": 1089.7162930698512
    },
    "fid": 807.3871324697743
}