{
    "epoch": 146,
    "avg_current_window": 1070.5748439259924,
    "avg_prior_window": 1085.7280908092862,
    "inception_score_mean": 2.0176138583821563,
    "inception_score_std": 0.1206307301730857,
    "fid_per_class": {
        "airplane": 1038.247467713874,
        "automobile": 1142.296491273547,
        "bird": 1342.0344960442103,
        "cat": 1133.9818969516184,
        "deer": 1536.565965224307,
        "dog": 1127.0021762971269,
        "frog": 1625.677387259002,
        "horse": 1353.3817912451505,
        "ship": 963.652019230399,
        "truck": 1084.4615864092366
    },
    "fid": 827.8839889115918
}