{
    "epoch": 173,
    "avg_current_window": 1028.5992920388678,
    "avg_prior_window": 1039.949966820012,
    "inception_score_mean": 2.0588198717148485,
    "inception_score_std": 0.1853736314226439,
    "fid_per_class": {
        "airplane": 975.7097549794975,
        "automobile": 1048.2978074249406,
        "bird": 1291.4736169482267,
        "cat": 1045.3973638151938,
        "deer": 1544.8307829130151,
        "dog": 1084.8228825274505,
        "frog": 1586.6837408846702,
        "horse": 1314.3795178365851,
        "ship": 928.7743135783641,
        "truck": 1077.6623741208969
    },
    "fid": 781.939615626661
}