{
    "epoch": 8,
    "avg_current_window": 2189.194268757956,
    "avg_prior_window": 1.0,
    "inception_score_mean": 1.0397825076445586,
    "inception_score_std": 0.008737830408872192,
    "fid_per_class": {
        "airplane": 1900.3256089218817,
        "automobile": 1881.4595887211958,
        "bird": 2114.1868456112534,
        "cat": 2081.1405989893765,
        "deer": 2415.1362207200473,
        "dog": 2183.767119017173,
        "frog": 2486.6017616448685,
        "horse": 2142.3084512359333,
        "ship": 1910.9970820484673,
        "truck": 1932.0322425002214
    },
    "fid": 1981.2616202182937
}