{
    "epoch": 164,
    "avg_current_window": 1041.091775493636,
    "avg_prior_window": 1053.6173507823582,
    "inception_score_mean": 2.0118365881229154,
    "inception_score_std": 0.13835651997385093,
    "fid_per_class": {
        "airplane": 1035.686564867748,
        "automobile": 1133.843229828698,
        "bird": 1348.906760734118,
        "cat": 1078.929939445695,
        "deer": 1598.6772003412952,
        "dog": 1134.1327687082617,
        "frog": 1554.5843110193696,
        "horse": 1422.9471149364012,
        "ship": 933.589888024024,
        "truck": 1101.9733873292014
    },
    "fid": 833.1150586417688
}