{
    "epoch": 93,
    "avg_current_window": 1207.644595598046,
    "avg_prior_window": 1235.8997774361017,
    "inception_score_mean": 1.9546646966061036,
    "inception_score_std": 0.15143227460756775,
    "fid_per_class": {
        "airplane": 1044.8011887684347,
        "automobile": 1182.1845276307845,
        "bird": 1415.786360223994,
        "cat": 1080.9628103753946,
        "deer": 1533.2820633865563,
        "dog": 1150.3812959823138,
        "frog": 1633.943797625499,
        "horse": 1381.8915562880907,
        "ship": 945.2046254970288,
        "truck": 1163.8086813320551
    },
    "fid": 849.3100721480935
}