{
    "epoch": 97,
    "avg_current_window": 1193.0438520732453,
    "avg_prior_window": 1220.771167289329,
    "inception_score_mean": 1.9481494671901203,
    "inception_score_std": 0.13478283866729646,
    "fid_per_class": {
        "airplane": 1056.575092359431,
        "automobile": 1250.569951971504,
        "bird": 1427.139352930017,
        "cat": 1167.5336254611566,
        "deer": 1670.0303663345644,
        "dog": 1176.314477495453,
        "frog": 1685.0582838052644,
        "horse": 1447.3584850498862,
        "ship": 934.705906250408,
        "truck": 1147.3836363563164
    },
    "fid": 914.3218881142941
}