{
    "epoch": 144,
    "avg_current_window": 1074.4073889931663,
    "avg_prior_window": 1089.5857191037906,
    "inception_score_mean": 2.0061222217989707,
    "inception_score_std": 0.1598591382646117,
    "fid_per_class": {
        "airplane": 1014.4591568613206,
        "automobile": 1109.9201237811017,
        "bird": 1399.3566828400224,
        "cat": 1144.7488659922396,
        "deer": 1531.8992979320014,
        "dog": 1155.2864672981464,
        "frog": 1624.931894845437,
        "horse": 1329.256939775215,
        "ship": 928.6025017625252,
        "truck": 1091.9514887981259
    },
    "fid": 831.6289167488944
}