{
    "epoch": 200,
    "avg_current_window": 993.6074327737718,
    "avg_prior_window": 1003.4595081775286,
    "inception_score_mean": 2.0214413009469134,
    "inception_score_std": 0.1399395762285917,
    "fid_per_class": {
        "airplane": 952.0941099815105,
        "automobile": 1094.2080455951166,
        "bird": 1315.4420758569024,
        "cat": 1088.645219109991,
        "deer": 1410.0848137194553,
        "dog": 1138.6775132761595,
        "frog": 1487.6555450727385,
        "horse": 1251.485098929692,
        "ship": 902.203363386763,
        "truck": 1014.3134451236539
    },
    "fid": 760.8392755946146
}