{
    "epoch": 44,
    "avg_current_window": 1536.217374934408,
    "avg_prior_window": 1628.3684450500518,
    "inception_score_mean": 1.8356915599752093,
    "inception_score_std": 0.14702733130864287,
    "fid_per_class": {
        "airplane": 1054.7609609241765,
        "automobile": 1218.7246475270463,
        "bird": 1441.8124632168717,
        "cat": 1255.2883260215197,
        "deer": 1693.3260124572164,
        "dog": 1369.7871970356466,
        "frog": 1985.9653625893325,
        "horse": 1534.9702880982602,
        "ship": 985.5628751719229,
        "truck": 1251.1384470771509
    },
    "fid": 1002.424013329257
}