{
    "epoch": 189,
    "avg_current_window": 1006.811854797298,
    "avg_prior_window": 1017.9121796051314,
    "inception_score_mean": 2.066900835963577,
    "inception_score_std": 0.11333038850026078,
    "fid_per_class": {
        "airplane": 1037.9968950155069,
        "automobile": 1083.1246223826188,
        "bird": 1327.1544818979978,
        "cat": 1035.4564567919779,
        "deer": 1517.3130295200942,
        "dog": 1107.2960055515687,
        "frog": 1489.7425249806731,
        "horse": 1334.2555675003275,
        "ship": 985.1277564818784,
        "truck": 1031.1864001295085
    },
    "fid": 789.7796924481485
}