{
    "epoch": 165,
    "avg_current_window": 1039.8313105430186,
    "avg_prior_window": 1052.0271883983298,
    "inception_score_mean": 2.0974832289094394,
    "inception_score_std": 0.13992314757486965,
    "fid_per_class": {
        "airplane": 983.6105633488173,
        "automobile": 1033.6549225103436,
        "bird": 1286.334085105354,
        "cat": 1120.5964503174764,
        "deer": 1439.7787233123368,
        "dog": 1188.953861226566,
        "frog": 1544.6489977117267,
        "horse": 1233.067382408528,
        "ship": 916.226203417888,
        "truck": 1087.545772257225
    },
    "fid": 765.305959043397
}