{
    "epoch": 140,
    "avg_current_window": 1081.8029639673348,
    "avg_prior_window": 1097.9273903456592,
    "inception_score_mean": 1.9590295841403964,
    "inception_score_std": 0.122936960389025,
    "fid_per_class": {
        "airplane": 1015.6051258281279,
        "automobile": 1095.0635942510442,
        "bird": 1360.8775931275295,
        "cat": 1069.6346338146327,
        "deer": 1477.5141323966545,
        "dog": 1144.4718164013616,
        "frog": 1575.3105978990989,
        "horse": 1342.1542115851346,
        "ship": 964.0058581038572,
        "truck": 1090.2877965297498
    },
    "fid": 815.7642277704242
}