{
    "epoch": 145,
    "avg_current_window": 1072.7330547018264,
    "avg_prior_window": 1087.6298513085521,
    "inception_score_mean": 2.046170119823871,
    "inception_score_std": 0.12125012610619289,
    "fid_per_class": {
        "airplane": 992.0839380143148,
        "automobile": 1099.450234116406,
        "bird": 1318.666074237237,
        "cat": 1065.2117254212371,
        "deer": 1418.3936132727242,
        "dog": 1093.5363773755603,
        "frog": 1527.887008262925,
        "horse": 1263.001165655438,
        "ship": 900.0750607458486,
        "truck": 1085.1752074965286
    },
    "fid": 757.6342814300822
}