{
    "epoch": 38,
    "avg_current_window": 1617.9851485683926,
    "avg_prior_window": 1737.5287195580786,
    "inception_score_mean": 1.8271350696968842,
    "inception_score_std": 0.1446125569671781,
    "fid_per_class": {
        "airplane": 1129.3276955485182,
        "automobile": 1325.008110492387,
        "bird": 1469.4215362746709,
        "cat": 1231.9912259706198,
        "deer": 1598.0965404298647,
        "dog": 1407.871593403647,
        "frog": 1895.2041767814912,
        "horse": 1624.1286551083265,
        "ship": 1080.920394218622,
        "truck": 1310.3813244223875
    },
    "fid": 1048.7753593903215
}