{
    "epoch": 180,
    "avg_current_window": 1019.5850335463141,
    "avg_prior_window": 1030.4002069992569,
    "inception_score_mean": 1.9507275276503306,
    "inception_score_std": 0.0872123392091844,
    "fid_per_class": {
        "airplane": 978.9576873503491,
        "automobile": 1095.3786772426677,
        "bird": 1315.9068053215633,
        "cat": 1027.061365438201,
        "deer": 1441.8189339397786,
        "dog": 997.2505046735448,
        "frog": 1459.8838985248487,
        "horse": 1270.6897399801908,
        "ship": 869.499292910059,
        "truck": 1032.2737762217337
    },
    "fid": 739.8420851812575
}