{
    "epoch": 136,
    "avg_current_window": 1089.8543948284116,
    "avg_prior_window": 1106.7440680823443,
    "inception_score_mean": 2.0531089317100717,
    "inception_score_std": 0.08540619132344249,
    "fid_per_class": {
        "airplane": 1090.1909406876025,
        "automobile": 1138.4686431700172,
        "bird": 1351.2922618332927,
        "cat": 1143.7777692113366,
        "deer": 1479.6370587806,
        "dog": 1097.7682377619483,
        "frog": 1536.6504760325304,
        "horse": 1402.3648503169193,
        "ship": 1010.1989622218741,
        "truck": 1143.9168280626404
    },
    "fid": 842.7399869554041
}