{
    "epoch": 65,
    "avg_current_window": 1341.9914342297639,
    "avg_prior_window": 1392.6633583982127,
    "inception_score_mean": 2.000219932154322,
    "inception_score_std": 0.10002813493940786,
    "fid_per_class": {
        "airplane": 1053.6498637686734,
        "automobile": 1159.469694605511,
        "bird": 1355.86051581221,
        "cat": 1148.554304119947,
        "deer": 1553.2590450760144,
        "dog": 1186.1298695023327,
        "frog": 1741.6699175642696,
        "horse": 1474.241454924804,
        "ship": 947.9027481330348,
        "truck": 1170.3118170551538
    },
    "fid": 889.2309039136379
}