{
    "epoch": 12,
    "avg_current_window": 2050.6090608045074,
    "avg_prior_window": 2501.9363071519497,
    "inception_score_mean": 1.205399626968815,
    "inception_score_std": 0.07327670820873142,
    "fid_per_class": {
        "airplane": 1891.6665391089666,
        "automobile": 1781.4037682608891,
        "bird": 2267.0888831164257,
        "cat": 1959.1957263402733,
        "deer": 2377.5816211936976,
        "dog": 2332.093551715163,
        "frog": 2575.1106378188774,
        "horse": 2175.539246337966,
        "ship": 1660.0499681114488,
        "truck": 1694.270344255173
    },
    "fid": 1892.1174261635515
}