{
    "epoch": 82,
    "avg_current_window": 1249.8545285341686,
    "avg_prior_window": 1285.3523719560744,
    "inception_score_mean": 1.964816692793709,
    "inception_score_std": 0.09896746254174114,
    "fid_per_class": {
        "airplane": 1044.1382392757623,
        "automobile": 1156.3308455453819,
        "bird": 1390.3939059556394,
        "cat": 1149.682599091219,
        "deer": 1537.7152265268887,
        "dog": 1250.0826977922995,
        "frog": 1692.5173120243248,
        "horse": 1424.9018432987127,
        "ship": 992.3559951222297,
        "truck": 1123.435214303519
    },
    "fid": 902.7423849288012
}