{
    "epoch": 129,
    "avg_current_window": 1104.810733331382,
    "avg_prior_window": 1123.2048960357477,
    "inception_score_mean": 2.165852727485008,
    "inception_score_std": 0.2452383625979126,
    "fid_per_class": {
        "airplane": 1025.8735885957299,
        "automobile": 1084.867919808706,
        "bird": 1289.2711476804427,
        "cat": 1027.2409554107985,
        "deer": 1483.8685511490137,
        "dog": 1088.2895176860839,
        "frog": 1587.3872557827308,
        "horse": 1252.9903500644732,
        "ship": 963.9782071119417,
        "truck": 1105.5374436520501
    },
    "fid": 782.8382835408561
}