{
    "epoch": 41,
    "avg_current_window": 1574.6470278401414,
    "avg_prior_window": 1680.1393510617402,
    "inception_score_mean": 1.976262155170485,
    "inception_score_std": 0.21079252284496602,
    "fid_per_class": {
        "airplane": 1088.3975659873722,
        "automobile": 1233.6865250165415,
        "bird": 1373.3129263180997,
        "cat": 1161.0402488148961,
        "deer": 1582.957572069025,
        "dog": 1409.5196792285362,
        "frog": 1891.2207630702164,
        "horse": 1559.5364403187423,
        "ship": 1101.863957972711,
        "truck": 1234.5686885953166
    },
    "fid": 986.5757768951452
}