{
    "epoch": 155,
    "avg_current_window": 1055.3446215358622,
    "avg_prior_window": 1069.0341640668887,
    "inception_score_mean": 2.0168486944374933,
    "inception_score_std": 0.0858283467072593,
    "fid_per_class": {
        "airplane": 995.2308926317489,
        "automobile": 1053.3136426172273,
        "bird": 1300.9434317502814,
        "cat": 1025.557154665431,
        "deer": 1400.5047681378694,
        "dog": 1016.5489683465819,
        "frog": 1470.508375000085,
        "horse": 1201.2096980256313,
        "ship": 958.0445718270831,
        "truck": 1022.6226870060036
    },
    "fid": 733.7817668843629
}