{
    "epoch": 115,
    "avg_current_window": 1139.1429308689494,
    "avg_prior_window": 1159.321351582009,
    "inception_score_mean": 1.962042815795133,
    "inception_score_std": 0.13119737507912413,
    "fid_per_class": {
        "airplane": 1054.4635674940057,
        "automobile": 1148.7023711908732,
        "bird": 1376.7258956961846,
        "cat": 1124.0907964327496,
        "deer": 1560.0085358934325,
        "dog": 1087.8889612468515,
        "frog": 1579.366968492905,
        "horse": 1464.7221183934182,
        "ship": 939.658174978937,
        "truck": 1097.753455251156
    },
    "fid": 843.8297586284267
}