{
    "epoch": 166,
    "avg_current_window": 1038.17754336531,
    "avg_prior_window": 1050.4400910320653,
    "inception_score_mean": 2.0668108731967214,
    "inception_score_std": 0.16723005409590147,
    "fid_per_class": {
        "airplane": 1039.3208390806772,
        "automobile": 1101.3272766218658,
        "bird": 1303.538759230058,
        "cat": 1092.3765066324268,
        "deer": 1482.2078516528697,
        "dog": 1142.4258045482322,
        "frog": 1664.9921352561266,
        "horse": 1306.931667477229,
        "ship": 939.9038731864989,
        "truck": 1089.2331207410066
    },
    "fid": 797.8907204190025
}