{
    "epoch": 191,
    "avg_current_window": 1004.2092776441535,
    "avg_prior_window": 1015.1250050066769,
    "inception_score_mean": 2.0031517731934576,
    "inception_score_std": 0.05971083623267785,
    "fid_per_class": {
        "airplane": 981.8028916935806,
        "automobile": 1095.5590267427615,
        "bird": 1308.09669438688,
        "cat": 1073.2836784848175,
        "deer": 1479.9084319572694,
        "dog": 1085.4735777595683,
        "frog": 1551.9474649336664,
        "horse": 1295.3853364668898,
        "ship": 989.9393494873334,
        "truck": 1060.8495542998944
    },
    "fid": 793.6059920260503
}