{
    "epoch": 108,
    "avg_current_window": 1157.0498461802383,
    "avg_prior_window": 1180.8857817492897,
    "inception_score_mean": 1.9867519776541473,
    "inception_score_std": 0.19405707248336346,
    "fid_per_class": {
        "airplane": 1047.0282030028436,
        "automobile": 1100.3983177240552,
        "bird": 1372.1434863364398,
        "cat": 1119.6757237261734,
        "deer": 1555.3754894437918,
        "dog": 1094.6259750728127,
        "frog": 1641.1902828217228,
        "horse": 1386.1582508205097,
        "ship": 1015.7344020160795,
        "truck": 1180.3743097762542
    },
    "fid": 860.7678860695098
}