{
    "epoch": 57,
    "avg_current_window": 1399.8289353412135,
    "avg_prior_window": 1465.0173644366935,
    "inception_score_mean": 1.8731823344499756,
    "inception_score_std": 0.1427734327607961,
    "fid_per_class": {
        "airplane": 1016.1944535062754,
        "automobile": 1228.4770499093281,
        "bird": 1452.5785900214216,
        "cat": 1178.7987291881955,
        "deer": 1679.7012863139528,
        "dog": 1304.1362606253388,
        "frog": 1927.3187954533146,
        "horse": 1594.554734525056,
        "ship": 969.3916366071603,
        "truck": 1218.7198891722164
    },
    "fid": 987.1461088059591
}