{
    "epoch": 112,
    "avg_current_window": 1146.7176436604211,
    "avg_prior_window": 1167.8633961445396,
    "inception_score_mean": 2.043007349110694,
    "inception_score_std": 0.18065993686091603,
    "fid_per_class": {
        "airplane": 990.7087720581106,
        "automobile": 1113.1040840113646,
        "bird": 1348.9951197773894,
        "cat": 1148.8400645189438,
        "deer": 1544.6625385625534,
        "dog": 1124.178927891926,
        "frog": 1534.8651442732098,
        "horse": 1348.0891999679368,
        "ship": 1009.8206145421534,
        "truck": 1102.0329355144838
    },
    "fid": 819.8394030469786
}