{
    "epoch": 72,
    "avg_current_window": 1300.3480819694446,
    "avg_prior_window": 1343.2208435964656,
    "inception_score_mean": 1.8656219137683376,
    "inception_score_std": 0.12102753847731974,
    "fid_per_class": {
        "airplane": 1104.1642339392201,
        "automobile": 1149.4615434964935,
        "bird": 1416.48884684241,
        "cat": 1219.6158129372388,
        "deer": 1572.5410385640257,
        "dog": 1264.2865505482837,
        "frog": 1670.1377628222845,
        "horse": 1513.3860004138537,
        "ship": 958.8557576558567,
        "truck": 1164.824177708545
    },
    "fid": 924.2746461109045
}