{
    "epoch": 78,
    "avg_current_window": 1268.873495392535,
    "avg_prior_window": 1307.7455328523893,
    "inception_score_mean": 1.981393759403956,
    "inception_score_std": 0.13487332793701642,
    "fid_per_class": {
        "airplane": 1058.0699214850056,
        "automobile": 1143.4290069108065,
        "bird": 1367.891524768404,
        "cat": 1096.0022415940812,
        "deer": 1608.8072617777023,
        "dog": 1172.2701391570167,
        "frog": 1637.1507256096452,
        "horse": 1452.079443160541,
        "ship": 957.688406230111,
        "truck": 1158.7214891910835
    },
    "fid": 881.5093568405509
}