{
    "epoch": 77,
    "avg_current_window": 1211.4673761422923,
    "avg_prior_window": 1245.4612542172633,
    "inception_score_mean": 1.7905973899333532,
    "inception_score_std": 0.15343442482319905,
    "fid_per_class": {
        "airplane": 1055.7376001831499,
        "automobile": 1164.5584133283876,
        "bird": 1275.1820462999906,
        "cat": 1037.2438196289872,
        "deer": 1354.3150936136951,
        "dog": 1171.0625585987032,
        "frog": 1522.971219995063,
        "horse": 1200.3649679843002,
        "ship": 981.0222470975273,
        "truck": 1068.0670596286136
    },
    "fid": 817.9464565783304,
    "wasserstein_distance": null,
    "g_loss": null,
    "g_cost": null,
    "d_loss_real": null,
    "d_loss_fake": null
}