{
    "epoch": 94,
    "avg_current_window": 1150.664251738864,
    "avg_prior_window": 1177.1915433295417,
    "inception_score_mean": 1.741916082718594,
    "inception_score_std": 0.12702750769127824,
    "fid_per_class": {
        "airplane": 1073.0411435987382,
        "automobile": 1199.6541024881333,
        "bird": 1361.4650219749913,
        "cat": 983.0385544064238,
        "deer": 1481.7546536671123,
        "dog": 1027.3382060863355,
        "frog": 1411.6649398756267,
        "horse": 1273.1621309174193,
        "ship": 1000.7623151598303,
        "truck": 1103.0334956980755
    },
    "fid": 835.902346158118,
    "wasserstein_distance": null,
    "g_loss": null,
    "g_cost": null,
    "d_loss_real": null,
    "d_loss_fake": null
}