{
    "epoch": 103,
    "avg_current_window": 1123.4827104693243,
    "avg_prior_window": 1146.0851680594951,
    "inception_score_mean": 1.7931460791086171,
    "inception_score_std": 0.18503837785371938,
    "fid_per_class": {
        "airplane": 1109.9240940549303,
        "automobile": 1127.9865671720645,
        "bird": 1363.9261245934485,
        "cat": 1007.5778290815872,
        "deer": 1575.9191842187895,
        "dog": 1093.811058872378,
        "frog": 1485.2568171031858,
        "horse": 1273.8654320624387,
        "ship": 937.681933707118,
        "truck": 1152.2883265750222
    },
    "fid": 857.3518869368445,
    "wasserstein_distance": null,
    "g_loss": null,
    "g_cost": null,
    "d_loss_real": null,
    "d_loss_fake": null
}