{
    "epoch": 108,
    "avg_current_window": 1110.175524429243,
    "avg_prior_window": 1131.8065151968665,
    "inception_score_mean": 1.78511695676963,
    "inception_score_std": 0.15217885312297824,
    "fid_per_class": {
        "airplane": 1154.3495718791464,
        "automobile": 1207.2367174726446,
        "bird": 1421.3961403811709,
        "cat": 1021.6003100512416,
        "deer": 1618.3558030009754,
        "dog": 1160.147163797049,
        "frog": 1594.7280808828987,
        "horse": 1334.1651251364697,
        "ship": 958.958725061808,
        "truck": 1171.9496025214073
    },
    "fid": 907.1894666894771,
    "wasserstein_distance": null,
    "g_loss": null,
    "g_cost": null,
    "d_loss_real": null,
    "d_loss_fake": null
}