{
    "epoch": 105,
    "avg_current_window": 1118.6313747114875,
    "avg_prior_window": 1140.9870079385469,
    "inception_score_mean": 1.7625484565678857,
    "inception_score_std": 0.16082875508568847,
    "fid_per_class": {
        "airplane": 1051.6399269415347,
        "automobile": 1163.5321416530164,
        "bird": 1371.7472676694297,
        "cat": 1001.2386684002064,
        "deer": 1507.296198553037,
        "dog": 1109.4208669585853,
        "frog": 1489.2939537303396,
        "horse": 1282.3347920623444,
        "ship": 1002.9954878349695,
        "truck": 1104.8005873190564
    },
    "fid": 862.1174796671329,
    "wasserstein_distance": null,
    "g_loss": null,
    "g_cost": null,
    "d_loss_real": null,
    "d_loss_fake": null
}