{
    "epoch": 54,
    "avg_current_window": 1332.252348133463,
    "avg_prior_window": 1386.5038412730494,
    "inception_score_mean": 1.8250999595153086,
    "inception_score_std": 0.1372583278589984,
    "fid_per_class": {
        "airplane": 1222.760175738539,
        "automobile": 1191.1259547158572,
        "bird": 1343.4453105625953,
        "cat": 1072.0484373313575,
        "deer": 1342.5241770743296,
        "dog": 1213.0035492397005,
        "frog": 1613.3281529165915,
        "horse": 1364.243654335215,
        "ship": 1095.7718013764643,
        "truck": 1194.8797199187961
    },
    "fid": 913.4171896297828,
    "wasserstein_distance": null,
    "g_loss": null,
    "g_cost": null,
    "d_loss_real": null,
    "d_loss_fake": null
}