{
    "epoch": 119,
    "avg_current_window": 1085.6105321665643,
    "avg_prior_window": 1102.7892191466326,
    "inception_score_mean": 1.7983070374780865,
    "inception_score_std": 0.1341703568753923,
    "fid_per_class": {
        "airplane": 1142.8843270625769,
        "automobile": 1124.014754504731,
        "bird": 1554.2197983437177,
        "cat": 1059.7304096116911,
        "deer": 1742.8643345354753,
        "dog": 1215.643309578585,
        "frog": 1674.0155054845582,
        "horse": 1456.1050967176989,
        "ship": 1018.1678960754125,
        "truck": 1118.9617326985895
    },
    "fid": 951.1581969996441,
    "wasserstein_distance": null,
    "g_loss": null,
    "g_cost": null,
    "d_loss_real": null,
    "d_loss_fake": null
}