{
    "epoch": 35,
    "avg_current_window": 1492.1876902188692,
    "avg_prior_window": 1584.8462449048645,
    "inception_score_mean": 1.67705495162608,
    "inception_score_std": 0.08925409410240902,
    "fid_per_class": {
        "airplane": 1222.3668508873327,
        "automobile": 1176.1039747418067,
        "bird": 1623.0239079513183,
        "cat": 1220.1213337510399,
        "deer": 1577.3670412002639,
        "dog": 1310.9898324968199,
        "frog": 1714.1778662793038,
        "horse": 1442.1025968022757,
        "ship": 1019.3315512852978,
        "truck": 1174.6110711558547
    },
    "fid": 1024.2469046700842,
    "wasserstein_distance": null,
    "g_loss": null,
    "g_cost": null,
    "d_loss_real": null,
    "d_loss_fake": null
}