{
    "epoch": 111,
    "avg_current_window": 1103.483443470466,
    "avg_prior_window": 1123.6801278705075,
    "inception_score_mean": 1.7822068051361186,
    "inception_score_std": 0.1580422919080003,
    "fid_per_class": {
        "airplane": 1088.3557440496556,
        "automobile": 1097.713093705649,
        "bird": 1412.4042784849444,
        "cat": 965.6896767057017,
        "deer": 1548.763003354044,
        "dog": 1084.1566455842708,
        "frog": 1489.9172739134813,
        "horse": 1195.0715566982974,
        "ship": 986.5543192867599,
        "truck": 1109.156054481846
    },
    "fid": 827.6075622732038,
    "wasserstein_distance": null,
    "g_loss": null,
    "g_cost": null,
    "d_loss_real": null,
    "d_loss_fake": null
}