{
    "epoch": 106,
    "avg_current_window": 1116.2114323054086,
    "avg_prior_window": 1137.2242404474187,
    "inception_score_mean": 1.8264676852504143,
    "inception_score_std": 0.13600870571056056,
    "fid_per_class": {
        "airplane": 1105.699826997658,
        "automobile": 1118.815832667152,
        "bird": 1362.5587951398202,
        "cat": 906.6223862153673,
        "deer": 1388.2184016915787,
        "dog": 1057.6178641932995,
        "frog": 1415.8902592250452,
        "horse": 1223.133160422721,
        "ship": 951.7014224130174,
        "truck": 1093.227468721463
    },
    "fid": 791.6817299004779,
    "wasserstein_distance": null,
    "g_loss": null,
    "g_cost": null,
    "d_loss_real": null,
    "d_loss_fake": null
}