{
    "epoch": 29,
    "avg_current_window": 1572.1266976549716,
    "avg_prior_window": 1717.690366525899,
    "inception_score_mean": 1.46153107629831,
    "inception_score_std": 0.10388470018450598,
    "fid_per_class": {
        "airplane": 1220.0213346948483,
        "automobile": 1172.5659776344096,
        "bird": 1474.479412015214,
        "cat": 1232.458069532627,
        "deer": 1525.7657557049251,
        "dog": 1339.3529879527596,
        "frog": 1527.9907744661687,
        "horse": 1437.255804454496,
        "ship": 1067.0062641154607,
        "truck": 1193.2967810496148
    },
    "fid": 1005.8896024455548,
    "wasserstein_distance": null,
    "g_loss": null,
    "g_cost": null,
    "d_loss_real": null,
    "d_loss_fake": null
}