{
    "epoch": 122,
    "avg_current_window": 1079.5489649256751,
    "avg_prior_window": 1096.8864038811892,
    "inception_score_mean": 1.791790123150569,
    "inception_score_std": 0.1054634790776502,
    "fid_per_class": {
        "airplane": 1057.2546818877745,
        "automobile": 1153.7757093356263,
        "bird": 1382.0668215998462,
        "cat": 1012.1210513139831,
        "deer": 1486.3639759948967,
        "dog": 1117.9100456506767,
        "frog": 1615.7136266437183,
        "horse": 1325.7155220086065,
        "ship": 964.9286704525871,
        "truck": 1103.4735565962162
    },
    "fid": 843.267246928267,
    "wasserstein_distance": null,
    "g_loss": null,
    "g_cost": null,
    "d_loss_real": null,
    "d_loss_fake": null
}