{
    "epoch": 109,
    "avg_current_window": 1108.3132670187865,
    "avg_prior_window": 1129.387445622175,
    "inception_score_mean": 1.7615120728565352,
    "inception_score_std": 0.11094277987747064,
    "fid_per_class": {
        "airplane": 1133.6657597214735,
        "automobile": 1217.8274182442756,
        "bird": 1383.4208294509885,
        "cat": 1008.4098487820288,
        "deer": 1458.0813434392821,
        "dog": 1138.233021633691,
        "frog": 1699.8733216847015,
        "horse": 1273.1417938715745,
        "ship": 993.7549270440143,
        "truck": 1161.1017257814856
    },
    "fid": 872.0698358572525,
    "wasserstein_distance": null,
    "g_loss": null,
    "g_cost": null,
    "d_loss_real": null,
    "d_loss_fake": null
}