{
    "epoch": 168,
    "avg_current_window": 1012.3022362440281,
    "avg_prior_window": 1022.5607157902463,
    "inception_score_mean": 1.9365917134484896,
    "inception_score_std": 0.09964772553875972,
    "fid_per_class": {
        "airplane": 1118.9355780475996,
        "automobile": 1201.6451193968282,
        "bird": 1284.5420684249837,
        "cat": 948.0182068657111,
        "deer": 1450.7029737561206,
        "dog": 1077.6676475710237,
        "frog": 1367.847090471321,
        "horse": 1215.166735417541,
        "ship": 1063.8899782483877,
        "truck": 1065.2925756479585
    },
    "fid": 792.0990468464506,
    "wasserstein_distance": null,
    "g_loss": null,
    "g_cost": null,
    "d_loss_real": null,
    "d_loss_fake": null
}