{
    "epoch": 177,
    "avg_current_window": 1005.158113970846,
    "avg_prior_window": 1013.604285711357,
    "inception_score_mean": 1.8613391769074699,
    "inception_score_std": 0.12410932368232677,
    "fid_per_class": {
        "airplane": 1108.2703024897244,
        "automobile": 1134.5052670961131,
        "bird": 1434.1072600308244,
        "cat": 992.0742575924604,
        "deer": 1604.8967692240121,
        "dog": 1053.0178597842971,
        "frog": 1483.4347664277238,
        "horse": 1319.0644247796797,
        "ship": 1122.5154199009517,
        "truck": 1132.3979850314854
    },
    "fid": 830.0053788972452,
    "wasserstein_distance": null,
    "g_loss": null,
    "g_cost": null,
    "d_loss_real": null,
    "d_loss_fake": null
}