{
    "epoch": 145,
    "avg_current_window": 1040.8861665030204,
    "avg_prior_window": 1054.4501077910247,
    "inception_score_mean": 1.7607183764463052,
    "inception_score_std": 0.14044356850192088,
    "fid_per_class": {
        "airplane": 1033.8477819584944,
        "automobile": 1084.5406229756427,
        "bird": 1322.2486831175668,
        "cat": 1004.6817842442708,
        "deer": 1524.4357204635037,
        "dog": 1160.5222652813898,
        "frog": 1518.7859487147246,
        "horse": 1329.3893532022846,
        "ship": 950.6742587737132,
        "truck": 1081.8458925203056
    },
    "fid": 828.3621187230065,
    "wasserstein_distance": null,
    "g_loss": null,
    "g_cost": null,
    "d_loss_real": null,
    "d_loss_fake": null
}