{
    "epoch": 126,
    "avg_current_window": 1072.6654811124697,
    "avg_prior_window": 1088.4708571977883,
    "inception_score_mean": 1.9526857448615709,
    "inception_score_std": 0.11874979133418367,
    "fid_per_class": {
        "airplane": 1079.3530937365094,
        "automobile": 1056.920369219456,
        "bird": 1213.798969568216,
        "cat": 876.9437955786647,
        "deer": 1391.9527269830248,
        "dog": 930.1249845153551,
        "frog": 1243.5010464535846,
        "horse": 1207.3706009653501,
        "ship": 1028.7376937142658,
        "truck": 1092.1216302130993
    },
    "fid": 725.0573583178815,
    "wasserstein_distance": null,
    "g_loss": null,
    "g_cost": null,
    "d_loss_real": null,
    "d_loss_fake": null
}