{
    "epoch": 32,
    "avg_current_window": 1524.654436468532,
    "avg_prior_window": 1645.326138587468,
    "inception_score_mean": 1.5126474773909309,
    "inception_score_std": 0.10983832756673496,
    "fid_per_class": {
        "airplane": 1307.5786476669068,
        "automobile": 1240.4308286332084,
        "bird": 1487.084858760154,
        "cat": 1217.9185904274368,
        "deer": 1544.5676925502742,
        "dog": 1466.9454535841523,
        "frog": 1955.4322501112408,
        "horse": 1533.7600985277618,
        "ship": 1070.117787741895,
        "truck": 1162.578611735646
    },
    "fid": 1086.8161288290848,
    "wasserstein_distance": null,
    "g_loss": null,
    "g_cost": null,
    "d_loss_real": null,
    "d_loss_fake": null
}