{
    "epoch": 187,
    "avg_current_window": 998.5586684194698,
    "avg_prior_window": 1006.5853433478557,
    "inception_score_mean": 1.8544153537768326,
    "inception_score_std": 0.1431463766106483,
    "fid_per_class": {
        "airplane": 1069.7444391279328,
        "automobile": 1083.1268275884838,
        "bird": 1278.488474738482,
        "cat": 1095.5029563248568,
        "deer": 1542.2224401671167,
        "dog": 1065.861154615561,
        "frog": 1694.3119631095994,
        "horse": 1376.307701089438,
        "ship": 1023.4618070532248,
        "truck": 1144.6184274599254
    },
    "fid": 846.0485866825238,
    "wasserstein_distance": null,
    "g_loss": null,
    "g_cost": null,
    "d_loss_real": null,
    "d_loss_fake": null
}