{
    "epoch": 131,
    "avg_current_window": 1062.334044729443,
    "avg_prior_window": 1078.419904591183,
    "inception_score_mean": 1.8729030507671407,
    "inception_score_std": 0.10979015744508598,
    "fid_per_class": {
        "airplane": 1068.515092449288,
        "automobile": 1160.9468375312706,
        "bird": 1344.7086772654684,
        "cat": 1038.4304593889312,
        "deer": 1595.636289099278,
        "dog": 1124.7221105483898,
        "frog": 1604.3963740507616,
        "horse": 1321.2135722589446,
        "ship": 972.0501435283361,
        "truck": 1094.414603987589
    },
    "fid": 865.508917934657,
    "wasserstein_distance": null,
    "g_loss": null,
    "g_cost": null,
    "d_loss_real": null,
    "d_loss_fake": null
}