{
    "epoch": 58,
    "avg_current_window": 1305.6597359111518,
    "avg_prior_window": 1357.3891848906983,
    "inception_score_mean": 1.7594641365642403,
    "inception_score_std": 0.1538133665773722,
    "fid_per_class": {
        "airplane": 1108.4214886192353,
        "automobile": 1174.3336804189778,
        "bird": 1488.5124195293843,
        "cat": 1256.1343827135702,
        "deer": 1512.263647258013,
        "dog": 1331.6646470671121,
        "frog": 1792.2066011279476,
        "horse": 1370.4001242572413,
        "ship": 1030.1688624235057,
        "truck": 1170.2114117432384
    },
    "fid": 964.6660426935567,
    "wasserstein_distance": null,
    "g_loss": null,
    "g_cost": null,
    "d_loss_real": null,
    "d_loss_fake": null
}