{
    "epoch": 18,
    "avg_current_window": 1837.6312959219604,
    "avg_prior_window": 2013.9132133252692,
    "inception_score_mean": 1.2981084829913125,
    "inception_score_std": 0.04729677048767687,
    "fid_per_class": {
        "airplane": 1414.51134173958,
        "automobile": 1458.521551183962,
        "bird": 1445.1301875995675,
        "cat": 1509.6599672942475,
        "deer": 1338.1150875072663,
        "dog": 1617.859149895582,
        "frog": 1682.7764879603749,
        "horse": 1411.946169682867,
        "ship": 1245.6466905859638,
        "truck": 1176.8878187513915
    },
    "fid": 1102.3334993294422,
    "wasserstein_distance": null,
    "g_loss": null,
    "g_cost": null,
    "d_loss_real": null,
    "d_loss_fake": null
}