{
    "epoch": 43,
    "avg_current_window": 1415.4185608408534,
    "avg_prior_window": 1485.8089282638186,
    "inception_score_mean": 1.7517060518602179,
    "inception_score_std": 0.1919474030075662,
    "fid_per_class": {
        "airplane": 1270.0943567762663,
        "automobile": 1350.444428979918,
        "bird": 1573.7143225595582,
        "cat": 1394.3909921307923,
        "deer": 1563.1590310245963,
        "dog": 1471.394007028771,
        "frog": 1839.3253140005108,
        "horse": 1573.1635104376885,
        "ship": 1119.4104068706974,
        "truck": 1256.955499330056
    },
    "fid": 1108.2485600890159,
    "wasserstein_distance": null,
    "g_loss": null,
    "g_cost": null,
    "d_loss_real": null,
    "d_loss_fake": null
}