{
    "epoch": 149,
    "avg_current_window": 1034.6842242795622,
    "avg_prior_window": 1048.1145426592911,
    "inception_score_mean": 1.8448021071345575,
    "inception_score_std": 0.12179568558984347,
    "fid_per_class": {
        "airplane": 1051.6745015157103,
        "automobile": 1211.0005928382864,
        "bird": 1267.2128608896148,
        "cat": 993.1464990764003,
        "deer": 1455.6475541505633,
        "dog": 1205.955103337068,
        "frog": 1416.566143224705,
        "horse": 1327.46072583156,
        "ship": 949.6719038562233,
        "truck": 1091.3065237073517
    },
    "fid": 789.8010731997784,
    "wasserstein_distance": null,
    "g_loss": null,
    "g_cost": null,
    "d_loss_real": null,
    "d_loss_fake": null
}