{
    "epoch": 195,
    "avg_current_window": 992.6493993514646,
    "avg_prior_window": 1001.397023518583,
    "inception_score_mean": 1.9240238661547722,
    "inception_score_std": 0.15728796266242145,
    "fid_per_class": {
        "airplane": 1063.0103006976235,
        "automobile": 1174.2837996210596,
        "bird": 1339.0321659522854,
        "cat": 1010.4872100695702,
        "deer": 1546.2044015344914,
        "dog": 1087.5037539952718,
        "frog": 1522.6843672290638,
        "horse": 1220.2209055947383,
        "ship": 979.4826591921844,
        "truck": 1111.8329877734893
    },
    "fid": 792.8347815018451,
    "wasserstein_distance": null,
    "g_loss": null,
    "g_cost": null,
    "d_loss_real": null,
    "d_loss_fake": null
}