{
    "epoch": 55,
    "avg_current_window": 1324.6371634333962,
    "avg_prior_window": 1378.1946243015761,
    "inception_score_mean": 1.7146997746822474,
    "inception_score_std": 0.1384642048737992,
    "fid_per_class": {
        "airplane": 1250.7535670846435,
        "automobile": 1278.8254395379745,
        "bird": 1441.3881330087715,
        "cat": 1242.9388521884632,
        "deer": 1564.1307949572233,
        "dog": 1367.99549626972,
        "frog": 1706.3139734509766,
        "horse": 1503.0047487028892,
        "ship": 1063.0510045508536,
        "truck": 1212.4927825252043
    },
    "fid": 1016.2119253459675,
    "wasserstein_distance": null,
    "g_loss": null,
    "g_cost": null,
    "d_loss_real": null,
    "d_loss_fake": null
}