{
    "epoch": 102,
    "avg_current_window": 1126.07498318813,
    "avg_prior_window": 1149.4501939140785,
    "inception_score_mean": 1.8325133447769417,
    "inception_score_std": 0.15196519411481862,
    "fid_per_class": {
        "airplane": 1138.5855740357133,
        "automobile": 1137.9314597272194,
        "bird": 1425.514614772229,
        "cat": 986.6051322423643,
        "deer": 1575.7258613252557,
        "dog": 1067.2555683446064,
        "frog": 1418.603116769957,
        "horse": 1293.189619968082,
        "ship": 964.6018410962542,
        "truck": 1142.7733086411854
    },
    "fid": 859.0708931511222,
    "wasserstein_distance": null,
    "g_loss": null,
    "g_cost": null,
    "d_loss_real": null,
    "d_loss_fake": null
}