{
    "epoch": 39,
    "avg_current_window": 1447.7112634365412,
    "avg_prior_window": 1536.0755634606007,
    "inception_score_mean": 1.7597239557719202,
    "inception_score_std": 0.09617420817680279,
    "fid_per_class": {
        "airplane": 1326.0579296167696,
        "automobile": 1276.7779703472195,
        "bird": 1603.2654129600035,
        "cat": 1250.5193371889482,
        "deer": 1748.7948063671633,
        "dog": 1461.100313949259,
        "frog": 1830.1098523449416,
        "horse": 1557.3019599494655,
        "ship": 1152.0232027856869,
        "truck": 1254.2689769155415
    },
    "fid": 1110.1185691387504,
    "wasserstein_distance": null,
    "g_loss": null,
    "g_cost": null,
    "d_loss_real": null,
    "d_loss_fake": null
}