{
    "epoch": 127,
    "avg_current_window": 1069.9284092794414,
    "avg_prior_window": 1086.4609915398414,
    "inception_score_mean": 1.8017602851740968,
    "inception_score_std": 0.09830583625897986,
    "fid_per_class": {
        "airplane": 1090.8860239869418,
        "automobile": 1182.709105030136,
        "bird": 1347.0676998657777,
        "cat": 995.7062539681501,
        "deer": 1487.4922950938749,
        "dog": 1003.0813023233676,
        "frog": 1359.429457603317,
        "horse": 1275.188162533351,
        "ship": 988.7029398021332,
        "truck": 1102.1338344510716
    },
    "fid": 811.2580677641619,
    "wasserstein_distance": null,
    "g_loss": null,
    "g_cost": null,
    "d_loss_real": null,
    "d_loss_fake": null
}