{
    "epoch": 159,
    "avg_current_window": 1022.1337631415203,
    "avg_prior_window": 1033.6428500151299,
    "inception_score_mean": 1.7851117043774707,
    "inception_score_std": 0.09611942402453118,
    "fid_per_class": {
        "airplane": 1115.7170507112578,
        "automobile": 1250.9763382793305,
        "bird": 1355.9797178266012,
        "cat": 1014.063515739552,
        "deer": 1575.1299298557303,
        "dog": 1044.6578620494633,
        "frog": 1764.4371434449672,
        "horse": 1307.253829664479,
        "ship": 998.8430620460772,
        "truck": 1131.8143359395535
    },
    "fid": 865.9821974303059,
    "wasserstein_distance": null,
    "g_loss": null,
    "g_cost": null,
    "d_loss_real": null,
    "d_loss_fake": null
}