{
    "epoch": 128,
    "avg_current_window": 1067.9075472363534,
    "avg_prior_window": 1084.90584295663,
    "inception_score_mean": 1.824522338491835,
    "inception_score_std": 0.15814110439474285,
    "fid_per_class": {
        "airplane": 1133.906993026219,
        "automobile": 1199.8019811896957,
        "bird": 1421.7122070690318,
        "cat": 1011.7077228644697,
        "deer": 1639.2661379660508,
        "dog": 1124.2366220305398,
        "frog": 1685.8421937795658,
        "horse": 1407.080636899294,
        "ship": 1021.5669542503572,
        "truck": 1166.8638651598253
    },
    "fid": 914.9161502342531,
    "wasserstein_distance": null,
    "g_loss": null,
    "g_cost": null,
    "d_loss_real": null,
    "d_loss_fake": null
}