{
    "epoch": 190,
    "avg_current_window": 996.5660626058176,
    "avg_prior_window": 1004.3003392681618,
    "inception_score_mean": 1.9242167730260473,
    "inception_score_std": 0.1413352471921509,
    "fid_per_class": {
        "airplane": 1195.2193242594717,
        "automobile": 1262.4534215831147,
        "bird": 1449.8518699309227,
        "cat": 1145.2169574864918,
        "deer": 1629.840864783187,
        "dog": 1190.4660249151802,
        "frog": 1747.1115184344615,
        "horse": 1312.6975786458017,
        "ship": 1136.3235651175326,
        "truck": 1243.4949897060749
    },
    "fid": 917.8825734254173,
    "wasserstein_distance": null,
    "g_loss": null,
    "g_cost": null,
    "d_loss_real": null,
    "d_loss_fake": null
}