{
    "epoch": 118,
    "avg_current_window": 1087.5907563906708,
    "avg_prior_window": 1104.4839290940404,
    "inception_score_mean": 1.8158947838629793,
    "inception_score_std": 0.18084954820646004,
    "fid_per_class": {
        "airplane": 1202.4990754806702,
        "automobile": 1186.4165120125544,
        "bird": 1439.675974554765,
        "cat": 969.4894512068772,
        "deer": 1449.8921824435577,
        "dog": 1086.9603718281955,
        "frog": 1251.7533376942977,
        "horse": 1315.7581146437196,
        "ship": 1112.636979050777,
        "truck": 1160.4813662078564
    },
    "fid": 851.9440737220016,
    "wasserstein_distance": null,
    "g_loss": null,
    "g_cost": null,
    "d_loss_real": null,
    "d_loss_fake": null
}