{
    "epoch": 188,
    "avg_current_window": 997.7474445804435,
    "avg_prior_window": 1006.0486517733403,
    "inception_score_mean": 1.8579644200459786,
    "inception_score_std": 0.13159215320564813,
    "fid_per_class": {
        "airplane": 1137.8008759518245,
        "automobile": 1255.8004047857685,
        "bird": 1406.7580885144403,
        "cat": 1163.2780091569105,
        "deer": 1609.2651334101483,
        "dog": 1257.8368098638514,
        "frog": 1747.7695830121793,
        "horse": 1432.3706841215203,
        "ship": 1064.8637387276267,
        "truck": 1220.583168062504
    },
    "fid": 924.5349793549448,
    "wasserstein_distance": null,
    "g_loss": null,
    "g_cost": null,
    "d_loss_real": null,
    "d_loss_fake": null
}