{
    "epoch": 191,
    "avg_current_window": 996.1541071650825,
    "avg_prior_window": 1003.9272634109723,
    "inception_score_mean": 2.057764012962702,
    "inception_score_std": 0.1590092048942378,
    "fid_per_class": {
        "airplane": 1160.5839773312214,
        "automobile": 1153.3984971245804,
        "bird": 1267.1203466468162,
        "cat": 1031.0383701299418,
        "deer": 1476.2800432593954,
        "dog": 1066.8836373140562,
        "frog": 1583.4834109213748,
        "horse": 1302.3760739865356,
        "ship": 1078.2694443973548,
        "truck": 1082.740969714997
    },
    "fid": 827.0804957933939,
    "wasserstein_distance": null,
    "g_loss": null,
    "g_cost": null,
    "d_loss_real": null,
    "d_loss_fake": null
}