{
    "epoch": 161,
    "avg_current_window": 1019.7031168074537,
    "avg_prior_window": 1031.2075057262375,
    "inception_score_mean": 1.7358830801796512,
    "inception_score_std": 0.12153590354438662,
    "fid_per_class": {
        "airplane": 1141.5472642062568,
        "automobile": 1228.8718562960505,
        "bird": 1319.7494460414164,
        "cat": 1003.7675341527888,
        "deer": 1481.9598428255617,
        "dog": 1117.1562876348416,
        "frog": 1678.0842820675616,
        "horse": 1357.4148432857198,
        "ship": 1021.9326694340365,
        "truck": 1098.0226632748731
    },
    "fid": 877.2444925853569,
    "wasserstein_distance": null,
    "g_loss": null,
    "g_cost": null,
    "d_loss_real": null,
    "d_loss_fake": null
}