{
    "epoch": 44,
    "avg_current_window": 1408.4374244601297,
    "avg_prior_window": 1476.1758421324066,
    "inception_score_mean": 1.806253010800542,
    "inception_score_std": 0.20728014778365172,
    "fid_per_class": {
        "airplane": 1256.6982806098872,
        "automobile": 1328.194543508688,
        "bird": 1530.1217974086107,
        "cat": 1358.5839617346032,
        "deer": 1577.5052256538195,
        "dog": 1410.491780761477,
        "frog": 1844.2343846776573,
        "horse": 1667.5920472642815,
        "ship": 1022.4422706054045,
        "truck": 1237.7364817571588
    },
    "fid": 1071.0470956118597,
    "wasserstein_distance": null,
    "g_loss": null,
    "g_cost": null,
    "d_loss_real": null,
    "d_loss_fake": null
}