{
    "epoch": 60,
    "avg_current_window": 1293.4983953711492,
    "avg_prior_window": 1343.113743894232,
    "inception_score_mean": 1.644952618292218,
    "inception_score_std": 0.11571211870481614,
    "fid_per_class": {
        "airplane": 1206.6747434676026,
        "automobile": 1249.186090978978,
        "bird": 1458.1781919523867,
        "cat": 1219.6462002521062,
        "deer": 1579.6549992967252,
        "dog": 1227.7121840243985,
        "frog": 1741.4307284788106,
        "horse": 1397.6899633729254,
        "ship": 995.7294308959359,
        "truck": 1194.553674281592
    },
    "fid": 991.1554825869468,
    "wasserstein_distance": null,
    "g_loss": null,
    "g_cost": null,
    "d_loss_real": null,
    "d_loss_fake": null
}