{
    "epoch": 137,
    "avg_current_window": 1053.1329599597352,
    "avg_prior_window": 1067.3705568439345,
    "inception_score_mean": 1.872779984415614,
    "inception_score_std": 0.19849407907806355,
    "fid_per_class": {
        "airplane": 1107.4636174950006,
        "automobile": 1199.3858166418163,
        "bird": 1317.01030139253,
        "cat": 951.3393465843856,
        "deer": 1488.0182186734776,
        "dog": 1135.0971289124584,
        "frog": 1597.6885180272532,
        "horse": 1266.4999923753774,
        "ship": 1029.470384221395,
        "truck": 1101.5438119318437
    },
    "fid": 850.2820737836163,
    "wasserstein_distance": null,
    "g_loss": null,
    "g_cost": null,
    "d_loss_real": null,
    "d_loss_fake": null
}