{
    "epoch": 50,
    "avg_current_window": 1358.7737644475885,
    "avg_prior_window": 1422.8958878678106,
    "inception_score_mean": 1.7924364454920565,
    "inception_score_std": 0.1771498703471356,
    "fid_per_class": {
        "airplane": 1207.9632909069521,
        "automobile": 1274.2083796401096,
        "bird": 1429.3018601209542,
        "cat": 1117.1925868118897,
        "deer": 1467.4901338575671,
        "dog": 1226.0810433002207,
        "frog": 1539.6806619860802,
        "horse": 1460.8506155022037,
        "ship": 1011.7971590788593,
        "truck": 1249.286769443022
    },
    "fid": 971.0429926993801,
    "wasserstein_distance": null,
    "g_loss": null,
    "g_cost": null,
    "d_loss_real": null,
    "d_loss_fake": null
}