{
    "epoch": 87,
    "avg_current_window": 1175.527495291383,
    "avg_prior_window": 1203.7130088389144,
    "inception_score_mean": 1.8159886385467356,
    "inception_score_std": 0.13847503271568176,
    "fid_per_class": {
        "airplane": 1114.7939816546564,
        "automobile": 1103.0344800033222,
        "bird": 1349.0559130572137,
        "cat": 1004.4360731494568,
        "deer": 1509.1908165966988,
        "dog": 1112.0338680339578,
        "frog": 1399.5141118521526,
        "horse": 1323.3512129184855,
        "ship": 1086.9169547502943,
        "truck": 1184.339759472099
    },
    "fid": 853.2320889952692,
    "wasserstein_distance": null,
    "g_loss": null,
    "g_cost": null,
    "d_loss_real": null,
    "d_loss_fake": null
}