{
    "epoch": 24,
    "avg_current_window": 1673.9622724011651,
    "avg_prior_window": 1863.7433409331843,
    "inception_score_mean": 1.427026553314797,
    "inception_score_std": 0.07477402329689864,
    "fid_per_class": {
        "airplane": 1235.3509026438308,
        "automobile": 1404.4316600580858,
        "bird": 1358.910189874341,
        "cat": 1284.9451807858186,
        "deer": 1823.9844525371059,
        "dog": 1253.4820847789847,
        "frog": 1915.9659395768554,
        "horse": 1482.0779335576337,
        "ship": 1216.213777488142,
        "truck": 1245.3716034813149
    },
    "fid": 1049.4742589936127,
    "wasserstein_distance": null,
    "g_loss": null,
    "g_cost": null,
    "d_loss_real": null,
    "d_loss_fake": null
}