{
    "epoch": 99,
    "avg_current_window": 1134.5085502003085,
    "avg_prior_window": 1159.5568298894825,
    "inception_score_mean": 1.7825242118373599,
    "inception_score_std": 0.15186778837683773,
    "fid_per_class": {
        "airplane": 1160.6149286244572,
        "automobile": 1197.380101360661,
        "bird": 1457.370141439427,
        "cat": 967.989787425744,
        "deer": 1653.3983615746374,
        "dog": 1027.2101924191136,
        "frog": 1469.6275024396973,
        "horse": 1360.7459927028306,
        "ship": 1066.1469038407272,
        "truck": 1164.7020870290062
    },
    "fid": 892.4034091540262,
    "wasserstein_distance": null,
    "g_loss": null,
    "g_cost": null,
    "d_loss_real": null,
    "d_loss_fake": null
}