{
    "epoch": 40,
    "avg_current_window": 1439.2714460790964,
    "avg_prior_window": 1521.4518874951573,
    "inception_score_mean": 1.7825119974929169,
    "inception_score_std": 0.0994877760593838,
    "fid_per_class": {
        "airplane": 1345.0784735490856,
        "automobile": 1214.0298530318255,
        "bird": 1651.1366410203032,
        "cat": 1371.4464377771221,
        "deer": 1711.4877303225485,
        "dog": 1477.3349765973248,
        "frog": 1873.962221722049,
        "horse": 1558.7044640688546,
        "ship": 1107.1197633518018,
        "truck": 1211.2848694501834
    },
    "fid": 1115.189215514251,
    "wasserstein_distance": null,
    "g_loss": null,
    "g_cost": null,
    "d_loss_real": null,
    "d_loss_fake": null
}