{
    "epoch": 194,
    "avg_current_window": 993.7153809909184,
    "avg_prior_window": 1001.8388989159013,
    "inception_score_mean": 1.9279814498542756,
    "inception_score_std": 0.12395297865985329,
    "fid_per_class": {
        "airplane": 1157.3981785338929,
        "automobile": 1128.5306110949775,
        "bird": 1336.0689685315888,
        "cat": 1023.3661897083048,
        "deer": 1518.33078427224,
        "dog": 978.7504714948309,
        "frog": 1477.7651340541208,
        "horse": 1265.5265582796756,
        "ship": 1022.091864113684,
        "truck": 1100.0061005417865
    },
    "fid": 785.8489612974334,
    "wasserstein_distance": null,
    "g_loss": null,
    "g_cost": null,
    "d_loss_real": null,
    "d_loss_fake": null
}