{
    "epoch": 10,
    "avg_current_window": 1745.0877769041585,
    "avg_prior_window": 1845.0734117373242,
    "inception_score_mean": 1.002035254650753,
    "inception_score_std": 0.001611674298997717,
    "fid_per_class": {
        "airplane": 2317.5380988849665,
        "automobile": 2612.289807444752,
        "bird": 2612.7664653676075,
        "cat": 2614.6922116846868,
        "deer": 2950.3415317856015,
        "dog": 2497.18290886989,
        "frog": 2730.8282964469295,
        "horse": 2737.744827555316,
        "ship": 2552.462582044822,
        "truck": 2441.347398910171
    },
    "fid": 2557.2356888578215,
    "wasserstein_distance": null,
    "g_loss": null,
    "g_cost": null,
    "d_loss_real": null,
    "d_loss_fake": null
}