{
    "epoch": 20,
    "avg_current_window": 1770.556173886525,
    "avg_prior_window": 1992.974053786473,
    "inception_score_mean": 1.1987991330835601,
    "inception_score_std": 0.01823638989205026,
    "fid_per_class": {
        "airplane": 1467.0866084096276,
        "automobile": 1549.483229657679,
        "bird": 1441.9098567693177,
        "cat": 1370.6209899348955,
        "deer": 1347.243161761096,
        "dog": 1603.932571980416,
        "frog": 1479.4284228063293,
        "horse": 1503.9549763983382,
        "ship": 1367.279258298352,
        "truck": 1462.070492334568
    },
    "fid": 1203.2058686043904,
    "wasserstein_distance": null,
    "g_loss": null,
    "g_cost": null,
    "d_loss_real": null,
    "d_loss_fake": null
}