{
    "epoch": 91,
    "avg_current_window": 1160.3017717354764,
    "avg_prior_window": 1189.1964196552362,
    "inception_score_mean": 1.7806063336279436,
    "inception_score_std": 0.1500058768390302,
    "fid_per_class": {
        "airplane": 1078.861472556807,
        "automobile": 1178.0934151498086,
        "bird": 1354.3895901244257,
        "cat": 969.0694675000009,
        "deer": 1503.5963307065717,
        "dog": 1085.7123431811374,
        "frog": 1327.8587208046133,
        "horse": 1262.8694991890802,
        "ship": 982.2104325917855,
        "truck": 1098.9322541265972
    },
    "fid": 829.370067761336,
    "wasserstein_distance": null,
    "g_loss": null,
    "g_cost": null,
    "d_loss_real": null,
    "d_loss_fake": null
}