{
    "epoch": 147,
    "avg_current_window": 1037.6207898909508,
    "avg_prior_window": 1051.3229837170727,
    "inception_score_mean": 1.795503267161958,
    "inception_score_std": 0.06368480574091732,
    "fid_per_class": {
        "airplane": 1065.8622394020153,
        "automobile": 1247.4774910238882,
        "bird": 1391.608333154119,
        "cat": 1021.514437420766,
        "deer": 1505.2589459524143,
        "dog": 1186.4296329849976,
        "frog": 1494.418406515407,
        "horse": 1363.0988003792386,
        "ship": 993.082008538417,
        "truck": 1035.0618169130976
    },
    "fid": 846.5425316602222,
    "wasserstein_distance": null,
    "g_loss": null,
    "g_cost": null,
    "d_loss_real": null,
    "d_loss_fake": null
}