{
    "epoch": 189,
    "avg_current_window": 997.3600770395677,
    "avg_prior_window": 1005.2938410810425,
    "inception_score_mean": 1.8265068829205113,
    "inception_score_std": 0.1661038052602144,
    "fid_per_class": {
        "airplane": 1074.6281703746724,
        "automobile": 1141.3317676023996,
        "bird": 1279.9516362522968,
        "cat": 1118.127023593737,
        "deer": 1495.0001742288832,
        "dog": 1165.389183171889,
        "frog": 1607.497972840648,
        "horse": 1269.370722035464,
        "ship": 1068.17487650065,
        "truck": 1096.687245198655
    },
    "fid": 846.4973346270164,
    "wasserstein_distance": null,
    "g_loss": null,
    "g_cost": null,
    "d_loss_real": null,
    "d_loss_fake": null
}