{
    "epoch": 33,
    "avg_current_window": 1511.3866089643063,
    "avg_prior_window": 1628.2740797140777,
    "inception_score_mean": 1.5386668571386999,
    "inception_score_std": 0.07577013985578787,
    "fid_per_class": {
        "airplane": 1381.0024848481878,
        "automobile": 1464.2220943099517,
        "bird": 1751.3537216828204,
        "cat": 1349.7187480770103,
        "deer": 1695.1546307583699,
        "dog": 1504.402945671823,
        "frog": 2155.4367821587275,
        "horse": 1637.3550645679277,
        "ship": 1101.586976021904,
        "truck": 1268.138757110757
    },
    "fid": 1208.0388741920315,
    "wasserstein_distance": null,
    "g_loss": null,
    "g_cost": null,
    "d_loss_real": null,
    "d_loss_fake": null
}