{
    "epoch": 192,
    "avg_current_window": 995.2735154391884,
    "avg_prior_window": 1003.0829924124245,
    "inception_score_mean": 1.8993286090856132,
    "inception_score_std": 0.10397805181658475,
    "fid_per_class": {
        "airplane": 1146.5759748800622,
        "automobile": 1126.5205988368857,
        "bird": 1351.6302357483537,
        "cat": 984.7382537235746,
        "deer": 1499.1407318781569,
        "dog": 996.6694736086329,
        "frog": 1558.1677574426126,
        "horse": 1324.1713867813312,
        "ship": 1103.0796750630318,
        "truck": 1050.528000144953
    },
    "fid": 831.0364780071858,
    "wasserstein_distance": null,
    "g_loss": null,
    "g_cost": null,
    "d_loss_real": null,
    "d_loss_fake": null
}