{
    "epoch": 7,
    "avg_current_window": 1607.7691169289335,
    "avg_prior_window": 2.0,
    "inception_score_mean": 1.066895246610933,
    "inception_score_std": 0.038688393307458796,
    "fid_per_class": {
        "airplane": 2103.3689025200347,
        "automobile": 1939.0687898433066,
        "bird": 2700.585927353264,
        "cat": 2399.9713697102534,
        "deer": 2696.7273895922667,
        "dog": 2373.958206051984,
        "frog": 2440.8314935075746,
        "horse": 2247.9883325420415,
        "ship": 2203.549292338991,
        "truck": 1973.0774663442057
    },
    "fid": 2048.534330839477,
    "wasserstein_distance": null,
    "g_loss": null,
    "g_cost": null,
    "d_loss_real": null,
    "d_loss_fake": null
}