{
    "epoch": 31,
    "avg_current_window": 1533.7221724885787,
    "avg_prior_window": 1669.5264895947707,
    "inception_score_mean": 1.454307593701179,
    "inception_score_std": 0.10678559486850624,
    "fid_per_class": {
        "airplane": 1385.1479418149115,
        "automobile": 1416.8794148748586,
        "bird": 1604.0558360296354,
        "cat": 1370.0895493390085,
        "deer": 1716.1851453615598,
        "dog": 1722.7275567552892,
        "frog": 1983.1373109174267,
        "horse": 1662.1238934112916,
        "ship": 1220.5334573017594,
        "truck": 1328.7517349147035
    },
    "fid": 1243.5546198470834,
    "wasserstein_distance": null,
    "g_loss": null,
    "g_cost": null,
    "d_loss_real": null,
    "d_loss_fake": null
}