{
    "epoch": 74,
    "avg_current_window": 1225.0290619811028,
    "avg_prior_window": 1259.3081193931885,
    "inception_score_mean": 1.8832401403781809,
    "inception_score_std": 0.11489992425658889,
    "fid_per_class": {
        "airplane": 1121.8470649257565,
        "automobile": 1154.8290028224671,
        "bird": 1281.7614040995247,
        "cat": 1042.6290551547168,
        "deer": 1329.2581284609032,
        "dog": 1159.2039515900283,
        "frog": 1421.1877830740505,
        "horse": 1302.4040224437676,
        "ship": 1001.6640876022649,
        "truck": 1119.4560655090445
    },
    "fid": 829.1859152042316,
    "wasserstein_distance": null,
    "g_loss": null,
    "g_cost": null,
    "d_loss_real": null,
    "d_loss_fake": null
}