{
    "epoch": 98,
    "avg_current_window": 1137.7211103027103,
    "avg_prior_window": 1163.0369856285295,
    "inception_score_mean": 1.8490232466572116,
    "inception_score_std": 0.16830424137674416,
    "fid_per_class": {
        "airplane": 1085.0356724178864,
        "automobile": 1141.020225592642,
        "bird": 1317.8804679318223,
        "cat": 1006.5263036085505,
        "deer": 1409.1545445842219,
        "dog": 1067.9191798569263,
        "frog": 1316.9141237620793,
        "horse": 1282.0880878343714,
        "ship": 989.701085744592,
        "truck": 1158.0525938818428
    },
    "fid": 819.6776601649241,
    "wasserstein_distance": null,
    "g_loss": null,
    "g_cost": null,
    "d_loss_real": null,
    "d_loss_fake": null
}