{
    "epoch": 12,
    "avg_current_window": 1848.010555994957,
    "avg_prior_window": 1900.4168784774301,
    "inception_score_mean": 1.1132844177162056,
    "inception_score_std": 0.027779701737366286,
    "fid_per_class": {
        "airplane": 1783.4016642171334,
        "automobile": 1815.2242507693443,
        "bird": 2314.758446182411,
        "cat": 2320.5688178586306,
        "deer": 2474.9705708022884,
        "dog": 1932.2077507747958,
        "frog": 2661.7362789299123,
        "horse": 1983.5450775693334,
        "ship": 2069.566492144476,
        "truck": 1778.8911624454163
    },
    "fid": 1814.104617255778,
    "wasserstein_distance": null,
    "g_loss": null,
    "g_cost": null,
    "d_loss_real": null,
    "d_loss_fake": null
}