{
    "epoch": 57,
    "avg_current_window": 1311.530383011802,
    "avg_prior_window": 1363.8840442337507,
    "inception_score_mean": 1.649406573319767,
    "inception_score_std": 0.12372065968650872,
    "fid_per_class": {
        "airplane": 1203.0633782629127,
        "automobile": 1319.1027101770408,
        "bird": 1448.354998671206,
        "cat": 1180.417351738347,
        "deer": 1449.5621206023816,
        "dog": 1226.5670168098031,
        "frog": 1598.724133945958,
        "horse": 1417.8623008442487,
        "ship": 1051.9835295181938,
        "truck": 1195.408131691137
    },
    "fid": 971.0328511740822,
    "wasserstein_distance": null,
    "g_loss": null,
    "g_cost": null,
    "d_loss_real": null,
    "d_loss_fake": null
}