{
    "epoch": 180,
    "avg_current_window": 1003.3924245091713,
    "avg_prior_window": 1011.4462961884533,
    "inception_score_mean": 1.8044653622057616,
    "inception_score_std": 0.10786590465657231,
    "fid_per_class": {
        "airplane": 1217.9150438766437,
        "automobile": 1342.9843211616549,
        "bird": 1443.2981153051035,
        "cat": 1096.1934655287243,
        "deer": 1614.943446503538,
        "dog": 1128.5253004332706,
        "frog": 1556.6399584973165,
        "horse": 1358.7026525891038,
        "ship": 1130.9081828392723,
        "truck": 1149.6295233888109
    },
    "fid": 937.4241119224567,
    "wasserstein_distance": null,
    "g_loss": null,
    "g_cost": null,
    "d_loss_real": null,
    "d_loss_fake": null
}