{
    "epoch": 61,
    "avg_current_window": 1288.5419541779656,
    "avg_prior_window": 1334.9505684227272,
    "inception_score_mean": 1.7309372309584503,
    "inception_score_std": 0.12020597472828323,
    "fid_per_class": {
        "airplane": 1133.1586296316943,
        "automobile": 1284.361985957524,
        "bird": 1448.2641938427137,
        "cat": 1154.5214765551818,
        "deer": 1477.0771471430048,
        "dog": 1285.1735500125565,
        "frog": 1610.1114047858962,
        "horse": 1298.2634981306592,
        "ship": 1000.7054137359761,
        "truck": 1194.5770785236111
    },
    "fid": 941.8289110199008,
    "wasserstein_distance": null,
    "g_loss": null,
    "g_cost": null,
    "d_loss_real": null,
    "d_loss_fake": null
}