{
    "epoch": 76,
    "avg_current_window": 1215.7453214737623,
    "avg_prior_window": 1249.6753821834152,
    "inception_score_mean": 1.7302112073717815,
    "inception_score_std": 0.12264845004189068,
    "fid_per_class": {
        "airplane": 1093.9957828399429,
        "automobile": 1173.879576811482,
        "bird": 1396.0691462415741,
        "cat": 1086.6715169592517,
        "deer": 1460.6422531158255,
        "dog": 1146.9470295265735,
        "frog": 1582.5442497224885,
        "horse": 1270.546557927412,
        "ship": 1022.1902110899837,
        "truck": 1114.7574755818239
    },
    "fid": 886.343530950571,
    "wasserstein_distance": null,
    "g_loss": null,
    "g_cost": null,
    "d_loss_real": null,
    "d_loss_fake": null
}