{
    "epoch": 17,
    "avg_current_window": 1839.6831332377399,
    "avg_prior_window": 1999.1859407662716,
    "inception_score_mean": 1.2555702790109944,
    "inception_score_std": 0.0692456512709843,
    "fid_per_class": {
        "airplane": 1931.9006281725412,
        "automobile": 1818.6650081882785,
        "bird": 2113.4826199581826,
        "cat": 2011.290476693505,
        "deer": 2343.948630652546,
        "dog": 2006.6266786552699,
        "frog": 2514.6535880778015,
        "horse": 2114.085163297876,
        "ship": 1809.777663766263,
        "truck": 1581.3394280029147
    },
    "fid": 1802.750061553711,
    "wasserstein_distance": null,
    "g_loss": null,
    "g_cost": null,
    "d_loss_real": null,
    "d_loss_fake": null
}