{
    "epoch": 38,
    "avg_current_window": 1456.4489858540148,
    "avg_prior_window": 1547.993847576186,
    "inception_score_mean": 1.6456296367134324,
    "inception_score_std": 0.1154222099496336,
    "fid_per_class": {
        "airplane": 1276.1000533742535,
        "automobile": 1259.3847314673833,
        "bird": 1644.8805368498802,
        "cat": 1331.8872593423528,
        "deer": 1618.0119444579009,
        "dog": 1500.381552599274,
        "frog": 1802.2570351489549,
        "horse": 1640.5981704340036,
        "ship": 1055.4212696996374,
        "truck": 1250.5182726057203
    },
    "fid": 1115.6778115725501,
    "wasserstein_distance": null,
    "g_loss": null,
    "g_cost": null,
    "d_loss_real": null,
    "d_loss_fake": null
}