{
    "epoch": 68,
    "avg_current_window": 1250.288783623812,
    "avg_prior_window": 1291.6667080418244,
    "inception_score_mean": 1.7739445987123728,
    "inception_score_std": 0.16184498623463792,
    "fid_per_class": {
        "airplane": 1143.0094407240983,
        "automobile": 1224.5601969955019,
        "bird": 1398.173215757636,
        "cat": 1140.0105382366432,
        "deer": 1453.7170598194662,
        "dog": 1212.8541854161895,
        "frog": 1560.3901797764943,
        "horse": 1293.3369578030033,
        "ship": 1020.0485942516023,
        "truck": 1082.0894514387737
    },
    "fid": 892.1465542256942,
    "wasserstein_distance": null,
    "g_loss": null,
    "g_cost": null,
    "d_loss_real": null,
    "d_loss_fake": null
}