{
    "epoch": 185,
    "avg_current_window": 999.8598203184423,
    "avg_prior_window": 1008.6003362420738,
    "inception_score_mean": 1.9404704641089858,
    "inception_score_std": 0.11065903758372,
    "fid_per_class": {
        "airplane": 1100.5884412453815,
        "automobile": 1159.2529327606026,
        "bird": 1331.828515810208,
        "cat": 1017.6031620496315,
        "deer": 1566.0019009027183,
        "dog": 1013.0641357738497,
        "frog": 1570.277317009141,
        "horse": 1274.1883385566769,
        "ship": 1011.7644716114755,
        "truck": 1102.0443399510507
    },
    "fid": 821.4960056980948,
    "wasserstein_distance": null,
    "g_loss": null,
    "g_cost": null,
    "d_loss_real": null,
    "d_loss_fake": null
}