{
    "epoch": 66,
    "avg_current_window": 1260.9348058672556,
    "avg_prior_window": 1303.9817723914066,
    "inception_score_mean": 1.756267022243076,
    "inception_score_std": 0.14024749605015835,
    "fid_per_class": {
        "airplane": 1171.3449122870156,
        "automobile": 1164.749376683649,
        "bird": 1370.7256261130067,
        "cat": 1095.0582765642962,
        "deer": 1448.6542378023328,
        "dog": 1163.144063569789,
        "frog": 1558.478679492538,
        "horse": 1341.9668060205104,
        "ship": 1076.1429408802185,
        "truck": 1206.2623496253661
    },
    "fid": 888.5014678843042,
    "wasserstein_distance": null,
    "g_loss": null,
    "g_cost": null,
    "d_loss_real": null,
    "d_loss_fake": null
}