{
    "epoch": 164,
    "avg_current_window": 1016.325589474452,
    "avg_prior_window": 1027.5801920561762,
    "inception_score_mean": 1.8556322553501072,
    "inception_score_std": 0.10536044485549477,
    "fid_per_class": {
        "airplane": 1112.6501463019715,
        "automobile": 1148.1920303497886,
        "bird": 1420.4242055901168,
        "cat": 1056.1499981591078,
        "deer": 1561.5381213262713,
        "dog": 1078.2451025317184,
        "frog": 1676.5906720147223,
        "horse": 1324.6904103129632,
        "ship": 1024.360993592029,
        "truck": 1072.3007318922782
    },
    "fid": 876.695677366762,
    "wasserstein_distance": null,
    "g_loss": null,
    "g_cost": null,
    "d_loss_real": null,
    "d_loss_fake": null
}