{
    "epoch": 100,
    "avg_current_window": 1132.0874987898455,
    "avg_prior_window": 1156.2958427776657,
    "inception_score_mean": 1.7238498684276067,
    "inception_score_std": 0.12562042519217062,
    "fid_per_class": {
        "airplane": 1088.2847917845127,
        "automobile": 1147.6025778315718,
        "bird": 1341.4994851500985,
        "cat": 1013.373695614468,
        "deer": 1540.7288694887507,
        "dog": 1120.8621312332812,
        "frog": 1574.973665216327,
        "horse": 1383.06583913422,
        "ship": 1033.0675194701873,
        "truck": 1239.112529628446
    },
    "fid": 889.9509148701376,
    "wasserstein_distance": null,
    "g_loss": null,
    "g_cost": null,
    "d_loss_real": null,
    "d_loss_fake": null
}