{
    "epoch": 26,
    "avg_current_window": 1626.1250103542554,
    "avg_prior_window": 1795.1453770213418,
    "inception_score_mean": 1.361700264377619,
    "inception_score_std": 0.06485435790520155,
    "fid_per_class": {
        "airplane": 1306.8748796166878,
        "automobile": 1333.1609473911935,
        "bird": 1377.929069611686,
        "cat": 1344.1783903978655,
        "deer": 1450.5224706980832,
        "dog": 1469.9884292380739,
        "frog": 1758.3997105767526,
        "horse": 1453.5277375919088,
        "ship": 1185.8597989439158,
        "truck": 1289.6578594522787
    },
    "fid": 1128.438460253394,
    "wasserstein_distance": null,
    "g_loss": null,
    "g_cost": null,
    "d_loss_real": null,
    "d_loss_fake": null
}