{
    "epoch": 123,
    "avg_current_window": 1077.6279753484605,
    "avg_prior_window": 1094.810621422213,
    "inception_score_mean": 1.8182283301536326,
    "inception_score_std": 0.1648755962639948,
    "fid_per_class": {
        "airplane": 1150.1925920148126,
        "automobile": 1120.554350153176,
        "bird": 1419.106186312445,
        "cat": 1024.1553443345379,
        "deer": 1621.0592087804084,
        "dog": 1077.6605280635051,
        "frog": 1718.865916590915,
        "horse": 1305.513606072757,
        "ship": 1057.569745142454,
        "truck": 1073.947217977995
    },
    "fid": 895.1777158048397,
    "wasserstein_distance": null,
    "g_loss": null,
    "g_cost": null,
    "d_loss_real": null,
    "d_loss_fake": null
}