{
    "epoch": 85,
    "avg_current_window": 1182.5995893846484,
    "avg_prior_window": 1210.086484794659,
    "inception_score_mean": 1.8533843818454305,
    "inception_score_std": 0.15541626458341665,
    "fid_per_class": {
        "airplane": 1166.0948080875385,
        "automobile": 1132.0808232350294,
        "bird": 1303.887562388155,
        "cat": 992.8000471020212,
        "deer": 1510.3267342988952,
        "dog": 1063.753143387802,
        "frog": 1372.0552575767795,
        "horse": 1395.0252523218658,
        "ship": 1010.059939435508,
        "truck": 1164.3538291661293
    },
    "fid": 857.2150008763837,
    "wasserstein_distance": null,
    "g_loss": null,
    "g_cost": null,
    "d_loss_real": null,
    "d_loss_fake": null
}