{
    "epoch": 73,
    "avg_current_window": 1228.400141145794,
    "avg_prior_window": 1263.4085858918368,
    "inception_score_mean": 1.7286266196107944,
    "inception_score_std": 0.12486533048169692,
    "fid_per_class": {
        "airplane": 1150.5246087733565,
        "automobile": 1204.6751481256656,
        "bird": 1512.8357284774695,
        "cat": 1190.500145262116,
        "deer": 1573.8413269458956,
        "dog": 1321.6728308543984,
        "frog": 1739.0490466537542,
        "horse": 1340.0012862978358,
        "ship": 1101.1240860998123,
        "truck": 1145.2420045332315
    },
    "fid": 978.940282958654,
    "wasserstein_distance": null,
    "g_loss": null,
    "g_cost": null,
    "d_loss_real": null,
    "d_loss_fake": null
}