{
    "epoch": 135,
    "avg_current_window": 1056.310345507169,
    "avg_prior_window": 1070.5058450735157,
    "inception_score_mean": 1.875436043509915,
    "inception_score_std": 0.1331285310786013,
    "fid_per_class": {
        "airplane": 1105.920393054177,
        "automobile": 1173.7800555941933,
        "bird": 1264.1889900200968,
        "cat": 1022.0407480294549,
        "deer": 1542.7855658134404,
        "dog": 1104.902202160912,
        "frog": 1399.5585070071193,
        "horse": 1273.4651895743443,
        "ship": 1011.8619031890511,
        "truck": 1114.670663184601
    },
    "fid": 811.2859910437787,
    "wasserstein_distance": null,
    "g_loss": null,
    "g_cost": null,
    "d_loss_real": null,
    "d_loss_fake": null
}