{
    "epoch": 130,
    "avg_current_window": 1064.7227338875973,
    "avg_prior_window": 1081.2468049613694,
    "inception_score_mean": 1.8586529387437682,
    "inception_score_std": 0.141170008618968,
    "fid_per_class": {
        "airplane": 1018.533849545734,
        "automobile": 1112.178069211334,
        "bird": 1308.740743345223,
        "cat": 911.2707499881317,
        "deer": 1386.9159630484176,
        "dog": 988.7384698168453,
        "frog": 1271.0816787998797,
        "horse": 1286.5850133844042,
        "ship": 976.6147164111397,
        "truck": 1053.1264352093995
    },
    "fid": 751.8044541693939,
    "wasserstein_distance": null,
    "g_loss": null,
    "g_cost": null,
    "d_loss_real": null,
    "d_loss_fake": null
}