{
    "epoch": 15,
    "avg_current_window": 1884.4611011850384,
    "avg_prior_window": 2000.8113457899406,
    "inception_score_mean": 1.2122105571324524,
    "inception_score_std": 0.06666804145268385,
    "fid_per_class": {
        "airplane": 1741.4965368174358,
        "automobile": 1689.9496664222418,
        "bird": 2215.0091757886453,
        "cat": 1828.2745024116653,
        "deer": 2409.1753337259206,
        "dog": 2185.185713737638,
        "frog": 2125.4844077034086,
        "horse": 2370.7677775724387,
        "ship": 1899.1801324578778,
        "truck": 1699.7325005835728
    },
    "fid": 1627.6942890215164,
    "wasserstein_distance": null,
    "g_loss": null,
    "g_cost": null,
    "d_loss_real": null,
    "d_loss_fake": null
}