{
    "epoch": 59,
    "avg_current_window": 1754.0938491920767,
    "avg_prior_window": 1832.7567001344835,
    "inception_score_mean": 1.8327012921566148,
    "inception_score_std": 0.1207691305789829,
    "fid_per_class": {
        "airplane": 1098.4786838513937,
        "automobile": 1309.9500223447312,
        "bird": 1455.7132541939493,
        "cat": 1143.6256259139332,
        "deer": 1617.5055727699103,
        "dog": 1289.0521616778535,
        "frog": 1843.9066541297318,
        "horse": 1500.732770681592,
        "ship": 916.163308259158,
        "truck": 1117.5065387330005
    },
    "fid": 997.2692609226202,
    "wasserstein_distance": null,
    "g_loss": null,
    "g_cost": null,
    "d_loss_real": null,
    "d_loss_fake": null
}