{
    "epoch": 86,
    "avg_current_window": 1510.3337719584601,
    "avg_prior_window": 1558.439465297138,
    "inception_score_mean": 1.7180888430085015,
    "inception_score_std": 0.142328716712475,
    "fid_per_class": {
        "airplane": 1007.490572132341,
        "automobile": 1132.659349635735,
        "bird": 1304.8035907458907,
        "cat": 986.1758869296787,
        "deer": 1386.998274583137,
        "dog": 1106.3452246480015,
        "frog": 1601.2834069845503,
        "horse": 1322.678541273125,
        "ship": 896.417194077951,
        "truck": 1154.6200395495612
    },
    "fid": 836.6175705099456,
    "wasserstein_distance": null,
    "g_loss": null,
    "g_cost": null,
    "d_loss_real": null,
    "d_loss_fake": null
}