{
    "epoch": 92,
    "avg_current_window": 1468.4532118151321,
    "avg_prior_window": 1512.9342494905206,
    "inception_score_mean": 1.7119442053710963,
    "inception_score_std": 0.15236021481687836,
    "fid_per_class": {
        "airplane": 1168.7976847599252,
        "automobile": 1233.7498960607477,
        "bird": 1341.1957542255257,
        "cat": 987.0606255262663,
        "deer": 1453.5996169440425,
        "dog": 1131.9095231241345,
        "frog": 1591.3226188438352,
        "horse": 1338.5508686799444,
        "ship": 1031.8662573285906,
        "truck": 1160.2717551007688
    },
    "fid": 871.5670205845123,
    "wasserstein_distance": null,
    "g_loss": null,
    "g_cost": null,
    "d_loss_real": null,
    "d_loss_fake": null
}