{
    "epoch": 77,
    "avg_current_window": 1577.5637150441596,
    "avg_prior_window": 1634.5360396087435,
    "inception_score_mean": 1.703464069253871,
    "inception_score_std": 0.13284466391209743,
    "fid_per_class": {
        "airplane": 1193.069091340565,
        "automobile": 1235.1762940001493,
        "bird": 1345.183070159775,
        "cat": 1072.6874194006677,
        "deer": 1373.6014088832949,
        "dog": 1249.2155749208234,
        "frog": 1663.5788456546993,
        "horse": 1451.9303896360832,
        "ship": 982.4799674243905,
        "truck": 1268.6514388616042
    },
    "fid": 942.2180692084451,
    "wasserstein_distance": null,
    "g_loss": null,
    "g_cost": null,
    "d_loss_real": null,
    "d_loss_fake": null
}