{
    "epoch": 70,
    "avg_current_window": 1639.6053131570027,
    "avg_prior_window": 1703.4413144970438,
    "inception_score_mean": 1.6854289405750005,
    "inception_score_std": 0.11942058459080951,
    "fid_per_class": {
        "airplane": 1179.5534124046296,
        "automobile": 1239.1659514044695,
        "bird": 1443.4253059025843,
        "cat": 1062.3567149913385,
        "deer": 1542.2107944134546,
        "dog": 1312.572046260379,
        "frog": 1725.9268543349383,
        "horse": 1416.8622591164165,
        "ship": 1028.2619383921633,
        "truck": 1186.2696405151614
    },
    "fid": 970.7977591712861,
    "wasserstein_distance": null,
    "g_loss": null,
    "g_cost": null,
    "d_loss_real": null,
    "d_loss_fake": null
}