{
    "epoch": 55,
    "avg_current_window": 1799.4338510411292,
    "avg_prior_window": 1886.9313942615815,
    "inception_score_mean": 1.6497705108746559,
    "inception_score_std": 0.10243935551099234,
    "fid_per_class": {
        "airplane": 1282.207346342563,
        "automobile": 1298.450461946371,
        "bird": 1597.1708112889135,
        "cat": 1351.0437553932925,
        "deer": 1752.741170789077,
        "dog": 1621.2852744208212,
        "frog": 1955.7979482890605,
        "horse": 1735.0711716382775,
        "ship": 1033.536977500838,
        "truck": 1223.7400896482006
    },
    "fid": 1163.8651250672733,
    "wasserstein_distance": null,
    "g_loss": null,
    "g_cost": null,
    "d_loss_real": null,
    "d_loss_fake": null
}