{
    "epoch": 25,
    "avg_current_window": 2355.207313554809,
    "avg_prior_window": 2512.9980266990174,
    "inception_score_mean": 1.079212616113994,
    "inception_score_std": 0.03498698150690586,
    "fid_per_class": {
        "airplane": 2191.438400506176,
        "automobile": 1955.9277652231983,
        "bird": 2189.491289574767,
        "cat": 2288.9414140253684,
        "deer": 2538.3953468039217,
        "dog": 2389.635668747195,
        "frog": 2583.1804292959773,
        "horse": 2376.402096644122,
        "ship": 2008.7797105265706,
        "truck": 2067.509103818773
    },
    "fid": 2065.654148987818,
    "wasserstein_distance": null,
    "g_loss": null,
    "g_cost": null,
    "d_loss_real": null,
    "d_loss_fake": null
}