{
    "epoch": 73,
    "avg_current_window": 1612.1451349565689,
    "avg_prior_window": 1673.2362973971342,
    "inception_score_mean": 1.7177662393176074,
    "inception_score_std": 0.14402511180684177,
    "fid_per_class": {
        "airplane": 1151.1736220219811,
        "automobile": 1198.9909278275875,
        "bird": 1384.7968215492758,
        "cat": 1040.7644661557904,
        "deer": 1407.8511043871065,
        "dog": 1194.2068893929854,
        "frog": 1642.7189656295523,
        "horse": 1424.8670064452551,
        "ship": 1049.143326272199,
        "truck": 1196.5849483973782
    },
    "fid": 913.5228632335899,
    "wasserstein_distance": null,
    "g_loss": null,
    "g_cost": null,
    "d_loss_real": null,
    "d_loss_fake": null
}