{
    "epoch": 24,
    "avg_current_window": 2375.6994444760026,
    "avg_prior_window": 2527.983684409882,
    "inception_score_mean": 1.055702845767891,
    "inception_score_std": 0.01916760593843383,
    "fid_per_class": {
        "airplane": 1632.675422762471,
        "automobile": 1760.9263453265535,
        "bird": 2058.5448260278954,
        "cat": 2257.3646752919785,
        "deer": 2398.397388560039,
        "dog": 2100.0918599348624,
        "frog": 2397.687123542237,
        "horse": 2090.9480217943983,
        "ship": 1812.8445020815434,
        "truck": 1753.388894714778
    },
    "fid": 1863.396171446164,
    "wasserstein_distance": null,
    "g_loss": null,
    "g_cost": null,
    "d_loss_real": null,
    "d_loss_fake": null
}