{
    "epoch": 50,
    "avg_current_window": 1865.0316430935407,
    "avg_prior_window": 1968.2995299075014,
    "inception_score_mean": 1.6532321223922555,
    "inception_score_std": 0.09185325371491838,
    "fid_per_class": {
        "airplane": 1249.2254999891381,
        "automobile": 1269.3308617230177,
        "bird": 1600.0733601745055,
        "cat": 1355.7036485552348,
        "deer": 1643.034112534549,
        "dog": 1510.9846582603336,
        "frog": 1879.7059679318972,
        "horse": 1554.508384598309,
        "ship": 1071.616806403441,
        "truck": 1106.8770686671808
    },
    "fid": 1094.9875584020438,
    "wasserstein_distance": null,
    "g_loss": null,
    "g_cost": null,
    "d_loss_real": null,
    "d_loss_fake": null
}