{
    "epoch": 64,
    "avg_current_window": 1697.3576308206048,
    "avg_prior_window": 1770.9967180212736,
    "inception_score_mean": 1.657559191719179,
    "inception_score_std": 0.10362202193719243,
    "fid_per_class": {
        "airplane": 1161.217141201164,
        "automobile": 1222.917361373719,
        "bird": 1519.087340932602,
        "cat": 1171.2702635481608,
        "deer": 1577.5084648035895,
        "dog": 1449.2072766976553,
        "frog": 1822.3176056001405,
        "horse": 1562.7894369768665,
        "ship": 989.1755614910372,
        "truck": 1141.879799013001
    },
    "fid": 1032.8348339862205,
    "wasserstein_distance": null,
    "g_loss": null,
    "g_cost": null,
    "d_loss_real": null,
    "d_loss_fake": null
}