{
    "epoch": 27,
    "avg_current_window": 2331.4347356539406,
    "avg_prior_window": 2488.0944822160413,
    "inception_score_mean": 1.049266674406321,
    "inception_score_std": 0.0215210620889486,
    "fid_per_class": {
        "airplane": 1717.5500194204874,
        "automobile": 2095.365223324323,
        "bird": 2123.4545433951594,
        "cat": 1985.616613655361,
        "deer": 2757.949517962177,
        "dog": 2341.300626791397,
        "frog": 2780.9940429741996,
        "horse": 2309.2745077835243,
        "ship": 1730.9858249439958,
        "truck": 1548.8248206893165
    },
    "fid": 1909.583525672982,
    "wasserstein_distance": null,
    "g_loss": null,
    "g_cost": null,
    "d_loss_real": null,
    "d_loss_fake": null
}