{
    "epoch": 60,
    "avg_current_window": 1741.4801060542525,
    "avg_prior_window": 1820.5950351332613,
    "inception_score_mean": 1.7639462463079671,
    "inception_score_std": 0.11913850165336987,
    "fid_per_class": {
        "airplane": 1169.7090527299629,
        "automobile": 1217.2369410102724,
        "bird": 1440.7742490665748,
        "cat": 1171.9270346399812,
        "deer": 1622.4448697019684,
        "dog": 1329.9915612572458,
        "frog": 1891.1652700511145,
        "horse": 1578.8493718214831,
        "ship": 945.1323257774701,
        "truck": 1136.1837413849826
    },
    "fid": 1021.5042422644163,
    "wasserstein_distance": null,
    "g_loss": null,
    "g_cost": null,
    "d_loss_real": null,
    "d_loss_fake": null
}