{
    "epoch": 9,
    "avg_current_window": 2266.421221495209,
    "avg_prior_window": 2525.300580981514,
    "inception_score_mean": 1.0000000091236807,
    "inception_score_std": 1.0601453990206947e-08,
    "fid_per_class": {
        "airplane": 2248.660215445161,
        "automobile": 2460.4215691016593,
        "bird": 2689.8496179323265,
        "cat": 2785.481536839722,
        "deer": 3103.632543448921,
        "dog": 2794.232515507209,
        "frog": 3212.8283867510886,
        "horse": 2812.2806419543363,
        "ship": 2571.6526447886768,
        "truck": 2455.325392129654
    },
    "fid": 2705.8290758359235,
    "wasserstein_distance": null,
    "g_loss": null,
    "g_cost": null,
    "d_loss_real": null,
    "d_loss_fake": null
}