{
    "epoch": 5,
    "avg_current_window": 2020.2404647852113,
    "avg_prior_window": 2523.9232369262845,
    "inception_score_mean": 1.0000000164597336,
    "inception_score_std": 7.2631975108205625e-09,
    "fid_per_class": {
        "airplane": 2138.8843230717093,
        "automobile": 2352.111497783145,
        "bird": 2502.0146016825265,
        "cat": 2596.341865856814,
        "deer": 2859.59128401206,
        "dog": 2595.50986921825,
        "frog": 2927.6535667102867,
        "horse": 2623.54248885568,
        "ship": 2444.2800317803058,
        "truck": 2326.3271910694975
    },
    "fid": 2529.037472563474,
    "wasserstein_distance": null,
    "g_loss": null,
    "g_cost": null,
    "d_loss_real": null,
    "d_loss_fake": null
}