{
    "epoch": 76,
    "avg_current_window": 1585.6498778822659,
    "avg_prior_window": 1644.5446274328103,
    "inception_score_mean": 1.6561784277623588,
    "inception_score_std": 0.08850075786918588,
    "fid_per_class": {
        "airplane": 1147.3480379890048,
        "automobile": 1194.4382424943858,
        "bird": 1408.5421353734246,
        "cat": 1111.3604322956444,
        "deer": 1483.0173035196694,
        "dog": 1220.4634174545486,
        "frog": 1736.9798755067588,
        "horse": 1534.7050808189101,
        "ship": 942.1577438960078,
        "truck": 1185.1760364694983
    },
    "fid": 963.0153393480941,
    "wasserstein_distance": null,
    "g_loss": null,
    "g_cost": null,
    "d_loss_real": null,
    "d_loss_fake": null
}