{
    "epoch": 23,
    "avg_current_window": 2379.9164612501263,
    "avg_prior_window": 2544.5873804473836,
    "inception_score_mean": 1.045724537646666,
    "inception_score_std": 0.020388866002054737,
    "fid_per_class": {
        "airplane": 2389.673278579079,
        "automobile": 2021.09296447565,
        "bird": 2444.895631710605,
        "cat": 2835.9643349061594,
        "deer": 2567.534590114636,
        "dog": 2626.9894740455275,
        "frog": 2907.282949066851,
        "horse": 2491.2887631543153,
        "ship": 1950.1011606229927,
        "truck": 2423.0857398841054
    },
    "fid": 2278.708058671151,
    "wasserstein_distance": null,
    "g_loss": null,
    "g_cost": null,
    "d_loss_real": null,
    "d_loss_fake": null
}