{
    "epoch": 49,
    "avg_current_window": 1880.1799036922916,
    "avg_prior_window": 1986.5016587763982,
    "inception_score_mean": 1.5616816654446712,
    "inception_score_std": 0.12406964083824908,
    "fid_per_class": {
        "airplane": 1210.6345785530734,
        "automobile": 1240.0383330763239,
        "bird": 1519.6668182593821,
        "cat": 1338.4875573080476,
        "deer": 1708.6944385185016,
        "dog": 1519.6962699119804,
        "frog": 1896.2589840362425,
        "horse": 1645.1150496350342,
        "ship": 995.8380188243052,
        "truck": 1118.3855434420607
    },
    "fid": 1122.7668737547333,
    "wasserstein_distance": null,
    "g_loss": null,
    "g_cost": null,
    "d_loss_real": null,
    "d_loss_fake": null
}