{
    "epoch": 89,
    "avg_current_window": 1488.806185201288,
    "avg_prior_window": 1535.4616868148862,
    "inception_score_mean": 1.6657030635056143,
    "inception_score_std": 0.09261132525964437,
    "fid_per_class": {
        "airplane": 999.8359189281849,
        "automobile": 1180.0250815818933,
        "bird": 1341.3320738635737,
        "cat": 1034.9309315935316,
        "deer": 1474.832153214921,
        "dog": 1154.6708860266071,
        "frog": 1614.8049674119757,
        "horse": 1347.7625004223537,
        "ship": 938.587538812704,
        "truck": 1144.3587430342545
    },
    "fid": 870.0858356074791,
    "wasserstein_distance": null,
    "g_loss": null,
    "g_cost": null,
    "d_loss_real": null,
    "d_loss_fake": null
}