{
    "epoch": 66,
    "avg_current_window": 1677.631597610725,
    "avg_prior_window": 1746.7246859250715,
    "inception_score_mean": 1.6830943022894627,
    "inception_score_std": 0.1078663539753536,
    "fid_per_class": {
        "airplane": 1232.3188888294876,
        "automobile": 1324.3803579379369,
        "bird": 1498.5749588885649,
        "cat": 1243.0781572178396,
        "deer": 1543.201604542665,
        "dog": 1432.0063315120497,
        "frog": 1848.3437024607556,
        "horse": 1603.7359741239247,
        "ship": 1007.6159272386858,
        "truck": 1297.9401513469102
    },
    "fid": 1076.900020356926,
    "wasserstein_distance": null,
    "g_loss": null,
    "g_cost": null,
    "d_loss_real": null,
    "d_loss_fake": null
}