{
    "epoch": 58,
    "avg_current_window": 1765.014010559488,
    "avg_prior_window": 1845.6968082608448,
    "inception_score_mean": 1.708460312878715,
    "inception_score_std": 0.14547705472024908,
    "fid_per_class": {
        "airplane": 1194.0483613292274,
        "automobile": 1292.3328474813577,
        "bird": 1543.8035012672722,
        "cat": 1314.5697214387665,
        "deer": 1715.4193304631367,
        "dog": 1540.9203429135066,
        "frog": 1902.2734588379813,
        "horse": 1639.62130288539,
        "ship": 971.8222706616787,
        "truck": 1163.8974777034073
    },
    "fid": 1120.7244898822303,
    "wasserstein_distance": null,
    "g_loss": null,
    "g_cost": null,
    "d_loss_real": null,
    "d_loss_fake": null
}