{
    "epoch": 74,
    "avg_current_window": 1602.704293446799,
    "avg_prior_window": 1663.3677089998578,
    "inception_score_mean": 1.6161971959393657,
    "inception_score_std": 0.10975155427584822,
    "fid_per_class": {
        "airplane": 1233.0622815109266,
        "automobile": 1294.1990578887414,
        "bird": 1387.9709309275738,
        "cat": 1209.901269591477,
        "deer": 1497.7076162053163,
        "dog": 1362.2128248983338,
        "frog": 1774.2429035750104,
        "horse": 1472.4848868845388,
        "ship": 1078.2809620414382,
        "truck": 1266.9088698346827
    },
    "fid": 1023.4772011093795,
    "wasserstein_distance": null,
    "g_loss": null,
    "g_cost": null,
    "d_loss_real": null,
    "d_loss_fake": null
}