{
    "epoch": 6,
    "avg_current_window": 2105.0399660815883,
    "avg_prior_window": 3.0,
    "inception_score_mean": 1.0000000043291402,
    "inception_score_std": 2.8114903566770816e-09,
    "fid_per_class": {
        "airplane": 2139.2294614079105,
        "automobile": 2352.3793646326785,
        "bird": 2502.350250561004,
        "cat": 2596.524946399099,
        "deer": 2860.003895902561,
        "dog": 2595.7362012935055,
        "frog": 2928.060928923607,
        "horse": 2623.898783814383,
        "ship": 2444.660967209482,
        "truck": 2326.811085020396
    },
    "fid": 2529.3817305177195,
    "wasserstein_distance": null,
    "g_loss": null,
    "g_cost": null,
    "d_loss_real": null,
    "d_loss_fake": null
}