{
    "epoch": 98,
    "avg_current_window": 1432.8022288569036,
    "avg_prior_window": 1471.577381708059,
    "inception_score_mean": 1.7071555454884328,
    "inception_score_std": 0.14032502333683164,
    "fid_per_class": {
        "airplane": 1063.493470570194,
        "automobile": 1248.3864224735562,
        "bird": 1306.840607882188,
        "cat": 1045.6848153867213,
        "deer": 1346.400176457951,
        "dog": 1174.2184560182995,
        "frog": 1589.0641639308874,
        "horse": 1335.3786657978505,
        "ship": 949.8402937084618,
        "truck": 1150.8686720201977
    },
    "fid": 857.7672421104121,
    "wasserstein_distance": null,
    "g_loss": null,
    "g_cost": null,
    "d_loss_real": null,
    "d_loss_fake": null
}