{
    "epoch": 2,
    "avg_current_window": 1261.9616184631423,
    "avg_prior_window": 2526.9232369262845,
    "inception_score_mean": 1.000001145948586,
    "inception_score_std": 2.34213898392939e-07,
    "fid_per_class": {
        "airplane": 2135.085607247247,
        "automobile": 2348.4883723298058,
        "bird": 2499.526986611022,
        "cat": 2594.1402758465256,
        "deer": 2856.9707710774333,
        "dog": 2593.1563520813006,
        "frog": 2925.0820447392116,
        "horse": 2620.114937775268,
        "ship": 2440.045787211343,
        "truck": 2322.697861078546
    },
    "fid": 2525.774174816825,
    "wasserstein_distance": null,
    "g_loss": null,
    "g_cost": null,
    "d_loss_real": null,
    "d_loss_fake": null
}