{
    "epoch": 30,
    "avg_current_window": 2258.135887065358,
    "avg_prior_window": 2437.833479514322,
    "inception_score_mean": 1.1966239234436036,
    "inception_score_std": 0.02793290973877254,
    "fid_per_class": {
        "airplane": 1452.9884133555975,
        "automobile": 1423.6687598630656,
        "bird": 1724.7555028880174,
        "cat": 1535.4677003811084,
        "deer": 1805.771025789571,
        "dog": 1774.1304898543142,
        "frog": 2003.077349084703,
        "horse": 1699.7947538798505,
        "ship": 1327.3539062682814,
        "truck": 1317.4013209638476
    },
    "fid": 1374.0462573088444,
    "wasserstein_distance": null,
    "g_loss": null,
    "g_cost": null,
    "d_loss_real": null,
    "d_loss_fake": null
}