{
    "epoch": 100,
    "avg_current_window": 1421.838535639418,
    "avg_prior_window": 1459.079149251352,
    "inception_score_mean": 1.7124663097258455,
    "inception_score_std": 0.11625273061173456,
    "fid_per_class": {
        "airplane": 1047.776774521023,
        "automobile": 1224.5723218274827,
        "bird": 1372.8177787814875,
        "cat": 1095.5046921721687,
        "deer": 1455.567260857742,
        "dog": 1200.0723960710536,
        "frog": 1718.877880752775,
        "horse": 1434.1854411291183,
        "ship": 1002.7376189067422,
        "truck": 1113.334673366577
    },
    "fid": 924.5463121815376,
    "wasserstein_distance": null,
    "g_loss": null,
    "g_cost": null,
    "d_loss_real": null,
    "d_loss_fake": null
}