{
    "epoch": 8,
    "avg_current_window": 2211.133616198439,
    "avg_prior_window": 1.0,
    "inception_score_mean": 1.0006770093358894,
    "inception_score_std": 0.00012132400460731997,
    "fid_per_class": {
        "airplane": 2343.8164496330373,
        "automobile": 2533.911397321296,
        "bird": 2783.6221062444065,
        "cat": 2801.361402343617,
        "deer": 3072.7098115943727,
        "dog": 2808.561984393803,
        "frog": 3180.7213560755526,
        "horse": 2930.6505837332543,
        "ship": 2556.605531632074,
        "truck": 2517.9406043872664
    },
    "fid": 2708.722063869369,
    "wasserstein_distance": null,
    "g_loss": null,
    "g_cost": null,
    "d_loss_real": null,
    "d_loss_fake": null
}