{
    "epoch": 51,
    "avg_current_window": 1849.9327394721388,
    "avg_prior_window": 1950.711632485935,
    "inception_score_mean": 1.6654722305439136,
    "inception_score_std": 0.13352751668397414,
    "fid_per_class": {
        "airplane": 1240.8458131863101,
        "automobile": 1231.8806096268916,
        "bird": 1578.3745804597622,
        "cat": 1405.625421262947,
        "deer": 1737.8276364806825,
        "dog": 1505.9470587263854,
        "frog": 2027.6989708377803,
        "horse": 1589.6424711888176,
        "ship": 1083.8308296393343,
        "truck": 1091.403535221653
    },
    "fid": 1140.0513048936245,
    "wasserstein_distance": null,
    "g_loss": null,
    "g_cost": null,
    "d_loss_real": null,
    "d_loss_fake": null
}