{
    "epoch": 84,
    "avg_current_window": 1525.0751590930427,
    "avg_prior_window": 1573.4248938815492,
    "inception_score_mean": 1.7693995061016925,
    "inception_score_std": 0.15914403841559002,
    "fid_per_class": {
        "airplane": 1074.4719598532615,
        "automobile": 1202.6053687931312,
        "bird": 1371.6892832757617,
        "cat": 1030.988982559445,
        "deer": 1464.79988538698,
        "dog": 1146.8658453089404,
        "frog": 1637.739505786377,
        "horse": 1370.3781608732127,
        "ship": 1011.1509504274221,
        "truck": 1234.0590343638546
    },
    "fid": 872.468328634865,
    "wasserstein_distance": null,
    "g_loss": null,
    "g_cost": null,
    "d_loss_real": null,
    "d_loss_fake": null
}