{
    "epoch": 81,
    "avg_current_window": 1546.5632538265374,
    "avg_prior_window": 1598.3211323473722,
    "inception_score_mean": 1.685314771858338,
    "inception_score_std": 0.14892851829802717,
    "fid_per_class": {
        "airplane": 1118.9620231858441,
        "automobile": 1210.7391418112811,
        "bird": 1468.9532074199396,
        "cat": 1140.2574704101257,
        "deer": 1522.960633563846,
        "dog": 1221.1846059933462,
        "frog": 1784.1590100115532,
        "horse": 1438.0013837327028,
        "ship": 956.6649789889736,
        "truck": 1173.0705495350094
    },
    "fid": 961.9731291186284,
    "wasserstein_distance": null,
    "g_loss": null,
    "g_cost": null,
    "d_loss_real": null,
    "d_loss_fake": null
}