{
    "epoch": 95,
    "avg_current_window": 1449.908201930877,
    "avg_prior_window": 1491.6611207304966,
    "inception_score_mean": 1.6697383745343675,
    "inception_score_std": 0.07751352666950563,
    "fid_per_class": {
        "airplane": 1037.8551808719958,
        "automobile": 1287.6231645046018,
        "bird": 1358.735925195397,
        "cat": 1005.3241053538522,
        "deer": 1433.6860265742316,
        "dog": 1143.3593418090186,
        "frog": 1616.7683524095953,
        "horse": 1363.6322518462357,
        "ship": 954.4187611744234,
        "truck": 1160.0492699089705
    },
    "fid": 871.23999544511,
    "wasserstein_distance": null,
    "g_loss": null,
    "g_cost": null,
    "d_loss_real": null,
    "d_loss_fake": null
}