{
    "epoch": 18,
    "avg_current_window": 2419.007392606361,
    "avg_prior_window": 2612.217991744777,
    "inception_score_mean": 1.027358893487834,
    "inception_score_std": 0.05793743445090431,
    "fid_per_class": {
        "airplane": 2009.9328189561334,
        "automobile": 2083.126879676356,
        "bird": 2517.0647989990434,
        "cat": 2616.2461676415896,
        "deer": 2642.6241241265325,
        "dog": 2355.018244978907,
        "frog": 2726.984102691895,
        "horse": 2291.987113519351,
        "ship": 2256.159722052942,
        "truck": 2280.0408926604005
    },
    "fid": 2260.4397811384115,
    "wasserstein_distance": null,
    "g_loss": null,
    "g_cost": null,
    "d_loss_real": null,
    "d_loss_fake": null
}