{
    "epoch": 69,
    "avg_current_window": 1648.9864959855815,
    "avg_prior_window": 1713.4956751016393,
    "inception_score_mean": 1.6720644061955383,
    "inception_score_std": 0.1349866055071527,
    "fid_per_class": {
        "airplane": 1128.7437030057708,
        "automobile": 1297.9214071451424,
        "bird": 1545.1679614796399,
        "cat": 1106.8096190653546,
        "deer": 1479.5129083755305,
        "dog": 1268.940588586578,
        "frog": 1736.8235200922443,
        "horse": 1450.9045809636013,
        "ship": 1002.1771749189871,
        "truck": 1244.5885256431363
    },
    "fid": 992.3036979850651,
    "wasserstein_distance": null,
    "g_loss": null,
    "g_cost": null,
    "d_loss_real": null,
    "d_loss_fake": null
}