{
    "epoch": 90,
    "avg_current_window": 1481.9315146502456,
    "avg_prior_window": 1528.102404569736,
    "inception_score_mean": 1.6726072076242229,
    "inception_score_std": 0.11416269266919424,
    "fid_per_class": {
        "airplane": 1021.5335085214476,
        "automobile": 1216.732024054751,
        "bird": 1376.4120090574104,
        "cat": 1041.2300730245786,
        "deer": 1439.4680113601994,
        "dog": 1174.6862341897345,
        "frog": 1551.9992114700965,
        "horse": 1381.246512368764,
        "ship": 984.4762505851362,
        "truck": 1151.9321968801314
    },
    "fid": 875.6645472225867,
    "wasserstein_distance": null,
    "g_loss": null,
    "g_cost": null,
    "d_loss_real": null,
    "d_loss_fake": null
}