{
    "epoch": 8,
    "avg_current_window": 1431.7891941379949,
    "avg_prior_window": 1.0,
    "inception_score_mean": 1.4742960725508927,
    "inception_score_std": 0.07995368535103817,
    "fid_per_class": {
        "airplane": 1134.226775552383,
        "automobile": 1276.0024156855952,
        "bird": 1310.1916622552874,
        "cat": 1445.6950715882535,
        "deer": 1301.835271155213,
        "dog": 1615.8115084976575,
        "frog": 1606.9649004413145,
        "horse": 1397.8349261584199,
        "ship": 1105.7343605079,
        "truck": 1096.0413884045129
    },
    "fid": 1030.0480191399326,
    "wasserstein_distance": null,
    "g_loss": null,
    "g_cost": null,
    "d_loss_real": null,
    "d_loss_fake": null
}