{
    "epoch": 195,
    "avg_current_window": 740.1376754441271,
    "avg_prior_window": 746.4623528770102,
    "inception_score_mean": 2.0084348738615017,
    "inception_score_std": 0.15111974180997945,
    "fid_per_class": {
        "airplane": 838.4905422809638,
        "automobile": 1074.859763586414,
        "bird": 1238.6668525252564,
        "cat": 956.3858879283722,
        "deer": 1262.3494646982222,
        "dog": 981.2604177285302,
        "frog": 1194.708980012895,
        "horse": 1104.6885738436335,
        "ship": 825.2044636064625,
        "truck": 925.3730211204963
    },
    "fid": 628.348870736599,
    "wasserstein_distance": null,
    "g_loss": null,
    "g_cost": null,
    "d_loss_real": null,
    "d_loss_fake": null
}