{
    "epoch": 3,
    "avg_current_window": 538.1923733068037,
    "avg_prior_window": 1945.6900452105601,
    "inception_score_mean": 1.0277907785252305,
    "inception_score_std": 0.008769488676758837,
    "fid_per_class": {
        "airplane": 2023.379100739237,
        "automobile": 2129.2419364544685,
        "bird": 2310.430894445326,
        "cat": 2495.9633332619296,
        "deer": 2582.119403648204,
        "dog": 2413.632313150392,
        "frog": 2769.3806295645236,
        "horse": 2396.463063540986,
        "ship": 2072.269337851145,
        "truck": 2050.1187798631117
    },
    "fid": 2246.0642216138194,
    "wasserstein_distance": null,
    "g_loss": null,
    "g_cost": null,
    "d_loss_real": null,
    "d_loss_fake": null
}