{
    "epoch": 157,
    "avg_current_window": 758.7596564573525,
    "avg_prior_window": 766.0064091735443,
    "inception_score_mean": 1.9954032953240037,
    "inception_score_std": 0.16491929390246365,
    "fid_per_class": {
        "airplane": 842.6248708094627,
        "automobile": 1073.1866284959224,
        "bird": 1198.1182534060372,
        "cat": 1000.0363007057194,
        "deer": 1260.1357567016819,
        "dog": 999.6927312329536,
        "frog": 1271.568262393686,
        "horse": 1152.3862393747477,
        "ship": 849.227286484636,
        "truck": 981.2595070452207
    },
    "fid": 645.8631680486058,
    "wasserstein_distance": null,
    "g_loss": null,
    "g_cost": null,
    "d_loss_real": null,
    "d_loss_fake": null
}