{
    "epoch": 17,
    "avg_current_window": 1177.894002604107,
    "avg_prior_window": 1377.1379521954732,
    "inception_score_mean": 1.650938485027686,
    "inception_score_std": 0.08473156571216711,
    "fid_per_class": {
        "airplane": 1016.0684234679898,
        "automobile": 1237.1716544624128,
        "bird": 1270.3963013814518,
        "cat": 1100.5746065578073,
        "deer": 1415.6191934071292,
        "dog": 1213.3707975526634,
        "frog": 1439.0037324113412,
        "horse": 1406.3272166649235,
        "ship": 936.181430349566,
        "truck": 1162.79556113829
    },
    "fid": 873.8040704861828,
    "wasserstein_distance": null,
    "g_loss": null,
    "g_cost": null,
    "d_loss_real": null,
    "d_loss_fake": null
}