{
    "epoch": 147,
    "avg_current_window": 764.4545318794976,
    "avg_prior_window": 771.9694127865891,
    "inception_score_mean": 1.9296933082997292,
    "inception_score_std": 0.14829281071097528,
    "fid_per_class": {
        "airplane": 928.8478052334503,
        "automobile": 1096.6920522103746,
        "bird": 1260.7495108798184,
        "cat": 971.5026510979802,
        "deer": 1401.8819707791386,
        "dog": 1017.5698227901639,
        "frog": 1357.9847485641415,
        "horse": 1158.0242185660604,
        "ship": 847.0916064315411,
        "truck": 1030.1853588714148
    },
    "fid": 692.7105833902666,
    "wasserstein_distance": null,
    "g_loss": null,
    "g_cost": null,
    "d_loss_real": null,
    "d_loss_fake": null
}