{
    "epoch": 107,
    "avg_current_window": 796.1977248582456,
    "avg_prior_window": 807.6407359353768,
    "inception_score_mean": 1.9543834818024748,
    "inception_score_std": 0.12874793035040794,
    "fid_per_class": {
        "airplane": 895.036453367052,
        "automobile": 1126.0083200401618,
        "bird": 1229.6682421045753,
        "cat": 975.5664951095812,
        "deer": 1303.7040645449142,
        "dog": 1000.195606927258,
        "frog": 1348.5316257490704,
        "horse": 1174.905003927849,
        "ship": 819.9491933892576,
        "truck": 1017.7241899696714
    },
    "fid": 669.7530811782267,
    "wasserstein_distance": null,
    "g_loss": null,
    "g_cost": null,
    "d_loss_real": null,
    "d_loss_fake": null
}