{
    "epoch": 161,
    "avg_current_window": 756.5505931955602,
    "avg_prior_window": 763.6235004090022,
    "inception_score_mean": 2.004030296159249,
    "inception_score_std": 0.18219738976112618,
    "fid_per_class": {
        "airplane": 914.1916068153166,
        "automobile": 1082.767829102083,
        "bird": 1247.8040392920284,
        "cat": 967.8722117046782,
        "deer": 1266.6669514163875,
        "dog": 1054.9605769190584,
        "frog": 1367.7019445443975,
        "horse": 1166.927767331339,
        "ship": 857.7569190217441,
        "truck": 1090.3138125337791
    },
    "fid": 688.343095296134,
    "wasserstein_distance": null,
    "g_loss": null,
    "g_cost": null,
    "d_loss_real": null,
    "d_loss_fake": null
}