{
    "epoch": 94,
    "avg_current_window": 810.2886424316422,
    "avg_prior_window": 823.8483246931371,
    "inception_score_mean": 1.9408595209592494,
    "inception_score_std": 0.12260479479344202,
    "fid_per_class": {
        "airplane": 911.742280057507,
        "automobile": 1165.727876528901,
        "bird": 1246.4134369108867,
        "cat": 998.9135298129102,
        "deer": 1330.5517823473092,
        "dog": 960.6453655052073,
        "frog": 1335.7180352273192,
        "horse": 1197.8066170266397,
        "ship": 791.6011092289166,
        "truck": 1021.1915966298699
    },
    "fid": 691.2147755387969,
    "wasserstein_distance": null,
    "g_loss": null,
    "g_cost": null,
    "d_loss_real": null,
    "d_loss_fake": null
}