{
    "epoch": 39,
    "avg_current_window": 945.8268216131339,
    "avg_prior_window": 998.9293014748755,
    "inception_score_mean": 1.8207895838349963,
    "inception_score_std": 0.1196738535965947,
    "fid_per_class": {
        "airplane": 940.9137006379256,
        "automobile": 1201.094618650798,
        "bird": 1203.553786377439,
        "cat": 996.1467840110104,
        "deer": 1286.7916929531661,
        "dog": 1032.0801521252165,
        "frog": 1346.4110604832847,
        "horse": 1209.9265409990765,
        "ship": 803.2801304542515,
        "truck": 1110.0299229029763
    },
    "fid": 723.5400275855545,
    "wasserstein_distance": null,
    "g_loss": null,
    "g_cost": null,
    "d_loss_real": null,
    "d_loss_fake": null
}