{
    "epoch": 10,
    "avg_current_window": 1368.0312084104958,
    "avg_prior_window": 1781.288260068323,
    "inception_score_mean": 1.5456779857508174,
    "inception_score_std": 0.10953850855663279,
    "fid_per_class": {
        "airplane": 1017.6699509658997,
        "automobile": 1165.1102954816258,
        "bird": 1246.2691058779283,
        "cat": 1302.0260654313138,
        "deer": 1296.0307122027955,
        "dog": 1390.9224633585227,
        "frog": 1493.5499389940965,
        "horse": 1270.074365250925,
        "ship": 997.1705863216308,
        "truck": 1057.1448488332064
    },
    "fid": 916.1330602665412,
    "wasserstein_distance": null,
    "g_loss": null,
    "g_cost": null,
    "d_loss_real": null,
    "d_loss_fake": null
}