{
    "epoch": 20,
    "avg_current_window": 1134.3283035482195,
    "avg_prior_window": 1280.8957107330314,
    "inception_score_mean": 1.7556259267315757,
    "inception_score_std": 0.08596339176172794,
    "fid_per_class": {
        "airplane": 983.201210400076,
        "automobile": 1271.509631622539,
        "bird": 1298.134419617409,
        "cat": 1071.1073443547486,
        "deer": 1353.746057446174,
        "dog": 1150.7997856737852,
        "frog": 1486.7719377968344,
        "horse": 1336.945933856254,
        "ship": 865.3181137831369,
        "truck": 1159.2610785508336
    },
    "fid": 825.6040138064784,
    "wasserstein_distance": null,
    "g_loss": null,
    "g_cost": null,
    "d_loss_real": null,
    "d_loss_fake": null
}