{
    "epoch": 4,
    "avg_current_window": 1449.3328466861976,
    "avg_prior_window": 1944.6900452105601,
    "inception_score_mean": 1.2515453381620716,
    "inception_score_std": 0.033033924908594844,
    "fid_per_class": {
        "airplane": 1714.5228235461182,
        "automobile": 1885.9638261538303,
        "bird": 1465.0697268179524,
        "cat": 1897.4031354397146,
        "deer": 1779.623028314763,
        "dog": 1916.4271058268835,
        "frog": 1829.5087587940943,
        "horse": 1986.6777610469917,
        "ship": 1823.0212150925413,
        "truck": 1746.298016977382
    },
    "fid": 1641.0439845334254,
    "wasserstein_distance": null,
    "g_loss": null,
    "g_cost": null,
    "d_loss_real": null,
    "d_loss_fake": null
}