{
    "epoch": 170,
    "avg_current_window": 751.5563710623411,
    "avg_prior_window": 758.3934956756415,
    "inception_score_mean": 2.0024554368770913,
    "inception_score_std": 0.12328896571154042,
    "fid_per_class": {
        "airplane": 903.7789290045393,
        "automobile": 1039.2906747907346,
        "bird": 1223.7953375301508,
        "cat": 950.0865301380991,
        "deer": 1333.5313848538165,
        "dog": 985.8499458625224,
        "frog": 1305.4585321745956,
        "horse": 1138.4247142954205,
        "ship": 864.8824154773049,
        "truck": 1025.4772309697782
    },
    "fid": 658.6367152656433,
    "wasserstein_distance": null,
    "g_loss": null,
    "g_cost": null,
    "d_loss_real": null,
    "d_loss_fake": null
}