{
    "epoch": 30,
    "avg_current_window": 1012.1887805825556,
    "avg_prior_window": 1095.9428968166612,
    "inception_score_mean": 1.7288743793695658,
    "inception_score_std": 0.11962642371670255,
    "fid_per_class": {
        "airplane": 948.9817801889506,
        "automobile": 1148.7303111311621,
        "bird": 1212.295680147937,
        "cat": 982.2491182622878,
        "deer": 1220.5731885013502,
        "dog": 1001.3873470394426,
        "frog": 1245.6434505458733,
        "horse": 1215.0644454636927,
        "ship": 801.7393686670024,
        "truck": 1129.8307711182133
    },
    "fid": 708.8357500773942,
    "wasserstein_distance": null,
    "g_loss": null,
    "g_cost": null,
    "d_loss_real": null,
    "d_loss_fake": null
}