{
    "epoch": 53,
    "avg_current_window": 887.5129620880417,
    "avg_prior_window": 919.575205772987,
    "inception_score_mean": 1.7972342765196063,
    "inception_score_std": 0.06065547275731284,
    "fid_per_class": {
        "airplane": 916.176343608016,
        "automobile": 1176.974938061312,
        "bird": 1254.199430969243,
        "cat": 1007.2227843896937,
        "deer": 1348.8981933026512,
        "dog": 1026.4689974978762,
        "frog": 1353.8804688545501,
        "horse": 1186.8653573840174,
        "ship": 767.9543707720472,
        "truck": 1157.0740433243477
    },
    "fid": 713.2792752872001,
    "wasserstein_distance": null,
    "g_loss": null,
    "g_cost": null,
    "d_loss_real": null,
    "d_loss_fake": null
}