{
    "epoch": 28,
    "avg_current_window": 1030.4826459334838,
    "avg_prior_window": 1124.9621585847751,
    "inception_score_mean": 1.7859430811093582,
    "inception_score_std": 0.11387461569651518,
    "fid_per_class": {
        "airplane": 954.2142808653972,
        "automobile": 1209.465913660983,
        "bird": 1217.2244844721527,
        "cat": 1021.915595230289,
        "deer": 1278.2905375293988,
        "dog": 1033.2675232695376,
        "frog": 1318.0266291455073,
        "horse": 1203.8576772452404,
        "ship": 869.0720575738886,
        "truck": 1111.8892748323078
    },
    "fid": 735.8526911659027,
    "wasserstein_distance": null,
    "g_loss": null,
    "g_cost": null,
    "d_loss_real": null,
    "d_loss_fake": null
}