{
    "epoch": 44,
    "avg_current_window": 920.9263349454294,
    "avg_prior_window": 964.3791300127635,
    "inception_score_mean": 1.7690703215197892,
    "inception_score_std": 0.08280711910208655,
    "fid_per_class": {
        "airplane": 988.8362654906277,
        "automobile": 1120.5119013175174,
        "bird": 1365.7661510409462,
        "cat": 1055.7588111891746,
        "deer": 1435.9634849549873,
        "dog": 1182.0467505283589,
        "frog": 1493.1272362870236,
        "horse": 1238.9483205543052,
        "ship": 849.2806059661323,
        "truck": 1060.0572091046104
    },
    "fid": 799.8764372753411,
    "wasserstein_distance": null,
    "g_loss": null,
    "g_cost": null,
    "d_loss_real": null,
    "d_loss_fake": null
}