{
    "epoch": 171,
    "avg_current_window": 751.0129812623604,
    "avg_prior_window": 757.7423983467771,
    "inception_score_mean": 1.9935450463917797,
    "inception_score_std": 0.10050683028602822,
    "fid_per_class": {
        "airplane": 937.7741964442589,
        "automobile": 1095.9227731465724,
        "bird": 1242.9223725983393,
        "cat": 949.0461444458324,
        "deer": 1277.876764749723,
        "dog": 998.0425303639349,
        "frog": 1350.9205878892162,
        "horse": 1087.2340818589282,
        "ship": 824.1589615218395,
        "truck": 996.7450287260729
    },
    "fid": 652.7697447408175,
    "wasserstein_distance": null,
    "g_loss": null,
    "g_cost": null,
    "d_loss_real": null,
    "d_loss_fake": null
}