{
    "epoch": 48,
    "avg_current_window": 905.1895030634688,
    "avg_prior_window": 942.3432264557882,
    "inception_score_mean": 1.8476525620082058,
    "inception_score_std": 0.113085510405906,
    "fid_per_class": {
        "airplane": 907.9307723244895,
        "automobile": 1072.4060983862773,
        "bird": 1280.8167665186943,
        "cat": 1005.9196022125213,
        "deer": 1438.6265135857884,
        "dog": 1070.5696566651916,
        "frog": 1400.38049654406,
        "horse": 1186.8514422685087,
        "ship": 749.8528701409566,
        "truck": 990.5029560589851
    },
    "fid": 690.5137300568742,
    "wasserstein_distance": null,
    "g_loss": null,
    "g_cost": null,
    "d_loss_real": null,
    "d_loss_fake": null
}