{
    "epoch": 166,
    "avg_current_window": 753.8248601595232,
    "avg_prior_window": 760.8260161477101,
    "inception_score_mean": 2.0376652252960152,
    "inception_score_std": 0.12046275570110879,
    "fid_per_class": {
        "airplane": 867.7157482346961,
        "automobile": 1039.1318360573853,
        "bird": 1197.345719594687,
        "cat": 945.6821609651226,
        "deer": 1274.7432923181245,
        "dog": 978.7117174804637,
        "frog": 1289.7970542609025,
        "horse": 1116.1948987105925,
        "ship": 926.0399956559726,
        "truck": 979.8952345232168
    },
    "fid": 650.3113390841634,
    "wasserstein_distance": null,
    "g_loss": null,
    "g_cost": null,
    "d_loss_real": null,
    "d_loss_fake": null
}