{
    "epoch": 52,
    "avg_current_window": 889.9765457455943,
    "avg_prior_window": 924.4488541924788,
    "inception_score_mean": 1.867104211325851,
    "inception_score_std": 0.15510352454422083,
    "fid_per_class": {
        "airplane": 902.6799345725296,
        "automobile": 1103.3684638487277,
        "bird": 1309.5737432141877,
        "cat": 1077.040998062983,
        "deer": 1443.6021522417348,
        "dog": 1105.9224452326243,
        "frog": 1467.1954979941215,
        "horse": 1277.0237003405687,
        "ship": 747.6179086863212,
        "truck": 1063.158578065608
    },
    "fid": 759.4066118953059,
    "wasserstein_distance": null,
    "g_loss": null,
    "g_cost": null,
    "d_loss_real": null,
    "d_loss_fake": null
}