{
    "epoch": 174,
    "avg_current_window": 749.6341499122886,
    "avg_prior_window": 756.0034501810533,
    "inception_score_mean": 2.008485771479543,
    "inception_score_std": 0.16842297762972197,
    "fid_per_class": {
        "airplane": 890.6713074401246,
        "automobile": 1068.3430298509063,
        "bird": 1210.1637366570421,
        "cat": 958.311161836896,
        "deer": 1225.4017991502174,
        "dog": 1012.3094068826387,
        "frog": 1293.3986293212733,
        "horse": 1127.1372220754447,
        "ship": 850.7873690026901,
        "truck": 999.3535264255248
    },
    "fid": 643.3055238169994,
    "wasserstein_distance": null,
    "g_loss": null,
    "g_cost": null,
    "d_loss_real": null,
    "d_loss_fake": null
}