{
    "epoch": 125,
    "avg_current_window": 779.5908063779688,
    "avg_prior_window": 789.7309352606842,
    "inception_score_mean": 1.9729599348010993,
    "inception_score_std": 0.12725652339354532,
    "fid_per_class": {
        "airplane": 896.8519175720519,
        "automobile": 1120.5947235859119,
        "bird": 1227.0902330128906,
        "cat": 951.3300638802016,
        "deer": 1264.2491439022133,
        "dog": 981.7192787271172,
        "frog": 1343.9410139829188,
        "horse": 1219.6133373018035,
        "ship": 915.2307348413003,
        "truck": 1075.467955281638
    },
    "fid": 694.6742352245876,
    "wasserstein_distance": null,
    "g_loss": null,
    "g_cost": null,
    "d_loss_real": null,
    "d_loss_fake": null
}