{
    "epoch": 106,
    "avg_current_window": 797.2319505315205,
    "avg_prior_window": 808.9523681436311,
    "inception_score_mean": 1.9620380834740705,
    "inception_score_std": 0.11747890035076099,
    "fid_per_class": {
        "airplane": 941.599871824256,
        "automobile": 1156.684009095051,
        "bird": 1280.6996241578913,
        "cat": 983.5115844319057,
        "deer": 1320.7745797561083,
        "dog": 987.2153795856668,
        "frog": 1328.3623896685049,
        "horse": 1194.5111279820094,
        "ship": 814.2640493564637,
        "truck": 1035.0719784171595
    },
    "fid": 686.5698034911018,
    "wasserstein_distance": null,
    "g_loss": null,
    "g_cost": null,
    "d_loss_real": null,
    "d_loss_fake": null
}