{
    "epoch": 5,
    "avg_current_window": 1487.6750742556433,
    "avg_prior_window": 1943.6900452105601,
    "inception_score_mean": 1.2375831985203545,
    "inception_score_std": 0.0825389349271436,
    "fid_per_class": {
        "airplane": 1385.990177073832,
        "automobile": 1503.4013464340312,
        "bird": 1691.7078245302084,
        "cat": 1860.6188547851727,
        "deer": 1817.3274908441376,
        "dog": 1927.7293521377178,
        "frog": 1940.5912020785092,
        "horse": 1764.1759733265,
        "ship": 1450.7788130227286,
        "truck": 1368.9163437568618
    },
    "fid": 1468.065929063399,
    "wasserstein_distance": null,
    "g_loss": null,
    "g_cost": null,
    "d_loss_real": null,
    "d_loss_fake": null
}