{
    "epoch": 23,
    "avg_current_window": 1090.443360666112,
    "avg_prior_window": 1212.4149124176686,
    "inception_score_mean": 1.7618948516373478,
    "inception_score_std": 0.09813945271610795,
    "fid_per_class": {
        "airplane": 1032.9379458178146,
        "automobile": 1241.5089684499656,
        "bird": 1236.5898906905902,
        "cat": 1001.8902523394311,
        "deer": 1346.5263795701167,
        "dog": 1097.5745635235694,
        "frog": 1393.9953059044722,
        "horse": 1297.3392447727042,
        "ship": 907.9354546823486,
        "truck": 1124.1213826541307
    },
    "fid": 793.9323521292503,
    "wasserstein_distance": null,
    "g_loss": null,
    "g_cost": null,
    "d_loss_real": null,
    "d_loss_fake": null
}