{
    "epoch": 186,
    "avg_current_window": 744.3417638159874,
    "avg_prior_window": 750.3249615274676,
    "inception_score_mean": 1.9670447433373284,
    "inception_score_std": 0.17959146829967199,
    "fid_per_class": {
        "airplane": 887.4810989061756,
        "automobile": 1074.6546999779682,
        "bird": 1234.592842910425,
        "cat": 1044.0680648659913,
        "deer": 1326.3019789964064,
        "dog": 1047.790465328893,
        "frog": 1314.2176254313877,
        "horse": 1153.1314886858452,
        "ship": 891.8617493350398,
        "truck": 1023.6048145164242
    },
    "fid": 688.2422935125346,
    "wasserstein_distance": null,
    "g_loss": null,
    "g_cost": null,
    "d_loss_real": null,
    "d_loss_fake": null
}