{
    "epoch": 137,
    "avg_current_window": 771.3335942816839,
    "avg_prior_window": 779.9406734961921,
    "inception_score_mean": 2.0262341933105854,
    "inception_score_std": 0.14171656801782034,
    "fid_per_class": {
        "airplane": 927.5773128378678,
        "automobile": 1053.1318904791958,
        "bird": 1218.984174943895,
        "cat": 942.4727218618494,
        "deer": 1290.9603149730756,
        "dog": 943.410431222664,
        "frog": 1327.2110264631128,
        "horse": 1135.0102071409237,
        "ship": 862.7903816122699,
        "truck": 1023.0504882119744
    },
    "fid": 651.1898797890237,
    "wasserstein_distance": null,
    "g_loss": null,
    "g_cost": null,
    "d_loss_real": null,
    "d_loss_fake": null
}