{
    "epoch": 68,
    "avg_current_window": 850.276051441988,
    "avg_prior_window": 872.4390579864446,
    "inception_score_mean": 1.9311784336208988,
    "inception_score_std": 0.13818888084747885,
    "fid_per_class": {
        "airplane": 955.3693866936133,
        "automobile": 1051.9915405054358,
        "bird": 1231.2815371225336,
        "cat": 1020.4172918950727,
        "deer": 1373.3824659538923,
        "dog": 1022.094696207441,
        "frog": 1370.3899587941698,
        "horse": 1183.765301282907,
        "ship": 791.8908510956983,
        "truck": 1008.2602229744627
    },
    "fid": 709.1600746930858,
    "wasserstein_distance": null,
    "g_loss": null,
    "g_cost": null,
    "d_loss_real": null,
    "d_loss_fake": null
}