{
    "epoch": 144,
    "avg_current_window": 766.2172641926228,
    "avg_prior_window": 774.3994404582966,
    "inception_score_mean": 2.045776618950889,
    "inception_score_std": 0.1851378433171735,
    "fid_per_class": {
        "airplane": 939.1837302501633,
        "automobile": 1062.287285201768,
        "bird": 1246.8738727324137,
        "cat": 1021.2026240101668,
        "deer": 1301.9048208021109,
        "dog": 1002.3908952124882,
        "frog": 1369.014506404631,
        "horse": 1193.992456325571,
        "ship": 864.7495585326785,
        "truck": 1010.0504012567874
    },
    "fid": 687.589316181651,
    "wasserstein_distance": null,
    "g_loss": null,
    "g_cost": null,
    "d_loss_real": null,
    "d_loss_fake": null
}