{
    "epoch": 199,
    "avg_current_window": 738.7241671913098,
    "avg_prior_window": 743.9528181010556,
    "inception_score_mean": 2.016371057185637,
    "inception_score_std": 0.14822679043664325,
    "fid_per_class": {
        "airplane": 885.082486041242,
        "automobile": 1084.2398604186287,
        "bird": 1211.269124776033,
        "cat": 992.6629440871598,
        "deer": 1263.4732142215685,
        "dog": 1012.8280431598025,
        "frog": 1310.6110009724443,
        "horse": 1135.7598604405855,
        "ship": 788.7916137451521,
        "truck": 1008.6614662422376
    },
    "fid": 660.4080734983171,
    "wasserstein_distance": null,
    "g_loss": null,
    "g_cost": null,
    "d_loss_real": null,
    "d_loss_fake": null
}