{
    "epoch": 16,
    "avg_current_window": 1200.839728812217,
    "avg_prior_window": 1428.1512406045583,
    "inception_score_mean": 1.661217908227309,
    "inception_score_std": 0.08447823293946675,
    "fid_per_class": {
        "airplane": 1063.4078815264666,
        "automobile": 1332.1412748271728,
        "bird": 1172.4352335249748,
        "cat": 1108.1237806198264,
        "deer": 1163.3457146071337,
        "dog": 1109.2890854353816,
        "frog": 1303.7397287008257,
        "horse": 1257.2273355106684,
        "ship": 939.5886071562786,
        "truck": 1214.2012740897999
    },
    "fid": 810.7623832743487,
    "wasserstein_distance": null,
    "g_loss": null,
    "g_cost": null,
    "d_loss_real": null,
    "d_loss_fake": null
}