{
    "epoch": 181,
    "avg_current_window": 746.6806119868238,
    "avg_prior_window": 752.266105023004,
    "inception_score_mean": 1.9472159870394978,
    "inception_score_std": 0.12305163301610106,
    "fid_per_class": {
        "airplane": 850.9396865152362,
        "automobile": 1073.033135900364,
        "bird": 1242.70711350613,
        "cat": 976.5279968641809,
        "deer": 1322.3885503130944,
        "dog": 1000.4564887561412,
        "frog": 1314.4866271832107,
        "horse": 1102.9695778681034,
        "ship": 844.7542410612243,
        "truck": 1000.6553728207896
    },
    "fid": 659.6272668565337,
    "wasserstein_distance": null,
    "g_loss": null,
    "g_cost": null,
    "d_loss_real": null,
    "d_loss_fake": null
}