{
    "epoch": 61,
    "avg_current_window": 865.207233201115,
    "avg_prior_window": 891.3718293824095,
    "inception_score_mean": 1.8715921679546537,
    "inception_score_std": 0.11903414979955378,
    "fid_per_class": {
        "airplane": 941.3377768148968,
        "automobile": 1088.1360043659454,
        "bird": 1202.9472816422885,
        "cat": 1014.8951071052088,
        "deer": 1360.0988974173536,
        "dog": 1061.6575891281768,
        "frog": 1359.0253176353901,
        "horse": 1233.864029896247,
        "ship": 762.6114597628041,
        "truck": 1153.2947709423693
    },
    "fid": 695.747901672781,
    "wasserstein_distance": null,
    "g_loss": null,
    "g_cost": null,
    "d_loss_real": null,
    "d_loss_fake": null
}