{
    "epoch": 64,
    "avg_current_window": 858.8071977054065,
    "avg_prior_window": 882.319754855432,
    "inception_score_mean": 1.8737274335404834,
    "inception_score_std": 0.16161370313671186,
    "fid_per_class": {
        "airplane": 901.9207280261787,
        "automobile": 1166.8839481080886,
        "bird": 1213.9504635503135,
        "cat": 1034.4720276314956,
        "deer": 1413.7532878557404,
        "dog": 1038.9936402476085,
        "frog": 1437.0933445744322,
        "horse": 1242.4390744508787,
        "ship": 797.0331021864065,
        "truck": 1150.6364878705585
    },
    "fid": 727.8160232630978,
    "wasserstein_distance": null,
    "g_loss": null,
    "g_cost": null,
    "d_loss_real": null,
    "d_loss_fake": null
}