{
    "epoch": 31,
    "avg_current_window": 1002.4031989533569,
    "avg_prior_window": 1081.88187172973,
    "inception_score_mean": 1.7885877248765465,
    "inception_score_std": 0.08798679213065608,
    "fid_per_class": {
        "airplane": 959.0805622039162,
        "automobile": 1135.727184925904,
        "bird": 1194.9153587193885,
        "cat": 1009.2611470793929,
        "deer": 1287.1512933885124,
        "dog": 1087.5647364423653,
        "frog": 1268.1804389907015,
        "horse": 1199.0075781004284,
        "ship": 854.8615526110465,
        "truck": 1078.3101913899802
    },
    "fid": 720.2658642794564,
    "wasserstein_distance": null,
    "g_loss": null,
    "g_cost": null,
    "d_loss_real": null,
    "d_loss_fake": null
}