{
    "epoch": 40,
    "avg_current_window": 940.2696517624445,
    "avg_prior_window": 991.1000241714592,
    "inception_score_mean": 1.853760406273874,
    "inception_score_std": 0.12234107545011558,
    "fid_per_class": {
        "airplane": 957.5210146810174,
        "automobile": 1178.7350460484934,
        "bird": 1312.5229489931596,
        "cat": 1052.4037312889352,
        "deer": 1335.9641099833802,
        "dog": 1092.225085796043,
        "frog": 1339.9659067475031,
        "horse": 1180.7527014373095,
        "ship": 789.6904364962114,
        "truck": 1102.2358045947008
    },
    "fid": 735.0988201413642,
    "wasserstein_distance": null,
    "g_loss": null,
    "g_cost": null,
    "d_loss_real": null,
    "d_loss_fake": null
}