{
    "epoch": 98,
    "avg_current_window": 805.1327552209335,
    "avg_prior_window": 819.0014235330576,
    "inception_score_mean": 1.9323613382659417,
    "inception_score_std": 0.1309992999307154,
    "fid_per_class": {
        "airplane": 945.6068142742237,
        "automobile": 1084.968733655946,
        "bird": 1215.7810872377015,
        "cat": 1009.8206749111193,
        "deer": 1324.9569020171912,
        "dog": 993.6198355854253,
        "frog": 1314.4160407810095,
        "horse": 1250.7050125912515,
        "ship": 853.207815214357,
        "truck": 1046.795839782582
    },
    "fid": 691.71873889267,
    "wasserstein_distance": null,
    "g_loss": null,
    "g_cost": null,
    "d_loss_real": null,
    "d_loss_fake": null
}