{
    "epoch": 9,
    "avg_current_window": 1387.1512858048768,
    "avg_prior_window": 1859.593842819554,
    "inception_score_mean": 1.6305367002639215,
    "inception_score_std": 0.07632291319744158,
    "fid_per_class": {
        "airplane": 1142.8656547777703,
        "automobile": 1310.0323865460368,
        "bird": 1645.2926625940697,
        "cat": 1620.9740056751334,
        "deer": 1794.2787101582226,
        "dog": 1837.192782703652,
        "frog": 1921.457235821875,
        "horse": 1554.3915519565016,
        "ship": 1100.350879534487,
        "truck": 1090.3262486105918
    },
    "fid": 1195.9505118610641,
    "wasserstein_distance": null,
    "g_loss": null,
    "g_cost": null,
    "d_loss_real": null,
    "d_loss_fake": null
}