{
    "epoch": 185,
    "avg_current_window": 744.860360341265,
    "avg_prior_window": 750.8288376089729,
    "inception_score_mean": 1.9828812842905534,
    "inception_score_std": 0.15738020101148445,
    "fid_per_class": {
        "airplane": 821.6908190892639,
        "automobile": 1109.1219475340038,
        "bird": 1207.7078132999745,
        "cat": 960.9988642310229,
        "deer": 1275.6108048468964,
        "dog": 976.364574312904,
        "frog": 1308.2133270758513,
        "horse": 1123.746693880451,
        "ship": 891.6546969880694,
        "truck": 975.915247254911
    },
    "fid": 648.4014066396335,
    "wasserstein_distance": null,
    "g_loss": null,
    "g_cost": null,
    "d_loss_real": null,
    "d_loss_fake": null
}