{
    "epoch": 196,
    "avg_current_window": 739.5673243997011,
    "avg_prior_window": 745.7947097816997,
    "inception_score_mean": 1.9758445925151917,
    "inception_score_std": 0.13042001711416068,
    "fid_per_class": {
        "airplane": 905.7960015657133,
        "automobile": 1087.4672526256745,
        "bird": 1204.306609192379,
        "cat": 1003.6504297181468,
        "deer": 1322.5543509869372,
        "dog": 1010.8763974180475,
        "frog": 1437.201171515738,
        "horse": 1142.7824317948161,
        "ship": 859.1325244016143,
        "truck": 1022.6908226703287
    },
    "fid": 688.038616338071,
    "wasserstein_distance": null,
    "g_loss": null,
    "g_cost": null,
    "d_loss_real": null,
    "d_loss_fake": null
}