{
    "epoch": 79,
    "avg_current_window": 829.388264375798,
    "avg_prior_window": 847.3627571812834,
    "inception_score_mean": 1.915664158440963,
    "inception_score_std": 0.14787806474689302,
    "fid_per_class": {
        "airplane": 888.3437929611406,
        "automobile": 1072.660779258645,
        "bird": 1271.5792286512476,
        "cat": 1008.0353028033521,
        "deer": 1320.3647556188444,
        "dog": 999.9488640119953,
        "frog": 1427.793871629442,
        "horse": 1203.8373449317535,
        "ship": 753.8995837538987,
        "truck": 1046.976652260687
    },
    "fid": 699.063249624566,
    "wasserstein_distance": null,
    "g_loss": null,
    "g_cost": null,
    "d_loss_real": null,
    "d_loss_fake": null
}