{
    "epoch": 156,
    "avg_current_window": 759.0945584248191,
    "avg_prior_window": 766.5151559985302,
    "inception_score_mean": 1.9566236543035298,
    "inception_score_std": 0.16047510363986994,
    "fid_per_class": {
        "airplane": 929.8447350497506,
        "automobile": 1074.7371171736502,
        "bird": 1279.8646699536075,
        "cat": 966.7838070589708,
        "deer": 1348.9305150675473,
        "dog": 1009.5523875855276,
        "frog": 1336.0965863446145,
        "horse": 1189.6446344415342,
        "ship": 898.9595054388813,
        "truck": 1072.2632477760403
    },
    "fid": 706.5149495325686,
    "wasserstein_distance": null,
    "g_loss": null,
    "g_cost": null,
    "d_loss_real": null,
    "d_loss_fake": null
}