{
    "epoch": 105,
    "avg_current_window": 797.9693781355408,
    "avg_prior_window": 809.9966987978669,
    "inception_score_mean": 1.9326778812477656,
    "inception_score_std": 0.14859602892376347,
    "fid_per_class": {
        "airplane": 951.429951972791,
        "automobile": 1077.8803878352523,
        "bird": 1255.2154690838374,
        "cat": 1002.2148406459019,
        "deer": 1352.3432719357968,
        "dog": 1025.328704518024,
        "frog": 1434.9714386771545,
        "horse": 1238.6657873522965,
        "ship": 853.5665984927359,
        "truck": 1044.5516776312645
    },
    "fid": 719.8020521093949,
    "wasserstein_distance": null,
    "g_loss": null,
    "g_cost": null,
    "d_loss_real": null,
    "d_loss_fake": null
}