{
    "epoch": 164,
    "avg_current_window": 754.943765872761,
    "avg_prior_window": 761.8485493018878,
    "inception_score_mean": 1.9358125598036264,
    "inception_score_std": 0.11809834488302133,
    "fid_per_class": {
        "airplane": 895.0684773476813,
        "automobile": 1057.5731885764853,
        "bird": 1195.054419563153,
        "cat": 986.3167366414567,
        "deer": 1240.5899850555077,
        "dog": 998.9266637085532,
        "frog": 1252.3915681847368,
        "horse": 1176.9896899625433,
        "ship": 905.1935147368282,
        "truck": 1047.3450045567006
    },
    "fid": 671.2336018201435,
    "wasserstein_distance": null,
    "g_loss": null,
    "g_cost": null,
    "d_loss_real": null,
    "d_loss_fake": null
}