{
    "epoch": 119,
    "avg_current_window": 784.7694385387912,
    "avg_prior_window": 795.3595552411684,
    "inception_score_mean": 1.9390018957554367,
    "inception_score_std": 0.16874688744851293,
    "fid_per_class": {
        "airplane": 926.4968735449024,
        "automobile": 1054.9412303223955,
        "bird": 1210.362709621168,
        "cat": 941.0202798075351,
        "deer": 1280.3414432010918,
        "dog": 998.3219159001021,
        "frog": 1252.3212905741889,
        "horse": 1117.0137654170271,
        "ship": 833.6783800697854,
        "truck": 1039.759570285587
    },
    "fid": 652.8666197422939,
    "wasserstein_distance": null,
    "g_loss": null,
    "g_cost": null,
    "d_loss_real": null,
    "d_loss_fake": null
}