{
    "epoch": 71,
    "avg_current_window": 844.5211112999087,
    "avg_prior_window": 864.7814972991947,
    "inception_score_mean": 1.9337130686110655,
    "inception_score_std": 0.14370469391808136,
    "fid_per_class": {
        "airplane": 884.3069021644775,
        "automobile": 1111.5167052817123,
        "bird": 1225.3715882096094,
        "cat": 1032.5799942708154,
        "deer": 1308.808994526038,
        "dog": 1044.6295698292602,
        "frog": 1439.5941417177114,
        "horse": 1179.5122808914614,
        "ship": 761.4197945634915,
        "truck": 1038.4558471826617
    },
    "fid": 696.532403067084,
    "wasserstein_distance": null,
    "g_loss": null,
    "g_cost": null,
    "d_loss_real": null,
    "d_loss_fake": null
}