{
    "epoch": 123,
    "avg_current_window": 781.4600920816218,
    "avg_prior_window": 791.4200270009843,
    "inception_score_mean": 1.9585175652214872,
    "inception_score_std": 0.1484726730297285,
    "fid_per_class": {
        "airplane": 939.1726425926444,
        "automobile": 1123.6987642903991,
        "bird": 1251.0909059792164,
        "cat": 938.4438685905939,
        "deer": 1255.8551970383305,
        "dog": 1002.508877520151,
        "frog": 1254.9608134457408,
        "horse": 1166.4946529638664,
        "ship": 871.157375849149,
        "truck": 1017.6980048888998
    },
    "fid": 665.5942311185433,
    "wasserstein_distance": null,
    "g_loss": null,
    "g_cost": null,
    "d_loss_real": null,
    "d_loss_fake": null
}