{
    "epoch": 116,
    "avg_current_window": 787.5344675090491,
    "avg_prior_window": 798.5458861661261,
    "inception_score_mean": 1.9609605111134816,
    "inception_score_std": 0.13474766776588387,
    "fid_per_class": {
        "airplane": 849.6958541587026,
        "automobile": 1058.0951243458433,
        "bird": 1203.629020319909,
        "cat": 960.025528647138,
        "deer": 1283.5750448509957,
        "dog": 991.0335604312295,
        "frog": 1290.026570444692,
        "horse": 1167.0755843373865,
        "ship": 846.9308820708525,
        "truck": 1014.986655730066
    },
    "fid": 650.81152747733,
    "wasserstein_distance": null,
    "g_loss": null,
    "g_cost": null,
    "d_loss_real": null,
    "d_loss_fake": null
}