{
    "epoch": 168,
    "avg_current_window": 752.4874256179075,
    "avg_prior_window": 759.5753227186061,
    "inception_score_mean": 2.0067192016344038,
    "inception_score_std": 0.1374860171128469,
    "fid_per_class": {
        "airplane": 856.9328646005263,
        "automobile": 1131.7846207105026,
        "bird": 1206.6938671055602,
        "cat": 993.097610565756,
        "deer": 1249.9266511470971,
        "dog": 1010.1880406525116,
        "frog": 1229.5077866208603,
        "horse": 1069.0992270499887,
        "ship": 867.4495069605896,
        "truck": 970.928224095763
    },
    "fid": 643.164450509251,
    "wasserstein_distance": null,
    "g_loss": null,
    "g_cost": null,
    "d_loss_real": null,
    "d_loss_fake": null
}