{
    "epoch": 153,
    "avg_current_window": 760.9998313358087,
    "avg_prior_window": 768.4467704001993,
    "inception_score_mean": 2.0095218937130626,
    "inception_score_std": 0.08351452692750022,
    "fid_per_class": {
        "airplane": 884.950987737274,
        "automobile": 1097.6268501533468,
        "bird": 1272.534422598832,
        "cat": 1017.3505759016048,
        "deer": 1387.1023822508512,
        "dog": 1006.0960372854131,
        "frog": 1358.8401408212012,
        "horse": 1149.9431197231002,
        "ship": 858.6380383274043,
        "truck": 989.7711866596596
    },
    "fid": 689.164979224429,
    "wasserstein_distance": null,
    "g_loss": null,
    "g_cost": null,
    "d_loss_real": null,
    "d_loss_fake": null
}