{
    "epoch": 158,
    "avg_current_window": 758.0451217205882,
    "avg_prior_window": 765.5041776052494,
    "inception_score_mean": 1.9968329078240963,
    "inception_score_std": 0.14066135948584424,
    "fid_per_class": {
        "airplane": 855.779835943592,
        "automobile": 1135.381300838996,
        "bird": 1229.469560687189,
        "cat": 991.4203908512648,
        "deer": 1312.8176682116691,
        "dog": 991.1318654685786,
        "frog": 1274.1344878265452,
        "horse": 1154.1855176259667,
        "ship": 852.4857009841177,
        "truck": 1062.3120825229548
    },
    "fid": 675.2866535956558,
    "wasserstein_distance": null,
    "g_loss": null,
    "g_cost": null,
    "d_loss_real": null,
    "d_loss_fake": null
}