{
    "epoch": 21,
    "avg_current_window": 1119.627146893851,
    "avg_prior_window": 1251.5123777668637,
    "inception_score_mean": 1.7773606427975779,
    "inception_score_std": 0.09744005478349438,
    "fid_per_class": {
        "airplane": 985.7203840074806,
        "automobile": 1178.8768251273095,
        "bird": 1368.6119405045195,
        "cat": 1164.9526649937748,
        "deer": 1417.870762479213,
        "dog": 1281.173736460664,
        "frog": 1501.7214897633817,
        "horse": 1297.7944011737766,
        "ship": 862.0004091381966,
        "truck": 1036.9694088968265
    },
    "fid": 828.1292393308589,
    "wasserstein_distance": null,
    "g_loss": null,
    "g_cost": null,
    "d_loss_real": null,
    "d_loss_fake": null
}