{
    "epoch": 145,
    "avg_current_window": 765.6750024822022,
    "avg_prior_window": 773.7753985534952,
    "inception_score_mean": 1.9448202800096026,
    "inception_score_std": 0.13785437903462147,
    "fid_per_class": {
        "airplane": 867.6601970870277,
        "automobile": 1059.844406883072,
        "bird": 1165.9774803853725,
        "cat": 977.6432120586114,
        "deer": 1303.8901625110761,
        "dog": 990.1878528867439,
        "frog": 1287.3036205720368,
        "horse": 1123.0488491024366,
        "ship": 813.710654166369,
        "truck": 1027.9366907121894
    },
    "fid": 644.0266648019156,
    "wasserstein_distance": null,
    "g_loss": null,
    "g_cost": null,
    "d_loss_real": null,
    "d_loss_fake": null
}