{
    "epoch": 57,
    "avg_current_window": 875.7337271125426,
    "avg_prior_window": 904.5805190512733,
    "inception_score_mean": 1.7560434239489695,
    "inception_score_std": 0.10472291904588654,
    "fid_per_class": {
        "airplane": 946.7857211373565,
        "automobile": 1155.9022784532267,
        "bird": 1299.530571833583,
        "cat": 1024.2297403334828,
        "deer": 1313.474017484318,
        "dog": 1056.0369650853386,
        "frog": 1368.5981180338633,
        "horse": 1217.2464262680533,
        "ship": 782.509734146934,
        "truck": 1190.3818876721332
    },
    "fid": 748.6211727433823,
    "wasserstein_distance": null,
    "g_loss": null,
    "g_cost": null,
    "d_loss_real": null,
    "d_loss_fake": null
}