{
    "epoch": 74,
    "avg_current_window": 838.1420587737115,
    "avg_prior_window": 858.4312746836872,
    "inception_score_mean": 1.8924371992472644,
    "inception_score_std": 0.1704516652077245,
    "fid_per_class": {
        "airplane": 897.5933204577494,
        "automobile": 1116.4224611139869,
        "bird": 1210.2537635684448,
        "cat": 964.1608973024371,
        "deer": 1348.2298118610947,
        "dog": 998.1603396905193,
        "frog": 1337.8619838167733,
        "horse": 1173.8006269606778,
        "ship": 814.8803979904156,
        "truck": 1100.8856364677617
    },
    "fid": 682.3316821603249,
    "wasserstein_distance": null,
    "g_loss": null,
    "g_cost": null,
    "d_loss_real": null,
    "d_loss_fake": null
}