{
    "epoch": 54,
    "avg_current_window": 884.2864123324705,
    "avg_prior_window": 915.6655955037472,
    "inception_score_mean": 1.8273704173841732,
    "inception_score_std": 0.104547011809452,
    "fid_per_class": {
        "airplane": 885.6566546015928,
        "automobile": 1123.252029418402,
        "bird": 1303.0103366159592,
        "cat": 998.8598730803473,
        "deer": 1426.612092910801,
        "dog": 1105.1712823394453,
        "frog": 1404.325767615374,
        "horse": 1185.2793013435262,
        "ship": 740.1526487747258,
        "truck": 1108.8671660542836
    },
    "fid": 720.8414126257107,
    "wasserstein_distance": null,
    "g_loss": null,
    "g_cost": null,
    "d_loss_real": null,
    "d_loss_fake": null
}