{
    "epoch": 29,
    "avg_current_window": 1020.3229923208085,
    "avg_prior_window": 1109.0145894622012,
    "inception_score_mean": 1.7412834661222465,
    "inception_score_std": 0.09461051766612166,
    "fid_per_class": {
        "airplane": 1051.9947871068148,
        "automobile": 1198.8241469335135,
        "bird": 1265.1837462097774,
        "cat": 1046.9107551688755,
        "deer": 1267.2218579093603,
        "dog": 1019.9445735968126,
        "frog": 1376.7627607402433,
        "horse": 1242.6160916815397,
        "ship": 839.5793333372872,
        "truck": 1103.2865588816735
    },
    "fid": 776.2966401732211,
    "wasserstein_distance": null,
    "g_loss": null,
    "g_cost": null,
    "d_loss_real": null,
    "d_loss_fake": null
}