{
    "epoch": 55,
    "avg_current_window": 881.3146850650749,
    "avg_prior_window": 910.7880070386019,
    "inception_score_mean": 1.827236784551458,
    "inception_score_std": 0.10421326429613588,
    "fid_per_class": {
        "airplane": 928.9314486025803,
        "automobile": 1141.799554111903,
        "bird": 1210.834317948306,
        "cat": 1040.3843198081524,
        "deer": 1316.3254324996544,
        "dog": 1078.2751322726976,
        "frog": 1420.0777360318102,
        "horse": 1252.6933403146172,
        "ship": 750.2145686643883,
        "truck": 1088.8291580751106
    },
    "fid": 720.0233717301548,
    "wasserstein_distance": null,
    "g_loss": null,
    "g_cost": null,
    "d_loss_real": null,
    "d_loss_fake": null
}