{
    "epoch": 178,
    "avg_current_window": 747.8464953053659,
    "avg_prior_window": 753.9672952875042,
    "inception_score_mean": 2.0697791943374426,
    "inception_score_std": 0.1712729998850156,
    "fid_per_class": {
        "airplane": 909.6976597819586,
        "automobile": 1107.190710356595,
        "bird": 1186.5133408993806,
        "cat": 942.4008475279976,
        "deer": 1328.2126808213523,
        "dog": 984.1090761740453,
        "frog": 1242.482613318789,
        "horse": 1136.3818131401267,
        "ship": 835.9839908868076,
        "truck": 961.5633138321193
    },
    "fid": 635.4354730696539,
    "wasserstein_distance": null,
    "g_loss": null,
    "g_cost": null,
    "d_loss_real": null,
    "d_loss_fake": null
}