{
    "epoch": 51,
    "avg_current_window": 1071.7853072147125,
    "avg_prior_window": 1121.6608260840635,
    "inception_score_mean": 1.9957144238369313,
    "inception_score_std": 0.18871056416995985,
    "fid_per_class": {
        "airplane": 969.2459348781449,
        "automobile": 1161.98079788767,
        "bird": 1306.709371846996,
        "cat": 1059.8213006777685,
        "deer": 1495.1125891717616,
        "dog": 1141.501414593465,
        "frog": 1500.2374630911233,
        "horse": 1279.4279183954902,
        "ship": 1000.1389809381061,
        "truck": 1145.451732615817
    },
    "fid": 799.602113557017,
    "wasserstein_distance": null,
    "g_loss": null,
    "g_cost": null,
    "d_loss_real": null,
    "d_loss_fake": null
}