{
    "epoch": 88,
    "avg_current_window": 913.1184155861255,
    "avg_prior_window": 936.8515016379663,
    "inception_score_mean": 2.0761567864329242,
    "inception_score_std": 0.14539220106147965,
    "fid_per_class": {
        "airplane": 838.6144734791204,
        "automobile": 1117.4593757420698,
        "bird": 1209.0799689176931,
        "cat": 1012.5879901797337,
        "deer": 1386.1088028132533,
        "dog": 1016.9675496744412,
        "frog": 1404.5350826603747,
        "horse": 1177.1866320486179,
        "ship": 910.3884518457145,
        "truck": 1108.1323559605396
    },
    "fid": 707.8745856156088,
    "wasserstein_distance": null,
    "g_loss": null,
    "g_cost": null,
    "d_loss_real": null,
    "d_loss_fake": null
}