{
    "epoch": 6,
    "avg_current_window": 1769.2734069457968,
    "avg_prior_window": 3.0,
    "inception_score_mean": 1.1590649158409967,
    "inception_score_std": 0.05853838455241292,
    "fid_per_class": {
        "airplane": 1758.3523907536778,
        "automobile": 1923.457361244771,
        "bird": 2221.5256088498104,
        "cat": 2174.670973591025,
        "deer": 2440.376140379791,
        "dog": 2349.2187125465316,
        "frog": 2408.9418354749014,
        "horse": 2313.382598366735,
        "ship": 1865.6364706125278,
        "truck": 1861.5864130589598
    },
    "fid": 1977.5805740275464,
    "wasserstein_distance": null,
    "g_loss": null,
    "g_cost": null,
    "d_loss_real": null,
    "d_loss_fake": null
}