{
    "epoch": 1,
    "avg_current_window": 3.0,
    "avg_prior_window": 8.0,
    "inception_score_mean": 1.0542030189217861,
    "inception_score_std": 0.03570628885002896,
    "fid_per_class": {
        "airplane": 2011.2772911242787,
        "automobile": 2054.2366255018446,
        "bird": 2432.408558139097,
        "cat": 2187.635241625211,
        "deer": 2435.2070033188265,
        "dog": 2459.539227403695,
        "frog": 2762.0482817188886,
        "horse": 2489.6210699654116,
        "ship": 2195.8932648157397,
        "truck": 1987.1016515301806
    },
    "fid": 2137.0414163227197,
    "wasserstein_distance": null,
    "g_loss": null,
    "g_cost": null,
    "d_loss_real": null,
    "d_loss_fake": null
}