{
    "epoch": 17,
    "avg_current_window": 1579.3928789811393,
    "avg_prior_window": 1861.9222998897706,
    "inception_score_mean": 1.7717618361008156,
    "inception_score_std": 0.1504887278798561,
    "fid_per_class": {
        "airplane": 1168.3745646400334,
        "automobile": 1369.0742584595646,
        "bird": 1557.9210827582638,
        "cat": 1465.1803246960822,
        "deer": 1928.2653578866098,
        "dog": 1664.1597310240281,
        "frog": 1973.4748053494734,
        "horse": 1522.9269490445067,
        "ship": 1230.076522884922,
        "truck": 1340.6212500556896
    },
    "fid": 1158.5198989932762,
    "wasserstein_distance": null,
    "g_loss": null,
    "g_cost": null,
    "d_loss_real": null,
    "d_loss_fake": null
}