{
    "epoch": 19,
    "avg_current_window": 1521.9728796648292,
    "avg_prior_window": 1753.1709807607622,
    "inception_score_mean": 1.6343377337244327,
    "inception_score_std": 0.08957775767921648,
    "fid_per_class": {
        "airplane": 1208.5495936334771,
        "automobile": 1347.368876924435,
        "bird": 1368.1343528602113,
        "cat": 1207.8381518761728,
        "deer": 1710.6885554780897,
        "dog": 1338.395212451178,
        "frog": 1683.2549588305803,
        "horse": 1484.059207033383,
        "ship": 1155.9690197790676,
        "truck": 1325.6630749779533
    },
    "fid": 1047.276101506858,
    "wasserstein_distance": null,
    "g_loss": null,
    "g_cost": null,
    "d_loss_real": null,
    "d_loss_fake": null
}