{
    "epoch": 63,
    "avg_current_window": 1006.8336992554389,
    "avg_prior_window": 1043.3892715709446,
    "inception_score_mean": 1.994257475193527,
    "inception_score_std": 0.17343838784309362,
    "fid_per_class": {
        "airplane": 882.9913035223692,
        "automobile": 1158.7479744913612,
        "bird": 1236.334020416256,
        "cat": 1052.188054820807,
        "deer": 1441.1630404914895,
        "dog": 1090.758049222477,
        "frog": 1370.187357341205,
        "horse": 1201.3281234853566,
        "ship": 910.5050771775742,
        "truck": 1150.1474813102116
    },
    "fid": 740.4434399119802,
    "wasserstein_distance": null,
    "g_loss": null,
    "g_cost": null,
    "d_loss_real": null,
    "d_loss_fake": null
}