{
    "epoch": 27,
    "avg_current_window": 1327.9357845589548,
    "avg_prior_window": 1485.5335649355768,
    "inception_score_mean": 2.0612040135670586,
    "inception_score_std": 0.11643267115593071,
    "fid_per_class": {
        "airplane": 969.8939031735804,
        "automobile": 1214.749389810854,
        "bird": 1433.9328052711185,
        "cat": 1121.272208782152,
        "deer": 1689.2983807155413,
        "dog": 1192.903470961673,
        "frog": 1649.7358277338906,
        "horse": 1424.2488249046896,
        "ship": 1009.4623678083658,
        "truck": 1169.1042872700232
    },
    "fid": 875.7399291652687,
    "wasserstein_distance": null,
    "g_loss": null,
    "g_cost": null,
    "d_loss_real": null,
    "d_loss_fake": null
}