{
    "epoch": 41,
    "avg_current_window": 1147.9551575644173,
    "avg_prior_window": 1216.3291591761745,
    "inception_score_mean": 2.2119894266091094,
    "inception_score_std": 0.09646324491281524,
    "fid_per_class": {
        "airplane": 958.8385701409875,
        "automobile": 1229.8633899178305,
        "bird": 1266.7176316982905,
        "cat": 1081.6356353064587,
        "deer": 1484.100083195228,
        "dog": 1089.1456871516239,
        "frog": 1382.9489690649727,
        "horse": 1239.2140307725879,
        "ship": 1029.1030329317857,
        "truck": 1224.5321889475076
    },
    "fid": 760.9549982760956,
    "wasserstein_distance": null,
    "g_loss": null,
    "g_cost": null,
    "d_loss_real": null,
    "d_loss_fake": null
}