{
    "epoch": 4,
    "avg_current_window": 1673.5705056288175,
    "avg_prior_window": 2142.0414163227197,
    "inception_score_mean": 1.0027076398134105,
    "inception_score_std": 0.0033824977028116573,
    "fid_per_class": {
        "airplane": 1670.2734066711866,
        "automobile": 2003.4819330107384,
        "bird": 2246.19404054647,
        "cat": 2309.529697055023,
        "deer": 2610.2136328028714,
        "dog": 2472.7528528272424,
        "frog": 2504.3322242788186,
        "horse": 2389.685711179721,
        "ship": 1929.748347921741,
        "truck": 2041.9208817052279
    },
    "fid": 2137.9734618648613,
    "wasserstein_distance": null,
    "g_loss": null,
    "g_cost": null,
    "d_loss_real": null,
    "d_loss_fake": null
}