{
    "epoch": 45,
    "avg_current_window": 1114.0501848239885,
    "avg_prior_window": 1176.6540365035275,
    "inception_score_mean": 2.0936596292773753,
    "inception_score_std": 0.04934597832366058,
    "fid_per_class": {
        "airplane": 929.1665158583454,
        "automobile": 1165.7225385036684,
        "bird": 1220.1759488682205,
        "cat": 953.8186719909492,
        "deer": 1453.1646512963648,
        "dog": 1055.530810595222,
        "frog": 1449.9907682703767,
        "horse": 1264.066346505218,
        "ship": 941.3938436491052,
        "truck": 1153.676315640869
    },
    "fid": 701.0890320084229,
    "wasserstein_distance": null,
    "g_loss": null,
    "g_cost": null,
    "d_loss_real": null,
    "d_loss_fake": null
}