{
    "epoch": 22,
    "avg_current_window": 1448.6919028074317,
    "avg_prior_window": 1647.541108333685,
    "inception_score_mean": 1.91059985591133,
    "inception_score_std": 0.09113616116654895,
    "fid_per_class": {
        "airplane": 989.541666396183,
        "automobile": 1162.2797716148843,
        "bird": 1290.0809143860279,
        "cat": 1107.4847333283424,
        "deer": 1611.6696649678206,
        "dog": 1306.9947404922455,
        "frog": 1684.4340663067348,
        "horse": 1250.5710816013925,
        "ship": 890.0614376340136,
        "truck": 1216.083338392441
    },
    "fid": 810.5165668191898,
    "wasserstein_distance": null,
    "g_loss": null,
    "g_cost": null,
    "d_loss_real": null,
    "d_loss_fake": null
}