{
    "epoch": 39,
    "avg_current_window": 1164.8889997333958,
    "avg_prior_window": 1242.9735862813136,
    "inception_score_mean": 2.0599358337218794,
    "inception_score_std": 0.11479898257244935,
    "fid_per_class": {
        "airplane": 944.3637492114997,
        "automobile": 1195.5182106877674,
        "bird": 1339.7828439536634,
        "cat": 1164.8522360453221,
        "deer": 1632.0442066640326,
        "dog": 1204.45871294403,
        "frog": 1612.136472191585,
        "horse": 1384.655814367352,
        "ship": 980.5608242974647,
        "truck": 1218.1554507882236
    },
    "fid": 861.3637576048892,
    "wasserstein_distance": null,
    "g_loss": null,
    "g_cost": null,
    "d_loss_real": null,
    "d_loss_fake": null
}