{
    "epoch": 66,
    "avg_current_window": 994.2318214032061,
    "avg_prior_window": 1027.981758489136,
    "inception_score_mean": 1.9930535761381012,
    "inception_score_std": 0.19632669001367292,
    "fid_per_class": {
        "airplane": 917.973004819424,
        "automobile": 1126.8238827506666,
        "bird": 1207.3498647792303,
        "cat": 1014.9157556633019,
        "deer": 1361.2598002787136,
        "dog": 1054.6120653306675,
        "frog": 1305.7172021530473,
        "horse": 1078.553798074834,
        "ship": 918.8677165110016,
        "truck": 1106.2290075988403
    },
    "fid": 680.5492883777827,
    "wasserstein_distance": null,
    "g_loss": null,
    "g_cost": null,
    "d_loss_real": null,
    "d_loss_fake": null
}