{
    "epoch": 69,
    "avg_current_window": 981.2905312287227,
    "avg_prior_window": 1013.7587826395652,
    "inception_score_mean": 1.9734166357397296,
    "inception_score_std": 0.13560795014900337,
    "fid_per_class": {
        "airplane": 894.2635896576244,
        "automobile": 1092.1904793092028,
        "bird": 1225.7799732505991,
        "cat": 998.0986895281587,
        "deer": 1435.020280988418,
        "dog": 1047.4330327532978,
        "frog": 1347.5530834276087,
        "horse": 1246.933379433324,
        "ship": 900.097926890441,
        "truck": 1115.480933212837
    },
    "fid": 736.4746532808642,
    "wasserstein_distance": null,
    "g_loss": null,
    "g_cost": null,
    "d_loss_real": null,
    "d_loss_fake": null
}