{
    "epoch": 54,
    "avg_current_window": 1055.6751309855008,
    "avg_prior_window": 1099.8303080117562,
    "inception_score_mean": 1.9781189374090267,
    "inception_score_std": 0.13160734248194883,
    "fid_per_class": {
        "airplane": 868.863946656095,
        "automobile": 1155.650885959511,
        "bird": 1262.1555242083105,
        "cat": 1046.1868536412514,
        "deer": 1396.1320764484517,
        "dog": 1133.5779549078547,
        "frog": 1335.389439138063,
        "horse": 1192.938574348661,
        "ship": 922.6900602978423,
        "truck": 1196.2339888663857
    },
    "fid": 736.2646101770146,
    "wasserstein_distance": null,
    "g_loss": null,
    "g_cost": null,
    "d_loss_real": null,
    "d_loss_fake": null
}