{
    "epoch": 75,
    "avg_current_window": 956.3929473789675,
    "avg_prior_window": 987.411612534828,
    "inception_score_mean": 1.9598929718982874,
    "inception_score_std": 0.11197526379185478,
    "fid_per_class": {
        "airplane": 879.0520407613981,
        "automobile": 1150.2951390541698,
        "bird": 1295.2948177527514,
        "cat": 1010.7503740784714,
        "deer": 1463.6732885774618,
        "dog": 1081.9459093460505,
        "frog": 1404.9783378373968,
        "horse": 1133.9953351165955,
        "ship": 884.3606069262892,
        "truck": 1079.5760879829563
    },
    "fid": 726.6393180695661,
    "wasserstein_distance": null,
    "g_loss": null,
    "g_cost": null,
    "d_loss_real": null,
    "d_loss_fake": null
}