{
    "epoch": 31,
    "avg_current_window": 1262.1780444950691,
    "avg_prior_window": 1379.0102378112222,
    "inception_score_mean": 2.0225732706064963,
    "inception_score_std": 0.13674907897612032,
    "fid_per_class": {
        "airplane": 1024.463418161204,
        "automobile": 1345.9391776743444,
        "bird": 1359.0425413632256,
        "cat": 1132.5896870357615,
        "deer": 1645.158801617241,
        "dog": 1316.8214802877005,
        "frog": 1609.682914837857,
        "horse": 1405.5330060465901,
        "ship": 1079.7105447731792,
        "truck": 1264.2115315603896
    },
    "fid": 889.0711557002619,
    "wasserstein_distance": null,
    "g_loss": null,
    "g_cost": null,
    "d_loss_real": null,
    "d_loss_fake": null
}