{
    "epoch": 77,
    "avg_current_window": 950.0974119133966,
    "avg_prior_window": 978.3817268929361,
    "inception_score_mean": 2.049879448586285,
    "inception_score_std": 0.13817505696445126,
    "fid_per_class": {
        "airplane": 865.4890756469089,
        "automobile": 1114.2057425725216,
        "bird": 1194.9919673561303,
        "cat": 975.7769688401004,
        "deer": 1325.8180182353426,
        "dog": 1023.296815444261,
        "frog": 1281.7580055210424,
        "horse": 1102.419540904501,
        "ship": 868.6471642893436,
        "truck": 1083.0934766322541
    },
    "fid": 648.5336535568199,
    "wasserstein_distance": null,
    "g_loss": null,
    "g_cost": null,
    "d_loss_real": null,
    "d_loss_fake": null
}