{
    "epoch": 49,
    "avg_current_window": 1084.5875455163089,
    "avg_prior_window": 1139.369507206352,
    "inception_score_mean": 1.9503978060715148,
    "inception_score_std": 0.171054545606156,
    "fid_per_class": {
        "airplane": 955.6931239977426,
        "automobile": 1186.9854603098647,
        "bird": 1205.3909872197787,
        "cat": 1030.4457502466598,
        "deer": 1403.4702163914808,
        "dog": 1077.2131743839936,
        "frog": 1348.4065219625836,
        "horse": 1258.2121948126119,
        "ship": 979.2113936671077,
        "truck": 1178.1521568340886
    },
    "fid": 746.8953622769181,
    "wasserstein_distance": null,
    "g_loss": null,
    "g_cost": null,
    "d_loss_real": null,
    "d_loss_fake": null
}