{
    "epoch": 3,
    "avg_current_window": 821.3743507210802,
    "avg_prior_window": 2143.0414163227197,
    "inception_score_mean": 1.0732704917773686,
    "inception_score_std": 0.014516719707827336,
    "fid_per_class": {
        "airplane": 1796.4957224909467,
        "automobile": 2142.1558445151213,
        "bird": 2409.157083032723,
        "cat": 2294.6639169723826,
        "deer": 2688.0777389841214,
        "dog": 2266.258900928421,
        "frog": 2670.7457803656243,
        "horse": 2531.8661146869563,
        "ship": 1926.7799175552939,
        "truck": 1880.262013961096
    },
    "fid": 2096.1175540293098,
    "wasserstein_distance": null,
    "g_loss": null,
    "g_cost": null,
    "d_loss_real": null,
    "d_loss_fake": null
}