{
    "epoch": 78,
    "avg_current_window": 946.2312098831841,
    "avg_prior_window": 973.5279194252827,
    "inception_score_mean": 2.1062543159391414,
    "inception_score_std": 0.10370455669880212,
    "fid_per_class": {
        "airplane": 892.2809400015853,
        "automobile": 1044.707863573067,
        "bird": 1221.3722455055731,
        "cat": 970.1826637011372,
        "deer": 1387.781245081657,
        "dog": 963.6449539226635,
        "frog": 1353.5431539670221,
        "horse": 1283.5746534132809,
        "ship": 856.3408505086245,
        "truck": 1077.1326640441346
    },
    "fid": 683.7276682574209,
    "wasserstein_distance": null,
    "g_loss": null,
    "g_cost": null,
    "d_loss_real": null,
    "d_loss_fake": null
}