{
    "epoch": 29,
    "avg_current_window": 1294.7522813772478,
    "avg_prior_window": 1422.9574645975651,
    "inception_score_mean": 2.0087616816950336,
    "inception_score_std": 0.09195121614789699,
    "fid_per_class": {
        "airplane": 943.8391601370057,
        "automobile": 1277.0342700898382,
        "bird": 1304.831043059923,
        "cat": 1036.2295144120903,
        "deer": 1533.2492533587895,
        "dog": 1099.6899863785488,
        "frog": 1417.7336782173102,
        "horse": 1260.4681842445243,
        "ship": 944.6525539882771,
        "truck": 1165.6694060894924
    },
    "fid": 763.3754157222899,
    "wasserstein_distance": null,
    "g_loss": null,
    "g_cost": null,
    "d_loss_real": null,
    "d_loss_fake": null
}