{
    "epoch": 81,
    "avg_current_window": 935.341827128417,
    "avg_prior_window": 962.5986936490992,
    "inception_score_mean": 2.0969028627752797,
    "inception_score_std": 0.1649148598160254,
    "fid_per_class": {
        "airplane": 818.5182844249163,
        "automobile": 1075.3480136593007,
        "bird": 1130.598775444596,
        "cat": 972.7740340968874,
        "deer": 1351.8202379143245,
        "dog": 1014.3870141343452,
        "frog": 1268.212590090808,
        "horse": 1154.3336998375325,
        "ship": 849.3774239597092,
        "truck": 1004.9371184552517
    },
    "fid": 639.5625402020698,
    "wasserstein_distance": null,
    "g_loss": null,
    "g_cost": null,
    "d_loss_real": null,
    "d_loss_fake": null
}