{
    "epoch": 60,
    "avg_current_window": 1019.7983379728547,
    "avg_prior_window": 1062.921481753265,
    "inception_score_mean": 1.9925632895674201,
    "inception_score_std": 0.16126051630957863,
    "fid_per_class": {
        "airplane": 922.7216061999732,
        "automobile": 1091.6789516358886,
        "bird": 1337.282848619133,
        "cat": 1019.4512339359503,
        "deer": 1453.735381934526,
        "dog": 1099.1028485694796,
        "frog": 1411.6705298276793,
        "horse": 1206.0140429241314,
        "ship": 915.5707519813155,
        "truck": 1145.9836642579662
    },
    "fid": 736.6664265315044,
    "wasserstein_distance": null,
    "g_loss": null,
    "g_cost": null,
    "d_loss_real": null,
    "d_loss_fake": null
}