{
    "epoch": 5,
    "avg_current_window": 1766.4510968760264,
    "avg_prior_window": 2141.0414163227197,
    "inception_score_mean": 1.050389711477494,
    "inception_score_std": 0.010145627076673132,
    "fid_per_class": {
        "airplane": 1714.3089298685072,
        "automobile": 1664.913088382561,
        "bird": 2133.8060505929093,
        "cat": 2024.4008077902774,
        "deer": 2230.5698557087035,
        "dog": 2179.1485921540075,
        "frog": 2331.976933113062,
        "horse": 2091.379006017874,
        "ship": 1758.714953167132,
        "truck": 1675.8459795887547
    },
    "fid": 1783.3849572946497,
    "wasserstein_distance": null,
    "g_loss": null,
    "g_cost": null,
    "d_loss_real": null,
    "d_loss_fake": null
}