{
    "epoch": 99,
    "avg_current_window": 885.9778608904303,
    "avg_prior_window": 905.1940162028525,
    "inception_score_mean": 1.9998941100126448,
    "inception_score_std": 0.12753709976982117,
    "fid_per_class": {
        "airplane": 830.1682761680818,
        "automobile": 1081.287812056422,
        "bird": 1207.3978920005748,
        "cat": 968.9830940541785,
        "deer": 1361.7201314267104,
        "dog": 1008.5003702289459,
        "frog": 1281.3701644095058,
        "horse": 1073.2698374945246,
        "ship": 902.1499548374633,
        "truck": 1108.6038167254826
    },
    "fid": 666.3294816866218,
    "wasserstein_distance": null,
    "g_loss": null,
    "g_cost": null,
    "d_loss_real": null,
    "d_loss_fake": null
}