{
    "epoch": 28,
    "avg_current_window": 1311.785932580609,
    "avg_prior_window": 1453.0053853940092,
    "inception_score_mean": 1.9746132501831393,
    "inception_score_std": 0.09679731553703753,
    "fid_per_class": {
        "airplane": 1001.6070401042041,
        "automobile": 1349.5450225423274,
        "bird": 1299.6805695877924,
        "cat": 996.700479907292,
        "deer": 1646.0835096170997,
        "dog": 1119.356537544857,
        "frog": 1494.8432056387396,
        "horse": 1345.4539874978263,
        "ship": 1086.4095533724803,
        "truck": 1188.7754211570127
    },
    "fid": 817.8100476831412,
    "wasserstein_distance": null,
    "g_loss": null,
    "g_cost": null,
    "d_loss_real": null,
    "d_loss_fake": null
}