{
    "epoch": 16,
    "avg_current_window": 1598.8379119415679,
    "avg_prior_window": 1903.0901578692474,
    "inception_score_mean": 1.7454995704446141,
    "inception_score_std": 0.10328277048702943,
    "fid_per_class": {
        "airplane": 1350.5494905772098,
        "automobile": 1436.5704994236403,
        "bird": 1641.5514042407253,
        "cat": 1493.8708665101597,
        "deer": 1813.3496946819755,
        "dog": 1737.4144247117251,
        "frog": 2020.9884168910603,
        "horse": 1560.1295458964419,
        "ship": 1393.25333768444,
        "truck": 1345.5529262288223
    },
    "fid": 1268.2723516142833,
    "wasserstein_distance": null,
    "g_loss": null,
    "g_cost": null,
    "d_loss_real": null,
    "d_loss_fake": null
}