{
    "epoch": 79,
    "avg_current_window": 942.9083802423515,
    "avg_prior_window": 969.3171763976021,
    "inception_score_mean": 2.125785324229899,
    "inception_score_std": 0.16170226775324614,
    "fid_per_class": {
        "airplane": 867.5887924605306,
        "automobile": 1060.417482707433,
        "bird": 1175.6788826934285,
        "cat": 966.9679720621177,
        "deer": 1367.0389596820314,
        "dog": 998.8426979114626,
        "frog": 1298.1067398789341,
        "horse": 1090.0933085145643,
        "ship": 836.943762658618,
        "truck": 1012.0146032903422
    },
    "fid": 635.787228774888,
    "wasserstein_distance": null,
    "g_loss": null,
    "g_cost": null,
    "d_loss_real": null,
    "d_loss_fake": null
}