{
    "epoch": 46,
    "avg_current_window": 1105.0727684584326,
    "avg_prior_window": 1166.5150355711512,
    "inception_score_mean": 1.9915810733443842,
    "inception_score_std": 0.11070690325246198,
    "fid_per_class": {
        "airplane": 896.8652415625282,
        "automobile": 1212.8662241613074,
        "bird": 1261.4560222823166,
        "cat": 1034.2984333104223,
        "deer": 1483.137008143956,
        "dog": 1074.0789412936977,
        "frog": 1385.284811172756,
        "horse": 1257.948633625026,
        "ship": 1034.4860041934717,
        "truck": 1293.8690468715079
    },
    "fid": 763.0506507790125,
    "wasserstein_distance": null,
    "g_loss": null,
    "g_cost": null,
    "d_loss_real": null,
    "d_loss_fake": null
}