{
    "epoch": 91,
    "avg_current_window": 904.7912373382824,
    "avg_prior_window": 926.8223581279235,
    "inception_score_mean": 2.118134641494446,
    "inception_score_std": 0.20454924794737575,
    "fid_per_class": {
        "airplane": 878.3002037117669,
        "automobile": 1118.24388248563,
        "bird": 1197.999957423316,
        "cat": 982.2655890902822,
        "deer": 1370.947274562434,
        "dog": 1061.5192852015916,
        "frog": 1302.5257917647132,
        "horse": 1118.87712653656,
        "ship": 876.7234399931297,
        "truck": 1121.0056544687623
    },
    "fid": 691.6852578551004,
    "wasserstein_distance": null,
    "g_loss": null,
    "g_cost": null,
    "d_loss_real": null,
    "d_loss_fake": null
}