{
    "epoch": 121,
    "avg_current_window": 738.9317051826649,
    "avg_prior_window": 750.0021816751635,
    "inception_score_mean": 1.9233265806042195,
    "inception_score_std": 0.1010729691512412,
    "fid_per_class": {
        "airplane": 876.5381914651242,
        "automobile": 1043.7519000617842,
        "bird": 1118.8153822584654,
        "cat": 984.0779059003305,
        "deer": 1247.8706641732233,
        "dog": 1000.563040077252,
        "frog": 1323.3276994436962,
        "horse": 1142.5809645459276,
        "ship": 853.2503425059729,
        "truck": 907.3265850677406
    },
    "fid": 634.750085547212,
    "wasserstein_distance": null,
    "g_loss": null,
    "g_cost": null,
    "d_loss_real": null,
    "d_loss_fake": null
}