{
    "epoch": 135,
    "avg_current_window": 725.6225060489409,
    "avg_prior_window": 734.6841347454615,
    "inception_score_mean": 2.0336104901428245,
    "inception_score_std": 0.09865139498127,
    "fid_per_class": {
        "airplane": 879.4590498592129,
        "automobile": 998.974825117136,
        "bird": 1168.0248214757944,
        "cat": 947.3418941787609,
        "deer": 1241.2054708409953,
        "dog": 981.6116064544733,
        "frog": 1076.1061104576147,
        "horse": 1058.3865739630419,
        "ship": 812.3446428361234,
        "truck": 976.6266187492308
    },
    "fid": 594.7125044594461,
    "wasserstein_distance": null,
    "g_loss": null,
    "g_cost": null,
    "d_loss_real": null,
    "d_loss_fake": null
}