{
    "epoch": 182,
    "avg_current_window": 695.0739077077932,
    "avg_prior_window": 701.3454060772931,
    "inception_score_mean": 2.057568392618102,
    "inception_score_std": 0.13480782253754733,
    "fid_per_class": {
        "airplane": 865.8171534366719,
        "automobile": 1040.0896755109075,
        "bird": 1129.421996684095,
        "cat": 983.6255699409037,
        "deer": 1231.294028846838,
        "dog": 1028.521892224946,
        "frog": 1208.731166410086,
        "horse": 1136.976090270565,
        "ship": 858.9857603519231,
        "truck": 915.4599069746836
    },
    "fid": 623.0942725920617,
    "wasserstein_distance": null,
    "g_loss": null,
    "g_cost": null,
    "d_loss_real": null,
    "d_loss_fake": null
}