{
    "epoch": 161,
    "avg_current_window": 706.5693842683996,
    "avg_prior_window": 714.0419515757933,
    "inception_score_mean": 2.058554225349577,
    "inception_score_std": 0.13273983818614424,
    "fid_per_class": {
        "airplane": 820.6927928005218,
        "automobile": 1070.990897447628,
        "bird": 1110.1404553061216,
        "cat": 981.3199906945622,
        "deer": 1225.7706582180658,
        "dog": 1016.0020595926467,
        "frog": 1190.6104289647606,
        "horse": 1041.565930041303,
        "ship": 795.2191891544306,
        "truck": 995.0116430789589
    },
    "fid": 604.0642937123813,
    "wasserstein_distance": null,
    "g_loss": null,
    "g_cost": null,
    "d_loss_real": null,
    "d_loss_fake": null
}