{
    "epoch": 127,
    "avg_current_window": 732.6040087411614,
    "avg_prior_window": 743.0458930130341,
    "inception_score_mean": 2.0129469163974774,
    "inception_score_std": 0.16240861678893218,
    "fid_per_class": {
        "airplane": 821.2304214161331,
        "automobile": 1057.2297713116477,
        "bird": 1118.9857411324922,
        "cat": 962.5744580715309,
        "deer": 1229.5534140689813,
        "dog": 995.0656889355407,
        "frog": 1250.742886289891,
        "horse": 1064.5220596068812,
        "ship": 775.6600797457731,
        "truck": 994.8139547504929
    },
    "fid": 611.6393902101634,
    "wasserstein_distance": null,
    "g_loss": null,
    "g_cost": null,
    "d_loss_real": null,
    "d_loss_fake": null
}