{
    "epoch": 52,
    "avg_current_window": 875.904693706577,
    "avg_prior_window": 912.1617230179207,
    "inception_score_mean": 2.007576075220368,
    "inception_score_std": 0.17151778982583707,
    "fid_per_class": {
        "airplane": 855.0368613606288,
        "automobile": 1168.8089482344722,
        "bird": 1208.204910508884,
        "cat": 1038.4602085756233,
        "deer": 1353.687049267929,
        "dog": 1087.3096650984812,
        "frog": 1393.6905639062948,
        "horse": 1263.4299382556512,
        "ship": 844.8293031918122,
        "truck": 1057.951187437468
    },
    "fid": 726.4413755070545,
    "wasserstein_distance": null,
    "g_loss": null,
    "g_cost": null,
    "d_loss_real": null,
    "d_loss_fake": null
}