{
    "epoch": 36,
    "avg_current_window": 973.1484446431402,
    "avg_prior_window": 1038.784051424952,
    "inception_score_mean": 2.048719314701672,
    "inception_score_std": 0.1184732461502303,
    "fid_per_class": {
        "airplane": 840.2760043948828,
        "automobile": 1039.7738688286227,
        "bird": 1113.4072537243899,
        "cat": 938.8687129907006,
        "deer": 1207.4207519791212,
        "dog": 1020.3475562024796,
        "frog": 1234.9184325528092,
        "horse": 1108.640895439196,
        "ship": 759.0349617422881,
        "truck": 1056.0320798997814
    },
    "fid": 614.8695160042046,
    "wasserstein_distance": null,
    "g_loss": null,
    "g_cost": null,
    "d_loss_real": null,
    "d_loss_fake": null
}