{
    "epoch": 115,
    "avg_current_window": 746.2282914445912,
    "avg_prior_window": 758.1738444314896,
    "inception_score_mean": 2.0801080304904946,
    "inception_score_std": 0.12403931249716557,
    "fid_per_class": {
        "airplane": 819.6318926217612,
        "automobile": 1009.1099964354826,
        "bird": 1195.6904482773807,
        "cat": 958.6576668540146,
        "deer": 1251.5642479109574,
        "dog": 986.1957174269423,
        "frog": 1103.4970865645118,
        "horse": 1128.1920695127255,
        "ship": 793.6239878367182,
        "truck": 947.7599551695354
    },
    "fid": 598.237850701647,
    "wasserstein_distance": null,
    "g_loss": null,
    "g_cost": null,
    "d_loss_real": null,
    "d_loss_fake": null
}