{
    "epoch": 153,
    "avg_current_window": 711.6742539777532,
    "avg_prior_window": 718.5920034613533,
    "inception_score_mean": 2.0780123120477048,
    "inception_score_std": 0.17617991664292165,
    "fid_per_class": {
        "airplane": 840.3830227089381,
        "automobile": 984.5326094006521,
        "bird": 1145.889283292716,
        "cat": 959.09004039225,
        "deer": 1315.179375161064,
        "dog": 976.8683907294336,
        "frog": 1213.547232906751,
        "horse": 1106.7651095083615,
        "ship": 813.1059167357314,
        "truck": 945.4362572518885
    },
    "fid": 613.7291624570114,
    "wasserstein_distance": null,
    "g_loss": null,
    "g_cost": null,
    "d_loss_real": null,
    "d_loss_fake": null
}