{
    "epoch": 84,
    "avg_current_window": 791.7811669391898,
    "avg_prior_window": 809.2984459137485,
    "inception_score_mean": 2.0409757751625834,
    "inception_score_std": 0.13657318006264102,
    "fid_per_class": {
        "airplane": 874.9323500769036,
        "automobile": 1077.574385594197,
        "bird": 1167.0709253219352,
        "cat": 992.0595394151508,
        "deer": 1311.2294206755582,
        "dog": 971.5798686529412,
        "frog": 1276.8354357150813,
        "horse": 1132.0568940954593,
        "ship": 833.526083844017,
        "truck": 979.5501891734787
    },
    "fid": 643.0360303103807,
    "wasserstein_distance": null,
    "g_loss": null,
    "g_cost": null,
    "d_loss_real": null,
    "d_loss_fake": null
}