{
    "epoch": 71,
    "avg_current_window": 819.4638811314295,
    "avg_prior_window": 841.187201822116,
    "inception_score_mean": 2.021327275626985,
    "inception_score_std": 0.16206776943162893,
    "fid_per_class": {
        "airplane": 877.7361188057937,
        "automobile": 1125.6301913534326,
        "bird": 1248.293855318008,
        "cat": 1053.3649380478673,
        "deer": 1383.2537949807543,
        "dog": 1036.713908159842,
        "frog": 1340.2622358682397,
        "horse": 1242.6632419796815,
        "ship": 899.7659284259792,
        "truck": 1074.5006349158803
    },
    "fid": 708.7861171364067,
    "wasserstein_distance": null,
    "g_loss": null,
    "g_cost": null,
    "d_loss_real": null,
    "d_loss_fake": null
}