{
    "epoch": 46,
    "avg_current_window": 905.0253544170134,
    "avg_prior_window": 950.8395175250812,
    "inception_score_mean": 2.000006350955337,
    "inception_score_std": 0.17304458718586202,
    "fid_per_class": {
        "airplane": 833.8450762366957,
        "automobile": 1032.7590794292241,
        "bird": 1170.358436809339,
        "cat": 985.6669352948344,
        "deer": 1347.7797979947368,
        "dog": 1020.7469584077719,
        "frog": 1288.8533391658334,
        "horse": 1097.385526471494,
        "ship": 762.5489797382261,
        "truck": 1017.7794474970792
    },
    "fid": 639.108276725231,
    "wasserstein_distance": null,
    "g_loss": null,
    "g_cost": null,
    "d_loss_real": null,
    "d_loss_fake": null
}