{
    "epoch": 32,
    "avg_current_window": 1006.3220498179222,
    "avg_prior_window": 1090.3035743229009,
    "inception_score_mean": 2.016425095886876,
    "inception_score_std": 0.18207214065894609,
    "fid_per_class": {
        "airplane": 912.3083228914435,
        "automobile": 1156.7639448281452,
        "bird": 1295.0718483176515,
        "cat": 1046.0519543152705,
        "deer": 1361.3561912715309,
        "dog": 1105.3336158631182,
        "frog": 1449.6440650539373,
        "horse": 1247.1852669183086,
        "ship": 727.2292666284796,
        "truck": 1148.9205908826427
    },
    "fid": 738.7260387179301,
    "wasserstein_distance": null,
    "g_loss": null,
    "g_cost": null,
    "d_loss_real": null,
    "d_loss_fake": null
}