{
    "epoch": 145,
    "avg_current_window": 717.2217332349093,
    "avg_prior_window": 725.6495226879307,
    "inception_score_mean": 2.0181357321144464,
    "inception_score_std": 0.1475963111314117,
    "fid_per_class": {
        "airplane": 810.3669423652956,
        "automobile": 1036.2892645245188,
        "bird": 1137.7572081703534,
        "cat": 913.5649284096706,
        "deer": 1265.5786974961848,
        "dog": 948.5730531065319,
        "frog": 1176.5307793434342,
        "horse": 1126.1918733819716,
        "ship": 893.5742084214571,
        "truck": 1031.1136780858212
    },
    "fid": 619.3836377311183,
    "wasserstein_distance": null,
    "g_loss": null,
    "g_cost": null,
    "d_loss_real": null,
    "d_loss_fake": null
}