{
    "epoch": 152,
    "avg_current_window": 712.3271979772785,
    "avg_prior_window": 719.4932751589625,
    "inception_score_mean": 2.0742024471037577,
    "inception_score_std": 0.17105500105833213,
    "fid_per_class": {
        "airplane": 836.3907294962676,
        "automobile": 993.2251625915717,
        "bird": 1150.4902810337546,
        "cat": 1010.086847044756,
        "deer": 1226.6479336917628,
        "dog": 1021.1019229576989,
        "frog": 1194.6120207906852,
        "horse": 1108.596719740099,
        "ship": 779.538141831391,
        "truck": 960.4683173050059
    },
    "fid": 612.4267660498974,
    "wasserstein_distance": null,
    "g_loss": null,
    "g_cost": null,
    "d_loss_real": null,
    "d_loss_fake": null
}