{
    "epoch": 2,
    "avg_current_window": 1180.298882310259,
    "avg_prior_window": 2363.597764620518,
    "inception_score_mean": 1.2285111253131222,
    "inception_score_std": 0.042666209742932455,
    "fid_per_class": {
        "airplane": 1821.2652573769287,
        "automobile": 1845.5879621674253,
        "bird": 2223.3958149076907,
        "cat": 2272.046977992444,
        "deer": 2518.6101867122206,
        "dog": 2239.2102621155095,
        "frog": 2493.017060401125,
        "horse": 2313.5260023908504,
        "ship": 1964.6766455545335,
        "truck": 1919.1526102298499
    },
    "fid": 2002.540086645236,
    "wasserstein_distance": null,
    "g_loss": null,
    "g_cost": null,
    "d_loss_real": null,
    "d_loss_fake": null
}