{
    "epoch": 157,
    "avg_current_window": 709.4939136676671,
    "avg_prior_window": 716.3563214381331,
    "inception_score_mean": 2.090340511963041,
    "inception_score_std": 0.1226303312562184,
    "fid_per_class": {
        "airplane": 872.8520281365065,
        "automobile": 984.433101888509,
        "bird": 1099.2907961971418,
        "cat": 957.8083280788841,
        "deer": 1194.40712070782,
        "dog": 933.9455792244537,
        "frog": 1198.0594462445583,
        "horse": 1021.1205022929194,
        "ship": 856.4985769183313,
        "truck": 865.6803587402429
    },
    "fid": 580.6850987817033,
    "wasserstein_distance": null,
    "g_loss": null,
    "g_cost": null,
    "d_loss_real": null,
    "d_loss_fake": null
}