{
    "epoch": 158,
    "avg_current_window": 708.678668003832,
    "avg_prior_window": 715.6855556931584,
    "inception_score_mean": 2.07457845851341,
    "inception_score_std": 0.11931460594876857,
    "fid_per_class": {
        "airplane": 806.6632865420078,
        "automobile": 1051.1266633569508,
        "bird": 1097.1289402056975,
        "cat": 986.8532834773744,
        "deer": 1276.0897664447923,
        "dog": 956.8367737669599,
        "frog": 1187.8520069862768,
        "horse": 1083.9954723319731,
        "ship": 852.4641472507274,
        "truck": 966.5143572252339
    },
    "fid": 615.6981092611188,
    "wasserstein_distance": null,
    "g_loss": null,
    "g_cost": null,
    "d_loss_real": null,
    "d_loss_fake": null
}