{
    "epoch": 28,
    "avg_current_window": 1051.3641609542258,
    "avg_prior_window": 1155.9390033034374,
    "inception_score_mean": 1.9998140537057936,
    "inception_score_std": 0.13680218545546846,
    "fid_per_class": {
        "airplane": 908.9489383795797,
        "automobile": 1066.824970124651,
        "bird": 1151.534408095407,
        "cat": 961.0697110064098,
        "deer": 1261.9747300550134,
        "dog": 989.8643762353279,
        "frog": 1255.0763267727004,
        "horse": 1222.1663635012294,
        "ship": 761.0554375309251,
        "truck": 1066.0166647539068
    },
    "fid": 645.1728182785859,
    "wasserstein_distance": null,
    "g_loss": null,
    "g_cost": null,
    "d_loss_real": null,
    "d_loss_fake": null
}