{
    "epoch": 178,
    "avg_current_window": 697.4052633465218,
    "avg_prior_window": 703.4688126604696,
    "inception_score_mean": 1.9867235441272406,
    "inception_score_std": 0.16047262522380146,
    "fid_per_class": {
        "airplane": 818.0681466750356,
        "automobile": 1012.4732074331636,
        "bird": 1092.5347931192402,
        "cat": 985.2198328532163,
        "deer": 1234.422101058879,
        "dog": 1061.658775027248,
        "frog": 1196.5613011098021,
        "horse": 1114.586351974873,
        "ship": 806.9700783533392,
        "truck": 973.9212108046293
    },
    "fid": 614.8257966044979,
    "wasserstein_distance": null,
    "g_loss": null,
    "g_cost": null,
    "d_loss_real": null,
    "d_loss_fake": null
}