{
    "epoch": 148,
    "avg_current_window": 714.6318341105912,
    "avg_prior_window": 723.0498752084429,
    "inception_score_mean": 2.047456116297917,
    "inception_score_std": 0.1439390716724727,
    "fid_per_class": {
        "airplane": 847.5560961116754,
        "automobile": 961.3195827907226,
        "bird": 1115.7463136352146,
        "cat": 960.3849681917252,
        "deer": 1222.5298018376175,
        "dog": 1027.7415799075022,
        "frog": 1195.4080232600068,
        "horse": 1071.891537733584,
        "ship": 799.2497060414194,
        "truck": 916.484188212945
    },
    "fid": 586.1050639127897,
    "wasserstein_distance": null,
    "g_loss": null,
    "g_cost": null,
    "d_loss_real": null,
    "d_loss_fake": null
}