{
    "epoch": 57,
    "avg_current_window": 856.6776602527991,
    "avg_prior_window": 889.8747201586357,
    "inception_score_mean": 2.019835723925822,
    "inception_score_std": 0.21667879919355648,
    "fid_per_class": {
        "airplane": 868.623052449786,
        "automobile": 995.0136779155941,
        "bird": 1263.4743216203346,
        "cat": 995.8837687859798,
        "deer": 1342.607558709001,
        "dog": 1042.4211885120185,
        "frog": 1444.3584204315237,
        "horse": 1160.6095082112197,
        "ship": 829.442389146046,
        "truck": 1057.895242625435
    },
    "fid": 686.7990569309978,
    "wasserstein_distance": null,
    "g_loss": null,
    "g_cost": null,
    "d_loss_real": null,
    "d_loss_fake": null
}