{
    "epoch": 166,
    "avg_current_window": 703.7565674861296,
    "avg_prior_window": 710.3213364032591,
    "inception_score_mean": 2.125836275139245,
    "inception_score_std": 0.12079841384154091,
    "fid_per_class": {
        "airplane": 848.3914819373921,
        "automobile": 1010.4731834321478,
        "bird": 1129.394417846629,
        "cat": 958.2054397901775,
        "deer": 1224.4742720278045,
        "dog": 1036.2404163447238,
        "frog": 1195.5949035730318,
        "horse": 995.9245153482673,
        "ship": 877.5747146095005,
        "truck": 956.7580882239725
    },
    "fid": 597.3575188272077,
    "wasserstein_distance": null,
    "g_loss": null,
    "g_cost": null,
    "d_loss_real": null,
    "d_loss_fake": null
}