{
    "epoch": 58,
    "avg_current_window": 853.7487188162163,
    "avg_prior_window": 884.7198559449229,
    "inception_score_mean": 1.9670812419947576,
    "inception_score_std": 0.1604606573920493,
    "fid_per_class": {
        "airplane": 908.0987199494223,
        "automobile": 1098.8383055125616,
        "bird": 1277.0015709763088,
        "cat": 1010.4216918415168,
        "deer": 1375.789344701191,
        "dog": 1050.2142914176216,
        "frog": 1420.2345299278054,
        "horse": 1210.9314296641544,
        "ship": 828.0862527128786,
        "truck": 1060.6778921981245
    },
    "fid": 714.479039976628,
    "wasserstein_distance": null,
    "g_loss": null,
    "g_cost": null,
    "d_loss_real": null,
    "d_loss_fake": null
}