{
    "epoch": 81,
    "avg_current_window": 797.2322980691423,
    "avg_prior_window": 816.7706162737161,
    "inception_score_mean": 2.007115346493,
    "inception_score_std": 0.1361401108127429,
    "fid_per_class": {
        "airplane": 908.1009096021013,
        "automobile": 1074.4592708442879,
        "bird": 1196.4961113676427,
        "cat": 983.8789686345117,
        "deer": 1273.9166883113223,
        "dog": 1033.145353782778,
        "frog": 1231.3334019643007,
        "horse": 1120.7257010674675,
        "ship": 884.7231648769634,
        "truck": 1056.5251296732633
    },
    "fid": 656.3888330572297,
    "wasserstein_distance": null,
    "g_loss": null,
    "g_cost": null,
    "d_loss_real": null,
    "d_loss_fake": null
}