{
    "epoch": 44,
    "avg_current_window": 915.124126756057,
    "avg_prior_window": 963.703650177576,
    "inception_score_mean": 2.0915567606584,
    "inception_score_std": 0.14682182413200962,
    "fid_per_class": {
        "airplane": 826.6571806191856,
        "automobile": 1040.6445811897643,
        "bird": 1212.1953592687057,
        "cat": 984.3812724740874,
        "deer": 1256.7253536450935,
        "dog": 1059.5708503750125,
        "frog": 1383.245420710577,
        "horse": 1175.9272857277329,
        "ship": 840.5434573209002,
        "truck": 987.0949714018783
    },
    "fid": 667.4820456420283,
    "wasserstein_distance": null,
    "g_loss": null,
    "g_cost": null,
    "d_loss_real": null,
    "d_loss_fake": null
}