{
    "epoch": 99,
    "avg_current_window": 767.7830320761462,
    "avg_prior_window": 782.1365612802286,
    "inception_score_mean": 2.082864102411139,
    "inception_score_std": 0.1349694382700538,
    "fid_per_class": {
        "airplane": 834.2054211279194,
        "automobile": 1028.5942264751434,
        "bird": 1147.0012394633768,
        "cat": 918.8193890645593,
        "deer": 1211.4244273532004,
        "dog": 952.4043061575121,
        "frog": 1144.585177750962,
        "horse": 1090.5620898665593,
        "ship": 764.9464593860008,
        "truck": 1026.515544000007
    },
    "fid": 588.3555115298219,
    "wasserstein_distance": null,
    "g_loss": null,
    "g_cost": null,
    "d_loss_real": null,
    "d_loss_fake": null
}