{
    "epoch": 175,
    "avg_current_window": 698.9269723781204,
    "avg_prior_window": 705.0412056105348,
    "inception_score_mean": 2.110582286744802,
    "inception_score_std": 0.13930285568162706,
    "fid_per_class": {
        "airplane": 812.2036881108568,
        "automobile": 1015.3380121566629,
        "bird": 1179.380872153676,
        "cat": 977.8306542787477,
        "deer": 1195.9740564543376,
        "dog": 1023.9545960826256,
        "frog": 1200.1671807662824,
        "horse": 1097.9049573601758,
        "ship": 812.6852188904984,
        "truck": 916.8126149273719
    },
    "fid": 601.5593786650568,
    "wasserstein_distance": null,
    "g_loss": null,
    "g_cost": null,
    "d_loss_real": null,
    "d_loss_fake": null
}