{
    "epoch": 150,
    "avg_current_window": 713.2464939276963,
    "avg_prior_window": 721.4933445296067,
    "inception_score_mean": 2.0500573826719357,
    "inception_score_std": 0.10916786639830252,
    "fid_per_class": {
        "airplane": 822.2250259808641,
        "automobile": 1073.9581883506703,
        "bird": 1213.2287203493115,
        "cat": 1004.3274216079708,
        "deer": 1283.6372283968485,
        "dog": 1028.3315234593767,
        "frog": 1240.5286579979565,
        "horse": 1137.9104379804226,
        "ship": 806.975174569866,
        "truck": 943.0563682008241
    },
    "fid": 632.6348820404073,
    "wasserstein_distance": null,
    "g_loss": null,
    "g_cost": null,
    "d_loss_real": null,
    "d_loss_fake": null
}