{
    "epoch": 75,
    "avg_current_window": 810.4042773962445,
    "avg_prior_window": 831.1705080047356,
    "inception_score_mean": 2.1368504285233247,
    "inception_score_std": 0.1933467050156245,
    "fid_per_class": {
        "airplane": 885.8983624854628,
        "automobile": 1037.9905483913183,
        "bird": 1161.6327238470556,
        "cat": 993.1850132668394,
        "deer": 1227.6557521577015,
        "dog": 987.9271150858078,
        "frog": 1290.1842279892235,
        "horse": 1100.584183386343,
        "ship": 803.0888349662628,
        "truck": 1011.5934927823931
    },
    "fid": 628.5498555999834,
    "wasserstein_distance": null,
    "g_loss": null,
    "g_cost": null,
    "d_loss_real": null,
    "d_loss_fake": null
}