{
    "epoch": 55,
    "avg_current_window": 865.0286165002453,
    "avg_prior_window": 897.1965321661027,
    "inception_score_mean": 2.008867154462485,
    "inception_score_std": 0.1412857140427604,
    "fid_per_class": {
        "airplane": 879.1155778428058,
        "automobile": 1042.3027425849632,
        "bird": 1137.0717941005666,
        "cat": 947.6733784025038,
        "deer": 1238.4289291270156,
        "dog": 1004.7025767424894,
        "frog": 1304.2566039529165,
        "horse": 1132.5141342851337,
        "ship": 807.8054393501399,
        "truck": 976.724382172885
    },
    "fid": 631.4969377356767,
    "wasserstein_distance": null,
    "g_loss": null,
    "g_cost": null,
    "d_loss_real": null,
    "d_loss_fake": null
}