{
    "epoch": 73,
    "avg_current_window": 815.3350325357561,
    "avg_prior_window": 836.707410319914,
    "inception_score_mean": 2.0379414683502866,
    "inception_score_std": 0.16511067486144304,
    "fid_per_class": {
        "airplane": 820.9434765791452,
        "automobile": 1051.2158325382882,
        "bird": 1189.4616658178925,
        "cat": 1021.4826348135599,
        "deer": 1258.3628559237281,
        "dog": 983.123394856735,
        "frog": 1284.1039449204718,
        "horse": 1131.4448924306519,
        "ship": 797.3849591970447,
        "truck": 980.324063978612
    },
    "fid": 643.8487454932668,
    "wasserstein_distance": null,
    "g_loss": null,
    "g_cost": null,
    "d_loss_real": null,
    "d_loss_fake": null
}