{
    "epoch": 19,
    "avg_current_window": 1214.3374738089183,
    "avg_prior_window": 1413.8765332094586,
    "inception_score_mean": 1.9365491535257888,
    "inception_score_std": 0.16842639072942944,
    "fid_per_class": {
        "airplane": 947.7638337127987,
        "automobile": 1187.6557227575925,
        "bird": 1281.5911758645072,
        "cat": 1060.542765449382,
        "deer": 1389.805693263735,
        "dog": 1088.137055657071,
        "frog": 1369.6023431272397,
        "horse": 1240.3554512491337,
        "ship": 831.245735322424,
        "truck": 1116.8126475513398
    },
    "fid": 743.6662406933451,
    "wasserstein_distance": null,
    "g_loss": null,
    "g_cost": null,
    "d_loss_real": null,
    "d_loss_fake": null
}