{
    "epoch": 165,
    "avg_current_window": 704.4861030876276,
    "avg_prior_window": 710.9854429200772,
    "inception_score_mean": 2.1247576228064142,
    "inception_score_std": 0.18356004111246188,
    "fid_per_class": {
        "airplane": 824.3861851989257,
        "automobile": 946.4220741983995,
        "bird": 1133.4896651977524,
        "cat": 990.4339226212542,
        "deer": 1237.423811518148,
        "dog": 977.8358855241679,
        "frog": 1141.6215077990491,
        "horse": 1032.3796273612052,
        "ship": 860.9126838503634,
        "truck": 932.8253657964558
    },
    "fid": 583.3831932389569,
    "wasserstein_distance": null,
    "g_loss": null,
    "g_cost": null,
    "d_loss_real": null,
    "d_loss_fake": null
}