{
    "epoch": 17,
    "avg_current_window": 1264.3593984951276,
    "avg_prior_window": 1504.6999883801857,
    "inception_score_mean": 1.9200327143422133,
    "inception_score_std": 0.15377733433607502,
    "fid_per_class": {
        "airplane": 913.2487330201952,
        "automobile": 1079.4466259083015,
        "bird": 1365.2886149574138,
        "cat": 1240.2453140674445,
        "deer": 1627.250433185357,
        "dog": 1501.2506020343135,
        "frog": 1675.314864357348,
        "horse": 1446.5689692340002,
        "ship": 770.2342889446547,
        "truck": 1059.7312622386983
    },
    "fid": 859.1584905340577,
    "wasserstein_distance": null,
    "g_loss": null,
    "g_cost": null,
    "d_loss_real": null,
    "d_loss_fake": null
}