{
    "epoch": 160,
    "avg_current_window": 707.3871191784588,
    "avg_prior_window": 714.4991098850244,
    "inception_score_mean": 2.0748749761759986,
    "inception_score_std": 0.13601771762948234,
    "fid_per_class": {
        "airplane": 812.5397683527099,
        "automobile": 1019.3871346575465,
        "bird": 1120.1463523834177,
        "cat": 946.7595738260113,
        "deer": 1246.7851457789134,
        "dog": 950.8453659134591,
        "frog": 1136.4134381454091,
        "horse": 1010.2191991753214,
        "ship": 774.4916309834928,
        "truck": 947.7972620008802
    },
    "fid": 575.7317986589461,
    "wasserstein_distance": null,
    "g_loss": null,
    "g_cost": null,
    "d_loss_real": null,
    "d_loss_fake": null
}