{
    "epoch": 77,
    "avg_current_window": 806.1632056727587,
    "avg_prior_window": 826.6591302098637,
    "inception_score_mean": 2.033097048099483,
    "inception_score_std": 0.16164569834441242,
    "fid_per_class": {
        "airplane": 837.378103531099,
        "automobile": 1071.0419207399327,
        "bird": 1176.4456328964754,
        "cat": 891.9468525182237,
        "deer": 1254.6050551016776,
        "dog": 983.6831430458118,
        "frog": 1205.6438428696406,
        "horse": 1048.288124648767,
        "ship": 798.9543871229063,
        "truck": 949.2358401186032
    },
    "fid": 605.4096001340697,
    "wasserstein_distance": null,
    "g_loss": null,
    "g_cost": null,
    "d_loss_real": null,
    "d_loss_fake": null
}