{
    "epoch": 21,
    "avg_current_window": 1166.9192671732446,
    "avg_prior_window": 1343.3818609010732,
    "inception_score_mean": 1.9563370088752845,
    "inception_score_std": 0.12536720591681105,
    "fid_per_class": {
        "airplane": 894.3188942016051,
        "automobile": 1119.214031417665,
        "bird": 1223.627891997934,
        "cat": 1085.64595147628,
        "deer": 1351.1982618927264,
        "dog": 1182.5269430675398,
        "frog": 1393.885560744199,
        "horse": 1200.6604947237115,
        "ship": 823.2932279952315,
        "truck": 1136.191180118675
    },
    "fid": 721.2057501538075,
    "wasserstein_distance": null,
    "g_loss": null,
    "g_cost": null,
    "d_loss_real": null,
    "d_loss_fake": null
}