{
    "epoch": 83,
    "avg_current_window": 793.4256423154056,
    "avg_prior_window": 811.4994530932557,
    "inception_score_mean": 2.0140248679734745,
    "inception_score_std": 0.14223061622311273,
    "fid_per_class": {
        "airplane": 841.4661320679344,
        "automobile": 1046.1253666777407,
        "bird": 1188.045276398914,
        "cat": 996.4968287321244,
        "deer": 1288.5110760841796,
        "dog": 1032.0718410733593,
        "frog": 1359.8716697202099,
        "horse": 1157.958965450281,
        "ship": 812.7208191598799,
        "truck": 1032.2363875115789
    },
    "fid": 655.2897107132803,
    "wasserstein_distance": null,
    "g_loss": null,
    "g_cost": null,
    "d_loss_real": null,
    "d_loss_fake": null
}