{
    "epoch": 200,
    "avg_current_window": 687.5873663782231,
    "avg_prior_window": 692.6611519020379,
    "inception_score_mean": 2.0595008415457943,
    "inception_score_std": 0.16302869794878344,
    "fid_per_class": {
        "airplane": 817.2910437642358,
        "automobile": 999.5610990257229,
        "bird": 1113.1788146444806,
        "cat": 955.5405486170173,
        "deer": 1311.3347868460833,
        "dog": 1021.9421728749996,
        "frog": 1287.4476720998355,
        "horse": 1050.6475870065015,
        "ship": 837.6656405612183,
        "truck": 918.5834272978236
    },
    "fid": 617.0274135088703,
    "wasserstein_distance": null,
    "g_loss": null,
    "g_cost": null,
    "d_loss_real": null,
    "d_loss_fake": null
}