{
    "epoch": 193,
    "avg_current_window": 690.7265589240279,
    "avg_prior_window": 695.9950672619235,
    "inception_score_mean": 2.13768567076228,
    "inception_score_std": 0.17776755751011392,
    "fid_per_class": {
        "airplane": 798.3034597307262,
        "automobile": 1030.294938032019,
        "bird": 1132.6945483254099,
        "cat": 932.5603499317838,
        "deer": 1180.376102069769,
        "dog": 976.7358532016133,
        "frog": 1085.9362321044837,
        "horse": 1058.1652418876472,
        "ship": 815.1286353720338,
        "truck": 916.2009671896504
    },
    "fid": 571.7673276644631,
    "wasserstein_distance": null,
    "g_loss": null,
    "g_cost": null,
    "d_loss_real": null,
    "d_loss_fake": null
}