{
    "epoch": 40,
    "avg_current_window": 939.6110589231366,
    "avg_prior_window": 1000.9526859186585,
    "inception_score_mean": 2.0146011703517828,
    "inception_score_std": 0.178067693198757,
    "fid_per_class": {
        "airplane": 832.8167086019423,
        "automobile": 1079.470580518936,
        "bird": 1200.079833580981,
        "cat": 990.3674754124677,
        "deer": 1281.575265981688,
        "dog": 1060.4690473561307,
        "frog": 1335.5162298112677,
        "horse": 1166.1346363494608,
        "ship": 734.1570742448412,
        "truck": 1032.757487536824
    },
    "fid": 672.3601091256805,
    "wasserstein_distance": null,
    "g_loss": null,
    "g_cost": null,
    "d_loss_real": null,
    "d_loss_fake": null
}