{
    "epoch": 53,
    "avg_current_window": 873.0846310990388,
    "avg_prior_window": 907.9247595751903,
    "inception_score_mean": 2.071716723109642,
    "inception_score_std": 0.13625413158237654,
    "fid_per_class": {
        "airplane": 903.6687233001351,
        "automobile": 1026.7007868000221,
        "bird": 1162.9277756057554,
        "cat": 940.0297796221785,
        "deer": 1189.8002526703644,
        "dog": 990.0885652486728,
        "frog": 1284.2442009337701,
        "horse": 1062.1922197653635,
        "ship": 791.558133588155,
        "truck": 1016.2426696431818
    },
    "fid": 616.666916831855,
    "wasserstein_distance": null,
    "g_loss": null,
    "g_cost": null,
    "d_loss_real": null,
    "d_loss_fake": null
}