{
    "epoch": 60,
    "avg_current_window": 849.3718422342744,
    "avg_prior_window": 876.5103790045304,
    "inception_score_mean": 1.9999500655209328,
    "inception_score_std": 0.2254745115175531,
    "fid_per_class": {
        "airplane": 938.6863789727134,
        "automobile": 995.1859198081568,
        "bird": 1236.5012895787384,
        "cat": 927.1364713747764,
        "deer": 1291.457593583789,
        "dog": 997.918668423262,
        "frog": 1315.8631980819118,
        "horse": 1122.9359020238307,
        "ship": 833.5868133044644,
        "truck": 982.1062784443836
    },
    "fid": 642.6141378757047,
    "wasserstein_distance": null,
    "g_loss": null,
    "g_cost": null,
    "d_loss_real": null,
    "d_loss_fake": null
}