{
    "epoch": 66,
    "avg_current_window": 831.7116587227146,
    "avg_prior_window": 856.2119508754436,
    "inception_score_mean": 2.033249805036005,
    "inception_score_std": 0.14379986468468917,
    "fid_per_class": {
        "airplane": 852.5295621939878,
        "automobile": 1001.6171968460724,
        "bird": 1183.1704915506955,
        "cat": 981.7157200281042,
        "deer": 1238.198922802341,
        "dog": 969.5046769778661,
        "frog": 1265.0839640214974,
        "horse": 1178.5025396662327,
        "ship": 827.7253634027845,
        "truck": 992.735585448664
    },
    "fid": 625.3858445604928,
    "wasserstein_distance": null,
    "g_loss": null,
    "g_cost": null,
    "d_loss_real": null,
    "d_loss_fake": null
}