{
    "epoch": 3,
    "avg_current_window": 668.5133622150787,
    "avg_prior_window": 2362.597764620518,
    "inception_score_mean": 1.2666929803785743,
    "inception_score_std": 0.04859045837129083,
    "fid_per_class": {
        "airplane": 1684.2088873988719,
        "automobile": 1779.8252925715215,
        "bird": 2457.5377644344753,
        "cat": 2495.1345914246253,
        "deer": 2896.840984938276,
        "dog": 2669.916930520463,
        "frog": 3071.2914254305174,
        "horse": 2620.893938094744,
        "ship": 1674.0157388600128,
        "truck": 1788.5073352628408
    },
    "fid": 2109.7416940973653,
    "wasserstein_distance": null,
    "g_loss": null,
    "g_cost": null,
    "d_loss_real": null,
    "d_loss_fake": null
}