{
    "epoch": 198,
    "avg_current_window": 688.3997622771753,
    "avg_prior_window": 693.6890839378333,
    "inception_score_mean": 2.069875740995327,
    "inception_score_std": 0.17448215700063374,
    "fid_per_class": {
        "airplane": 789.1865667102642,
        "automobile": 1016.1763702023466,
        "bird": 1131.475808835894,
        "cat": 994.4906762838123,
        "deer": 1303.5302132863956,
        "dog": 1024.0427800216987,
        "frog": 1153.2315605185777,
        "horse": 1084.6500503187676,
        "ship": 863.4462581332414,
        "truck": 1018.0253952905482
    },
    "fid": 625.1861579525332,
    "wasserstein_distance": null,
    "g_loss": null,
    "g_cost": null,
    "d_loss_real": null,
    "d_loss_fake": null
}