{
    "epoch": 47,
    "avg_current_window": 899.3675442533585,
    "avg_prior_window": 943.2672819307669,
    "inception_score_mean": 2.005140883684752,
    "inception_score_std": 0.16845521366105376,
    "fid_per_class": {
        "airplane": 840.927106491513,
        "automobile": 1051.5584300349235,
        "bird": 1088.9983321145933,
        "cat": 953.6413820650263,
        "deer": 1236.5437854501445,
        "dog": 957.4204841382075,
        "frog": 1234.9572197885354,
        "horse": 1121.572114848353,
        "ship": 776.9772241954352,
        "truck": 943.9756476669672
    },
    "fid": 601.3264019344308,
    "wasserstein_distance": null,
    "g_loss": null,
    "g_cost": null,
    "d_loss_real": null,
    "d_loss_fake": null
}