{
    "epoch": 31,
    "avg_current_window": 1015.7259043251147,
    "avg_prior_window": 1102.7454604243703,
    "inception_score_mean": 1.9692233842881262,
    "inception_score_std": 0.09808762641980426,
    "fid_per_class": {
        "airplane": 887.1874485565038,
        "automobile": 1130.5127319549708,
        "bird": 1209.744870500967,
        "cat": 1016.9132058204784,
        "deer": 1359.229136355431,
        "dog": 1032.9690488622416,
        "frog": 1426.2522541553444,
        "horse": 1227.8894484631282,
        "ship": 800.1792970379439,
        "truck": 1057.5245078678759
    },
    "fid": 714.802560094955,
    "wasserstein_distance": null,
    "g_loss": null,
    "g_cost": null,
    "d_loss_real": null,
    "d_loss_fake": null
}