{
    "epoch": 133,
    "avg_current_window": 727.2640234175099,
    "avg_prior_window": 736.5508324906274,
    "inception_score_mean": 2.0871354222205634,
    "inception_score_std": 0.1754647152083631,
    "fid_per_class": {
        "airplane": 875.1148627259679,
        "automobile": 1073.2250556888216,
        "bird": 1109.9201228693858,
        "cat": 961.7980441800257,
        "deer": 1235.5216697107332,
        "dog": 988.1691524682335,
        "frog": 1224.579461192735,
        "horse": 1120.8925778186858,
        "ship": 849.4957343462487,
        "truck": 965.0725589205961
    },
    "fid": 630.3129837653237,
    "wasserstein_distance": null,
    "g_loss": null,
    "g_cost": null,
    "d_loss_real": null,
    "d_loss_fake": null
}