{
    "epoch": 26,
    "avg_current_window": 1075.3498878371895,
    "avg_prior_window": 1201.2623981329498,
    "inception_score_mean": 1.8925707284045477,
    "inception_score_std": 0.11005380643100247,
    "fid_per_class": {
        "airplane": 923.0255195528547,
        "automobile": 1112.7725078785527,
        "bird": 1235.150073112577,
        "cat": 958.8643091326445,
        "deer": 1377.9462339417319,
        "dog": 1094.9633791419953,
        "frog": 1249.5737799206086,
        "horse": 1260.567233110303,
        "ship": 766.2097079345116,
        "truck": 1080.0398542754185
    },
    "fid": 712.2848872667034,
    "wasserstein_distance": null,
    "g_loss": null,
    "g_cost": null,
    "d_loss_real": null,
    "d_loss_fake": null
}