{
    "epoch": 155,
    "avg_current_window": 710.4907195134713,
    "avg_prior_window": 717.4640598079658,
    "inception_score_mean": 2.029960161774563,
    "inception_score_std": 0.1307056470606128,
    "fid_per_class": {
        "airplane": 798.0626461449953,
        "automobile": 1030.5306325616482,
        "bird": 1141.2307180316454,
        "cat": 962.1370314915102,
        "deer": 1300.4534560811612,
        "dog": 1043.0371964704393,
        "frog": 1217.6482523370519,
        "horse": 1098.6616844266662,
        "ship": 818.8537426997899,
        "truck": 940.3525508136017
    },
    "fid": 621.300507590729,
    "wasserstein_distance": null,
    "g_loss": null,
    "g_cost": null,
    "d_loss_real": null,
    "d_loss_fake": null
}