{
    "epoch": 107,
    "avg_current_window": 756.5056999770212,
    "avg_prior_window": 770.2494612314609,
    "inception_score_mean": 2.007855520457512,
    "inception_score_std": 0.1697863527168665,
    "fid_per_class": {
        "airplane": 793.2872352521531,
        "automobile": 1014.0206933097769,
        "bird": 1216.7114627033882,
        "cat": 997.1371386370059,
        "deer": 1382.0624114343314,
        "dog": 976.0348264049742,
        "frog": 1228.4318600016804,
        "horse": 1118.9995964989469,
        "ship": 784.8172459097361,
        "truck": 953.7035049392125
    },
    "fid": 629.0322000430599,
    "wasserstein_distance": null,
    "g_loss": null,
    "g_cost": null,
    "d_loss_real": null,
    "d_loss_fake": null
}