{
    "epoch": 6,
    "avg_current_window": 1539.6881388054571,
    "avg_prior_window": 3.0,
    "inception_score_mean": 1.523346710821411,
    "inception_score_std": 0.12509565166231823,
    "fid_per_class": {
        "airplane": 1275.5966953603136,
        "automobile": 1399.923292422041,
        "bird": 1739.426935101904,
        "cat": 1546.928938095521,
        "deer": 1859.4317486677824,
        "dog": 1741.3422889740314,
        "frog": 1931.9642639643544,
        "horse": 1676.3143773001923,
        "ship": 1247.0974172542792,
        "truck": 1300.1844221887736
    },
    "fid": 1277.633252718809,
    "wasserstein_distance": null,
    "g_loss": null,
    "g_cost": null,
    "d_loss_real": null,
    "d_loss_fake": null
}