{
    "epoch": 197,
    "avg_current_window": 688.739123039247,
    "avg_prior_window": 694.3240930850906,
    "inception_score_mean": 2.0328525222385196,
    "inception_score_std": 0.1358213047618181,
    "fid_per_class": {
        "airplane": 808.7500673488087,
        "automobile": 974.0040696290998,
        "bird": 1224.2144387658964,
        "cat": 986.181475234693,
        "deer": 1211.601013323821,
        "dog": 967.9632476095073,
        "frog": 1232.5117253479941,
        "horse": 1141.8847108550708,
        "ship": 798.9393084440651,
        "truck": 914.4862261553701
    },
    "fid": 621.5456921490559,
    "wasserstein_distance": null,
    "g_loss": null,
    "g_cost": null,
    "d_loss_real": null,
    "d_loss_fake": null
}