{
    "epoch": 122,
    "avg_current_window": 738.077757480735,
    "avg_prior_window": 748.6701244315432,
    "inception_score_mean": 1.9823121661640226,
    "inception_score_std": 0.11332173908998235,
    "fid_per_class": {
        "airplane": 819.8688742326351,
        "automobile": 1046.109282667409,
        "bird": 1124.272912570182,
        "cat": 934.6586910988191,
        "deer": 1269.4446758978604,
        "dog": 1008.5969154125926,
        "frog": 1145.2467988442634,
        "horse": 1081.6109923391818,
        "ship": 780.6570635977805,
        "truck": 934.8211381658225
    },
    "fid": 606.112534940488,
    "wasserstein_distance": null,
    "g_loss": null,
    "g_cost": null,
    "d_loss_real": null,
    "d_loss_fake": null
}