{
    "epoch": 168,
    "avg_current_window": 702.7176803460844,
    "avg_prior_window": 709.4303292614518,
    "inception_score_mean": 2.0875280043893354,
    "inception_score_std": 0.10812753039261333,
    "fid_per_class": {
        "airplane": 837.2606690927573,
        "automobile": 1054.2621512407586,
        "bird": 1129.8812222766323,
        "cat": 909.0628298473192,
        "deer": 1227.932224195582,
        "dog": 1015.8683031862801,
        "frog": 1151.681002489826,
        "horse": 1074.743528863026,
        "ship": 854.5523311325579,
        "truck": 1028.687567870537
    },
    "fid": 612.385374620927,
    "wasserstein_distance": null,
    "g_loss": null,
    "g_cost": null,
    "d_loss_real": null,
    "d_loss_fake": null
}