{
    "epoch": 140,
    "avg_current_window": 721.3704059334717,
    "avg_prior_window": 730.0277838597516,
    "inception_score_mean": 2.020976042663063,
    "inception_score_std": 0.11779309830924653,
    "fid_per_class": {
        "airplane": 870.4402794962929,
        "automobile": 1044.702204896486,
        "bird": 1169.3126169238776,
        "cat": 973.4053488858779,
        "deer": 1214.5663014651702,
        "dog": 1001.9507062720384,
        "frog": 1171.7667478530698,
        "horse": 1077.3034716411385,
        "ship": 757.8638598327075,
        "truck": 922.659723680712
    },
    "fid": 599.0763456242539,
    "wasserstein_distance": null,
    "g_loss": null,
    "g_cost": null,
    "d_loss_real": null,
    "d_loss_fake": null
}