{
    "epoch": 137,
    "avg_current_window": 723.5673909761276,
    "avg_prior_window": 732.773599352491,
    "inception_score_mean": 2.149356185014432,
    "inception_score_std": 0.14251555955812203,
    "fid_per_class": {
        "airplane": 842.4903675046107,
        "automobile": 1025.6493504717969,
        "bird": 1144.430373500566,
        "cat": 961.4274216608227,
        "deer": 1291.9474160903337,
        "dog": 956.8084037543767,
        "frog": 1180.9782258154432,
        "horse": 1006.2314146997444,
        "ship": 769.2577754600402,
        "truck": 888.4099961081959
    },
    "fid": 582.8997775615194,
    "wasserstein_distance": null,
    "g_loss": null,
    "g_cost": null,
    "d_loss_real": null,
    "d_loss_fake": null
}