{
    "epoch": 91,
    "avg_current_window": 1307.7006157700448,
    "avg_prior_window": 1341.6695072495443,
    "inception_score_mean": 2.0001076539859968,
    "inception_score_std": 0.12692251511535915,
    "fid_per_class": {
        "airplane": 1006.7062843138026,
        "automobile": 1172.0902606573122,
        "bird": 1282.6435721748223,
        "cat": 1103.510948248134,
        "deer": 1544.5772875295838,
        "dog": 1140.4436655293732,
        "frog": 1929.3063231618821,
        "horse": 1381.7258027633968,
        "ship": 1089.3802754457615,
        "truck": 1108.5959226425657
    },
    "fid": 887.2072701366003,
    "wasserstein_distance": null,
    "g_loss": null,
    "g_cost": null,
    "d_loss_real": null,
    "d_loss_fake": null
}