{
    "epoch": 97,
    "avg_current_window": 1282.7844941117423,
    "avg_prior_window": 1312.8985711321307,
    "inception_score_mean": 1.9374003397118447,
    "inception_score_std": 0.1145656093917847,
    "fid_per_class": {
        "airplane": 1025.6340512086435,
        "automobile": 1119.6794502627058,
        "bird": 1355.8788742663787,
        "cat": 1081.3281341763823,
        "deer": 1636.987422053131,
        "dog": 1161.2119944598473,
        "frog": 1851.58343109838,
        "horse": 1436.5299840907678,
        "ship": 979.8052996004077,
        "truck": 1066.9267957013888
    },
    "fid": 878.2374967128001,
    "wasserstein_distance": null,
    "g_loss": null,
    "g_cost": null,
    "d_loss_real": null,
    "d_loss_fake": null
}