{
    "epoch": 33,
    "avg_current_window": 1829.6659809081004,
    "avg_prior_window": 1977.395872728024,
    "inception_score_mean": 1.956583609279437,
    "inception_score_std": 0.16001596078749677,
    "fid_per_class": {
        "airplane": 1293.6735517797429,
        "automobile": 1407.6700429553034,
        "bird": 1544.85198518701,
        "cat": 1275.7907720437147,
        "deer": 1775.4426356365561,
        "dog": 1494.110174692762,
        "frog": 2094.817398294619,
        "horse": 1608.3659500687259,
        "ship": 1327.0546188344106,
        "truck": 1264.7749999870105
    },
    "fid": 1150.138407697511,
    "wasserstein_distance": null,
    "g_loss": null,
    "g_cost": null,
    "d_loss_real": null,
    "d_loss_fake": null
}