{
    "epoch": 39,
    "avg_current_window": 1734.9226115728,
    "avg_prior_window": 1846.244713378659,
    "inception_score_mean": 1.8324916403586335,
    "inception_score_std": 0.15833921373750404,
    "fid_per_class": {
        "airplane": 1204.5353594581766,
        "automobile": 1323.051828556862,
        "bird": 1611.6470288083285,
        "cat": 1451.895298098444,
        "deer": 1782.0227089629573,
        "dog": 1654.8013850190991,
        "frog": 2156.189153419931,
        "horse": 1706.466325209802,
        "ship": 1187.559946543327,
        "truck": 1229.59014775476
    },
    "fid": 1186.0237472550493,
    "wasserstein_distance": null,
    "g_loss": null,
    "g_cost": null,
    "d_loss_real": null,
    "d_loss_fake": null
}