{
    "epoch": 78,
    "avg_current_window": 1371.8094117300632,
    "avg_prior_window": 1415.9354687013652,
    "inception_score_mean": 2.0054215832769158,
    "inception_score_std": 0.15012758368252568,
    "fid_per_class": {
        "airplane": 1117.656678642905,
        "automobile": 1165.0409044082503,
        "bird": 1442.8536624252204,
        "cat": 1254.169737407247,
        "deer": 1751.3316737740056,
        "dog": 1185.3035231167933,
        "frog": 1935.4598607718917,
        "horse": 1485.8583260119262,
        "ship": 1109.8195302510298,
        "truck": 1102.209016848557
    },
    "fid": 970.6589671892863,
    "wasserstein_distance": null,
    "g_loss": null,
    "g_cost": null,
    "d_loss_real": null,
    "d_loss_fake": null
}