{
    "epoch": 17,
    "avg_current_window": 2138.6181502467007,
    "avg_prior_window": 2454.4033866032455,
    "inception_score_mean": 1.1902057177280907,
    "inception_score_std": 0.04253620777870186,
    "fid_per_class": {
        "airplane": 1779.0955304109577,
        "automobile": 1712.936294916134,
        "bird": 2242.6700593787054,
        "cat": 2130.7910257034428,
        "deer": 2490.9495804173794,
        "dog": 2348.182372603532,
        "frog": 2747.127807988404,
        "horse": 2289.066768087667,
        "ship": 1666.695463471979,
        "truck": 1652.6858697238827
    },
    "fid": 1848.6136487391482,
    "wasserstein_distance": null,
    "g_loss": null,
    "g_cost": null,
    "d_loss_real": null,
    "d_loss_fake": null
}