{
    "epoch": 11,
    "avg_current_window": 2304.182030944184,
    "avg_prior_window": 2550.066167819515,
    "inception_score_mean": 1.0406044752006192,
    "inception_score_std": 0.015386998219096086,
    "fid_per_class": {
        "airplane": 2130.8456064152965,
        "automobile": 2030.944411025183,
        "bird": 2496.1648292307614,
        "cat": 2382.563151146536,
        "deer": 2766.698085460047,
        "dog": 2462.73000589931,
        "frog": 2577.3615455085796,
        "horse": 2575.4447043173004,
        "ship": 2019.1572556394872,
        "truck": 1861.343395048137
    },
    "fid": 2198.7968360653986,
    "wasserstein_distance": null,
    "g_loss": null,
    "g_cost": null,
    "d_loss_real": null,
    "d_loss_fake": null
}