{
    "epoch": 14,
    "avg_current_window": 2220.3208659434113,
    "avg_prior_window": 2600.863800850832,
    "inception_score_mean": 1.247168868875214,
    "inception_score_std": 0.07638487742703605,
    "fid_per_class": {
        "airplane": 1766.1802375356506,
        "automobile": 1693.0608890069445,
        "bird": 2073.2580501819402,
        "cat": 1931.741424353087,
        "deer": 2214.173467630453,
        "dog": 2116.182347740749,
        "frog": 2443.4648301390457,
        "horse": 2217.3432178601024,
        "ship": 1668.3400365287662,
        "truck": 1683.514929965427
    },
    "fid": 1782.5718921914283,
    "wasserstein_distance": null,
    "g_loss": null,
    "g_cost": null,
    "d_loss_real": null,
    "d_loss_fake": null
}