{
    "epoch": 20,
    "avg_current_window": 2075.0691966428026,
    "avg_prior_window": 2300.264383053232,
    "inception_score_mean": 1.3726479704081451,
    "inception_score_std": 0.08162631336378194,
    "fid_per_class": {
        "airplane": 1595.8871724739997,
        "automobile": 1575.5369732741901,
        "bird": 1925.9512195187483,
        "cat": 1659.4819091679392,
        "deer": 2192.1196904752615,
        "dog": 1832.0439245521402,
        "frog": 2323.904314081319,
        "horse": 1945.5819540561074,
        "ship": 1586.8809678658922,
        "truck": 1626.8193754025028
    },
    "fid": 1560.8788491477726,
    "wasserstein_distance": null,
    "g_loss": null,
    "g_cost": null,
    "d_loss_real": null,
    "d_loss_fake": null
}