{
    "epoch": 23,
    "avg_current_window": 2005.7825765871912,
    "avg_prior_window": 2210.4595090524435,
    "inception_score_mean": 1.2415964717188266,
    "inception_score_std": 0.07442415438999274,
    "fid_per_class": {
        "airplane": 1526.2805127696347,
        "automobile": 1465.3044772170756,
        "bird": 2109.0734993726933,
        "cat": 1910.2384209278512,
        "deer": 2397.37797643758,
        "dog": 2218.235920222038,
        "frog": 2427.127457368588,
        "horse": 2068.719868069064,
        "ship": 1482.6377791582872,
        "truck": 1529.1192824252728
    },
    "fid": 1657.3277944370034,
    "wasserstein_distance": null,
    "g_loss": null,
    "g_cost": null,
    "d_loss_real": null,
    "d_loss_fake": null
}