{
    "epoch": 55,
    "avg_current_window": 1542.4985704583082,
    "avg_prior_window": 1613.1583080397997,
    "inception_score_mean": 1.7306192030419747,
    "inception_score_std": 0.1156013112936702,
    "fid_per_class": {
        "airplane": 1079.8216723934358,
        "automobile": 1193.8624998474133,
        "bird": 1596.9831441430583,
        "cat": 1231.69528316596,
        "deer": 1754.6845006669812,
        "dog": 1278.5954759470067,
        "frog": 1919.6330901946728,
        "horse": 1613.995172905499,
        "ship": 1039.9772514658998,
        "truck": 1214.7664398608626
    },
    "fid": 1033.1360194927477,
    "wasserstein_distance": null,
    "g_loss": null,
    "g_cost": null,
    "d_loss_real": null,
    "d_loss_fake": null
}