{
    "epoch": 62,
    "avg_current_window": 1481.3698758972896,
    "avg_prior_window": 1541.645169832615,
    "inception_score_mean": 1.8684708800724668,
    "inception_score_std": 0.09216813863804345,
    "fid_per_class": {
        "airplane": 1045.972043949453,
        "automobile": 1157.1434883600155,
        "bird": 1494.9659486885284,
        "cat": 1156.0223127418722,
        "deer": 1726.254256437193,
        "dog": 1340.0782549213368,
        "frog": 2020.5237867199871,
        "horse": 1493.670626056076,
        "ship": 1030.337925440054,
        "truck": 1162.753178142559
    },
    "fid": 996.2292809350378,
    "wasserstein_distance": null,
    "g_loss": null,
    "g_cost": null,
    "d_loss_real": null,
    "d_loss_fake": null
}