{
    "epoch": 80,
    "avg_current_window": 1360.8580571365587,
    "avg_prior_window": 1403.0351272739254,
    "inception_score_mean": 1.9058527047349592,
    "inception_score_std": 0.05946053238127695,
    "fid_per_class": {
        "airplane": 1074.9352857530234,
        "automobile": 1198.381221113339,
        "bird": 1406.6421890232673,
        "cat": 1209.8480897898908,
        "deer": 1666.054103329073,
        "dog": 1211.6422732592612,
        "frog": 1903.6087003648809,
        "horse": 1419.470364165733,
        "ship": 1134.5779798449475,
        "truck": 1135.510999583024
    },
    "fid": 958.845423992123,
    "wasserstein_distance": null,
    "g_loss": null,
    "g_cost": null,
    "d_loss_real": null,
    "d_loss_fake": null
}