{
    "epoch": 57,
    "avg_current_window": 1524.3191873666108,
    "avg_prior_window": 1592.1083142713298,
    "inception_score_mean": 1.8527156760831356,
    "inception_score_std": 0.1804062276109877,
    "fid_per_class": {
        "airplane": 1048.6754216987795,
        "automobile": 1209.1035152714758,
        "bird": 1505.3583090529623,
        "cat": 1169.0650134882237,
        "deer": 1782.8955081996055,
        "dog": 1238.9681793336242,
        "frog": 1912.3649471276885,
        "horse": 1532.7137358174211,
        "ship": 1014.0858915207671,
        "truck": 1209.7082647088696
    },
    "fid": 987.5810005622498,
    "wasserstein_distance": null,
    "g_loss": null,
    "g_cost": null,
    "d_loss_real": null,
    "d_loss_fake": null
}