{
    "epoch": 29,
    "avg_current_window": 1909.2098081511956,
    "avg_prior_window": 2053.720305888161,
    "inception_score_mean": 1.74693290857859,
    "inception_score_std": 0.13222423458514238,
    "fid_per_class": {
        "airplane": 1322.6727754032581,
        "automobile": 1294.6724537868733,
        "bird": 1615.1844161755664,
        "cat": 1276.386179171311,
        "deer": 1812.6404870909894,
        "dog": 1416.8687180321676,
        "frog": 2017.6741521198478,
        "horse": 1610.5685208447112,
        "ship": 1308.4475714833147,
        "truck": 1239.5042795820902
    },
    "fid": 1122.9139836962052,
    "wasserstein_distance": null,
    "g_loss": null,
    "g_cost": null,
    "d_loss_real": null,
    "d_loss_fake": null
}