{
    "epoch": 36,
    "avg_current_window": 1778.639171280967,
    "avg_prior_window": 1904.1022382597437,
    "inception_score_mean": 1.7519371508712875,
    "inception_score_std": 0.10542448812527681,
    "fid_per_class": {
        "airplane": 1172.6418665135373,
        "automobile": 1442.1673544500206,
        "bird": 1863.4563943450455,
        "cat": 1527.6525789502928,
        "deer": 2063.6700853036527,
        "dog": 1675.3820784313775,
        "frog": 2276.248690392668,
        "horse": 1730.2346599556156,
        "ship": 1226.3397271170402,
        "truck": 1314.0701386115581
    },
    "fid": 1295.8556536813767,
    "wasserstein_distance": null,
    "g_loss": null,
    "g_cost": null,
    "d_loss_real": null,
    "d_loss_fake": null
}