{
    "epoch": 19,
    "avg_current_window": 2094.1195348917886,
    "avg_prior_window": 2347.6474296713704,
    "inception_score_mean": 1.5288765978580847,
    "inception_score_std": 0.10651818905332121,
    "fid_per_class": {
        "airplane": 1730.358104467692,
        "automobile": 1603.5326824871402,
        "bird": 2036.7931989357098,
        "cat": 2042.764730654137,
        "deer": 2264.45863409958,
        "dog": 2093.3710587551527,
        "frog": 2492.911263939313,
        "horse": 2120.5751737346513,
        "ship": 1606.8248405263687,
        "truck": 1442.92562582399
    },
    "fid": 1713.1127699120684,
    "wasserstein_distance": null,
    "g_loss": null,
    "g_cost": null,
    "d_loss_real": null,
    "d_loss_fake": null
}