{
    "epoch": 38,
    "avg_current_window": 1749.6012914571916,
    "avg_prior_window": 1864.5186599292372,
    "inception_score_mean": 1.751056980274972,
    "inception_score_std": 0.1654992692993326,
    "fid_per_class": {
        "airplane": 1232.4624320086023,
        "automobile": 1447.2328452366003,
        "bird": 1545.8176390350156,
        "cat": 1277.1804913329406,
        "deer": 1807.192064315433,
        "dog": 1504.5519596230458,
        "frog": 1985.1047572812663,
        "horse": 1719.141350991547,
        "ship": 1211.0248843515258,
        "truck": 1337.3155968899225
    },
    "fid": 1177.132775965923,
    "wasserstein_distance": null,
    "g_loss": null,
    "g_cost": null,
    "d_loss_real": null,
    "d_loss_fake": null
}