{
    "epoch": 72,
    "avg_current_window": 1409.7032105026199,
    "avg_prior_window": 1457.728879497321,
    "inception_score_mean": 1.9194049979799932,
    "inception_score_std": 0.0891557995003402,
    "fid_per_class": {
        "airplane": 1030.2600560389737,
        "automobile": 1117.9102852296312,
        "bird": 1401.6908286874736,
        "cat": 1194.0023017131734,
        "deer": 1650.2152653389367,
        "dog": 1180.188975721661,
        "frog": 1794.503964795806,
        "horse": 1402.526110077667,
        "ship": 1067.5226680529356,
        "truck": 1134.9135885504818
    },
    "fid": 913.2422197622487,
    "wasserstein_distance": null,
    "g_loss": null,
    "g_cost": null,
    "d_loss_real": null,
    "d_loss_fake": null
}