{
    "epoch": 35,
    "avg_current_window": 1793.494864424983,
    "avg_prior_window": 1924.2654589445124,
    "inception_score_mean": 1.8848154878258487,
    "inception_score_std": 0.15809783992485862,
    "fid_per_class": {
        "airplane": 1320.8965185220616,
        "automobile": 1361.2302040797367,
        "bird": 1663.5159610740775,
        "cat": 1518.3699628951272,
        "deer": 1876.9629728970228,
        "dog": 1546.8044275028346,
        "frog": 2219.0067687858314,
        "horse": 1799.5002135323077,
        "ship": 1259.7813616871056,
        "truck": 1305.5068060449994
    },
    "fid": 1258.6899112404049,
    "wasserstein_distance": null,
    "g_loss": null,
    "g_cost": null,
    "d_loss_real": null,
    "d_loss_fake": null
}