{
    "epoch": 47,
    "avg_current_window": 1625.0915358363563,
    "avg_prior_window": 1719.3028965195713,
    "inception_score_mean": 1.7529008837915387,
    "inception_score_std": 0.13963157831412237,
    "fid_per_class": {
        "airplane": 1177.9761681484797,
        "automobile": 1315.9349564088352,
        "bird": 1544.9246800008777,
        "cat": 1295.2447691070763,
        "deer": 1777.3688343045806,
        "dog": 1509.7417036419693,
        "frog": 1930.3555844075954,
        "horse": 1586.7066078810878,
        "ship": 1145.3133847737759,
        "truck": 1255.278150039051
    },
    "fid": 1106.580710240446,
    "wasserstein_distance": null,
    "g_loss": null,
    "g_cost": null,
    "d_loss_real": null,
    "d_loss_fake": null
}