{
    "epoch": 21,
    "avg_current_window": 2050.583942000182,
    "avg_prior_window": 2272.2817846371195,
    "inception_score_mean": 1.5360181667723456,
    "inception_score_std": 0.08554280140877414,
    "fid_per_class": {
        "airplane": 1630.1133502792218,
        "automobile": 1397.1528549211048,
        "bird": 2010.3972859129553,
        "cat": 1582.8647367881522,
        "deer": 2077.6077861182066,
        "dog": 1819.408189037284,
        "frog": 2347.408608536246,
        "horse": 1891.9605616408337,
        "ship": 1526.223393186172,
        "truck": 1352.0174945719757
    },
    "fid": 1492.9201897617727,
    "wasserstein_distance": null,
    "g_loss": null,
    "g_cost": null,
    "d_loss_real": null,
    "d_loss_fake": null
}