{
    "epoch": 49,
    "avg_current_window": 1603.1810787977224,
    "avg_prior_window": 1689.7964303896724,
    "inception_score_mean": 1.798528665941479,
    "inception_score_std": 0.1334709502431171,
    "fid_per_class": {
        "airplane": 1143.457457439768,
        "automobile": 1303.7283603321814,
        "bird": 1405.5822276035206,
        "cat": 1231.9492665176185,
        "deer": 1789.3643347777038,
        "dog": 1405.5579131727354,
        "frog": 1993.967230134218,
        "horse": 1616.041067066495,
        "ship": 1133.1447781307593,
        "truck": 1242.5501069216148
    },
    "fid": 1076.087290225447,
    "wasserstein_distance": null,
    "g_loss": null,
    "g_cost": null,
    "d_loss_real": null,
    "d_loss_fake": null
}