{
    "epoch": 7,
    "avg_current_window": 2185.7710009881557,
    "avg_prior_window": 2.0,
    "inception_score_mean": 1.0014016491304678,
    "inception_score_std": 0.0009733904073985361,
    "fid_per_class": {
        "airplane": 2209.448728508777,
        "automobile": 2606.2118472779766,
        "bird": 2590.1522262639573,
        "cat": 2768.636870832356,
        "deer": 3026.1678249706138,
        "dog": 2694.086004038274,
        "frog": 3024.2411712892736,
        "horse": 2829.541126953967,
        "ship": 2606.63087521092,
        "truck": 2585.553212500354
    },
    "fid": 2665.1017554375558,
    "wasserstein_distance": null,
    "g_loss": null,
    "g_cost": null,
    "d_loss_real": null,
    "d_loss_fake": null
}