{
    "epoch": 64,
    "avg_current_window": 1466.0307078726455,
    "avg_prior_window": 1524.1729841402446,
    "inception_score_mean": 1.8440856997281663,
    "inception_score_std": 0.08935731138334461,
    "fid_per_class": {
        "airplane": 1170.0379528142619,
        "automobile": 1207.3374036635914,
        "bird": 1477.0780853281954,
        "cat": 1156.6341654471291,
        "deer": 1681.8387003108814,
        "dog": 1279.1175629184274,
        "frog": 2003.5784398362184,
        "horse": 1525.196692589799,
        "ship": 1089.4174988017937,
        "truck": 1169.5540635149548
    },
    "fid": 1006.481660380879,
    "wasserstein_distance": null,
    "g_loss": null,
    "g_cost": null,
    "d_loss_real": null,
    "d_loss_fake": null
}