{
    "epoch": 73,
    "avg_current_window": 1402.9023750130257,
    "avg_prior_window": 1450.8128070095186,
    "inception_score_mean": 2.0283301628405805,
    "inception_score_std": 0.11059494641687435,
    "fid_per_class": {
        "airplane": 1110.7160441777582,
        "automobile": 1154.8453217756046,
        "bird": 1416.7930804303153,
        "cat": 1211.221187613133,
        "deer": 1729.913152797229,
        "dog": 1193.433408430124,
        "frog": 1846.6233319080973,
        "horse": 1473.3961931828787,
        "ship": 1019.1600939498993,
        "truck": 1118.4354052425963
    },
    "fid": 951.415839248792,
    "wasserstein_distance": null,
    "g_loss": null,
    "g_cost": null,
    "d_loss_real": null,
    "d_loss_fake": null
}