{
    "epoch": 2,
    "avg_current_window": 1245.8092426039116,
    "avg_prior_window": 2494.618485207823,
    "inception_score_mean": 1.000000000003142,
    "inception_score_std": 3.0831772524421856e-13,
    "fid_per_class": {
        "airplane": 2136.738331234301,
        "automobile": 2379.5972374152316,
        "bird": 2541.7382833531933,
        "cat": 2657.806011607703,
        "deer": 2934.1971186503124,
        "dog": 2661.5148061038017,
        "frog": 3003.2500690057796,
        "horse": 2686.1578501644444,
        "ship": 2448.634415986643,
        "truck": 2372.1279891515833
    },
    "fid": 2574.6241410706903,
    "wasserstein_distance": null,
    "g_loss": null,
    "g_cost": null,
    "d_loss_real": null,
    "d_loss_fake": null
}