{
    "epoch": 30,
    "avg_current_window": 1882.9999473360292,
    "avg_prior_window": 2032.5890065708563,
    "inception_score_mean": 1.679877129449372,
    "inception_score_std": 0.15100727957542429,
    "fid_per_class": {
        "airplane": 1216.1365528778942,
        "automobile": 1499.7117726635588,
        "bird": 1644.7121179172918,
        "cat": 1372.0135679803457,
        "deer": 1799.7342227958497,
        "dog": 1482.0600442062887,
        "frog": 2176.186811647568,
        "horse": 1826.931066110279,
        "ship": 1239.449415108183,
        "truck": 1391.5353311447275
    },
    "fid": 1237.9653482544943,
    "wasserstein_distance": null,
    "g_loss": null,
    "g_cost": null,
    "d_loss_real": null,
    "d_loss_fake": null
}