{
    "epoch": 96,
    "avg_current_window": 1286.1917409947155,
    "avg_prior_window": 1317.4501462111061,
    "inception_score_mean": 1.9588452311479034,
    "inception_score_std": 0.09954307010457673,
    "fid_per_class": {
        "airplane": 998.6597476909607,
        "automobile": 1185.3367570417481,
        "bird": 1348.4126820981114,
        "cat": 1241.9594824381152,
        "deer": 1729.5442378185794,
        "dog": 1259.4552497484456,
        "frog": 1983.649402542011,
        "horse": 1509.9974988763433,
        "ship": 957.5664311684101,
        "truck": 1159.9326131425714
    },
    "fid": 955.6887933463156,
    "wasserstein_distance": null,
    "g_loss": null,
    "g_cost": null,
    "d_loss_real": null,
    "d_loss_fake": null
}