{
    "epoch": 45,
    "avg_current_window": 1652.2453986032351,
    "avg_prior_window": 1749.362107449801,
    "inception_score_mean": 1.9731128518291783,
    "inception_score_std": 0.12603096274229528,
    "fid_per_class": {
        "airplane": 1083.6074488505399,
        "automobile": 1216.6648122487882,
        "bird": 1395.540040614328,
        "cat": 1229.9154220179535,
        "deer": 1603.681720722748,
        "dog": 1372.2029761020783,
        "frog": 1800.4113647346285,
        "horse": 1538.4498103436906,
        "ship": 1054.1956801917104,
        "truck": 1185.7460004426998
    },
    "fid": 985.4571852723616,
    "wasserstein_distance": null,
    "g_loss": null,
    "g_cost": null,
    "d_loss_real": null,
    "d_loss_fake": null
}