{
    "epoch": 26,
    "avg_current_window": 1954.4125063181311,
    "avg_prior_window": 2121.6753796078856,
    "inception_score_mean": 1.4412220020549447,
    "inception_score_std": 0.07536572801357556,
    "fid_per_class": {
        "airplane": 1438.213474022576,
        "automobile": 1564.0874961166824,
        "bird": 1903.720707171435,
        "cat": 1755.702534918705,
        "deer": 2006.1250355882294,
        "dog": 2072.553426662858,
        "frog": 2431.1613292162556,
        "horse": 1892.4209011989774,
        "ship": 1478.2890009839746,
        "truck": 1468.0347878578987
    },
    "fid": 1493.187096713938,
    "wasserstein_distance": null,
    "g_loss": null,
    "g_cost": null,
    "d_loss_real": null,
    "d_loss_fake": null
}