{
    "epoch": 74,
    "avg_current_window": 1396.8012056108062,
    "avg_prior_window": 1442.8278198652047,
    "inception_score_mean": 1.9649024937791375,
    "inception_score_std": 0.132691331263846,
    "fid_per_class": {
        "airplane": 1044.8540592483432,
        "automobile": 1158.9743299939978,
        "bird": 1353.6930819573076,
        "cat": 1210.2899100499753,
        "deer": 1606.9591206394412,
        "dog": 1121.570521641876,
        "frog": 1815.4666036155404,
        "horse": 1473.235266120643,
        "ship": 1051.406375983726,
        "truck": 1133.3071821388655
    },
    "fid": 918.4889053059246,
    "wasserstein_distance": null,
    "g_loss": null,
    "g_cost": null,
    "d_loss_real": null,
    "d_loss_fake": null
}