{
    "epoch": 85,
    "avg_current_window": 1336.1067107497881,
    "avg_prior_window": 1372.8436249364602,
    "inception_score_mean": 2.0116296387016366,
    "inception_score_std": 0.12552026228467605,
    "fid_per_class": {
        "airplane": 1016.0144088287317,
        "automobile": 1145.1087010327528,
        "bird": 1414.609598936397,
        "cat": 1197.971234273416,
        "deer": 1628.637582057739,
        "dog": 1231.3355431439052,
        "frog": 1924.9916963993428,
        "horse": 1379.3247124052364,
        "ship": 1049.6847489605727,
        "truck": 1088.0431304904312
    },
    "fid": 911.5932199207001,
    "wasserstein_distance": null,
    "g_loss": null,
    "g_cost": null,
    "d_loss_real": null,
    "d_loss_fake": null
}