{
    "epoch": 65,
    "avg_current_window": 822.8355971666361,
    "avg_prior_window": 842.26278252805,
    "inception_score_mean": 1.7857905604227944,
    "inception_score_std": 0.13496883329645187,
    "fid_per_class": {
        "airplane": 924.2111543296033,
        "automobile": 1232.0522537967324,
        "bird": 1241.629195005289,
        "cat": 880.1433794325246,
        "deer": 1258.292131306459,
        "dog": 1001.7894738430371,
        "frog": 1258.020438736606,
        "horse": 1072.0307479912847,
        "ship": 782.3772714809388,
        "truck": 1097.3251315648079
    },
    "fid": 672.4334692701025,
    "wasserstein_distance": null,
    "g_loss": null,
    "g_cost": null,
    "d_loss_real": null,
    "d_loss_fake": null
}