{
    "epoch": 64,
    "avg_current_window": 823.1498128891051,
    "avg_prior_window": 844.0432394018349,
    "inception_score_mean": 1.7300998831085164,
    "inception_score_std": 0.15812295708680899,
    "fid_per_class": {
        "airplane": 932.4465841805415,
        "automobile": 1309.0597041903109,
        "bird": 1340.4103416880334,
        "cat": 972.8071972507198,
        "deer": 1383.834368806543,
        "dog": 1145.4446950574516,
        "frog": 1531.11490510058,
        "horse": 1250.2556862119213,
        "ship": 920.3914022348113,
        "truck": 1174.8689136308762
    },
    "fid": 802.72579092863,
    "wasserstein_distance": null,
    "g_loss": null,
    "g_cost": null,
    "d_loss_real": null,
    "d_loss_fake": null
}