{
    "epoch": 143,
    "avg_current_window": 758.1293401813213,
    "avg_prior_window": 765.1363648190658,
    "inception_score_mean": 1.9180345491229986,
    "inception_score_std": 0.1558040322364508,
    "fid_per_class": {
        "airplane": 914.7859918217038,
        "automobile": 1213.2460606128623,
        "bird": 1207.1688791626038,
        "cat": 910.0756027741104,
        "deer": 1244.8822343921338,
        "dog": 979.7715027767965,
        "frog": 1223.0742607424802,
        "horse": 1127.1697845561857,
        "ship": 871.706889767582,
        "truck": 1075.2917097398877
    },
    "fid": 676.4434767742466,
    "wasserstein_distance": null,
    "g_loss": null,
    "g_cost": null,
    "d_loss_real": null,
    "d_loss_fake": null
}