{
    "epoch": 69,
    "avg_current_window": 817.5482648868874,
    "avg_prior_window": 835.6924033723649,
    "inception_score_mean": 1.7478991278749199,
    "inception_score_std": 0.13640738754983334,
    "fid_per_class": {
        "airplane": 905.1434513728504,
        "automobile": 1187.0935214213291,
        "bird": 1295.9108371131576,
        "cat": 941.7286086483152,
        "deer": 1415.2402260671033,
        "dog": 1122.7480408354115,
        "frog": 1435.5580048027539,
        "horse": 1140.4903600345804,
        "ship": 862.5343725502889,
        "truck": 999.5528681130737
    },
    "fid": 731.5811189654424,
    "wasserstein_distance": null,
    "g_loss": null,
    "g_cost": null,
    "d_loss_real": null,
    "d_loss_fake": null
}