{
    "epoch": 79,
    "avg_current_window": 804.6480434167813,
    "avg_prior_window": 820.0725194557239,
    "inception_score_mean": 1.8571509333125509,
    "inception_score_std": 0.1501071964738212,
    "fid_per_class": {
        "airplane": 918.7910349170064,
        "automobile": 1128.7897533395858,
        "bird": 1220.5366932930797,
        "cat": 886.9094924103371,
        "deer": 1287.6451611212424,
        "dog": 995.9003338763953,
        "frog": 1308.4326968820778,
        "horse": 1112.5316457648412,
        "ship": 785.0200565408579,
        "truck": 1023.930966178023
    },
    "fid": 663.2645479710463,
    "wasserstein_distance": null,
    "g_loss": null,
    "g_cost": null,
    "d_loss_real": null,
    "d_loss_fake": null
}