{
    "epoch": 151,
    "avg_current_window": 754.8759896056677,
    "avg_prior_window": 761.6447301259217,
    "inception_score_mean": 1.9669861569254188,
    "inception_score_std": 0.1828725505651937,
    "fid_per_class": {
        "airplane": 922.367128104864,
        "automobile": 1199.5302851022805,
        "bird": 1180.080528694866,
        "cat": 888.2450266703067,
        "deer": 1147.3389245966446,
        "dog": 929.121746877776,
        "frog": 1275.4096057643715,
        "horse": 1146.9154125428342,
        "ship": 877.2399745456999,
        "truck": 1070.4079030631738
    },
    "fid": 672.3556083182201,
    "wasserstein_distance": null,
    "g_loss": null,
    "g_cost": null,
    "d_loss_real": null,
    "d_loss_fake": null
}