{
    "epoch": 21,
    "avg_current_window": 987.3080925064373,
    "avg_prior_window": 1102.8365997715575,
    "inception_score_mean": 1.7286210321615219,
    "inception_score_std": 0.0592315120897161,
    "fid_per_class": {
        "airplane": 1045.1106375901563,
        "automobile": 1311.6947482660769,
        "bird": 1229.6489801708742,
        "cat": 1007.1599511383506,
        "deer": 1259.676804289528,
        "dog": 1110.1718162491297,
        "frog": 1365.8116307891714,
        "horse": 1237.717699704166,
        "ship": 936.2282419659857,
        "truck": 1094.6672920929668
    },
    "fid": 805.4860365343037,
    "wasserstein_distance": null,
    "g_loss": null,
    "g_cost": null,
    "d_loss_real": null,
    "d_loss_fake": null
}