{
    "epoch": 187,
    "avg_current_window": 744.96258445295,
    "avg_prior_window": 750.1086333970787,
    "inception_score_mean": 1.943323255467456,
    "inception_score_std": 0.20051765712696198,
    "fid_per_class": {
        "airplane": 917.3797163605896,
        "automobile": 1194.3693663551874,
        "bird": 1262.1880382774475,
        "cat": 986.8036804288458,
        "deer": 1292.0723929002882,
        "dog": 1049.7329200427887,
        "frog": 1336.044142102809,
        "horse": 1185.7746327490117,
        "ship": 894.5509687891871,
        "truck": 1035.4168857090367
    },
    "fid": 720.6592124978262,
    "wasserstein_distance": null,
    "g_loss": null,
    "g_cost": null,
    "d_loss_real": null,
    "d_loss_fake": null
}