{
    "epoch": 39,
    "avg_current_window": 886.0255214791375,
    "avg_prior_window": 925.5923954464265,
    "inception_score_mean": 1.6960208479437557,
    "inception_score_std": 0.08434515943059973,
    "fid_per_class": {
        "airplane": 925.0566881498247,
        "automobile": 1173.0172659190778,
        "bird": 1248.4625049864758,
        "cat": 923.829273440104,
        "deer": 1242.1406224503585,
        "dog": 998.6879921021257,
        "frog": 1292.288744875184,
        "horse": 1198.5712179162977,
        "ship": 832.6813622483118,
        "truck": 1102.5622773166865
    },
    "fid": 715.7837485643058,
    "wasserstein_distance": null,
    "g_loss": null,
    "g_cost": null,
    "d_loss_real": null,
    "d_loss_fake": null
}