{
    "epoch": 74,
    "avg_current_window": 810.1778539039373,
    "avg_prior_window": 828.15088979943,
    "inception_score_mean": 1.7713178692818736,
    "inception_score_std": 0.13143810213807053,
    "fid_per_class": {
        "airplane": 910.5000662129621,
        "automobile": 1171.6916449756313,
        "bird": 1282.3453236041819,
        "cat": 915.7292047009682,
        "deer": 1391.3980200469487,
        "dog": 1064.089345862486,
        "frog": 1415.6141107900041,
        "horse": 1204.003433865768,
        "ship": 853.1209883665626,
        "truck": 1055.1872761632358
    },
    "fid": 732.2052508322085,
    "wasserstein_distance": null,
    "g_loss": null,
    "g_cost": null,
    "d_loss_real": null,
    "d_loss_fake": null
}