{
    "epoch": 158,
    "avg_current_window": 752.1223742839056,
    "avg_prior_window": 758.3557982392755,
    "inception_score_mean": 1.8997985142132894,
    "inception_score_std": 0.13819762971860394,
    "fid_per_class": {
        "airplane": 898.8457295326043,
        "automobile": 1163.6183492096607,
        "bird": 1222.8711483329143,
        "cat": 946.1555877246826,
        "deer": 1218.318222591805,
        "dog": 1001.6491898523875,
        "frog": 1311.7574561724855,
        "horse": 1153.9325404642886,
        "ship": 865.5099391532665,
        "truck": 1071.395060886579
    },
    "fid": 698.2373461137607,
    "wasserstein_distance": null,
    "g_loss": null,
    "g_cost": null,
    "d_loss_real": null,
    "d_loss_fake": null
}