{
    "epoch": 62,
    "avg_current_window": 826.4518824018079,
    "avg_prior_window": 848.2488720218371,
    "inception_score_mean": 1.7769447506297715,
    "inception_score_std": 0.11166844670327818,
    "fid_per_class": {
        "airplane": 954.5908364142192,
        "automobile": 1173.5895799698321,
        "bird": 1260.5974824056152,
        "cat": 930.5984883474816,
        "deer": 1305.7114673442802,
        "dog": 1045.9810431583928,
        "frog": 1519.492255324845,
        "horse": 1137.905513228897,
        "ship": 842.1037831336448,
        "truck": 967.5194131979056
    },
    "fid": 717.5269071925418,
    "wasserstein_distance": null,
    "g_loss": null,
    "g_cost": null,
    "d_loss_real": null,
    "d_loss_fake": null
}