{
    "epoch": 20,
    "avg_current_window": 997.6153821916201,
    "avg_prior_window": 1116.5542481991201,
    "inception_score_mean": 1.6546792614406693,
    "inception_score_std": 0.07535132673917067,
    "fid_per_class": {
        "airplane": 1052.876884096081,
        "automobile": 1411.4076744264253,
        "bird": 1199.592620402488,
        "cat": 999.4125062034834,
        "deer": 1146.1820466695392,
        "dog": 1109.295118805395,
        "frog": 1203.228858000302,
        "horse": 1219.18241302433,
        "ship": 926.3243209993016,
        "truck": 1178.300447176107
    },
    "fid": 781.1622988027821,
    "wasserstein_distance": null,
    "g_loss": null,
    "g_cost": null,
    "d_loss_real": null,
    "d_loss_fake": null
}