{
    "epoch": 109,
    "avg_current_window": 775.5179006160485,
    "avg_prior_window": 785.4229396037911,
    "inception_score_mean": 1.8809314383008644,
    "inception_score_std": 0.1400476390322662,
    "fid_per_class": {
        "airplane": 899.3222817461703,
        "automobile": 1168.9116749358864,
        "bird": 1219.4550897738832,
        "cat": 926.3868950550673,
        "deer": 1317.26886819326,
        "dog": 977.011562052739,
        "frog": 1388.5971460404623,
        "horse": 1131.910594426068,
        "ship": 873.8933938662572,
        "truck": 1065.3819946001981
    },
    "fid": 706.3168582742971,
    "wasserstein_distance": null,
    "g_loss": null,
    "g_cost": null,
    "d_loss_real": null,
    "d_loss_fake": null
}