{
    "epoch": 193,
    "avg_current_window": 743.6638248684851,
    "avg_prior_window": 748.5340688985083,
    "inception_score_mean": 1.9684228699080104,
    "inception_score_std": 0.14679940753580592,
    "fid_per_class": {
        "airplane": 885.286848855818,
        "automobile": 1101.295675035813,
        "bird": 1188.7005307984869,
        "cat": 868.7932094571117,
        "deer": 1297.693454114994,
        "dog": 960.535694964515,
        "frog": 1354.0612039704463,
        "horse": 1147.0597462587782,
        "ship": 808.1473531797087,
        "truck": 1006.0902230585473
    },
    "fid": 667.9935216938857,
    "wasserstein_distance": null,
    "g_loss": null,
    "g_cost": null,
    "d_loss_real": null,
    "d_loss_fake": null
}