{
    "epoch": 160,
    "avg_current_window": 751.7436442827882,
    "avg_prior_window": 757.7413642471208,
    "inception_score_mean": 1.9583859363136906,
    "inception_score_std": 0.09621004972762884,
    "fid_per_class": {
        "airplane": 937.4022465616919,
        "automobile": 1113.5373699889626,
        "bird": 1176.7376138455895,
        "cat": 853.6148109622729,
        "deer": 1135.3347930200448,
        "dog": 971.7614835978966,
        "frog": 1215.794631067732,
        "horse": 1094.7799723344483,
        "ship": 815.9717306580844,
        "truck": 1052.7656406358533
    },
    "fid": 645.679361069692,
    "wasserstein_distance": null,
    "g_loss": null,
    "g_cost": null,
    "d_loss_real": null,
    "d_loss_fake": null
}