{
    "epoch": 163,
    "avg_current_window": 750.5651781505683,
    "avg_prior_window": 756.5415979934863,
    "inception_score_mean": 1.8612743995600973,
    "inception_score_std": 0.13848286386789682,
    "fid_per_class": {
        "airplane": 903.1088419518388,
        "automobile": 1187.4148699466864,
        "bird": 1251.5936813914175,
        "cat": 995.3445695848757,
        "deer": 1379.9034944918271,
        "dog": 1053.3788584402146,
        "frog": 1438.1753139185187,
        "horse": 1206.9730078185582,
        "ship": 858.2490587106182,
        "truck": 1126.6637023833023
    },
    "fid": 753.3817314594752,
    "wasserstein_distance": null,
    "g_loss": null,
    "g_cost": null,
    "d_loss_real": null,
    "d_loss_fake": null
}