{
    "epoch": 103,
    "avg_current_window": 779.2387036805392,
    "avg_prior_window": 791.4568855819779,
    "inception_score_mean": 1.8455441943709114,
    "inception_score_std": 0.13788533291038124,
    "fid_per_class": {
        "airplane": 968.3191069473445,
        "automobile": 1208.2661769678411,
        "bird": 1216.7408695987563,
        "cat": 900.0200741765353,
        "deer": 1310.6697635019248,
        "dog": 1017.0704732327248,
        "frog": 1374.5783467440785,
        "horse": 1198.4404182378985,
        "ship": 824.4689845199217,
        "truck": 1104.2606855493304
    },
    "fid": 710.1333357844297,
    "wasserstein_distance": null,
    "g_loss": null,
    "g_cost": null,
    "d_loss_real": null,
    "d_loss_fake": null
}