{
    "epoch": 194,
    "avg_current_window": 743.2737717593377,
    "avg_prior_window": 748.3062171282788,
    "inception_score_mean": 1.9454353459974096,
    "inception_score_std": 0.18804204673377448,
    "fid_per_class": {
        "airplane": 893.8527308227149,
        "automobile": 1079.602574625783,
        "bird": 1249.9230319993403,
        "cat": 946.1047416636968,
        "deer": 1287.0168317088203,
        "dog": 1033.4917661230768,
        "frog": 1394.1401405460983,
        "horse": 1118.5581429508866,
        "ship": 902.4730469387747,
        "truck": 1054.0225347683472
    },
    "fid": 702.5704428007225,
    "wasserstein_distance": null,
    "g_loss": null,
    "g_cost": null,
    "d_loss_real": null,
    "d_loss_fake": null
}