{
    "epoch": 1,
    "avg_current_window": 3.0,
    "avg_prior_window": 8.0,
    "inception_score_mean": 1.1654373764869443,
    "inception_score_std": 0.058035309242098175,
    "fid_per_class": {
        "airplane": 1952.9961215462713,
        "automobile": 2015.382844326483,
        "bird": 2166.541007979601,
        "cat": 2373.914849294152,
        "deer": 2698.218716486478,
        "dog": 2153.857380413664,
        "frog": 2684.081217416251,
        "horse": 2437.8588003619693,
        "ship": 1994.2581413201187,
        "truck": 1970.1027593113906
    },
    "fid": 2035.708531823757,
    "wasserstein_distance": null,
    "g_loss": null,
    "g_cost": null,
    "d_loss_real": null,
    "d_loss_fake": null
}