{
    "epoch": 104,
    "avg_current_window": 778.5742289892304,
    "avg_prior_window": 790.5171742952505,
    "inception_score_mean": 1.83027198106542,
    "inception_score_std": 0.13549779189895744,
    "fid_per_class": {
        "airplane": 922.7465972050973,
        "automobile": 1121.6915789977868,
        "bird": 1232.4524096353762,
        "cat": 923.649548131378,
        "deer": 1257.4136007457691,
        "dog": 1003.7792614801355,
        "frog": 1302.7615549188658,
        "horse": 1181.6946252466064,
        "ship": 845.731031911831,
        "truck": 1121.8069254829716
    },
    "fid": 712.2659039142977,
    "wasserstein_distance": null,
    "g_loss": null,
    "g_cost": null,
    "d_loss_real": null,
    "d_loss_fake": null
}