{
    "epoch": 180,
    "avg_current_window": 746.85719692078,
    "avg_prior_window": 751.9631086074834,
    "inception_score_mean": 1.888650097959167,
    "inception_score_std": 0.14996291492870173,
    "fid_per_class": {
        "airplane": 901.4584140469083,
        "automobile": 1095.267165903531,
        "bird": 1206.5472308103797,
        "cat": 904.0100589519207,
        "deer": 1306.6405976138697,
        "dog": 1012.4401022555953,
        "frog": 1384.6656362266535,
        "horse": 1163.5396117961773,
        "ship": 811.4846790208894,
        "truck": 1038.9176476768382
    },
    "fid": 699.4726470228292,
    "wasserstein_distance": null,
    "g_loss": null,
    "g_cost": null,
    "d_loss_real": null,
    "d_loss_fake": null
}