{
    "epoch": 71,
    "avg_current_window": 814.7398919348019,
    "avg_prior_window": 831.7490849764138,
    "inception_score_mean": 1.83598871418986,
    "inception_score_std": 0.18771820807410797,
    "fid_per_class": {
        "airplane": 900.4400880337989,
        "automobile": 1214.5057150992466,
        "bird": 1227.773050927853,
        "cat": 936.0831917945447,
        "deer": 1187.2471114951584,
        "dog": 1002.1018067194434,
        "frog": 1404.0020924889145,
        "horse": 1102.0655968746848,
        "ship": 782.313472973623,
        "truck": 1082.5840371205904
    },
    "fid": 683.8707359421934,
    "wasserstein_distance": null,
    "g_loss": null,
    "g_cost": null,
    "d_loss_real": null,
    "d_loss_fake": null
}