{
    "epoch": 8,
    "avg_current_window": 1199.6886237473907,
    "avg_prior_window": 1.0,
    "inception_score_mean": 1.424451626952004,
    "inception_score_std": 0.0500067426058726,
    "fid_per_class": {
        "airplane": 1182.795266441492,
        "automobile": 1441.0739564464589,
        "bird": 1087.927368101196,
        "cat": 1061.941071160199,
        "deer": 1095.6387152862198,
        "dog": 1224.376439186493,
        "frog": 1335.98055962492,
        "horse": 1206.729276055188,
        "ship": 1168.003853644359,
        "truck": 1291.8345083451854
    },
    "fid": 853.8756508971106,
    "wasserstein_distance": null,
    "g_loss": null,
    "g_cost": null,
    "d_loss_real": null,
    "d_loss_fake": null
}