{
    "epoch": 184,
    "avg_current_window": 746.2797864379664,
    "avg_prior_window": 751.0295834957564,
    "inception_score_mean": 1.8773237612340181,
    "inception_score_std": 0.13562683607336143,
    "fid_per_class": {
        "airplane": 895.727998159712,
        "automobile": 1164.2705836183159,
        "bird": 1187.1819784279942,
        "cat": 912.6701798149404,
        "deer": 1170.434694926741,
        "dog": 969.4486025959172,
        "frog": 1207.9294728142968,
        "horse": 1109.7722726086095,
        "ship": 811.9603580869542,
        "truck": 1098.3337132858733
    },
    "fid": 650.2571915989499,
    "wasserstein_distance": null,
    "g_loss": null,
    "g_cost": null,
    "d_loss_real": null,
    "d_loss_fake": null
}