{
    "epoch": 12,
    "avg_current_window": 1090.6490131860069,
    "avg_prior_window": 1371.0727128541607,
    "inception_score_mean": 1.5718863741968883,
    "inception_score_std": 0.09476046786797694,
    "fid_per_class": {
        "airplane": 1126.768224392661,
        "automobile": 1292.7072865194732,
        "bird": 1321.635410451973,
        "cat": 1261.3927697240654,
        "deer": 1384.6853788067524,
        "dog": 1412.5520132804331,
        "frog": 1661.7957078136667,
        "horse": 1333.4180635435082,
        "ship": 970.7917136026979,
        "truck": 1160.5820192578567
    },
    "fid": 949.4350183849143,
    "wasserstein_distance": null,
    "g_loss": null,
    "g_cost": null,
    "d_loss_real": null,
    "d_loss_fake": null
}