{
    "epoch": 131,
    "avg_current_window": 763.8544670302381,
    "avg_prior_window": 771.5952574580944,
    "inception_score_mean": 1.8847316882056746,
    "inception_score_std": 0.15251657897760104,
    "fid_per_class": {
        "airplane": 912.20647044729,
        "automobile": 1126.1856450474825,
        "bird": 1176.6006518039292,
        "cat": 917.8101237792082,
        "deer": 1209.8261880324405,
        "dog": 995.616538566842,
        "frog": 1317.8531037843793,
        "horse": 1059.8200520439914,
        "ship": 819.8766963339162,
        "truck": 1060.080774672806
    },
    "fid": 665.5592718888194,
    "wasserstein_distance": null,
    "g_loss": null,
    "g_cost": null,
    "d_loss_real": null,
    "d_loss_fake": null
}