{
    "epoch": 28,
    "avg_current_window": 933.3840404413507,
    "avg_prior_window": 1001.0095783787343,
    "inception_score_mean": 1.6429103179747646,
    "inception_score_std": 0.07153833977534514,
    "fid_per_class": {
        "airplane": 991.4894281101475,
        "automobile": 1299.3815119240376,
        "bird": 1286.3528727576836,
        "cat": 977.4958841253823,
        "deer": 1184.5156273341186,
        "dog": 1060.461517148815,
        "frog": 1337.4782989326907,
        "horse": 1204.169157639641,
        "ship": 869.9109515985814,
        "truck": 1179.5421510424455
    },
    "fid": 778.9826353687174,
    "wasserstein_distance": null,
    "g_loss": null,
    "g_cost": null,
    "d_loss_real": null,
    "d_loss_fake": null
}