{
    "epoch": 147,
    "avg_current_window": 756.4634734583984,
    "avg_prior_window": 763.4682791966827,
    "inception_score_mean": 1.9547692078659566,
    "inception_score_std": 0.19444952726030615,
    "fid_per_class": {
        "airplane": 869.7225708394451,
        "automobile": 1135.2445560843978,
        "bird": 1242.2529217718243,
        "cat": 932.3026936812803,
        "deer": 1227.8139984936493,
        "dog": 985.7640536173435,
        "frog": 1341.4933124092386,
        "horse": 1153.4055532157686,
        "ship": 874.9200940548221,
        "truck": 1116.942406576957
    },
    "fid": 689.1918294788567,
    "wasserstein_distance": null,
    "g_loss": null,
    "g_cost": null,
    "d_loss_real": null,
    "d_loss_fake": null
}