{
    "epoch": 38,
    "avg_current_window": 886.8579292384848,
    "avg_prior_window": 930.9255138128289,
    "inception_score_mean": 1.6926184724427142,
    "inception_score_std": 0.08702527961788806,
    "fid_per_class": {
        "airplane": 974.8645783492146,
        "automobile": 1236.8390834242452,
        "bird": 1337.0971367960337,
        "cat": 1035.3747860211752,
        "deer": 1350.0641087295053,
        "dog": 1153.460852283581,
        "frog": 1556.0378779778616,
        "horse": 1375.5380646485535,
        "ship": 855.9048555287325,
        "truck": 1158.0795183346393
    },
    "fid": 854.3940266239422,
    "wasserstein_distance": null,
    "g_loss": null,
    "g_cost": null,
    "d_loss_real": null,
    "d_loss_fake": null
}