{
    "epoch": 47,
    "avg_current_window": 858.3435236294685,
    "avg_prior_window": 892.6301909260415,
    "inception_score_mean": 1.7293800434770106,
    "inception_score_std": 0.13106689462845025,
    "fid_per_class": {
        "airplane": 945.7111195505772,
        "automobile": 1213.0926984316516,
        "bird": 1260.179775274836,
        "cat": 948.5372268704689,
        "deer": 1307.2639477196335,
        "dog": 1068.050002095742,
        "frog": 1327.583684745753,
        "horse": 1141.7534250017507,
        "ship": 834.4928081801064,
        "truck": 1089.970682377188
    },
    "fid": 737.8634519217029,
    "wasserstein_distance": null,
    "g_loss": null,
    "g_cost": null,
    "d_loss_real": null,
    "d_loss_fake": null
}