{
    "epoch": 199,
    "avg_current_window": 741.5870439673442,
    "avg_prior_window": 746.8952688871766,
    "inception_score_mean": 1.9936244761276967,
    "inception_score_std": 0.13134583152748863,
    "fid_per_class": {
        "airplane": 930.6553957021778,
        "automobile": 1065.0898465207488,
        "bird": 1263.160652042602,
        "cat": 950.4730348988064,
        "deer": 1253.4702095528405,
        "dog": 1023.9648265998306,
        "frog": 1374.911204956583,
        "horse": 1103.550098138988,
        "ship": 832.6990100487548,
        "truck": 1040.7101950569186
    },
    "fid": 696.5311524203207,
    "wasserstein_distance": null,
    "g_loss": null,
    "g_cost": null,
    "d_loss_real": null,
    "d_loss_fake": null
}