{
    "epoch": 49,
    "avg_current_window": 852.8718259852762,
    "avg_prior_window": 885.4654476754379,
    "inception_score_mean": 1.7580427712916749,
    "inception_score_std": 0.09276985512568005,
    "fid_per_class": {
        "airplane": 877.450082019373,
        "automobile": 1174.430203620854,
        "bird": 1249.9729735806145,
        "cat": 911.4646082110537,
        "deer": 1193.1545519786673,
        "dog": 960.9798417883211,
        "frog": 1194.4726099641962,
        "horse": 1092.0964723121745,
        "ship": 864.0228979117029,
        "truck": 1082.682884899937
    },
    "fid": 670.4474756960717,
    "wasserstein_distance": null,
    "g_loss": null,
    "g_cost": null,
    "d_loss_real": null,
    "d_loss_fake": null
}