{
    "epoch": 139,
    "avg_current_window": 759.6317866548998,
    "avg_prior_window": 767.5767784615559,
    "inception_score_mean": 1.96321559071029,
    "inception_score_std": 0.10800739488115214,
    "fid_per_class": {
        "airplane": 908.1146162141356,
        "automobile": 1236.119733850539,
        "bird": 1268.2107950517818,
        "cat": 923.9797334779043,
        "deer": 1259.1470389118138,
        "dog": 1022.9160343626888,
        "frog": 1326.2265832541505,
        "horse": 1117.8844820774787,
        "ship": 840.8272350429361,
        "truck": 1127.715193561434
    },
    "fid": 701.054834271068,
    "wasserstein_distance": null,
    "g_loss": null,
    "g_cost": null,
    "d_loss_real": null,
    "d_loss_fake": null
}