{
    "epoch": 15,
    "avg_current_window": 1063.1826713685596,
    "avg_prior_window": 1228.6220533326766,
    "inception_score_mean": 1.612203765173269,
    "inception_score_std": 0.09820783846288747,
    "fid_per_class": {
        "airplane": 1068.8332594163812,
        "automobile": 1263.58372799736,
        "bird": 1108.9614532672113,
        "cat": 1124.906881691882,
        "deer": 1152.9778059723099,
        "dog": 1244.8233088768234,
        "frog": 1689.5065735763485,
        "horse": 1184.7346095514617,
        "ship": 994.426843328992,
        "truck": 1031.2590266113104
    },
    "fid": 800.5736524584071,
    "wasserstein_distance": null,
    "g_loss": null,
    "g_cost": null,
    "d_loss_real": null,
    "d_loss_fake": null
}