{
    "epoch": 76,
    "avg_current_window": 807.6515486404911,
    "avg_prior_window": 824.3718741311709,
    "inception_score_mean": 1.7932161680546976,
    "inception_score_std": 0.12295003100795249,
    "fid_per_class": {
        "airplane": 937.5908753288925,
        "automobile": 1208.532278157591,
        "bird": 1289.811299064007,
        "cat": 954.7863602101961,
        "deer": 1427.9353866428025,
        "dog": 1046.2430866989123,
        "frog": 1397.9674533201792,
        "horse": 1224.1175934578487,
        "ship": 891.2587160375539,
        "truck": 1218.8439812439867
    },
    "fid": 776.8135894848583,
    "wasserstein_distance": null,
    "g_loss": null,
    "g_cost": null,
    "d_loss_real": null,
    "d_loss_fake": null
}