{
    "epoch": 135,
    "avg_current_window": 761.8910245470258,
    "avg_prior_window": 769.7302706227783,
    "inception_score_mean": 1.9336892282843183,
    "inception_score_std": 0.20015900957828744,
    "fid_per_class": {
        "airplane": 925.0170152391972,
        "automobile": 1203.9071961362256,
        "bird": 1209.3447732774634,
        "cat": 931.9391669444178,
        "deer": 1263.0353330416303,
        "dog": 1015.5006473561235,
        "frog": 1325.3796785095042,
        "horse": 1118.1641368523333,
        "ship": 855.212059746257,
        "truck": 1146.0663381606305
    },
    "fid": 707.9298800633892,
    "wasserstein_distance": null,
    "g_loss": null,
    "g_cost": null,
    "d_loss_real": null,
    "d_loss_fake": null
}