{
    "epoch": 128,
    "avg_current_window": 765.0834612214957,
    "avg_prior_window": 773.4939907839977,
    "inception_score_mean": 1.8254646176402214,
    "inception_score_std": 0.10338423962553979,
    "fid_per_class": {
        "airplane": 946.2651783896005,
        "automobile": 1184.0338416759273,
        "bird": 1213.8140751793826,
        "cat": 939.6128071474628,
        "deer": 1280.363972194704,
        "dog": 1014.7680578346618,
        "frog": 1420.780187400964,
        "horse": 1154.5568837495546,
        "ship": 781.0458309696834,
        "truck": 1089.0845225510266
    },
    "fid": 721.6374884087552,
    "wasserstein_distance": null,
    "g_loss": null,
    "g_cost": null,
    "d_loss_real": null,
    "d_loss_fake": null
}