{
    "epoch": 92,
    "avg_current_window": 788.9716499987172,
    "avg_prior_window": 802.463089251721,
    "inception_score_mean": 1.877977570818134,
    "inception_score_std": 0.12269259127005822,
    "fid_per_class": {
        "airplane": 925.3071151420619,
        "automobile": 1183.6598757133584,
        "bird": 1225.964654170824,
        "cat": 941.2830665473562,
        "deer": 1288.5919226103529,
        "dog": 1089.779643408499,
        "frog": 1382.5491342389862,
        "horse": 1140.3616768553766,
        "ship": 845.9833289202666,
        "truck": 1095.6724454368755
    },
    "fid": 716.973202269191,
    "wasserstein_distance": null,
    "g_loss": null,
    "g_cost": null,
    "d_loss_real": null,
    "d_loss_fake": null
}