{
    "epoch": 34,
    "avg_current_window": 903.5453516418632,
    "avg_prior_window": 957.6295511948363,
    "inception_score_mean": 1.730172101433211,
    "inception_score_std": 0.1339072860507849,
    "fid_per_class": {
        "airplane": 951.4434733228684,
        "automobile": 1191.9999734078424,
        "bird": 1278.1240713858633,
        "cat": 936.2786645421475,
        "deer": 1150.3868538953411,
        "dog": 1093.9225695081823,
        "frog": 1520.101979737943,
        "horse": 1176.725311041067,
        "ship": 797.5866657050196,
        "truck": 1044.1716948400808
    },
    "fid": 749.5994893551513,
    "wasserstein_distance": null,
    "g_loss": null,
    "g_cost": null,
    "d_loss_real": null,
    "d_loss_fake": null
}