{
    "epoch": 11,
    "avg_current_window": 1116.9291393933424,
    "avg_prior_window": 1441.6756193138162,
    "inception_score_mean": 1.5375797533774511,
    "inception_score_std": 0.058515713153043825,
    "fid_per_class": {
        "airplane": 1060.3073055758077,
        "automobile": 1331.664977946309,
        "bird": 1067.0452106629773,
        "cat": 1000.5100749808773,
        "deer": 1142.2526621572692,
        "dog": 1251.4648626980554,
        "frog": 1343.1007804837773,
        "horse": 1165.2481305766014,
        "ship": 991.9599811578978,
        "truck": 1190.491883053875
    },
    "fid": 801.5676249053162,
    "wasserstein_distance": null,
    "g_loss": null,
    "g_cost": null,
    "d_loss_real": null,
    "d_loss_fake": null
}