{
    "epoch": 146,
    "avg_current_window": 757.0929039964802,
    "avg_prior_window": 764.246755450721,
    "inception_score_mean": 1.930107780709811,
    "inception_score_std": 0.12414512586393818,
    "fid_per_class": {
        "airplane": 886.9077427610907,
        "automobile": 1202.9163408006812,
        "bird": 1179.1711044851904,
        "cat": 909.1176655926479,
        "deer": 1240.3382684214207,
        "dog": 925.9771501277216,
        "frog": 1246.077836583796,
        "horse": 1102.0717608997948,
        "ship": 783.9619605216615,
        "truck": 1096.9811590444967
    },
    "fid": 664.5666148984501,
    "wasserstein_distance": null,
    "g_loss": null,
    "g_cost": null,
    "d_loss_real": null,
    "d_loss_fake": null
}