{
    "epoch": 189,
    "avg_current_window": 744.5735711794686,
    "avg_prior_window": 749.8137929140476,
    "inception_score_mean": 1.8857262104028156,
    "inception_score_std": 0.09843139784804351,
    "fid_per_class": {
        "airplane": 912.9548596418538,
        "automobile": 1192.1217294993523,
        "bird": 1305.2685852683353,
        "cat": 886.2102533590443,
        "deer": 1360.9917887203994,
        "dog": 1038.120230606446,
        "frog": 1459.497639397045,
        "horse": 1193.2179923925726,
        "ship": 778.9356826414355,
        "truck": 987.4287435683132
    },
    "fid": 705.4700843251587,
    "wasserstein_distance": null,
    "g_loss": null,
    "g_cost": null,
    "d_loss_real": null,
    "d_loss_fake": null
}