{
    "epoch": 26,
    "avg_current_window": 948.3965612186965,
    "avg_prior_window": 1025.6645704366424,
    "inception_score_mean": 1.6938196758680324,
    "inception_score_std": 0.062461633878095967,
    "fid_per_class": {
        "airplane": 1029.428617515281,
        "automobile": 1323.4782081878107,
        "bird": 1249.597238845573,
        "cat": 933.5003741184839,
        "deer": 1207.2901068542108,
        "dog": 1078.1920717305509,
        "frog": 1290.4801095823973,
        "horse": 1153.435674931623,
        "ship": 897.68330085431,
        "truck": 1101.1430738907907
    },
    "fid": 758.2774181168012,
    "wasserstein_distance": null,
    "g_loss": null,
    "g_cost": null,
    "d_loss_real": null,
    "d_loss_fake": null
}