{
    "epoch": 53,
    "avg_current_window": 842.0127773321577,
    "avg_prior_window": 870.6399890266362,
    "inception_score_mean": 1.7870729663602334,
    "inception_score_std": 0.12319718741881922,
    "fid_per_class": {
        "airplane": 913.8918600091505,
        "automobile": 1196.2319272522882,
        "bird": 1217.1829873722559,
        "cat": 930.5990757338581,
        "deer": 1234.8793769077251,
        "dog": 996.3027544413831,
        "frog": 1298.983910044356,
        "horse": 1153.2088508049571,
        "ship": 753.5002385643531,
        "truck": 1058.4749867586688
    },
    "fid": 699.8529872787229,
    "wasserstein_distance": null,
    "g_loss": null,
    "g_cost": null,
    "d_loss_real": null,
    "d_loss_fake": null
}