{
    "epoch": 122,
    "avg_current_window": 767.8730850928289,
    "avg_prior_window": 776.0124647774809,
    "inception_score_mean": 1.8859849152355035,
    "inception_score_std": 0.14013798982283798,
    "fid_per_class": {
        "airplane": 931.5255179923151,
        "automobile": 1144.3539919321652,
        "bird": 1258.5585327357876,
        "cat": 966.3173434166727,
        "deer": 1328.437562172889,
        "dog": 1008.1713249492899,
        "frog": 1410.0194495163878,
        "horse": 1182.686655832337,
        "ship": 857.1757146367588,
        "truck": 1075.7883561202675
    },
    "fid": 736.577530285387,
    "wasserstein_distance": null,
    "g_loss": null,
    "g_cost": null,
    "d_loss_real": null,
    "d_loss_fake": null
}