{
    "epoch": 132,
    "avg_current_window": 763.1098064609849,
    "avg_prior_window": 771.1077404437121,
    "inception_score_mean": 1.965807721374647,
    "inception_score_std": 0.12205539428567655,
    "fid_per_class": {
        "airplane": 969.8891579396284,
        "automobile": 1173.3794568770363,
        "bird": 1267.7571367929875,
        "cat": 945.1244957026344,
        "deer": 1372.2749865383175,
        "dog": 1051.5010506306803,
        "frog": 1477.787537417762,
        "horse": 1135.0294721328346,
        "ship": 842.4394009426603,
        "truck": 1012.4977813575184
    },
    "fid": 730.896802551615,
    "wasserstein_distance": null,
    "g_loss": null,
    "g_cost": null,
    "d_loss_real": null,
    "d_loss_fake": null
}