{
    "epoch": 78,
    "avg_current_window": 806.2068482345843,
    "avg_prior_window": 821.2761806697447,
    "inception_score_mean": 1.8291312282202086,
    "inception_score_std": 0.09998762003737732,
    "fid_per_class": {
        "airplane": 898.9239695523274,
        "automobile": 1167.713932404899,
        "bird": 1180.808976256752,
        "cat": 882.1804694576264,
        "deer": 1252.8188839069371,
        "dog": 1049.4640495537378,
        "frog": 1352.9479868915125,
        "horse": 1091.6911979660258,
        "ship": 800.1544168429962,
        "truck": 1164.4084682543144
    },
    "fid": 683.0612676281553,
    "wasserstein_distance": null,
    "g_loss": null,
    "g_cost": null,
    "d_loss_real": null,
    "d_loss_fake": null
}