{
    "epoch": 72,
    "avg_current_window": 812.9222647682379,
    "avg_prior_window": 830.3107334110017,
    "inception_score_mean": 1.7976203302145415,
    "inception_score_std": 0.1536354115361894,
    "fid_per_class": {
        "airplane": 925.6317628918074,
        "automobile": 1182.7968567019386,
        "bird": 1253.6824304090487,
        "cat": 910.6319377889263,
        "deer": 1309.5912093035877,
        "dog": 1032.898641074381,
        "frog": 1401.481082109255,
        "horse": 1165.3921716200164,
        "ship": 795.2664511250803,
        "truck": 1162.0593934880894
    },
    "fid": 721.714801627008,
    "wasserstein_distance": null,
    "g_loss": null,
    "g_cost": null,
    "d_loss_real": null,
    "d_loss_fake": null
}