{
    "epoch": 3,
    "avg_current_window": 469.6257316678554,
    "avg_prior_window": 2041.708531823757,
    "inception_score_mean": 1.4331101746367705,
    "inception_score_std": 0.11305982024682512,
    "fid_per_class": {
        "airplane": 1702.5827437419325,
        "automobile": 1668.359918194716,
        "bird": 1456.785171873932,
        "cat": 1687.728271854062,
        "deer": 1978.0377937994544,
        "dog": 1722.2925480942222,
        "frog": 2030.4892717741361,
        "horse": 1879.9115036477574,
        "ship": 1663.1352336988095,
        "truck": 1840.813600297877
    },
    "fid": 1519.4338318060875,
    "wasserstein_distance": null,
    "g_loss": null,
    "g_cost": null,
    "d_loss_real": null,
    "d_loss_fake": null
}