{
    "epoch": 124,
    "avg_current_window": 767.2561360196106,
    "avg_prior_window": 775.5886567480284,
    "inception_score_mean": 1.889099530874049,
    "inception_score_std": 0.1602370149411731,
    "fid_per_class": {
        "airplane": 933.4699322861532,
        "automobile": 1159.3609248208566,
        "bird": 1156.3419569232142,
        "cat": 896.5277479389581,
        "deer": 1098.4284357653378,
        "dog": 957.9845993673343,
        "frog": 1173.4972357913189,
        "horse": 1061.5644742554296,
        "ship": 817.9913799408438,
        "truck": 1062.616633257157
    },
    "fid": 635.4223393392645,
    "wasserstein_distance": null,
    "g_loss": null,
    "g_cost": null,
    "d_loss_real": null,
    "d_loss_fake": null
}