{
    "epoch": 24,
    "avg_current_window": 959.300845946287,
    "avg_prior_window": 1050.1214549385475,
    "inception_score_mean": 1.679160098336821,
    "inception_score_std": 0.0760820082195308,
    "fid_per_class": {
        "airplane": 977.0587095683676,
        "automobile": 1355.6635552012528,
        "bird": 1277.1668908693048,
        "cat": 1005.0252052287291,
        "deer": 1285.6076950173942,
        "dog": 1195.7708712629885,
        "frog": 1469.0449161391284,
        "horse": 1251.5499084864307,
        "ship": 893.6138156727541,
        "truck": 1024.3498383839628
    },
    "fid": 811.1346877133267,
    "wasserstein_distance": null,
    "g_loss": null,
    "g_cost": null,
    "d_loss_real": null,
    "d_loss_fake": null
}