{
    "epoch": 88,
    "avg_current_window": 793.3441905102242,
    "avg_prior_window": 808.2969888708344,
    "inception_score_mean": 1.8094527973175896,
    "inception_score_std": 0.13184577463636843,
    "fid_per_class": {
        "airplane": 933.5970164057994,
        "automobile": 1167.3276247249923,
        "bird": 1264.5805256544515,
        "cat": 866.2202952621992,
        "deer": 1248.0287210588815,
        "dog": 997.4392092304181,
        "frog": 1292.385886980927,
        "horse": 1113.503455613824,
        "ship": 787.3800889138771,
        "truck": 1146.805807336219
    },
    "fid": 671.7629455815792,
    "wasserstein_distance": null,
    "g_loss": null,
    "g_cost": null,
    "d_loss_real": null,
    "d_loss_fake": null
}