{
    "epoch": 169,
    "avg_current_window": 749.2609018821167,
    "avg_prior_window": 754.8232077917406,
    "inception_score_mean": 1.8777995424958458,
    "inception_score_std": 0.1461130512262245,
    "fid_per_class": {
        "airplane": 873.0041975513756,
        "automobile": 1081.9703171469885,
        "bird": 1256.024545632902,
        "cat": 902.8091624956684,
        "deer": 1358.478191802306,
        "dog": 1030.2741606803793,
        "frog": 1440.5906542095315,
        "horse": 1148.715043710186,
        "ship": 816.46862945424,
        "truck": 1042.2154343823988
    },
    "fid": 712.5694141569159,
    "wasserstein_distance": null,
    "g_loss": null,
    "g_cost": null,
    "d_loss_real": null,
    "d_loss_fake": null
}