{
    "epoch": 40,
    "avg_current_window": 881.7694771562667,
    "avg_prior_window": 920.2916558217137,
    "inception_score_mean": 1.6659430039899692,
    "inception_score_std": 0.10270119322795976,
    "fid_per_class": {
        "airplane": 918.5691721920355,
        "automobile": 1184.8943896428407,
        "bird": 1234.6170696392264,
        "cat": 904.1676857300636,
        "deer": 1188.3962028797428,
        "dog": 1066.8649842505595,
        "frog": 1294.2403717602401,
        "horse": 1162.0608431052192,
        "ship": 838.5458886474722,
        "truck": 1044.4877166527172
    },
    "fid": 712.482608828079,
    "wasserstein_distance": null,
    "g_loss": null,
    "g_cost": null,
    "d_loss_real": null,
    "d_loss_fake": null
}