{
    "epoch": 176,
    "avg_current_window": 747.6905909449408,
    "avg_prior_window": 753.0758280836639,
    "inception_score_mean": 1.872275150021244,
    "inception_score_std": 0.15152794756993282,
    "fid_per_class": {
        "airplane": 820.0004135544142,
        "automobile": 1122.4059667582305,
        "bird": 1188.0647402341358,
        "cat": 925.7995507554365,
        "deer": 1228.4069035886691,
        "dog": 1005.90588355664,
        "frog": 1348.7911612892472,
        "horse": 1118.0143900240407,
        "ship": 777.3812408613562,
        "truck": 1022.880760466089
    },
    "fid": 681.9275289312488,
    "wasserstein_distance": null,
    "g_loss": null,
    "g_cost": null,
    "d_loss_real": null,
    "d_loss_fake": null
}