{
    "epoch": 4,
    "avg_current_window": 1240.2548896583526,
    "avg_prior_window": 2040.708531823757,
    "inception_score_mean": 1.3734305578783075,
    "inception_score_std": 0.049636582066052766,
    "fid_per_class": {
        "airplane": 1390.0913553996318,
        "automobile": 1529.3904964869243,
        "bird": 1293.7393091863528,
        "cat": 1500.1677412256088,
        "deer": 1592.8054409193346,
        "dog": 1584.5620398050828,
        "frog": 1868.954290219554,
        "horse": 1603.1078485539297,
        "ship": 1328.637801171115,
        "truck": 1605.7241427662598
    },
    "fid": 1248.4111994576842,
    "wasserstein_distance": null,
    "g_loss": null,
    "g_cost": null,
    "d_loss_real": null,
    "d_loss_fake": null
}