{
    "epoch": 159,
    "avg_current_window": 751.7834747356657,
    "avg_prior_window": 758.1383270384113,
    "inception_score_mean": 1.8269328558917173,
    "inception_score_std": 0.13782136982298698,
    "fid_per_class": {
        "airplane": 911.559433618209,
        "automobile": 1240.869915410237,
        "bird": 1285.2882150446528,
        "cat": 959.8609392498433,
        "deer": 1315.7736503241085,
        "dog": 1045.109556824505,
        "frog": 1379.9352200140597,
        "horse": 1211.9078778046041,
        "ship": 892.4113012767046,
        "truck": 1116.1578714401985
    },
    "fid": 745.4106022752567,
    "wasserstein_distance": null,
    "g_loss": null,
    "g_cost": null,
    "d_loss_real": null,
    "d_loss_fake": null
}