{
    "epoch": 196,
    "avg_current_window": 742.5196787137988,
    "avg_prior_window": 747.89040205145,
    "inception_score_mean": 1.933554536212474,
    "inception_score_std": 0.13947889224351798,
    "fid_per_class": {
        "airplane": 882.7459033522291,
        "automobile": 1147.4202704445265,
        "bird": 1283.353443345386,
        "cat": 902.343556015281,
        "deer": 1339.989050725573,
        "dog": 1044.9289894353326,
        "frog": 1369.972237943142,
        "horse": 1135.5523527290325,
        "ship": 868.2434073046394,
        "truck": 1067.843150917202
    },
    "fid": 706.9601344826899,
    "wasserstein_distance": null,
    "g_loss": null,
    "g_cost": null,
    "d_loss_real": null,
    "d_loss_fake": null
}