{
    "epoch": 133,
    "avg_current_window": 762.8676034240723,
    "avg_prior_window": 770.7212540996891,
    "inception_score_mean": 1.8466930716322214,
    "inception_score_std": 0.10444055856712955,
    "fid_per_class": {
        "airplane": 946.2291677168005,
        "automobile": 1248.4025354082605,
        "bird": 1224.30253862692,
        "cat": 984.6243434783528,
        "deer": 1314.4293047906917,
        "dog": 1018.4210146619508,
        "frog": 1361.5477144759604,
        "horse": 1193.847695758985,
        "ship": 860.9714199398595,
        "truck": 1112.0411461462159
    },
    "fid": 737.6158117289704,
    "wasserstein_distance": null,
    "g_loss": null,
    "g_cost": null,
    "d_loss_real": null,
    "d_loss_fake": null
}