{
    "epoch": 153,
    "avg_current_window": 753.8607785614886,
    "avg_prior_window": 760.6472573879652,
    "inception_score_mean": 1.9123835924424053,
    "inception_score_std": 0.1679224858715326,
    "fid_per_class": {
        "airplane": 964.8835357191969,
        "automobile": 1201.1878639263969,
        "bird": 1146.0853155382647,
        "cat": 913.9409542305398,
        "deer": 1175.764405114553,
        "dog": 1041.0997985584127,
        "frog": 1350.832694547657,
        "horse": 1142.728880845321,
        "ship": 831.319615393016,
        "truck": 1082.4768408886348
    },
    "fid": 687.7380107014069,
    "wasserstein_distance": null,
    "g_loss": null,
    "g_cost": null,
    "d_loss_real": null,
    "d_loss_fake": null
}