{
    "epoch": 161,
    "avg_current_window": 751.0848599150049,
    "avg_prior_window": 757.5447574735671,
    "inception_score_mean": 1.9090270465209276,
    "inception_score_std": 0.1407435977318664,
    "fid_per_class": {
        "airplane": 896.3079689768347,
        "automobile": 1158.9522674698824,
        "bird": 1297.559332948166,
        "cat": 940.5169678123981,
        "deer": 1251.8612744493803,
        "dog": 980.8627390551837,
        "frog": 1416.527615065792,
        "horse": 1187.8290585910668,
        "ship": 851.6607401759719,
        "truck": 1077.5957208428608
    },
    "fid": 712.6494266946519,
    "wasserstein_distance": null,
    "g_loss": null,
    "g_cost": null,
    "d_loss_real": null,
    "d_loss_fake": null
}