{
    "epoch": 13,
    "avg_current_window": 1079.7863982013075,
    "avg_prior_window": 1306.4230801095296,
    "inception_score_mean": 1.5020630161206203,
    "inception_score_std": 0.04008240205611307,
    "fid_per_class": {
        "airplane": 1163.13612041385,
        "automobile": 1328.3488235199811,
        "bird": 1144.3589195045006,
        "cat": 1057.965720970457,
        "deer": 1212.7564730069664,
        "dog": 1200.4238765180312,
        "frog": 1221.7457774757006,
        "horse": 1191.465352203089,
        "ship": 1071.4745187378576,
        "truck": 1154.0846751803608
    },
    "fid": 841.9329807536113,
    "wasserstein_distance": null,
    "g_loss": null,
    "g_cost": null,
    "d_loss_real": null,
    "d_loss_fake": null
}