{
    "epoch": 22,
    "avg_current_window": 979.0434535986132,
    "avg_prior_window": 1086.92325935603,
    "inception_score_mean": 1.7554255796517473,
    "inception_score_std": 0.07715340438856576,
    "fid_per_class": {
        "airplane": 1000.9839524196494,
        "automobile": 1316.719082061129,
        "bird": 1138.1895577831024,
        "cat": 912.3914051425936,
        "deer": 1081.7399387015753,
        "dog": 1014.8103706916395,
        "frog": 1125.864149048587,
        "horse": 1141.1402168606305,
        "ship": 899.7305961652676,
        "truck": 1022.8228657513291
    },
    "fid": 698.2783826538686,
    "wasserstein_distance": null,
    "g_loss": null,
    "g_cost": null,
    "d_loss_real": null,
    "d_loss_fake": null
}