{
    "epoch": 17,
    "avg_current_window": 1037.9638586085248,
    "avg_prior_window": 1169.7685980514163,
    "inception_score_mean": 1.6007593077607118,
    "inception_score_std": 0.06622487486306156,
    "fid_per_class": {
        "airplane": 1070.0799771316272,
        "automobile": 1420.8599865565943,
        "bird": 1126.3789672859928,
        "cat": 1028.6352860583347,
        "deer": 1098.8942367388672,
        "dog": 1198.4154792834318,
        "frog": 1283.3759381549112,
        "horse": 1241.3554364788474,
        "ship": 1004.8365671797358,
        "truck": 1317.0682678008613
    },
    "fid": 832.309812707589,
    "wasserstein_distance": null,
    "g_loss": null,
    "g_cost": null,
    "d_loss_real": null,
    "d_loss_fake": null
}