{
    "epoch": 114,
    "avg_current_window": 772.2924341508057,
    "avg_prior_window": 781.9978717928768,
    "inception_score_mean": 1.8808906044984397,
    "inception_score_std": 0.1521652837967802,
    "fid_per_class": {
        "airplane": 902.1902276677233,
        "automobile": 1114.2687579613682,
        "bird": 1156.0737516163217,
        "cat": 861.6219727337892,
        "deer": 1150.0813759299526,
        "dog": 946.3733364499049,
        "frog": 1357.7921111724097,
        "horse": 1074.4195886562693,
        "ship": 840.6402505436453,
        "truck": 1148.396946958275
    },
    "fid": 659.2722139870068,
    "wasserstein_distance": null,
    "g_loss": null,
    "g_cost": null,
    "d_loss_real": null,
    "d_loss_fake": null
}