{
    "epoch": 9,
    "avg_current_window": 1161.2649600973596,
    "avg_prior_window": 1552.3576895227736,
    "inception_score_mean": 1.4112675443646803,
    "inception_score_std": 0.0532615073250831,
    "fid_per_class": {
        "airplane": 1186.0866206994283,
        "automobile": 1424.974953832619,
        "bird": 1129.0471921287317,
        "cat": 1271.835775097924,
        "deer": 1206.269828468934,
        "dog": 1334.7200009865733,
        "frog": 1684.0912723170072,
        "horse": 1269.9192515505379,
        "ship": 1089.6190329087763,
        "truck": 1267.5372974156007
    },
    "fid": 924.4675868688091,
    "wasserstein_distance": null,
    "g_loss": null,
    "g_cost": null,
    "d_loss_real": null,
    "d_loss_fake": null
}