{
    "epoch": 51,
    "avg_current_window": 846.5017286174965,
    "avg_prior_window": 877.0031654475004,
    "inception_score_mean": 1.7152584392192474,
    "inception_score_std": 0.10879511655184484,
    "fid_per_class": {
        "airplane": 904.0338341808219,
        "automobile": 1229.3436412607196,
        "bird": 1315.0275695361765,
        "cat": 948.2315480990803,
        "deer": 1239.1156426627049,
        "dog": 1045.7173075175015,
        "frog": 1328.0597967640003,
        "horse": 1188.8766766772032,
        "ship": 844.2071415729267,
        "truck": 1049.1579509788198
    },
    "fid": 735.4365286610606,
    "wasserstein_distance": null,
    "g_loss": null,
    "g_cost": null,
    "d_loss_real": null,
    "d_loss_fake": null
}