{
    "epoch": 164,
    "avg_current_window": 750.5823522561104,
    "avg_prior_window": 756.4715917311075,
    "inception_score_mean": 1.8569387298206652,
    "inception_score_std": 0.12383635944663497,
    "fid_per_class": {
        "airplane": 902.7244575566306,
        "automobile": 1167.2518870253973,
        "bird": 1242.709585511949,
        "cat": 911.1872962659484,
        "deer": 1252.6459276693051,
        "dog": 1023.5114057989072,
        "frog": 1387.7103934839156,
        "horse": 1138.1059861450744,
        "ship": 756.0613822076908,
        "truck": 961.4890430923526
    },
    "fid": 695.5003078433535,
    "wasserstein_distance": null,
    "g_loss": null,
    "g_cost": null,
    "d_loss_real": null,
    "d_loss_fake": null
}