{
    "epoch": 170,
    "avg_current_window": 749.0450696013802,
    "avg_prior_window": 754.4558726949075,
    "inception_score_mean": 1.921153967437111,
    "inception_score_std": 0.16232672690504024,
    "fid_per_class": {
        "airplane": 982.8948506671927,
        "automobile": 1242.6568163387774,
        "bird": 1246.9251494720124,
        "cat": 905.6488327763348,
        "deer": 1296.6204387189582,
        "dog": 1000.7899015732912,
        "frog": 1441.3453411463715,
        "horse": 1169.811873589746,
        "ship": 925.5444572285661,
        "truck": 1178.9216962232522
    },
    "fid": 748.5012329051796,
    "wasserstein_distance": null,
    "g_loss": null,
    "g_cost": null,
    "d_loss_real": null,
    "d_loss_fake": null
}