{
    "epoch": 82,
    "avg_current_window": 1268.8597078460418,
    "avg_prior_window": 1305.5887765321381,
    "inception_score_mean": 1.9439476979763992,
    "inception_score_std": 0.10533226436044378,
    "fid_per_class": {
        "airplane": 1046.9853350799742,
        "automobile": 1179.7206254834473,
        "bird": 1388.3861796858894,
        "cat": 1135.7075115935534,
        "deer": 1610.8167971255916,
        "dog": 1153.337997084429,
        "frog": 1782.5406210181059,
        "horse": 1281.404234261092,
        "ship": 934.002639010592,
        "truck": 1134.4711750193544
    },
    "fid": 864.4085351338183
}