{
    "epoch": 75,
    "avg_current_window": 1304.213248990023,
    "avg_prior_window": 1343.0225541139655,
    "inception_score_mean": 1.8966957967340938,
    "inception_score_std": 0.12861744609333595,
    "fid_per_class": {
        "airplane": 988.8106060905452,
        "automobile": 1214.8962631915338,
        "bird": 1633.9938562112895,
        "cat": 1234.6388514056225,
        "deer": 1852.1887678344651,
        "dog": 1218.5306183166529,
        "frog": 1982.374234104697,
        "horse": 1335.8145977244594,
        "ship": 1003.0665180537388,
        "truck": 1096.2350230366521
    },
    "fid": 973.4941805752262
}