{
    "epoch": 72,
    "avg_current_window": 1319.0049982825128,
    "avg_prior_window": 1361.4669730222902,
    "inception_score_mean": 1.9457705232842621,
    "inception_score_std": 0.1285329867097958,
    "fid_per_class": {
        "airplane": 1029.201962035338,
        "automobile": 1257.2205727952282,
        "bird": 1468.2415916965356,
        "cat": 1221.6241127826142,
        "deer": 1655.1785049028658,
        "dog": 1235.9603390019133,
        "frog": 1853.717562235008,
        "horse": 1339.0277062824891,
        "ship": 1009.8830876144846,
        "truck": 1138.1820143307636
    },
    "fid": 940.1524632115793
}