{
    "epoch": 95,
    "avg_current_window": 1214.908350700704,
    "avg_prior_window": 1243.3429851917774,
    "inception_score_mean": 1.9646257217875494,
    "inception_score_std": 0.18982952207179907,
    "fid_per_class": {
        "airplane": 942.6110171674261,
        "automobile": 1130.6912271466126,
        "bird": 1313.2524922056084,
        "cat": 1137.1896317956737,
        "deer": 1506.703236502728,
        "dog": 1238.6158710793943,
        "frog": 1727.4934765049038,
        "horse": 1274.2678504518426,
        "ship": 955.6877087027759,
        "truck": 1050.357313133125
    },
    "fid": 839.6067036438365
}