{
    "epoch": 18,
    "avg_current_window": 1907.347758719803,
    "avg_prior_window": 2153.413669495349,
    "inception_score_mean": 1.3139534026534512,
    "inception_score_std": 0.07216650913125223,
    "fid_per_class": {
        "airplane": 1450.0597627965053,
        "automobile": 1509.173277135147,
        "bird": 2322.2390827222243,
        "cat": 2089.6879926801166,
        "deer": 2200.9409696090916,
        "dog": 2127.7830563672887,
        "frog": 2722.0071281702485,
        "horse": 1975.8586876451077,
        "ship": 1429.5734667051004,
        "truck": 1498.4908394438526
    },
    "fid": 1671.4138250908218
}