{
    "epoch": 60,
    "avg_current_window": 1394.4488084287425,
    "avg_prior_window": 1454.0617114584993,
    "inception_score_mean": 1.8943913130204115,
    "inception_score_std": 0.10615311298848931,
    "fid_per_class": {
        "airplane": 1048.5070514764143,
        "automobile": 1305.049170858444,
        "bird": 1458.4861554376287,
        "cat": 1209.1911306262512,
        "deer": 1607.4018627997198,
        "dog": 1261.9041597665753,
        "frog": 1712.874840963521,
        "horse": 1342.6632095498896,
        "ship": 1052.0913577674376,
        "truck": 1223.5082946098948
    },
    "fid": 928.3860936979366
}