{
    "epoch": 186,
    "avg_current_window": 1011.6225048328103,
    "avg_prior_window": 1022.67634442661,
    "inception_score_mean": 1.9801428941469168,
    "inception_score_std": 0.1892353075755655,
    "fid_per_class": {
        "airplane": 931.5830376910767,
        "automobile": 1051.6856816577215,
        "bird": 1375.4287520662006,
        "cat": 1021.016245314691,
        "deer": 1462.8607798947464,
        "dog": 1142.7110659965547,
        "frog": 1631.621816472406,
        "horse": 1117.6669756622684,
        "ship": 963.8523313444682,
        "truck": 1088.8154750795227
    },
    "fid": 773.5114002789263
}