{
    "epoch": 177,
    "avg_current_window": 1023.7540352051954,
    "avg_prior_window": 1035.4435289348546,
    "inception_score_mean": 2.106027352709545,
    "inception_score_std": 0.17857541621783482,
    "fid_per_class": {
        "airplane": 890.1929034009188,
        "automobile": 1051.8723096028261,
        "bird": 1314.845221525357,
        "cat": 1035.0351513402218,
        "deer": 1363.3463962088354,
        "dog": 1064.6456732139873,
        "frog": 1555.0403536319973,
        "horse": 1087.0463943190111,
        "ship": 1027.0993493189617,
        "truck": 1079.2721681027565
    },
    "fid": 735.708239350455
}