{
    "epoch": 10,
    "avg_current_window": 2130.3995327734433,
    "avg_prior_window": 2673.9751437381383,
    "inception_score_mean": 1.1392766629307198,
    "inception_score_std": 0.05726950985599809,
    "fid_per_class": {
        "airplane": 1827.6331329879358,
        "automobile": 1793.0195781549269,
        "bird": 1847.746334141118,
        "cat": 1546.6416712253367,
        "deer": 1649.8083360762014,
        "dog": 1845.5830931704418,
        "frog": 1973.7919427607267,
        "horse": 1759.773917699404,
        "ship": 1641.089089416746,
        "truck": 1643.1364417807827
    },
    "fid": 1418.0116666179688
}