{
    "epoch": 163,
    "avg_current_window": 1045.2320106756483,
    "avg_prior_window": 1059.2598631881308,
    "inception_score_mean": 2.027806472187042,
    "inception_score_std": 0.10277858202043887,
    "fid_per_class": {
        "airplane": 920.9301881796251,
        "automobile": 1125.5422168171567,
        "bird": 1386.2296455438936,
        "cat": 1123.8135183335226,
        "deer": 1508.5516030296162,
        "dog": 1124.5025037139778,
        "frog": 1610.9485350322643,
        "horse": 1097.5845963345655,
        "ship": 1017.0160602373041,
        "truck": 1100.6481161708184
    },
    "fid": 808.8019573069012
}