{
    "epoch": 86,
    "avg_current_window": 1250.5138973016496,
    "avg_prior_window": 1284.5246425108078,
    "inception_score_mean": 1.9993351660943852,
    "inception_score_std": 0.11307671481218083,
    "fid_per_class": {
        "airplane": 1002.3161550964046,
        "automobile": 1126.566679836693,
        "bird": 1388.8091444458448,
        "cat": 1057.7953853145327,
        "deer": 1640.159158694608,
        "dog": 1129.6215755883727,
        "frog": 1796.4439906202592,
        "horse": 1345.6730573948867,
        "ship": 913.9600296534838,
        "truck": 1096.5692122878995
    },
    "fid": 863.9849663176792
}