{
    "epoch": 50,
    "avg_current_window": 1481.933751427246,
    "avg_prior_window": 1556.3772523659054,
    "inception_score_mean": 1.7975704201321379,
    "inception_score_std": 0.16273425370010064,
    "fid_per_class": {
        "airplane": 1088.345076183421,
        "automobile": 1193.5243153158121,
        "bird": 1661.2654312677055,
        "cat": 1324.835560585795,
        "deer": 1694.9438017058055,
        "dog": 1340.557418779764,
        "frog": 1938.789147083311,
        "horse": 1430.315279179893,
        "ship": 1057.909236573178,
        "truck": 1231.2608770518677
    },
    "fid": 1026.2950954147393
}