{
    "epoch": 19,
    "avg_current_window": 1894.9301832656463,
    "avg_prior_window": 2123.852293865715,
    "inception_score_mean": 1.1706840803339578,
    "inception_score_std": 0.048424554246267806,
    "fid_per_class": {
        "airplane": 1661.5566404135561,
        "automobile": 1594.7620425486573,
        "bird": 2300.42663798137,
        "cat": 2034.553351492933,
        "deer": 2373.9281705537396,
        "dog": 2268.1320908815683,
        "frog": 2564.242076390471,
        "horse": 2185.736791461066,
        "ship": 1559.0612565780652,
        "truck": 1613.0811965989315
    },
    "fid": 1737.6427310400823
}