{
    "epoch": 115,
    "avg_current_window": 1149.6670336101104,
    "avg_prior_window": 1171.6493253239375,
    "inception_score_mean": 1.989611382953278,
    "inception_score_std": 0.1655799118445532,
    "fid_per_class": {
        "airplane": 958.5260893715331,
        "automobile": 1120.490667614638,
        "bird": 1401.9785114970387,
        "cat": 1091.452657946039,
        "deer": 1643.6011390207739,
        "dog": 1162.2303854511017,
        "frog": 1776.4254140818596,
        "horse": 1141.5891097949016,
        "ship": 923.064527847031,
        "truck": 1048.1170932175457
    },
    "fid": 823.488719465952
}