{
    "epoch": 194,
    "avg_current_window": 1001.4849550084518,
    "avg_prior_window": 1011.9105702593181,
    "inception_score_mean": 1.9622297496717398,
    "inception_score_std": 0.0875694410240542,
    "fid_per_class": {
        "airplane": 937.2044160209732,
        "automobile": 1101.8398817813493,
        "bird": 1527.3000387914944,
        "cat": 1152.55163633498,
        "deer": 1639.790886074498,
        "dog": 1197.1364160739158,
        "frog": 1582.8222475148386,
        "horse": 1174.5282389808035,
        "ship": 957.4690946991011,
        "truck": 974.9891669956249
    },
    "fid": 812.5309478378746
}