{
    "epoch": 137,
    "avg_current_window": 1095.966313372206,
    "avg_prior_window": 1113.8076172777567,
    "inception_score_mean": 2.0309364581680933,
    "inception_score_std": 0.17841864600346088,
    "fid_per_class": {
        "airplane": 996.1436701649591,
        "automobile": 1106.9341763903594,
        "bird": 1372.0976045431594,
        "cat": 1102.9086067944365,
        "deer": 1465.4133266494596,
        "dog": 1075.4510522848705,
        "frog": 1678.3812550307034,
        "horse": 1189.4209110235965,
        "ship": 959.3478018407745,
        "truck": 1126.9433060447714
    },
    "fid": 802.1688863530476
}