{
    "epoch": 108,
    "avg_current_window": 1169.922147763864,
    "avg_prior_window": 1193.8622397106794,
    "inception_score_mean": 1.9281507179798119,
    "inception_score_std": 0.13696778458521913,
    "fid_per_class": {
        "airplane": 977.2133896520772,
        "automobile": 1161.6206310545367,
        "bird": 1434.4549870963883,
        "cat": 1120.7405333451818,
        "deer": 1524.775267412762,
        "dog": 1168.872234414119,
        "frog": 1651.21114560233,
        "horse": 1231.599066172882,
        "ship": 1025.9115965419423,
        "truck": 1089.8284542469369
    },
    "fid": 831.5364834301641
}