{
    "epoch": 65,
    "avg_current_window": 1360.4271999233613,
    "avg_prior_window": 1409.9219099903746,
    "inception_score_mean": 1.9176288716644176,
    "inception_score_std": 0.15609692269254105,
    "fid_per_class": {
        "airplane": 979.8780476385291,
        "automobile": 1227.019367046585,
        "bird": 1446.4194581078045,
        "cat": 1152.7934473064788,
        "deer": 1598.2105080751844,
        "dog": 1164.5211535138048,
        "frog": 1776.3218958897578,
        "horse": 1412.743007429417,
        "ship": 1012.2635616086369,
        "truck": 1184.5206356898166
    },
    "fid": 919.1183270431738
}