{
    "epoch": 17,
    "avg_current_window": 1924.6616482305014,
    "avg_prior_window": 2203.656645459188,
    "inception_score_mean": 1.2130155781878746,
    "inception_score_std": 0.07225117537040139,
    "fid_per_class": {
        "airplane": 1630.0212160698925,
        "automobile": 1574.9274954269927,
        "bird": 2114.5846792317307,
        "cat": 1882.4147576768014,
        "deer": 2036.2564764738547,
        "dog": 2042.7310745177208,
        "frog": 2513.2846790414915,
        "horse": 1810.4477208388057,
        "ship": 1252.779415472587,
        "truck": 1554.1901047517226
    },
    "fid": 1613.0116370379333
}