{
    "epoch": 56,
    "avg_current_window": 1428.0963237538833,
    "avg_prior_window": 1491.7249528691498,
    "inception_score_mean": 1.7899345047213877,
    "inception_score_std": 0.1442058812118194,
    "fid_per_class": {
        "airplane": 955.8288705012554,
        "automobile": 1200.6955961227295,
        "bird": 1582.1133666339285,
        "cat": 1182.5253802762304,
        "deer": 1766.738629050234,
        "dog": 1211.2030989501723,
        "frog": 1968.4196664641795,
        "horse": 1369.7364478505435,
        "ship": 1054.7728629111793,
        "truck": 1189.8103524048565
    },
    "fid": 954.369877513646
}