{
    "epoch": 110,
    "avg_current_window": 1163.9320850245178,
    "avg_prior_window": 1187.0814326572604,
    "inception_score_mean": 1.9068074939051602,
    "inception_score_std": 0.12830197078806335,
    "fid_per_class": {
        "airplane": 986.8593403165668,
        "automobile": 1116.1030721102716,
        "bird": 1414.2900668764325,
        "cat": 1143.1329953938698,
        "deer": 1536.6931260886593,
        "dog": 1198.2792245122755,
        "frog": 1724.9768262946725,
        "horse": 1226.0441990662239,
        "ship": 1062.6640814439122,
        "truck": 1113.1632245595915
    },
    "fid": 848.8964329361825
}