{
    "epoch": 78,
    "avg_current_window": 1288.8504588842902,
    "avg_prior_window": 1327.4527445650351,
    "inception_score_mean": 1.9203582244687438,
    "inception_score_std": 0.12397538547308579,
    "fid_per_class": {
        "airplane": 1028.5370565506717,
        "automobile": 1184.097893702796,
        "bird": 1375.9655691633345,
        "cat": 1102.4909096016104,
        "deer": 1636.3567447448409,
        "dog": 1120.711788768701,
        "frog": 1852.4595972901157,
        "horse": 1267.516906111233,
        "ship": 998.5256392056583,
        "truck": 1126.0033198250453
    },
    "fid": 872.3337136015847
}