{
    "epoch": 31,
    "avg_current_window": 1707.5533107719723,
    "avg_prior_window": 1842.227643422107,
    "inception_score_mean": 1.5979273263917038,
    "inception_score_std": 0.12129622047598926,
    "fid_per_class": {
        "airplane": 1085.487472421464,
        "automobile": 1345.8956980012558,
        "bird": 1768.977106246346,
        "cat": 1371.2092346877262,
        "deer": 2095.607730983356,
        "dog": 1496.647619792541,
        "frog": 2385.3858680959247,
        "horse": 1773.2981991005913,
        "ship": 1147.556101680238,
        "truck": 1326.5364600852545
    },
    "fid": 1206.210297183462
}