{
    "epoch": 104,
    "avg_current_window": 1182.3827950980767,
    "avg_prior_window": 1208.2379745307176,
    "inception_score_mean": 1.9453067928333128,
    "inception_score_std": 0.18903167953349606,
    "fid_per_class": {
        "airplane": 971.6743469625874,
        "automobile": 1113.033699638701,
        "bird": 1474.6733282839293,
        "cat": 1106.475573658549,
        "deer": 1486.2706282693803,
        "dog": 1219.9345939397267,
        "frog": 1785.5707971862116,
        "horse": 1298.8927140019991,
        "ship": 999.3983330015251,
        "truck": 1051.275139581818
    },
    "fid": 843.1035912519333
}