{
    "epoch": 170,
    "avg_current_window": 1033.9654140585749,
    "avg_prior_window": 1046.710342452335,
    "inception_score_mean": 2.0255248755296447,
    "inception_score_std": 0.14811497732993836,
    "fid_per_class": {
        "airplane": 908.3159590937158,
        "automobile": 1016.718907595729,
        "bird": 1387.2154304298365,
        "cat": 1095.2308507219454,
        "deer": 1385.4569791527667,
        "dog": 1113.7131313487534,
        "frog": 1718.716966153514,
        "horse": 1157.1929114546163,
        "ship": 1041.6352404941035,
        "truck": 1088.618803476092
    },
    "fid": 786.7849923744682
}