{
    "epoch": 138,
    "avg_current_window": 1093.8373465097484,
    "avg_prior_window": 1111.116057856787,
    "inception_score_mean": 2.0487604999449185,
    "inception_score_std": 0.20239963728715205,
    "fid_per_class": {
        "airplane": 886.8324513302783,
        "automobile": 1054.8480292448803,
        "bird": 1345.6998056398938,
        "cat": 1120.911861836432,
        "deer": 1459.8303039153325,
        "dog": 1111.925661759597,
        "frog": 1613.264129449487,
        "horse": 1097.340102284553,
        "ship": 951.285191313437,
        "truck": 1066.226464709396
    },
    "fid": 769.3974130882473
}