{
    "epoch": 130,
    "avg_current_window": 1112.6206887395026,
    "avg_prior_window": 1130.9615519526778,
    "inception_score_mean": 2.0437263419822727,
    "inception_score_std": 0.15289941894846004,
    "fid_per_class": {
        "airplane": 972.7664593943337,
        "automobile": 1127.466447785061,
        "bird": 1383.2711742493289,
        "cat": 1109.6852262352118,
        "deer": 1477.8664501600497,
        "dog": 1168.1860162182516,
        "frog": 1617.858029353415,
        "horse": 1098.3497424722932,
        "ship": 1005.8573263898782,
        "truck": 1097.908529986174
    },
    "fid": 801.4720775773112
}