{
    "epoch": 180,
    "avg_current_window": 1019.6977660204093,
    "avg_prior_window": 1031.30013607372,
    "inception_score_mean": 2.048210988742487,
    "inception_score_std": 0.13237407198497197,
    "fid_per_class": {
        "airplane": 902.5739654615826,
        "automobile": 1029.7509896734823,
        "bird": 1350.8985394436284,
        "cat": 1031.7542781243612,
        "deer": 1421.5626712707015,
        "dog": 1171.8216632175358,
        "frog": 1619.0089739221635,
        "horse": 1069.6373885331184,
        "ship": 939.5946314417911,
        "truck": 1064.5094653314031
    },
    "fid": 753.1401144575425
}