{
    "epoch": 71,
    "avg_current_window": 1324.1067434926422,
    "avg_prior_window": 1367.578987324776,
    "inception_score_mean": 1.9166954333795705,
    "inception_score_std": 0.14386588997615743,
    "fid_per_class": {
        "airplane": 958.7217890710466,
        "automobile": 1206.612079920026,
        "bird": 1480.7919483460337,
        "cat": 1204.4454819168047,
        "deer": 1699.647578563356,
        "dog": 1225.993726726364,
        "frog": 1913.2699258274592,
        "horse": 1403.2276956588576,
        "ship": 1083.0608994338777,
        "truck": 1155.4570177115093
    },
    "fid": 956.781088363337
}