{
    "epoch": 169,
    "avg_current_window": 1035.4193788935265,
    "avg_prior_window": 1048.5362023875418,
    "inception_score_mean": 2.0782283787254467,
    "inception_score_std": 0.1745768052227316,
    "fid_per_class": {
        "airplane": 926.777890970101,
        "automobile": 1031.8065183388717,
        "bird": 1426.1739080674458,
        "cat": 1057.0933080299917,
        "deer": 1464.8810491132608,
        "dog": 1116.6113205832298,
        "frog": 1669.789994573664,
        "horse": 1044.6078452917122,
        "ship": 1019.1261546810913,
        "truck": 1085.8248819291484
    },
    "fid": 788.2453569517569
}