{
    "epoch": 193,
    "avg_current_window": 1002.6356487590556,
    "avg_prior_window": 1013.1202028520179,
    "inception_score_mean": 2.011488622674865,
    "inception_score_std": 0.17343104469310427,
    "fid_per_class": {
        "airplane": 910.9001327531441,
        "automobile": 1060.0012891042588,
        "bird": 1365.5034611425092,
        "cat": 1082.0077262035293,
        "deer": 1500.0840848471044,
        "dog": 1159.5434044010328,
        "frog": 1633.2318305249453,
        "horse": 1120.0643761192453,
        "ship": 997.1074046089643,
        "truck": 1021.088113556392
    },
    "fid": 779.4010611419269
}