{
    "epoch": 158,
    "avg_current_window": 1054.3268771498147,
    "avg_prior_window": 1068.3882437738491,
    "inception_score_mean": 1.9784764417886191,
    "inception_score_std": 0.09909113816121345,
    "fid_per_class": {
        "airplane": 941.1499711412149,
        "automobile": 1058.869425160107,
        "bird": 1419.0126168026222,
        "cat": 1143.8167972824515,
        "deer": 1400.5898445126059,
        "dog": 1101.8689905964345,
        "frog": 1641.553195065241,
        "horse": 1140.127619473709,
        "ship": 957.450027642788,
        "truck": 1023.7667998977597
    },
    "fid": 779.4117940539384
}