{
    "epoch": 77,
    "avg_current_window": 1294.0933450116675,
    "avg_prior_window": 1332.0626713826737,
    "inception_score_mean": 1.973987526305428,
    "inception_score_std": 0.1734652285683739,
    "fid_per_class": {
        "airplane": 1023.1111616318792,
        "automobile": 1146.4837345171352,
        "bird": 1485.04657062237,
        "cat": 1169.1216909726313,
        "deer": 1676.752166022136,
        "dog": 1266.5229191768094,
        "frog": 1944.7194446669764,
        "horse": 1224.9326684221094,
        "ship": 916.1876810764103,
        "truck": 1132.3867630708005
    },
    "fid": 885.1482270762504
}