{
    "epoch": 39,
    "avg_current_window": 1604.3383067355455,
    "avg_prior_window": 1707.4019033462696,
    "inception_score_mean": 1.5912445477195534,
    "inception_score_std": 0.14364672154492836,
    "fid_per_class": {
        "airplane": 1099.0938579515737,
        "automobile": 1272.940764242794,
        "bird": 1930.3294929649066,
        "cat": 1293.4401709995695,
        "deer": 1796.1063984854268,
        "dog": 1416.1521910882675,
        "frog": 2388.325075256529,
        "horse": 1457.3558542856595,
        "ship": 1097.4629689339495,
        "truck": 1278.7407569125107
    },
    "fid": 1131.4396207051823
}