{
    "epoch": 195,
    "avg_current_window": 1000.5159600998846,
    "avg_prior_window": 1010.6274300840475,
    "inception_score_mean": 1.9534548592356136,
    "inception_score_std": 0.1705814715224314,
    "fid_per_class": {
        "airplane": 874.7409547068694,
        "automobile": 1027.6029848866474,
        "bird": 1286.3203608053038,
        "cat": 1111.7258514521109,
        "deer": 1383.419098296797,
        "dog": 1115.1388174990632,
        "frog": 1626.9861378883006,
        "horse": 1178.705264983119,
        "ship": 1019.5348450247046,
        "truck": 950.6157840753407
    },
    "fid": 757.2000230158715
}