{
    "epoch": 187,
    "avg_current_window": 1010.3491834180836,
    "avg_prior_window": 1021.4880548023668,
    "inception_score_mean": 2.0175352098846435,
    "inception_score_std": 0.1468770513613452,
    "fid_per_class": {
        "airplane": 915.4016401271515,
        "automobile": 987.0070406310431,
        "bird": 1433.0813913853794,
        "cat": 1083.157251158923,
        "deer": 1505.7983228384653,
        "dog": 1196.1673384136186,
        "frog": 1552.1684750232803,
        "horse": 1046.541543269581,
        "ship": 989.138995433731,
        "truck": 990.8202376226297
    },
    "fid": 754.7172932916096
}