{
    "epoch": 76,
    "avg_current_window": 1299.8616823003547,
    "avg_prior_window": 1337.5825334695905,
    "inception_score_mean": 1.9827845272776272,
    "inception_score_std": 0.12137059295516349,
    "fid_per_class": {
        "airplane": 975.1257149934888,
        "automobile": 1110.236365406097,
        "bird": 1406.5862474904125,
        "cat": 1117.9323715381956,
        "deer": 1519.3849861659724,
        "dog": 1156.289483668988,
        "frog": 1886.0058465023849,
        "horse": 1254.888910357609,
        "ship": 972.5018411812056,
        "truck": 1106.2962839331835
    },
    "fid": 855.6997110714476
}