{
    "epoch": 51,
    "avg_current_window": 1472.999660132883,
    "avg_prior_window": 1544.6007506400435,
    "inception_score_mean": 1.758334687211089,
    "inception_score_std": 0.166632535243182,
    "fid_per_class": {
        "airplane": 1059.2496883337794,
        "automobile": 1223.2699726324533,
        "bird": 1573.2500029879534,
        "cat": 1234.8180444908728,
        "deer": 1637.505234543676,
        "dog": 1201.9110262885495,
        "frog": 1875.7700759621766,
        "horse": 1361.8923588889354,
        "ship": 1049.248715449014,
        "truck": 1300.5678770067052
    },
    "fid": 954.989929549594
}