{
    "epoch": 144,
    "avg_current_window": 1080.238979837518,
    "avg_prior_window": 1096.690149391954,
    "inception_score_mean": 1.9729127913282223,
    "inception_score_std": 0.18730854683766054,
    "fid_per_class": {
        "airplane": 986.4334156673862,
        "automobile": 1138.9603823851548,
        "bird": 1357.2640642673969,
        "cat": 1127.2278891089468,
        "deer": 1433.580807676181,
        "dog": 1141.6136866952652,
        "frog": 1580.5308878992287,
        "horse": 1161.6367794563644,
        "ship": 1031.6017905745784,
        "truck": 1075.2143726916713
    },
    "fid": 803.2831070415035
}