{
    "epoch": 191,
    "avg_current_window": 1005.3361869946023,
    "avg_prior_window": 1015.7811682751701,
    "inception_score_mean": 1.9870954645957741,
    "inception_score_std": 0.1368477771410906,
    "fid_per_class": {
        "airplane": 939.492252151197,
        "automobile": 1033.410482871598,
        "bird": 1345.5231261828678,
        "cat": 1084.3015017745872,
        "deer": 1468.2087833782136,
        "dog": 1130.9155916389632,
        "frog": 1467.90705393924,
        "horse": 1168.087923963587,
        "ship": 999.0323389563337,
        "truck": 933.777230759636
    },
    "fid": 756.0679296328789
}