{
    "epoch": 93,
    "avg_current_window": 1222.467911132858,
    "avg_prior_window": 1251.948866486038,
    "inception_score_mean": 1.9894394777624105,
    "inception_score_std": 0.15129665946909887,
    "fid_per_class": {
        "airplane": 1012.2130144011438,
        "automobile": 1150.9472556177634,
        "bird": 1303.2893493295114,
        "cat": 1146.3871796688584,
        "deer": 1496.3635046113127,
        "dog": 1188.4101794403728,
        "frog": 1760.9647310195191,
        "horse": 1227.4761445178747,
        "ship": 921.294289949995,
        "truck": 1078.4013074408065
    },
    "fid": 849.8129464542963
}