{
    "epoch": 132,
    "avg_current_window": 1107.5394278161943,
    "avg_prior_window": 1125.8830472960722,
    "inception_score_mean": 1.9526737172200748,
    "inception_score_std": 0.13349341023634145,
    "fid_per_class": {
        "airplane": 954.1839821758705,
        "automobile": 1105.085395938248,
        "bird": 1448.417382802372,
        "cat": 1092.019384080656,
        "deer": 1486.567484586917,
        "dog": 1166.6859016357146,
        "frog": 1670.0746123210197,
        "horse": 1193.3840744698145,
        "ship": 975.4770791723561,
        "truck": 1119.2218323813247
    },
    "fid": 827.4010089262529
}