{
    "epoch": 112,
    "avg_current_window": 1158.2937513158886,
    "avg_prior_window": 1180.8559996121244,
    "inception_score_mean": 1.9620713696571006,
    "inception_score_std": 0.14606222881755798,
    "fid_per_class": {
        "airplane": 962.6264471716954,
        "automobile": 1134.3423009060184,
        "bird": 1362.6102111701543,
        "cat": 1067.0197863735482,
        "deer": 1594.2375982999567,
        "dog": 1091.8792336619358,
        "frog": 1693.4595732098783,
        "horse": 1157.0555625243214,
        "ship": 1010.8471007105893,
        "truck": 1141.8737927977536
    },
    "fid": 821.4762001092648
}