{
    "epoch": 165,
    "avg_current_window": 1042.181437524587,
    "avg_prior_window": 1055.4148563383758,
    "inception_score_mean": 2.014056110590633,
    "inception_score_std": 0.1720364303465995,
    "fid_per_class": {
        "airplane": 918.4030783939592,
        "automobile": 1015.3494361262874,
        "bird": 1360.4881920901555,
        "cat": 1038.0151195012218,
        "deer": 1448.8717010861833,
        "dog": 964.487265584029,
        "frog": 1542.1366977667217,
        "horse": 1054.5207644318184,
        "ship": 981.048596912556,
        "truck": 1097.0711097729973
    },
    "fid": 747.2693130784221
}