{
    "epoch": 88,
    "avg_current_window": 1241.940044061196,
    "avg_prior_window": 1274.511230693887,
    "inception_score_mean": 1.960600012197179,
    "inception_score_std": 0.14586005693680262,
    "fid_per_class": {
        "airplane": 978.0364670347404,
        "automobile": 1174.0772455018255,
        "bird": 1404.6978085874566,
        "cat": 1177.9741043720246,
        "deer": 1570.9677385135815,
        "dog": 1165.584900090682,
        "frog": 1824.6310192120236,
        "horse": 1304.5382893648023,
        "ship": 958.6495272238407,
        "truck": 1125.1640347340326
    },
    "fid": 880.7763733860925
}