{
    "epoch": 49,
    "avg_current_window": 1492.2701525795012,
    "avg_prior_window": 1567.1525886733104,
    "inception_score_mean": 1.7428227377441678,
    "inception_score_std": 0.12430431732398219,
    "fid_per_class": {
        "airplane": 1030.3750992462192,
        "automobile": 1226.3214067845465,
        "bird": 1487.8646221864817,
        "cat": 1252.414289251162,
        "deer": 1628.060997516297,
        "dog": 1318.7219894317418,
        "frog": 1895.359691791654,
        "horse": 1474.5245349779434,
        "ship": 1056.2059988780927,
        "truck": 1223.8396886155203
    },
    "fid": 975.4500949667405
}