{
    "epoch": 151,
    "avg_current_window": 1066.4297205076293,
    "avg_prior_window": 1081.9111733835043,
    "inception_score_mean": 1.9913312628581703,
    "inception_score_std": 0.1923577713002637,
    "fid_per_class": {
        "airplane": 914.4968223802924,
        "automobile": 1062.766935385714,
        "bird": 1414.8210777419763,
        "cat": 1099.5487649674758,
        "deer": 1440.430176226489,
        "dog": 1114.1456324564072,
        "frog": 1665.2886942257828,
        "horse": 1129.4015459306183,
        "ship": 993.8064575677726,
        "truck": 1061.133001761304
    },
    "fid": 775.8527228769706
}