{
    "epoch": 113,
    "avg_current_window": 1155.3130650220246,
    "avg_prior_window": 1177.6215596474765,
    "inception_score_mean": 1.937923754951847,
    "inception_score_std": 0.12757543522698742,
    "fid_per_class": {
        "airplane": 984.701505025983,
        "automobile": 1138.7936099840624,
        "bird": 1395.496903859648,
        "cat": 1115.1642759926847,
        "deer": 1516.964293753098,
        "dog": 1140.8346088564476,
        "frog": 1649.6687543961846,
        "horse": 1257.6233184454927,
        "ship": 1050.9082899704913,
        "truck": 1099.842675820165
    },
    "fid": 845.9317642535632
}