{
    "epoch": 57,
    "avg_current_window": 1419.7853334689669,
    "avg_prior_window": 1481.3866436850985,
    "inception_score_mean": 1.8265968714659038,
    "inception_score_std": 0.101643263426444,
    "fid_per_class": {
        "airplane": 949.9573011347138,
        "automobile": 1234.635710948162,
        "bird": 1468.0265804391674,
        "cat": 1119.1818269801838,
        "deer": 1711.5916948287438,
        "dog": 1181.1271781784735,
        "frog": 1911.1558835145004,
        "horse": 1369.2346191364554,
        "ship": 1023.6544738848754,
        "truck": 1221.2085075669283
    },
    "fid": 937.7724120611659
}