{
    "epoch": 80,
    "avg_current_window": 1278.7998308719843,
    "avg_prior_window": 1317.1931713976926,
    "inception_score_mean": 1.9685820700691399,
    "inception_score_std": 0.06783626421341593,
    "fid_per_class": {
        "airplane": 1010.959239656059,
        "automobile": 1157.9835183787895,
        "bird": 1363.791569266507,
        "cat": 1167.1620967572048,
        "deer": 1578.7604593379567,
        "dog": 1190.2416788639616,
        "frog": 1763.8171189563227,
        "horse": 1291.6328116665914,
        "ship": 986.0974431048587,
        "truck": 1118.143326572626
    },
    "fid": 881.2421567994734
}