{
    "epoch": 33,
    "avg_current_window": 1680.8966233724475,
    "avg_prior_window": 1801.129598178096,
    "inception_score_mean": 1.5532961812841737,
    "inception_score_std": 0.12941418063950377,
    "fid_per_class": {
        "airplane": 1217.1396373252346,
        "automobile": 1325.463777110495,
        "bird": 1929.7345119068098,
        "cat": 1624.1288447905908,
        "deer": 1989.6249811761018,
        "dog": 1852.9078853626688,
        "frog": 2482.0294620618815,
        "horse": 1758.0856351062532,
        "ship": 1180.301971969397,
        "truck": 1418.9613311765145
    },
    "fid": 1343.1714147975008
}