{
    "epoch": 133,
    "avg_current_window": 1105.4331239147662,
    "avg_prior_window": 1123.1460298576567,
    "inception_score_mean": 2.0576786272774172,
    "inception_score_std": 0.2505153131975663,
    "fid_per_class": {
        "airplane": 956.9896229282856,
        "automobile": 1125.5612725934925,
        "bird": 1347.1428414614647,
        "cat": 1069.548602979449,
        "deer": 1414.8117516963953,
        "dog": 1018.1579259596067,
        "frog": 1592.1643566882665,
        "horse": 1145.4350470942677,
        "ship": 981.7788635813301,
        "truck": 1108.1545077996957
    },
    "fid": 755.8302142887981
}