{
    "epoch": 7,
    "avg_current_window": 2244.2454483454853,
    "avg_prior_window": 2.0,
    "inception_score_mean": 1.0469405811782535,
    "inception_score_std": 0.01597378014675061,
    "fid_per_class": {
        "airplane": 1797.255246028466,
        "automobile": 1765.750074879667,
        "bird": 1694.2707332189248,
        "cat": 1606.54385059161,
        "deer": 1955.4018126058893,
        "dog": 1729.2652574791327,
        "frog": 2116.3319351545206,
        "horse": 1877.9146676434596,
        "ship": 1908.2962272894515,
        "truck": 1979.6453613893161
    },
    "fid": 1666.3357023527224
}