{
    "epoch": 142,
    "avg_current_window": 1084.2696868002336,
    "avg_prior_window": 1101.8215607178488,
    "inception_score_mean": 2.023128084664419,
    "inception_score_std": 0.17370037529675628,
    "fid_per_class": {
        "airplane": 921.0001405890838,
        "automobile": 1042.3363704919375,
        "bird": 1287.3081811250183,
        "cat": 1026.9976439283405,
        "deer": 1431.232037050949,
        "dog": 1085.9676122938022,
        "frog": 1465.6087989752261,
        "horse": 1210.695882532825,
        "ship": 1049.0283684687843,
        "truck": 1024.5017844286824
    },
    "fid": 752.0630118432707
}