{
    "epoch": 38,
    "avg_current_window": 1616.0519107495813,
    "avg_prior_window": 1721.5987874572202,
    "inception_score_mean": 1.708171448234808,
    "inception_score_std": 0.12640004585147951,
    "fid_per_class": {
        "airplane": 1182.6324449220663,
        "automobile": 1270.052323012922,
        "bird": 1897.5692043863696,
        "cat": 1418.438280640868,
        "deer": 1949.7765818142725,
        "dog": 1619.992592245307,
        "frog": 2226.4671946768285,
        "horse": 1521.1855972681255,
        "ship": 1136.3033124601573,
        "truck": 1250.9477970777193
    },
    "fid": 1159.2213542021816
}