{
    "epoch": 6,
    "avg_current_window": 2228.312619781782,
    "avg_prior_window": 3.0,
    "inception_score_mean": 1.015296500540666,
    "inception_score_std": 0.0033292366484764194,
    "fid_per_class": {
        "airplane": 2096.0255704585243,
        "automobile": 2143.0947785839417,
        "bird": 2495.123272828808,
        "cat": 2508.4081477939876,
        "deer": 2725.2629090021387,
        "dog": 2562.4949818939886,
        "frog": 2784.773130931784,
        "horse": 2479.9048325051394,
        "ship": 2217.983486513988,
        "truck": 2185.5841974069835
    },
    "fid": 2339.8424197277054
}