{
    "epoch": 44,
    "avg_current_window": 1542.5333382677638,
    "avg_prior_window": 1633.3495790613194,
    "inception_score_mean": 1.671075571491773,
    "inception_score_std": 0.13960044951277015,
    "fid_per_class": {
        "airplane": 1062.808224598627,
        "automobile": 1207.6095482892215,
        "bird": 1670.9381998305093,
        "cat": 1280.577896503667,
        "deer": 1814.348382727555,
        "dog": 1435.348157747665,
        "frog": 2118.5603969442996,
        "horse": 1483.7624262130348,
        "ship": 1127.4243974943588,
        "truck": 1218.553114595472
    },
    "fid": 1083.247017844035
}