{
    "epoch": 87,
    "avg_current_window": 1246.0710360259718,
    "avg_prior_window": 1279.4012753476736,
    "inception_score_mean": 2.013972152712614,
    "inception_score_std": 0.2023030197742569,
    "fid_per_class": {
        "airplane": 1006.2600693873508,
        "automobile": 1160.6299282989544,
        "bird": 1398.7608458140098,
        "cat": 1125.0782283262415,
        "deer": 1544.5528558108854,
        "dog": 1218.8613996988204,
        "frog": 1827.1316600922078,
        "horse": 1365.741578323316,
        "ship": 926.3945713136484,
        "truck": 1142.1258555196139
    },
    "fid": 882.5437431256976
}