{
    "epoch": 136,
    "avg_current_window": 1098.4187751047293,
    "avg_prior_window": 1115.993927265173,
    "inception_score_mean": 2.012812565585358,
    "inception_score_std": 0.1512916754420862,
    "fid_per_class": {
        "airplane": 901.5810636513445,
        "automobile": 1107.5682679313404,
        "bird": 1354.0875643824222,
        "cat": 1061.0962767146805,
        "deer": 1463.9840950506841,
        "dog": 1025.271559006525,
        "frog": 1524.116542706229,
        "horse": 1096.4879975064644,
        "ship": 979.8803036645695,
        "truck": 1101.0625884809383
    },
    "fid": 762.4315177490441
}