{
    "epoch": 159,
    "avg_current_window": 1052.5978514699664,
    "avg_prior_window": 1066.3254351689932,
    "inception_score_mean": 1.9723949624606782,
    "inception_score_std": 0.1411427924421851,
    "fid_per_class": {
        "airplane": 948.4922858457204,
        "automobile": 1043.368292442036,
        "bird": 1474.3857892867932,
        "cat": 1126.7803799567114,
        "deer": 1446.0824480051606,
        "dog": 1213.4997717729225,
        "frog": 1578.798265231613,
        "horse": 1271.7297532944692,
        "ship": 974.7452327495186,
        "truck": 1031.4026995163504
    },
    "fid": 802.8809706004953
}