{
    "epoch": 85,
    "avg_current_window": 1254.84584783724,
    "avg_prior_window": 1289.8153578319777,
    "inception_score_mean": 1.9646554824434859,
    "inception_score_std": 0.14793782641410136,
    "fid_per_class": {
        "airplane": 956.1700253788154,
        "automobile": 1174.8442552715665,
        "bird": 1351.9048188326144,
        "cat": 1155.0567275874612,
        "deer": 1540.531201476778,
        "dog": 1145.172345840187,
        "frog": 1889.9773427046562,
        "horse": 1345.7892358491397,
        "ship": 930.3228757412667,
        "truck": 1128.8989676127098
    },
    "fid": 882.2981017764638
}