{
    "epoch": 188,
    "avg_current_window": 1008.9894393216662,
    "avg_prior_window": 1019.8877670671282,
    "inception_score_mean": 1.9959224441857715,
    "inception_score_std": 0.15943959125061252,
    "fid_per_class": {
        "airplane": 916.3564365696249,
        "automobile": 1052.1928190443193,
        "bird": 1388.7699675833935,
        "cat": 1106.2362437008687,
        "deer": 1424.4049962956765,
        "dog": 1145.747589165711,
        "frog": 1598.2725604557434,
        "horse": 1138.466392889651,
        "ship": 1066.0470569545803,
        "truck": 989.9851059600949
    },
    "fid": 776.5835437061141
}