{
    "epoch": 167,
    "avg_current_window": 1038.8369983337893,
    "avg_prior_window": 1051.6840601242634,
    "inception_score_mean": 2.0790871669897113,
    "inception_score_std": 0.1469257787903668,
    "fid_per_class": {
        "airplane": 929.6885533175772,
        "automobile": 995.8783621786226,
        "bird": 1473.6149531862789,
        "cat": 1057.3849739211892,
        "deer": 1468.041403125027,
        "dog": 1088.6653849693228,
        "frog": 1577.8823478377412,
        "horse": 1081.8465463220261,
        "ship": 1014.9080605250205,
        "truck": 1036.0829451336508
    },
    "fid": 764.6622384714441
}