{
    "epoch": 149,
    "avg_current_window": 1070.6658323928093,
    "avg_prior_window": 1085.8173347475283,
    "inception_score_mean": 2.0693704118736074,
    "inception_score_std": 0.15560612410571187,
    "fid_per_class": {
        "airplane": 900.3691093433586,
        "automobile": 1075.4716324996593,
        "bird": 1375.7032027425682,
        "cat": 1131.3347621317835,
        "deer": 1476.1184197910566,
        "dog": 1119.9025809728153,
        "frog": 1596.5060416395283,
        "horse": 1028.0111073211788,
        "ship": 907.7735515852839,
        "truck": 1021.77601953206
    },
    "fid": 747.5397186634191
}