{
    "epoch": 63,
    "avg_current_window": 1373.4879940020132,
    "avg_prior_window": 1427.0606076330268,
    "inception_score_mean": 1.9235162142891788,
    "inception_score_std": 0.14227432362148265,
    "fid_per_class": {
        "airplane": 922.1264559019124,
        "automobile": 1209.4802282361657,
        "bird": 1609.4261643134523,
        "cat": 1233.1519966276942,
        "deer": 1725.7167886972122,
        "dog": 1267.8697709291043,
        "frog": 1922.8643077152244,
        "horse": 1325.9568814961822,
        "ship": 1023.3428068754242,
        "truck": 1198.040556955921
    },
    "fid": 933.156519628362
}