{
    "epoch": 102,
    "avg_current_window": 1188.6902494131007,
    "avg_prior_window": 1215.5767173733234,
    "inception_score_mean": 1.9660015098847865,
    "inception_score_std": 0.1626179900255353,
    "fid_per_class": {
        "airplane": 988.5754833180404,
        "automobile": 1110.352649200652,
        "bird": 1406.402277819962,
        "cat": 1042.0752148281897,
        "deer": 1451.6003730798711,
        "dog": 1168.542837543183,
        "frog": 1582.809927259405,
        "horse": 1337.922176122035,
        "ship": 927.4494626923497,
        "truck": 989.8272339336778
    },
    "fid": 811.4664818821248
}