{
    "epoch": 135,
    "avg_current_window": 794.5221153975018,
    "avg_prior_window": 804.7103120951617,
    "inception_score_mean": 1.9202373871075875,
    "inception_score_std": 0.11420981964253693,
    "fid_per_class": {
        "airplane": 864.7003765858029,
        "automobile": 1078.3349460213408,
        "bird": 1200.968766577255,
        "cat": 932.3323294376551,
        "deer": 1170.3984695492843,
        "dog": 951.7937990668142,
        "frog": 1330.8565039850403,
        "horse": 1126.9654668209726,
        "ship": 805.4026330264305,
        "truck": 1052.2709974187435
    },
    "fid": 651.2277593991734,
    "wasserstein_distance": null,
    "g_loss": null,
    "g_cost": null,
    "d_loss_real": null,
    "d_loss_fake": null
}