{
    "epoch": 151,
    "avg_current_window": 780.8593381754192,
    "avg_prior_window": 789.4790779191973,
    "inception_score_mean": 1.9219595714662632,
    "inception_score_std": 0.18538384756356083,
    "fid_per_class": {
        "airplane": 971.5889190693244,
        "automobile": 1117.9197159871646,
        "bird": 1182.6724269918718,
        "cat": 947.155590064413,
        "deer": 1228.8976061938042,
        "dog": 968.994079037361,
        "frog": 1301.063986777176,
        "horse": 1102.0401957371828,
        "ship": 838.8691095525442,
        "truck": 1131.2351833477774
    },
    "fid": 684.0924732792721,
    "wasserstein_distance": null,
    "g_loss": null,
    "g_cost": null,
    "d_loss_real": null,
    "d_loss_fake": null
}