{
    "epoch": 7,
    "avg_current_window": 1752.7391990220724,
    "avg_prior_window": 2.0,
    "inception_score_mean": 1.3397403044083787,
    "inception_score_std": 0.04594322394512132,
    "fid_per_class": {
        "airplane": 1514.5666663360535,
        "automobile": 1573.756746388366,
        "bird": 1372.9143559868135,
        "cat": 1526.1315903668342,
        "deer": 1511.880851115129,
        "dog": 1587.8735190788013,
        "frog": 1735.2326966776727,
        "horse": 1655.651438607228,
        "ship": 1439.5637066614634,
        "truck": 1513.6480067652687
    },
    "fid": 1281.497007372895,
    "wasserstein_distance": null,
    "g_loss": null,
    "g_cost": null,
    "d_loss_real": null,
    "d_loss_fake": null
}