{
    "epoch": 115,
    "avg_current_window": 817.2883829823794,
    "avg_prior_window": 829.5676095678263,
    "inception_score_mean": 1.8773957043155876,
    "inception_score_std": 0.14226554779904124,
    "fid_per_class": {
        "airplane": 962.8029640773327,
        "automobile": 1075.0966443070017,
        "bird": 1161.4271769193365,
        "cat": 901.7762415325092,
        "deer": 1205.2222400391217,
        "dog": 877.2809490925306,
        "frog": 1335.282337112603,
        "horse": 1108.3813403125282,
        "ship": 798.3157882979992,
        "truck": 1067.7561615859754
    },
    "fid": 657.6241691971975,
    "wasserstein_distance": null,
    "g_loss": null,
    "g_cost": null,
    "d_loss_real": null,
    "d_loss_fake": null
}