{
    "epoch": 38,
    "avg_current_window": 1044.3365518121998,
    "avg_prior_window": 1107.1259851086793,
    "inception_score_mean": 1.733837593979132,
    "inception_score_std": 0.13169640188509285,
    "fid_per_class": {
        "airplane": 1004.3190065416369,
        "automobile": 1155.2518580844971,
        "bird": 1205.0315194254033,
        "cat": 969.6542230339576,
        "deer": 1308.9975260968342,
        "dog": 987.6646424374487,
        "frog": 1387.6737455873815,
        "horse": 1258.7872546024173,
        "ship": 818.873327253367,
        "truck": 1091.9661469939442
    },
    "fid": 731.1329893176512,
    "wasserstein_distance": null,
    "g_loss": null,
    "g_cost": null,
    "d_loss_real": null,
    "d_loss_fake": null
}