{
    "epoch": 90,
    "avg_current_window": 854.9984870128468,
    "avg_prior_window": 872.6932032823395,
    "inception_score_mean": 1.8695064849944594,
    "inception_score_std": 0.14227953381119976,
    "fid_per_class": {
        "airplane": 963.4700428604435,
        "automobile": 1076.8270251427055,
        "bird": 1231.4391124312192,
        "cat": 974.286826674623,
        "deer": 1300.257555805415,
        "dog": 1007.916919894102,
        "frog": 1443.4371240916505,
        "horse": 1168.8254592546402,
        "ship": 829.8909997548429,
        "truck": 1157.8581584055555
    },
    "fid": 726.6292691953056,
    "wasserstein_distance": null,
    "g_loss": null,
    "g_cost": null,
    "d_loss_real": null,
    "d_loss_fake": null
}