{
    "epoch": 124,
    "avg_current_window": 806.5764681072834,
    "avg_prior_window": 818.4060382679269,
    "inception_score_mean": 1.9113227360446061,
    "inception_score_std": 0.16754044620611813,
    "fid_per_class": {
        "airplane": 930.8151844610588,
        "automobile": 1022.8405694758208,
        "bird": 1203.8218548912,
        "cat": 929.1467763691046,
        "deer": 1200.338140563395,
        "dog": 993.2884680876729,
        "frog": 1436.4246408507145,
        "horse": 1049.068988955877,
        "ship": 764.753662034819,
        "truck": 1034.6216044242321
    },
    "fid": 664.7134310596288,
    "wasserstein_distance": null,
    "g_loss": null,
    "g_cost": null,
    "d_loss_real": null,
    "d_loss_fake": null
}