{
    "epoch": 199,
    "avg_current_window": 752.5060639805147,
    "avg_prior_window": 758.3635952151202,
    "inception_score_mean": 2.0076497153318833,
    "inception_score_std": 0.09265938593558315,
    "fid_per_class": {
        "airplane": 913.378256573556,
        "automobile": 1017.4356705076553,
        "bird": 1139.4143609683651,
        "cat": 950.7046793514651,
        "deer": 1226.828030491411,
        "dog": 922.5040008206283,
        "frog": 1314.0840292769587,
        "horse": 1060.8733487677498,
        "ship": 835.8166241126602,
        "truck": 1011.9007508361403
    },
    "fid": 641.7277872355005,
    "wasserstein_distance": null,
    "g_loss": null,
    "g_cost": null,
    "d_loss_real": null,
    "d_loss_fake": null
}