{
    "epoch": 188,
    "avg_current_window": 758.3994331521759,
    "avg_prior_window": 765.1181928002273,
    "inception_score_mean": 1.9208618779606232,
    "inception_score_std": 0.0967044027706042,
    "fid_per_class": {
        "airplane": 967.6002375416898,
        "automobile": 1075.6836382880365,
        "bird": 1212.7016839631156,
        "cat": 980.7017368338891,
        "deer": 1332.586234237732,
        "dog": 1023.0301386486199,
        "frog": 1437.5207004297904,
        "horse": 1121.8696593938498,
        "ship": 831.2780658667982,
        "truck": 1068.4740794147353
    },
    "fid": 697.8694003307028,
    "wasserstein_distance": null,
    "g_loss": null,
    "g_cost": null,
    "d_loss_real": null,
    "d_loss_fake": null
}