{
    "epoch": 133,
    "avg_current_window": 796.3514340921661,
    "avg_prior_window": 806.9285957257298,
    "inception_score_mean": 1.923368008064756,
    "inception_score_std": 0.14191311613191593,
    "fid_per_class": {
        "airplane": 927.8819650837515,
        "automobile": 1083.4241708634613,
        "bird": 1206.316590404942,
        "cat": 981.3270252921948,
        "deer": 1282.5078192277697,
        "dog": 950.7007625889091,
        "frog": 1421.280615191644,
        "horse": 1151.6498445974632,
        "ship": 806.6328748120857,
        "truck": 1027.4434988947035
    },
    "fid": 697.7319301935772,
    "wasserstein_distance": null,
    "g_loss": null,
    "g_cost": null,
    "d_loss_real": null,
    "d_loss_fake": null
}