{
    "epoch": 177,
    "avg_current_window": 765.0680645562298,
    "avg_prior_window": 771.7637088754847,
    "inception_score_mean": 1.9351645876333283,
    "inception_score_std": 0.14912923904680056,
    "fid_per_class": {
        "airplane": 880.5650559713554,
        "automobile": 1035.652986182621,
        "bird": 1266.4926158845021,
        "cat": 976.0639174091107,
        "deer": 1319.2278355327533,
        "dog": 1006.6614673440247,
        "frog": 1417.4085212991622,
        "horse": 1192.1783224139963,
        "ship": 836.7437801399117,
        "truck": 1051.3508316975542
    },
    "fid": 710.3240136102019,
    "wasserstein_distance": null,
    "g_loss": null,
    "g_cost": null,
    "d_loss_real": null,
    "d_loss_fake": null
}