{
    "epoch": 71,
    "avg_current_window": 893.8709821375954,
    "avg_prior_window": 917.8439089248274,
    "inception_score_mean": 1.8972401827292606,
    "inception_score_std": 0.13994527280828295,
    "fid_per_class": {
        "airplane": 993.928924295095,
        "automobile": 1117.1440270899482,
        "bird": 1218.9306323821195,
        "cat": 915.5399606757446,
        "deer": 1261.007497603605,
        "dog": 979.5608071626234,
        "frog": 1355.0592654360225,
        "horse": 1155.0276563445505,
        "ship": 824.8933927688997,
        "truck": 1119.1649158184425
    },
    "fid": 698.8337335581796,
    "wasserstein_distance": null,
    "g_loss": null,
    "g_cost": null,
    "d_loss_real": null,
    "d_loss_fake": null
}