{
    "epoch": 128,
    "avg_current_window": 801.7023583511608,
    "avg_prior_window": 813.1340003683182,
    "inception_score_mean": 1.890881032710288,
    "inception_score_std": 0.12435738591767709,
    "fid_per_class": {
        "airplane": 950.4000050087195,
        "automobile": 1028.3038108603625,
        "bird": 1192.6317074812669,
        "cat": 958.1375318389846,
        "deer": 1213.094029331018,
        "dog": 979.9694223003814,
        "frog": 1357.5508054307784,
        "horse": 1103.0395024199042,
        "ship": 798.5540268422736,
        "truck": 1026.1258143826867
    },
    "fid": 668.9583839448306,
    "wasserstein_distance": null,
    "g_loss": null,
    "g_cost": null,
    "d_loss_real": null,
    "d_loss_fake": null
}