{
    "epoch": 158,
    "avg_current_window": 776.103175149267,
    "avg_prior_window": 783.971981804286,
    "inception_score_mean": 1.9847406130842535,
    "inception_score_std": 0.1265413185979533,
    "fid_per_class": {
        "airplane": 904.8830258337848,
        "automobile": 1094.3204729596525,
        "bird": 1192.9349150172422,
        "cat": 968.4543556836579,
        "deer": 1232.6714163465547,
        "dog": 1048.7344119694803,
        "frog": 1415.0067124331267,
        "horse": 1201.0114965051894,
        "ship": 783.1216792371988,
        "truck": 1085.9470932420513
    },
    "fid": 701.0854575826862,
    "wasserstein_distance": null,
    "g_loss": null,
    "g_cost": null,
    "d_loss_real": null,
    "d_loss_fake": null
}