{
    "epoch": 162,
    "avg_current_window": 773.9592418494506,
    "avg_prior_window": 781.0465074750585,
    "inception_score_mean": 1.9632869530458947,
    "inception_score_std": 0.14815643171680704,
    "fid_per_class": {
        "airplane": 935.7213723644254,
        "automobile": 1029.5370435645868,
        "bird": 1257.9266022563227,
        "cat": 951.8035795821681,
        "deer": 1209.2428392782854,
        "dog": 950.3769550253717,
        "frog": 1322.1973868941323,
        "horse": 1068.2699188777324,
        "ship": 757.4797353933366,
        "truck": 1047.4885263103197
    },
    "fid": 650.0522545887568,
    "wasserstein_distance": null,
    "g_loss": null,
    "g_cost": null,
    "d_loss_real": null,
    "d_loss_fake": null
}