{
    "epoch": 84,
    "avg_current_window": 866.2530577468691,
    "avg_prior_window": 884.7524451036752,
    "inception_score_mean": 1.8870359645397037,
    "inception_score_std": 0.08657055610557628,
    "fid_per_class": {
        "airplane": 1001.3027909787099,
        "automobile": 1180.9428545604899,
        "bird": 1287.173778143577,
        "cat": 991.5999179575749,
        "deer": 1323.7886889206231,
        "dog": 968.1509991583739,
        "frog": 1389.052460525784,
        "horse": 1233.3647300666375,
        "ship": 849.757848241609,
        "truck": 1135.704257947062
    },
    "fid": 729.2464241202586,
    "wasserstein_distance": null,
    "g_loss": null,
    "g_cost": null,
    "d_loss_real": null,
    "d_loss_fake": null
}