{
    "epoch": 12,
    "avg_current_window": 1523.5559110283905,
    "avg_prior_window": 1935.810200075343,
    "inception_score_mean": 1.5522089872807834,
    "inception_score_std": 0.08048995227455213,
    "fid_per_class": {
        "airplane": 1147.4545770712632,
        "automobile": 1250.5845489967176,
        "bird": 1373.9828571123276,
        "cat": 1262.636100343244,
        "deer": 1344.343131917792,
        "dog": 1473.5328603257112,
        "frog": 1747.1006230998,
        "horse": 1436.6872510601345,
        "ship": 985.0215336403754,
        "truck": 1073.0345297491838
    },
    "fid": 1000.7201565400358,
    "wasserstein_distance": null,
    "g_loss": null,
    "g_cost": null,
    "d_loss_real": null,
    "d_loss_fake": null
}