{
    "epoch": 112,
    "avg_current_window": 821.0304186056765,
    "avg_prior_window": 834.3297336850098,
    "inception_score_mean": 1.9195964157648124,
    "inception_score_std": 0.1440932340178492,
    "fid_per_class": {
        "airplane": 920.2163805701548,
        "automobile": 985.9645931893587,
        "bird": 1133.356525252263,
        "cat": 939.3800930057998,
        "deer": 1158.7764267805912,
        "dog": 916.7396179003076,
        "frog": 1279.167134205776,
        "horse": 1072.8714260754832,
        "ship": 798.2109109313511,
        "truck": 1071.965957444892
    },
    "fid": 633.123052394774,
    "wasserstein_distance": null,
    "g_loss": null,
    "g_cost": null,
    "d_loss_real": null,
    "d_loss_fake": null
}