{
    "epoch": 42,
    "avg_current_window": 1015.2545091548335,
    "avg_prior_window": 1072.5618640233404,
    "inception_score_mean": 1.7482506594276976,
    "inception_score_std": 0.1067217529842383,
    "fid_per_class": {
        "airplane": 971.8601817702142,
        "automobile": 1146.2269821332739,
        "bird": 1232.5872757542675,
        "cat": 985.9712361207144,
        "deer": 1302.3634330864375,
        "dog": 1015.9319953690151,
        "frog": 1345.7903562687784,
        "horse": 1206.2574097275374,
        "ship": 837.902306270342,
        "truck": 1165.4609067410056
    },
    "fid": 724.5463815634118,
    "wasserstein_distance": null,
    "g_loss": null,
    "g_cost": null,
    "d_loss_real": null,
    "d_loss_fake": null
}