{
    "epoch": 171,
    "avg_current_window": 768.46866296765,
    "avg_prior_window": 775.3452751542013,
    "inception_score_mean": 1.9533365840373107,
    "inception_score_std": 0.19694094313199229,
    "fid_per_class": {
        "airplane": 947.0232121907147,
        "automobile": 1014.9355401364644,
        "bird": 1156.5828465218449,
        "cat": 967.0376621547332,
        "deer": 1252.5736821970218,
        "dog": 982.4743036702444,
        "frog": 1356.1648240124737,
        "horse": 1122.0853394382693,
        "ship": 789.7770640077503,
        "truck": 1046.9429220579725
    },
    "fid": 655.7119894486623,
    "wasserstein_distance": null,
    "g_loss": null,
    "g_cost": null,
    "d_loss_real": null,
    "d_loss_fake": null
}