{
    "epoch": 182,
    "avg_current_window": 761.9792009735247,
    "avg_prior_window": 769.0811945766264,
    "inception_score_mean": 1.9488236220217732,
    "inception_score_std": 0.14641664309525768,
    "fid_per_class": {
        "airplane": 943.828626493417,
        "automobile": 1038.2040639460442,
        "bird": 1249.169018986982,
        "cat": 890.995774260598,
        "deer": 1291.1863460979016,
        "dog": 961.7244833954951,
        "frog": 1342.9867797684865,
        "horse": 1073.933334141945,
        "ship": 803.6190186294778,
        "truck": 1036.9173456937503
    },
    "fid": 676.6796394503334,
    "wasserstein_distance": null,
    "g_loss": null,
    "g_cost": null,
    "d_loss_real": null,
    "d_loss_fake": null
}