{
    "epoch": 184,
    "avg_current_window": 760.9599417524,
    "avg_prior_window": 767.7364452809338,
    "inception_score_mean": 1.9572594030135189,
    "inception_score_std": 0.13948281845317476,
    "fid_per_class": {
        "airplane": 910.852877029173,
        "automobile": 1040.5528819997767,
        "bird": 1142.1778989265729,
        "cat": 891.2924680076072,
        "deer": 1184.558809065243,
        "dog": 899.0971236565006,
        "frog": 1192.0840385849547,
        "horse": 1009.573492439122,
        "ship": 784.0912837919311,
        "truck": 989.9620373228107
    },
    "fid": 593.3099198661672,
    "wasserstein_distance": null,
    "g_loss": null,
    "g_cost": null,
    "d_loss_real": null,
    "d_loss_fake": null
}