{
    "epoch": 138,
    "avg_current_window": 791.6764963011659,
    "avg_prior_window": 801.5975388304636,
    "inception_score_mean": 1.9096233030560257,
    "inception_score_std": 0.11752080148991235,
    "fid_per_class": {
        "airplane": 994.7400570442567,
        "automobile": 1087.0319233764972,
        "bird": 1224.8555748178524,
        "cat": 987.896466136441,
        "deer": 1273.7640196217963,
        "dog": 1033.8033155697244,
        "frog": 1352.7490286251136,
        "horse": 1217.5863662731144,
        "ship": 861.9632321116742,
        "truck": 1066.2636511634933
    },
    "fid": 715.3156500197808,
    "wasserstein_distance": null,
    "g_loss": null,
    "g_cost": null,
    "d_loss_real": null,
    "d_loss_fake": null
}