{
    "epoch": 167,
    "avg_current_window": 770.7024890754336,
    "avg_prior_window": 777.9719100876526,
    "inception_score_mean": 1.890061378640981,
    "inception_score_std": 0.11315785688044515,
    "fid_per_class": {
        "airplane": 943.0339984882071,
        "automobile": 1016.8275156248847,
        "bird": 1267.1703092893624,
        "cat": 979.7893460019994,
        "deer": 1298.291018563853,
        "dog": 1017.1371108864782,
        "frog": 1319.4778611128913,
        "horse": 1124.3140120218202,
        "ship": 792.9021336182154,
        "truck": 1058.3571830961218
    },
    "fid": 692.7757876331606,
    "wasserstein_distance": null,
    "g_loss": null,
    "g_cost": null,
    "d_loss_real": null,
    "d_loss_fake": null
}