{
    "epoch": 54,
    "avg_current_window": 949.6622082947814,
    "avg_prior_window": 988.5220448675152,
    "inception_score_mean": 1.8241462231632788,
    "inception_score_std": 0.10419805509189986,
    "fid_per_class": {
        "airplane": 1015.4841264096768,
        "automobile": 1125.6291705508183,
        "bird": 1283.4067940494558,
        "cat": 976.2450672290506,
        "deer": 1288.4361361731783,
        "dog": 995.4161410013892,
        "frog": 1411.7525053357608,
        "horse": 1146.473257249649,
        "ship": 854.1065470522094,
        "truck": 1179.4679014151275
    },
    "fid": 731.8748406802965,
    "wasserstein_distance": null,
    "g_loss": null,
    "g_cost": null,
    "d_loss_real": null,
    "d_loss_fake": null
}