{
    "epoch": 192,
    "avg_current_window": 756.2150346435997,
    "avg_prior_window": 762.4550450941662,
    "inception_score_mean": 1.972468415332815,
    "inception_score_std": 0.12334004583943008,
    "fid_per_class": {
        "airplane": 952.4044908914838,
        "automobile": 1044.2203181423622,
        "bird": 1174.6019865716978,
        "cat": 971.9476830006953,
        "deer": 1302.2484223676943,
        "dog": 1028.6426431833634,
        "frog": 1332.3134069781736,
        "horse": 1086.6671106176434,
        "ship": 779.681360412283,
        "truck": 1027.9155592345094
    },
    "fid": 657.820816098242,
    "wasserstein_distance": null,
    "g_loss": null,
    "g_cost": null,
    "d_loss_real": null,
    "d_loss_fake": null
}