{
    "epoch": 62,
    "avg_current_window": 919.89782569424,
    "avg_prior_window": 949.565384182244,
    "inception_score_mean": 1.843120019614199,
    "inception_score_std": 0.14084075855924524,
    "fid_per_class": {
        "airplane": 969.0408287148491,
        "automobile": 991.253497780303,
        "bird": 1218.3547555128498,
        "cat": 916.6042590959072,
        "deer": 1320.0349187801446,
        "dog": 973.762223312204,
        "frog": 1478.2180790411505,
        "horse": 1134.447038805822,
        "ship": 778.9957103258306,
        "truck": 1042.1962844641016
    },
    "fid": 670.0991229167607,
    "wasserstein_distance": null,
    "g_loss": null,
    "g_cost": null,
    "d_loss_real": null,
    "d_loss_fake": null
}