{
    "epoch": 178,
    "avg_current_window": 764.7605137082185,
    "avg_prior_window": 771.2915507404605,
    "inception_score_mean": 1.9309896243899423,
    "inception_score_std": 0.16373561561228836,
    "fid_per_class": {
        "airplane": 978.6868668716622,
        "automobile": 1034.2002066609673,
        "bird": 1146.724688157724,
        "cat": 926.2843200396162,
        "deer": 1194.588609010088,
        "dog": 923.8748065174035,
        "frog": 1317.8709550344108,
        "horse": 1117.2795118931444,
        "ship": 767.5352778234858,
        "truck": 1048.7955371607077
    },
    "fid": 652.7575117050267,
    "wasserstein_distance": null,
    "g_loss": null,
    "g_cost": null,
    "d_loss_real": null,
    "d_loss_fake": null
}