{
    "epoch": 59,
    "avg_current_window": 929.3823624443884,
    "avg_prior_window": 963.2154460851574,
    "inception_score_mean": 1.8297500699567677,
    "inception_score_std": 0.1346926441764305,
    "fid_per_class": {
        "airplane": 992.7676931577477,
        "automobile": 1077.5401061039333,
        "bird": 1253.263909886719,
        "cat": 1005.7448344303414,
        "deer": 1388.227081664479,
        "dog": 943.1607360721869,
        "frog": 1448.8324822369193,
        "horse": 1239.1414907026935,
        "ship": 762.7585792917358,
        "truck": 1119.276116146339
    },
    "fid": 738.3826414973014,
    "wasserstein_distance": null,
    "g_loss": null,
    "g_cost": null,
    "d_loss_real": null,
    "d_loss_fake": null
}