{
    "epoch": 106,
    "avg_current_window": 829.6732305349909,
    "avg_prior_window": 843.4523173311577,
    "inception_score_mean": 1.9495828605533263,
    "inception_score_std": 0.15433654821477286,
    "fid_per_class": {
        "airplane": 972.0095067714699,
        "automobile": 1016.0916970129191,
        "bird": 1226.104610776585,
        "cat": 905.5370738366043,
        "deer": 1170.2577274087193,
        "dog": 964.2947589633932,
        "frog": 1291.872241533108,
        "horse": 1128.8001690045764,
        "ship": 798.9668169604969,
        "truck": 1071.0896538593136
    },
    "fid": 647.7515486977013,
    "wasserstein_distance": null,
    "g_loss": null,
    "g_cost": null,
    "d_loss_real": null,
    "d_loss_fake": null
}