{
    "epoch": 74,
    "avg_current_window": 886.4498006655307,
    "avg_prior_window": 909.2488986525238,
    "inception_score_mean": 1.813936265146852,
    "inception_score_std": 0.10991801108823969,
    "fid_per_class": {
        "airplane": 994.3736494372115,
        "automobile": 1100.1783922877637,
        "bird": 1207.8546304328693,
        "cat": 984.9270379299712,
        "deer": 1252.8799767721162,
        "dog": 975.8698960814617,
        "frog": 1421.5194565030063,
        "horse": 1237.8131625169963,
        "ship": 858.5480567032046,
        "truck": 1169.0239747284354
    },
    "fid": 730.521049857233,
    "wasserstein_distance": null,
    "g_loss": null,
    "g_cost": null,
    "d_loss_real": null,
    "d_loss_fake": null
}