{
    "epoch": 198,
    "avg_current_window": 752.8079436489064,
    "avg_prior_window": 759.2304319274914,
    "inception_score_mean": 1.9391095710407888,
    "inception_score_std": 0.11303647754309416,
    "fid_per_class": {
        "airplane": 918.3906570982776,
        "automobile": 1103.241754353911,
        "bird": 1229.7940754368656,
        "cat": 946.8093225417324,
        "deer": 1335.3450556547664,
        "dog": 954.1588275873787,
        "frog": 1343.0586536519713,
        "horse": 1165.9170124452128,
        "ship": 882.2649577702317,
        "truck": 1109.6448223428483
    },
    "fid": 692.7338896389587,
    "wasserstein_distance": null,
    "g_loss": null,
    "g_cost": null,
    "d_loss_real": null,
    "d_loss_fake": null
}