{
    "epoch": 72,
    "avg_current_window": 891.1621314628815,
    "avg_prior_window": 914.5862264420053,
    "inception_score_mean": 1.9121598291117028,
    "inception_score_std": 0.17435678840623448,
    "fid_per_class": {
        "airplane": 970.0083037027943,
        "automobile": 1101.7169066228525,
        "bird": 1205.9365139418628,
        "cat": 971.8574244289201,
        "deer": 1251.2076156199607,
        "dog": 967.5292035470286,
        "frog": 1389.3541017347275,
        "horse": 1218.2903094415497,
        "ship": 875.742262250851,
        "truck": 1255.7362019176926
    },
    "fid": 723.4328658443083,
    "wasserstein_distance": null,
    "g_loss": null,
    "g_cost": null,
    "d_loss_real": null,
    "d_loss_fake": null
}