{
    "epoch": 117,
    "avg_current_window": 814.56921474556,
    "avg_prior_window": 826.6833030020583,
    "inception_score_mean": 1.850543810419633,
    "inception_score_std": 0.11599177282465745,
    "fid_per_class": {
        "airplane": 977.9596089193814,
        "automobile": 1047.2186160102888,
        "bird": 1308.194765453467,
        "cat": 975.3255745286626,
        "deer": 1327.325824090584,
        "dog": 965.0571463693311,
        "frog": 1387.7058855357145,
        "horse": 1216.609148471266,
        "ship": 772.4676540903604,
        "truck": 1067.7764722974189
    },
    "fid": 717.1508473245278,
    "wasserstein_distance": null,
    "g_loss": null,
    "g_cost": null,
    "d_loss_real": null,
    "d_loss_fake": null
}