{
    "epoch": 190,
    "avg_current_window": 757.3909047465044,
    "avg_prior_window": 763.731905852383,
    "inception_score_mean": 1.9321525434640456,
    "inception_score_std": 0.1546657711451396,
    "fid_per_class": {
        "airplane": 902.3936120682737,
        "automobile": 1057.0194586035748,
        "bird": 1147.8291298024521,
        "cat": 941.1206463811639,
        "deer": 1260.0287294889347,
        "dog": 945.432606063651,
        "frog": 1245.951972315516,
        "horse": 1081.1155839711973,
        "ship": 810.8151909476779,
        "truck": 1034.653829441905
    },
    "fid": 644.5752978790086,
    "wasserstein_distance": null,
    "g_loss": null,
    "g_cost": null,
    "d_loss_real": null,
    "d_loss_fake": null
}