{
    "epoch": 49,
    "avg_current_window": 973.249504744863,
    "avg_prior_window": 1017.3799066104024,
    "inception_score_mean": 1.7839787695310565,
    "inception_score_std": 0.11465335735676623,
    "fid_per_class": {
        "airplane": 977.9704582215604,
        "automobile": 1115.4804506923756,
        "bird": 1228.93212865118,
        "cat": 1054.9905351590817,
        "deer": 1295.4779798421946,
        "dog": 1007.174369074934,
        "frog": 1487.2916555120464,
        "horse": 1257.6842961426403,
        "ship": 825.4399003561293,
        "truck": 1144.5606735775918
    },
    "fid": 748.3544660099594,
    "wasserstein_distance": null,
    "g_loss": null,
    "g_cost": null,
    "d_loss_real": null,
    "d_loss_fake": null
}