{
    "epoch": 181,
    "avg_current_window": 762.613583536637,
    "avg_prior_window": 769.4150421957539,
    "inception_score_mean": 1.9249462791621532,
    "inception_score_std": 0.1463840479687022,
    "fid_per_class": {
        "airplane": 937.9577411974042,
        "automobile": 1025.1750412521533,
        "bird": 1183.082429405604,
        "cat": 902.7706409612927,
        "deer": 1304.639268413543,
        "dog": 945.6331478595755,
        "frog": 1190.5903812000747,
        "horse": 1064.2228528554738,
        "ship": 816.4664734006672,
        "truck": 1062.353729871002
    },
    "fid": 647.155957050228,
    "wasserstein_distance": null,
    "g_loss": null,
    "g_cost": null,
    "d_loss_real": null,
    "d_loss_fake": null
}