{
    "epoch": 159,
    "avg_current_window": 775.6313656048231,
    "avg_prior_window": 783.047112039102,
    "inception_score_mean": 2.0021590110864693,
    "inception_score_std": 0.20570536062338315,
    "fid_per_class": {
        "airplane": 1001.0461601735826,
        "automobile": 1013.1895904724106,
        "bird": 1210.6808628742788,
        "cat": 991.1515592196325,
        "deer": 1234.1477915902626,
        "dog": 919.4970266926209,
        "frog": 1265.9642341392494,
        "horse": 1112.2809097427437,
        "ship": 809.682782276247,
        "truck": 1020.5478135244489
    },
    "fid": 663.4631902312744,
    "wasserstein_distance": null,
    "g_loss": null,
    "g_cost": null,
    "d_loss_real": null,
    "d_loss_fake": null
}