{
    "epoch": 120,
    "avg_current_window": 811.5859879490274,
    "avg_prior_window": 823.0068540188768,
    "inception_score_mean": 2.014302649298773,
    "inception_score_std": 0.12493197249533006,
    "fid_per_class": {
        "airplane": 901.6940976062837,
        "automobile": 1010.1807677277507,
        "bird": 1086.352363860933,
        "cat": 899.1366659774571,
        "deer": 1238.7464619194993,
        "dog": 910.173098150258,
        "frog": 1350.1021655184338,
        "horse": 1173.2709735710416,
        "ship": 763.8439142057391,
        "truck": 1041.784793449758
    },
    "fid": 635.5351608135093,
    "wasserstein_distance": null,
    "g_loss": null,
    "g_cost": null,
    "d_loss_real": null,
    "d_loss_fake": null
}