{
    "epoch": 186,
    "avg_current_window": 759.6258203370476,
    "avg_prior_window": 766.1890308131575,
    "inception_score_mean": 1.9752886682631714,
    "inception_score_std": 0.13361309209883207,
    "fid_per_class": {
        "airplane": 910.6987063091028,
        "automobile": 1060.6083057403982,
        "bird": 1146.8844715905484,
        "cat": 927.2062782827616,
        "deer": 1189.091081288649,
        "dog": 887.3469805146019,
        "frog": 1235.164532195137,
        "horse": 1061.5348187814204,
        "ship": 774.5227255178165,
        "truck": 1037.1371604573246
    },
    "fid": 619.2899143786564,
    "wasserstein_distance": null,
    "g_loss": null,
    "g_cost": null,
    "d_loss_real": null,
    "d_loss_fake": null
}