{
    "epoch": 175,
    "avg_current_window": 766.2396461922485,
    "avg_prior_window": 772.9890668674597,
    "inception_score_mean": 1.9868977497508482,
    "inception_score_std": 0.10169361858045263,
    "fid_per_class": {
        "airplane": 914.003601119146,
        "automobile": 1030.973161702244,
        "bird": 1188.7833616445196,
        "cat": 975.8393919088232,
        "deer": 1256.3162775629053,
        "dog": 972.1186872368612,
        "frog": 1302.6109384252798,
        "horse": 1143.746493693788,
        "ship": 731.0157963003353,
        "truck": 1027.196653147303
    },
    "fid": 657.9247913351034,
    "wasserstein_distance": null,
    "g_loss": null,
    "g_cost": null,
    "d_loss_real": null,
    "d_loss_fake": null
}