{
    "epoch": 78,
    "avg_current_window": 877.7739480659397,
    "avg_prior_window": 898.592948619853,
    "inception_score_mean": 1.85825539304664,
    "inception_score_std": 0.1594320431209769,
    "fid_per_class": {
        "airplane": 960.8633694401783,
        "automobile": 1076.7582899903323,
        "bird": 1230.2749435541414,
        "cat": 935.8515485671696,
        "deer": 1289.6092049091828,
        "dog": 990.7606134679185,
        "frog": 1365.2623968661721,
        "horse": 1237.0038300655037,
        "ship": 836.649127767942,
        "truck": 1120.9444553185317
    },
    "fid": 715.064600509411,
    "wasserstein_distance": null,
    "g_loss": null,
    "g_cost": null,
    "d_loss_real": null,
    "d_loss_fake": null
}