{
    "epoch": 183,
    "avg_current_window": 761.5130831509936,
    "avg_prior_window": 768.4276907402691,
    "inception_score_mean": 1.8997034904040564,
    "inception_score_std": 0.09862930844860099,
    "fid_per_class": {
        "airplane": 931.3060692572594,
        "automobile": 1067.2253656087848,
        "bird": 1155.5251609785569,
        "cat": 937.3934939218861,
        "deer": 1254.3529617774059,
        "dog": 916.0684622386419,
        "frog": 1305.202365923608,
        "horse": 1068.6422340986992,
        "ship": 833.3532167230086,
        "truck": 1057.5360028089008
    },
    "fid": 659.7350658097778,
    "wasserstein_distance": null,
    "g_loss": null,
    "g_cost": null,
    "d_loss_real": null,
    "d_loss_fake": null
}