{
    "epoch": 99,
    "avg_current_window": 839.6309604743896,
    "avg_prior_window": 855.9976447059411,
    "inception_score_mean": 1.9425358320610069,
    "inception_score_std": 0.10136789814310207,
    "fid_per_class": {
        "airplane": 915.2695260951866,
        "automobile": 1095.2884559749275,
        "bird": 1266.941653062131,
        "cat": 983.204172561972,
        "deer": 1237.9884253311752,
        "dog": 947.4262157597723,
        "frog": 1410.4947920350123,
        "horse": 1144.790913992465,
        "ship": 775.1853861929436,
        "truck": 1089.3618124944871
    },
    "fid": 696.994022481961,
    "wasserstein_distance": null,
    "g_loss": null,
    "g_cost": null,
    "d_loss_real": null,
    "d_loss_fake": null
}