{
    "epoch": 23,
    "avg_current_window": 1218.1312627117593,
    "avg_prior_window": 1380.185132426556,
    "inception_score_mean": 1.7342438735597798,
    "inception_score_std": 0.1371974296134714,
    "fid_per_class": {
        "airplane": 1129.7067732513299,
        "automobile": 1337.0051573217688,
        "bird": 1248.0070795271877,
        "cat": 1053.6068708891728,
        "deer": 1349.8703310231854,
        "dog": 1088.0121165864643,
        "frog": 1425.8881151665487,
        "horse": 1325.4644064358558,
        "ship": 956.2706149176861,
        "truck": 1254.9479355734024
    },
    "fid": 806.1062896790335,
    "wasserstein_distance": null,
    "g_loss": null,
    "g_cost": null,
    "d_loss_real": null,
    "d_loss_fake": null
}