{
    "epoch": 89,
    "avg_current_window": 856.6879052609005,
    "avg_prior_window": 874.9345627959198,
    "inception_score_mean": 1.8641262146624111,
    "inception_score_std": 0.13125865936106135,
    "fid_per_class": {
        "airplane": 919.8706022390885,
        "automobile": 1086.076216351159,
        "bird": 1267.7797162170207,
        "cat": 951.2061432516263,
        "deer": 1302.5709778199903,
        "dog": 954.7770853060731,
        "frog": 1397.2996621136099,
        "horse": 1202.1118419434306,
        "ship": 802.2882055185584,
        "truck": 1087.5471916734055
    },
    "fid": 704.6402629360687,
    "wasserstein_distance": null,
    "g_loss": null,
    "g_cost": null,
    "d_loss_real": null,
    "d_loss_fake": null
}