{
    "epoch": 107,
    "avg_current_window": 827.9730279009976,
    "avg_prior_window": 841.8207434377047,
    "inception_score_mean": 1.8614177206387246,
    "inception_score_std": 0.12690539445715548,
    "fid_per_class": {
        "airplane": 956.4619859448035,
        "automobile": 982.8322126598719,
        "bird": 1165.8397308485357,
        "cat": 969.5049698102109,
        "deer": 1282.7421709198422,
        "dog": 984.2527397212012,
        "frog": 1368.0854695963517,
        "horse": 1104.5936675639764,
        "ship": 708.364978081729,
        "truck": 1127.4804800160746
    },
    "fid": 680.1675188893086,
    "wasserstein_distance": null,
    "g_loss": null,
    "g_cost": null,
    "d_loss_real": null,
    "d_loss_fake": null
}