{
    "epoch": 168,
    "avg_current_window": 770.2386396620868,
    "avg_prior_window": 777.4070853662718,
    "inception_score_mean": 1.9060562461239574,
    "inception_score_std": 0.1347872437124546,
    "fid_per_class": {
        "airplane": 944.7251984851059,
        "automobile": 1032.0737414217992,
        "bird": 1222.1356401791584,
        "cat": 906.2638773591752,
        "deer": 1283.68943571957,
        "dog": 983.5667376762481,
        "frog": 1308.102071210963,
        "horse": 1142.213450776599,
        "ship": 805.7301288494623,
        "truck": 1071.2606995850442
    },
    "fid": 667.0157860455336,
    "wasserstein_distance": null,
    "g_loss": null,
    "g_cost": null,
    "d_loss_real": null,
    "d_loss_fake": null
}