{
    "epoch": 122,
    "avg_current_window": 808.5836156275578,
    "avg_prior_window": 820.6987091671372,
    "inception_score_mean": 1.86438065531914,
    "inception_score_std": 0.13025452377016658,
    "fid_per_class": {
        "airplane": 1000.3564814468048,
        "automobile": 1047.6794244153577,
        "bird": 1204.797898032933,
        "cat": 926.9705751890881,
        "deer": 1277.6351105127917,
        "dog": 939.0554963906543,
        "frog": 1276.3217893034098,
        "horse": 1104.0825918974244,
        "ship": 819.7170009355954,
        "truck": 1106.8375508584586
    },
    "fid": 679.3166876038553,
    "wasserstein_distance": null,
    "g_loss": null,
    "g_cost": null,
    "d_loss_real": null,
    "d_loss_fake": null
}