{
    "epoch": 41,
    "avg_current_window": 1021.8124439635468,
    "avg_prior_window": 1080.046956330458,
    "inception_score_mean": 1.7643946238278456,
    "inception_score_std": 0.16282157917855045,
    "fid_per_class": {
        "airplane": 988.6909571046414,
        "automobile": 1174.4896977558644,
        "bird": 1224.1512236554597,
        "cat": 995.4998826257608,
        "deer": 1292.3304057141013,
        "dog": 1044.2074260194447,
        "frog": 1402.267571156441,
        "horse": 1260.8107807541028,
        "ship": 843.0756446927185,
        "truck": 1203.450728022709
    },
    "fid": 746.3791819975901,
    "wasserstein_distance": null,
    "g_loss": null,
    "g_cost": null,
    "d_loss_real": null,
    "d_loss_fake": null
}