{
    "epoch": 29,
    "avg_current_window": 1127.839097980714,
    "avg_prior_window": 1232.855175409214,
    "inception_score_mean": 1.7646708715787196,
    "inception_score_std": 0.09082143031617979,
    "fid_per_class": {
        "airplane": 975.1888398761969,
        "automobile": 1182.8301225619518,
        "bird": 1248.0051033080767,
        "cat": 977.4256155944317,
        "deer": 1397.8841762683967,
        "dog": 1038.632436266455,
        "frog": 1431.6558768544805,
        "horse": 1313.4152762914177,
        "ship": 943.2702350596295,
        "truck": 1292.4264056650231
    },
    "fid": 776.812207947717,
    "wasserstein_distance": null,
    "g_loss": null,
    "g_cost": null,
    "d_loss_real": null,
    "d_loss_fake": null
}