{
    "epoch": 127,
    "avg_current_window": 802.958893355333,
    "avg_prior_window": 814.1517851980814,
    "inception_score_mean": 1.9419135054166763,
    "inception_score_std": 0.10098686698200844,
    "fid_per_class": {
        "airplane": 946.8778075387572,
        "automobile": 1018.3608887391006,
        "bird": 1166.6900286930088,
        "cat": 894.8053613702282,
        "deer": 1155.7344720914894,
        "dog": 940.9818128342686,
        "frog": 1296.1156329928413,
        "horse": 1102.7572666738113,
        "ship": 797.0200484360313,
        "truck": 1017.5613586972569
    },
    "fid": 642.1224128212921,
    "wasserstein_distance": null,
    "g_loss": null,
    "g_cost": null,
    "d_loss_real": null,
    "d_loss_fake": null
}