{
    "epoch": 129,
    "avg_current_window": 800.6733352937474,
    "avg_prior_window": 811.9370602932481,
    "inception_score_mean": 1.8975908342199261,
    "inception_score_std": 0.11653616051757253,
    "fid_per_class": {
        "airplane": 918.4238423179895,
        "automobile": 1074.4712966348368,
        "bird": 1203.4758506303351,
        "cat": 944.8836324215603,
        "deer": 1160.6421604242255,
        "dog": 908.3178793377118,
        "frog": 1336.9362613112985,
        "horse": 1070.9614607142607,
        "ship": 843.2088203926444,
        "truck": 1039.570361086894
    },
    "fid": 651.5076500765126,
    "wasserstein_distance": null,
    "g_loss": null,
    "g_cost": null,
    "d_loss_real": null,
    "d_loss_fake": null
}