{
    "epoch": 6,
    "avg_current_window": 1722.6313918754897,
    "avg_prior_window": 3.0,
    "inception_score_mean": 1.2588517803154178,
    "inception_score_std": 0.04395013340342122,
    "fid_per_class": {
        "airplane": 1817.5975963950955,
        "automobile": 1903.937072654266,
        "bird": 2235.9438285013466,
        "cat": 2111.553753710383,
        "deer": 2322.693135015827,
        "dog": 2241.4746131877537,
        "frog": 2445.160481277225,
        "horse": 2285.0659483790314,
        "ship": 1831.5723242587862,
        "truck": 1780.1327422928061
    },
    "fid": 1933.3860419015668,
    "wasserstein_distance": null,
    "g_loss": null,
    "g_cost": null,
    "d_loss_real": null,
    "d_loss_fake": null
}