{
    "epoch": 97,
    "avg_current_window": 843.3883432527194,
    "avg_prior_window": 859.4981983481396,
    "inception_score_mean": 1.8804744439465053,
    "inception_score_std": 0.1433788358027565,
    "fid_per_class": {
        "airplane": 885.1221771308938,
        "automobile": 1013.088787704047,
        "bird": 1178.9301049773824,
        "cat": 947.4661971234951,
        "deer": 1207.1879445508498,
        "dog": 905.7898070694638,
        "frog": 1330.7298725127653,
        "horse": 1115.0168821430802,
        "ship": 711.6019438792051,
        "truck": 1056.0756424865347
    },
    "fid": 645.9940294211276,
    "wasserstein_distance": null,
    "g_loss": null,
    "g_cost": null,
    "d_loss_real": null,
    "d_loss_fake": null
}