{
    "epoch": 144,
    "avg_current_window": 786.7170832589221,
    "avg_prior_window": 795.5983027265022,
    "inception_score_mean": 1.8848824539055982,
    "inception_score_std": 0.10642728811058651,
    "fid_per_class": {
        "airplane": 935.0991512258744,
        "automobile": 1056.1846269923808,
        "bird": 1193.9536553442854,
        "cat": 953.5453497624177,
        "deer": 1318.4486800553263,
        "dog": 932.5410173248204,
        "frog": 1350.1739987792644,
        "horse": 1176.12674115231,
        "ship": 871.5884513134458,
        "truck": 1054.2821088463447
    },
    "fid": 698.4236034978815,
    "wasserstein_distance": null,
    "g_loss": null,
    "g_cost": null,
    "d_loss_real": null,
    "d_loss_fake": null
}