{
    "epoch": 80,
    "avg_current_window": 873.6930395398792,
    "avg_prior_window": 894.1068590801312,
    "inception_score_mean": 1.9267374227667038,
    "inception_score_std": 0.15422937056057046,
    "fid_per_class": {
        "airplane": 949.676072480534,
        "automobile": 975.5311668938036,
        "bird": 1204.1203421637097,
        "cat": 961.6641351978685,
        "deer": 1337.2263673921066,
        "dog": 996.8655079038175,
        "frog": 1389.4287067464347,
        "horse": 1125.3964560178792,
        "ship": 758.3059631856725,
        "truck": 1073.156081554594
    },
    "fid": 687.2779000577125,
    "wasserstein_distance": null,
    "g_loss": null,
    "g_cost": null,
    "d_loss_real": null,
    "d_loss_fake": null
}