{
    "epoch": 37,
    "avg_current_window": 1050.8564980512565,
    "avg_prior_window": 1117.2545627792126,
    "inception_score_mean": 1.743585192835353,
    "inception_score_std": 0.10720714118186524,
    "fid_per_class": {
        "airplane": 1053.7348826326495,
        "automobile": 1216.0732362636923,
        "bird": 1321.410384574101,
        "cat": 1013.9338406816039,
        "deer": 1363.5015168325303,
        "dog": 977.3738931414501,
        "frog": 1470.2995780010533,
        "horse": 1325.4558053966975,
        "ship": 890.3284182774755,
        "truck": 1216.621536260219
    },
    "fid": 803.0985409671041,
    "wasserstein_distance": null,
    "g_loss": null,
    "g_cost": null,
    "d_loss_real": null,
    "d_loss_fake": null
}