{
    "epoch": 92,
    "avg_current_window": 851.8557012305812,
    "avg_prior_window": 868.0296479735865,
    "inception_score_mean": 1.9346915924837176,
    "inception_score_std": 0.18545680335720577,
    "fid_per_class": {
        "airplane": 926.7610525316134,
        "automobile": 1108.2722621768835,
        "bird": 1241.9660478802498,
        "cat": 982.6828874584874,
        "deer": 1244.9168465168218,
        "dog": 943.6670566447146,
        "frog": 1367.1283820254077,
        "horse": 1158.5878346859708,
        "ship": 773.60299614629,
        "truck": 1166.2638762261076
    },
    "fid": 703.1097348153696,
    "wasserstein_distance": null,
    "g_loss": null,
    "g_cost": null,
    "d_loss_real": null,
    "d_loss_fake": null
}