{
    "epoch": 125,
    "avg_current_window": 805.4415638109022,
    "avg_prior_window": 816.88211428914,
    "inception_score_mean": 1.9275716234563671,
    "inception_score_std": 0.1522198107357053,
    "fid_per_class": {
        "airplane": 922.7181063993806,
        "automobile": 1015.0659128110217,
        "bird": 1156.512730551464,
        "cat": 978.754705339217,
        "deer": 1284.4175862725565,
        "dog": 973.544224535425,
        "frog": 1363.9657900077582,
        "horse": 1121.2899168120457,
        "ship": 741.3051743195342,
        "truck": 1017.5653128666687
    },
    "fid": 673.280675507503,
    "wasserstein_distance": null,
    "g_loss": null,
    "g_cost": null,
    "d_loss_real": null,
    "d_loss_fake": null
}