{
    "epoch": 75,
    "avg_current_window": 884.3707506547532,
    "avg_prior_window": 906.640567596704,
    "inception_score_mean": 1.8505840265539657,
    "inception_score_std": 0.14460237558369268,
    "fid_per_class": {
        "airplane": 935.7579956958978,
        "automobile": 1139.3371821428564,
        "bird": 1223.2280414740687,
        "cat": 1010.5408948674155,
        "deer": 1356.6905911924318,
        "dog": 977.3826112118736,
        "frog": 1410.3873173838435,
        "horse": 1184.5483535168603,
        "ship": 810.7726176908677,
        "truck": 1122.412032702411
    },
    "fid": 730.2081319033399,
    "wasserstein_distance": null,
    "g_loss": null,
    "g_cost": null,
    "d_loss_real": null,
    "d_loss_fake": null
}