{
    "epoch": 32,
    "avg_current_window": 1094.1743156121845,
    "avg_prior_window": 1183.39711133815,
    "inception_score_mean": 1.7314468361843225,
    "inception_score_std": 0.08103459124713079,
    "fid_per_class": {
        "airplane": 924.0191263051827,
        "automobile": 1204.410339474317,
        "bird": 1254.9343351183263,
        "cat": 948.2329979552694,
        "deer": 1303.7496160536841,
        "dog": 1004.0954497120173,
        "frog": 1473.5936289170093,
        "horse": 1280.4926146457171,
        "ship": 846.8790686946654,
        "truck": 1144.2096241395836
    },
    "fid": 738.5679093449012,
    "wasserstein_distance": null,
    "g_loss": null,
    "g_cost": null,
    "d_loss_real": null,
    "d_loss_fake": null
}