{
    "epoch": 94,
    "avg_current_window": 848.6404888921671,
    "avg_prior_window": 864.6052115860248,
    "inception_score_mean": 1.8922516686554136,
    "inception_score_std": 0.13100252101383542,
    "fid_per_class": {
        "airplane": 930.4281832456963,
        "automobile": 1087.9203188006813,
        "bird": 1250.694380827803,
        "cat": 963.8023434043425,
        "deer": 1265.9485590177655,
        "dog": 951.1503663300682,
        "frog": 1411.3753683482648,
        "horse": 1172.7146907921588,
        "ship": 791.3597523546495,
        "truck": 1104.5287117602938
    },
    "fid": 691.5726464947493,
    "wasserstein_distance": null,
    "g_loss": null,
    "g_cost": null,
    "d_loss_real": null,
    "d_loss_fake": null
}