{
    "epoch": 14,
    "avg_current_window": 1442.042059992525,
    "avg_prior_window": 1779.5646300620365,
    "inception_score_mean": 1.748770395688154,
    "inception_score_std": 0.0653811781005833,
    "fid_per_class": {
        "airplane": 1156.7985497758887,
        "automobile": 1221.031021131782,
        "bird": 1578.833452623958,
        "cat": 1432.1808669660868,
        "deer": 1669.8258011097523,
        "dog": 1528.428863487212,
        "frog": 1900.1063061688992,
        "horse": 1527.7094120006138,
        "ship": 990.0686806351375,
        "truck": 1076.6352692022267
    },
    "fid": 1073.9821941923228,
    "wasserstein_distance": null,
    "g_loss": null,
    "g_cost": null,
    "d_loss_real": null,
    "d_loss_fake": null
}