{
    "epoch": 83,
    "avg_current_window": 867.9139370167456,
    "avg_prior_window": 886.9414429442656,
    "inception_score_mean": 1.9224964909766782,
    "inception_score_std": 0.15018802628731287,
    "fid_per_class": {
        "airplane": 975.3707257919604,
        "automobile": 1090.6482124469685,
        "bird": 1302.2780650087198,
        "cat": 941.3620394051673,
        "deer": 1352.6463774628785,
        "dog": 994.4713325832407,
        "frog": 1433.83309336332,
        "horse": 1230.0144728010248,
        "ship": 833.1640017407447,
        "truck": 1144.2802118556772
    },
    "fid": 728.4000783471076,
    "wasserstein_distance": null,
    "g_loss": null,
    "g_cost": null,
    "d_loss_real": null,
    "d_loss_fake": null
}