{
    "epoch": 55,
    "avg_current_window": 1570.1863868006183,
    "avg_prior_window": 1641.361208122967,
    "inception_score_mean": 1.6894897008588976,
    "inception_score_std": 0.14341690870705456,
    "fid_per_class": {
        "airplane": 1201.302575485588,
        "automobile": 1287.596831969136,
        "bird": 1598.5058620018553,
        "cat": 1269.96739432281,
        "deer": 1673.7338608128762,
        "dog": 1444.166828517481,
        "frog": 2027.8942624179515,
        "horse": 1446.289337376214,
        "ship": 1088.9811245338171,
        "truck": 1269.842084441743
    },
    "fid": 1093.017057847987,
    "wasserstein_distance": null,
    "g_loss": null,
    "g_cost": null,
    "d_loss_real": null,
    "d_loss_fake": null
}