{
    "epoch": 57,
    "avg_current_window": 1552.230265236655,
    "avg_prior_window": 1619.678214541463,
    "inception_score_mean": 1.6933672187828352,
    "inception_score_std": 0.09675451740471598,
    "fid_per_class": {
        "airplane": 1205.0927611305583,
        "automobile": 1300.8093732084428,
        "bird": 1556.3569054179056,
        "cat": 1159.665564041832,
        "deer": 1538.6843635704051,
        "dog": 1316.8850495943227,
        "frog": 1976.3536165395958,
        "horse": 1434.2402874279126,
        "ship": 1079.214606942904,
        "truck": 1304.8796339145686
    },
    "fid": 1046.7832296161496,
    "wasserstein_distance": null,
    "g_loss": null,
    "g_cost": null,
    "d_loss_real": null,
    "d_loss_fake": null
}