{
    "epoch": 9,
    "avg_current_window": 1710.5912524074697,
    "avg_prior_window": 1941.0044848322552,
    "inception_score_mean": 1.1654342077553206,
    "inception_score_std": 0.037787543195842224,
    "fid_per_class": {
        "airplane": 1758.7331570879082,
        "automobile": 1836.3016217047248,
        "bird": 2516.6119296944476,
        "cat": 2088.100003321963,
        "deer": 2510.831862876702,
        "dog": 2359.5020966885672,
        "frog": 2671.497803133337,
        "horse": 2241.246041683224,
        "ship": 1905.9779860640479,
        "truck": 1595.8045261594218
    },
    "fid": 1923.9534927651152,
    "wasserstein_distance": null,
    "g_loss": null,
    "g_cost": null,
    "d_loss_real": null,
    "d_loss_fake": null
}