{
    "epoch": 67,
    "avg_current_window": 1477.7284476143575,
    "avg_prior_window": 1530.0901479092163,
    "inception_score_mean": 1.6718485166755688,
    "inception_score_std": 0.10283185780747212,
    "fid_per_class": {
        "airplane": 1129.231689528654,
        "automobile": 1265.5506313442443,
        "bird": 1356.9588712866796,
        "cat": 1177.9969300898274,
        "deer": 1607.483570535874,
        "dog": 1282.2512416130053,
        "frog": 1968.3774679476594,
        "horse": 1334.4827589970957,
        "ship": 1056.1553843683369,
        "truck": 1211.7661213546826
    },
    "fid": 981.3315804050354,
    "wasserstein_distance": null,
    "g_loss": null,
    "g_cost": null,
    "d_loss_real": null,
    "d_loss_fake": null
}