{
    "epoch": 84,
    "avg_current_window": 1375.7607541202256,
    "avg_prior_window": 1414.7435742355933,
    "inception_score_mean": 1.7083206370960031,
    "inception_score_std": 0.14665481978884445,
    "fid_per_class": {
        "airplane": 1155.4817757240012,
        "automobile": 1266.6265006470649,
        "bird": 1397.9610004058898,
        "cat": 1102.806830098716,
        "deer": 1433.6319518746243,
        "dog": 1131.6916745067128,
        "frog": 1614.749636529581,
        "horse": 1351.1468538299382,
        "ship": 1058.4467625393204,
        "truck": 1270.5196347192928
    },
    "fid": 939.2134719526694,
    "wasserstein_distance": null,
    "g_loss": null,
    "g_cost": null,
    "d_loss_real": null,
    "d_loss_fake": null
}