{
    "epoch": 45,
    "avg_current_window": 1669.815101517485,
    "avg_prior_window": 1758.232164097703,
    "inception_score_mean": 1.4773791659788942,
    "inception_score_std": 0.05401689825915008,
    "fid_per_class": {
        "airplane": 1348.1238457140903,
        "automobile": 1401.9674056458798,
        "bird": 1813.31527753259,
        "cat": 1405.3497017653272,
        "deer": 1850.0384210887141,
        "dog": 1520.3109331949859,
        "frog": 2227.032945107643,
        "horse": 1672.925895971583,
        "ship": 1264.6993447560153,
        "truck": 1290.7083081827325
    },
    "fid": 1259.4620227547723,
    "wasserstein_distance": null,
    "g_loss": null,
    "g_cost": null,
    "d_loss_real": null,
    "d_loss_fake": null
}