{
    "epoch": 29,
    "avg_current_window": 1879.4418162083552,
    "avg_prior_window": 2032.154015267175,
    "inception_score_mean": 1.2178184080784358,
    "inception_score_std": 0.023733376356166236,
    "fid_per_class": {
        "airplane": 1452.6816522289557,
        "automobile": 1547.2030053010803,
        "bird": 1553.8506488693067,
        "cat": 1245.6923325912126,
        "deer": 1691.2717513776088,
        "dog": 1520.234516363791,
        "frog": 1964.1252524629394,
        "horse": 1595.05296383168,
        "ship": 1349.7693887906596,
        "truck": 1399.2804984002598
    },
    "fid": 1258.0796242579602,
    "wasserstein_distance": null,
    "g_loss": null,
    "g_cost": null,
    "d_loss_real": null,
    "d_loss_fake": null
}