{
    "epoch": 82,
    "avg_current_window": 1385.6894217668334,
    "avg_prior_window": 1426.3869442877,
    "inception_score_mean": 1.6711484972363901,
    "inception_score_std": 0.12154100611774353,
    "fid_per_class": {
        "airplane": 1142.231774797546,
        "automobile": 1241.2788930278016,
        "bird": 1537.976905825582,
        "cat": 1166.5687139320416,
        "deer": 1517.8221333633246,
        "dog": 1232.6396452936315,
        "frog": 1841.6428988789503,
        "horse": 1378.454389745053,
        "ship": 1006.0325754828557,
        "truck": 1264.5320817432892
    },
    "fid": 994.5424604076891,
    "wasserstein_distance": null,
    "g_loss": null,
    "g_cost": null,
    "d_loss_real": null,
    "d_loss_fake": null
}