{
    "epoch": 13,
    "avg_current_window": 1952.1806013947112,
    "avg_prior_window": 1924.4151589584035,
    "inception_score_mean": 1.1484184317746098,
    "inception_score_std": 0.023187129029129405,
    "fid_per_class": {
        "airplane": 1771.6972013098546,
        "automobile": 2028.0886352701782,
        "bird": 2369.947304859508,
        "cat": 2440.9173763789186,
        "deer": 2720.7180192902097,
        "dog": 2279.677376954894,
        "frog": 2660.5166014819497,
        "horse": 2117.583093507964,
        "ship": 1971.7730383615733,
        "truck": 1840.7299835407766
    },
    "fid": 1992.2431477332593,
    "wasserstein_distance": null,
    "g_loss": null,
    "g_cost": null,
    "d_loss_real": null,
    "d_loss_fake": null
}