{
    "epoch": 74,
    "avg_current_window": 1432.992380464189,
    "avg_prior_window": 1478.3824418807562,
    "inception_score_mean": 1.6757774843084356,
    "inception_score_std": 0.1213409541388235,
    "fid_per_class": {
        "airplane": 1192.1811476315374,
        "automobile": 1228.6980361118387,
        "bird": 1408.8624563292,
        "cat": 1111.042259856818,
        "deer": 1534.3982035501017,
        "dog": 1152.3959990420778,
        "frog": 1707.6002756514276,
        "horse": 1272.7378808047852,
        "ship": 1053.3061752279164,
        "truck": 1213.4407711414067
    },
    "fid": 917.9244608240646,
    "wasserstein_distance": null,
    "g_loss": null,
    "g_cost": null,
    "d_loss_real": null,
    "d_loss_fake": null
}