{
    "epoch": 42,
    "avg_current_window": 1704.0926655895983,
    "avg_prior_window": 1797.9257494268047,
    "inception_score_mean": 1.4815047956146372,
    "inception_score_std": 0.0789665744907314,
    "fid_per_class": {
        "airplane": 1337.2855216802268,
        "automobile": 1337.339139849401,
        "bird": 1755.5434573061582,
        "cat": 1233.1370161898535,
        "deer": 1734.3236289422964,
        "dog": 1499.3839506328623,
        "frog": 2170.157747356897,
        "horse": 1651.5091559301964,
        "ship": 1140.476402621592,
        "truck": 1258.6960944387172
    },
    "fid": 1200.0885863665803,
    "wasserstein_distance": null,
    "g_loss": null,
    "g_cost": null,
    "d_loss_real": null,
    "d_loss_fake": null
}