{
    "epoch": 36,
    "avg_current_window": 1771.8666664348948,
    "avg_prior_window": 1885.322703126209,
    "inception_score_mean": 1.3686335960196958,
    "inception_score_std": 0.0860585888923606,
    "fid_per_class": {
        "airplane": 1392.6343111890408,
        "automobile": 1395.8185492170637,
        "bird": 1833.957960075752,
        "cat": 1462.998179823745,
        "deer": 1845.2332246602457,
        "dog": 1634.4399401876235,
        "frog": 2228.441191600228,
        "horse": 1705.3339166607593,
        "ship": 1188.4006987241473,
        "truck": 1370.2132431906957
    },
    "fid": 1335.6711584904247,
    "wasserstein_distance": null,
    "g_loss": null,
    "g_cost": null,
    "d_loss_real": null,
    "d_loss_fake": null
}