{
    "epoch": 73,
    "avg_current_window": 1438.490505861059,
    "avg_prior_window": 1485.7167709746543,
    "inception_score_mean": 1.5960142096798189,
    "inception_score_std": 0.10068497559568128,
    "fid_per_class": {
        "airplane": 1177.7028559891007,
        "automobile": 1303.1117138357438,
        "bird": 1496.922338511403,
        "cat": 1196.5915882474428,
        "deer": 1637.4180583832285,
        "dog": 1220.5185341197866,
        "frog": 1943.6703614843032,
        "horse": 1393.6325008871322,
        "ship": 1074.423151926653,
        "truck": 1263.3000728103461
    },
    "fid": 1031.6292264926733,
    "wasserstein_distance": null,
    "g_loss": null,
    "g_cost": null,
    "d_loss_real": null,
    "d_loss_fake": null
}