{
    "epoch": 78,
    "avg_current_window": 1408.0999321814477,
    "avg_prior_window": 1452.6224130732874,
    "inception_score_mean": 1.6968785658986405,
    "inception_score_std": 0.1175317777535805,
    "fid_per_class": {
        "airplane": 1158.867582937254,
        "automobile": 1222.3787058920555,
        "bird": 1410.8087800562769,
        "cat": 1143.8724990404517,
        "deer": 1609.0711516493107,
        "dog": 1201.9780720192784,
        "frog": 1886.6669054495371,
        "horse": 1301.2306265184366,
        "ship": 1012.7635769543979,
        "truck": 1240.4709116553825
    },
    "fid": 957.7691762186837,
    "wasserstein_distance": null,
    "g_loss": null,
    "g_cost": null,
    "d_loss_real": null,
    "d_loss_fake": null
}