{
    "epoch": 54,
    "avg_current_window": 1579.8753461133365,
    "avg_prior_window": 1650.7284624990189,
    "inception_score_mean": 1.6909650143422295,
    "inception_score_std": 0.17221736118401118,
    "fid_per_class": {
        "airplane": 1135.824936652674,
        "automobile": 1265.381482831067,
        "bird": 1611.3867039651198,
        "cat": 1280.8672131704109,
        "deer": 1610.7682754217399,
        "dog": 1440.3336022670726,
        "frog": 2018.278451374931,
        "horse": 1339.188307516674,
        "ship": 1080.790059561521,
        "truck": 1200.806692858049
    },
    "fid": 1046.9825839138384,
    "wasserstein_distance": null,
    "g_loss": null,
    "g_cost": null,
    "d_loss_real": null,
    "d_loss_fake": null
}