{
    "epoch": 61,
    "avg_current_window": 1520.4419645101927,
    "avg_prior_window": 1579.9486628301668,
    "inception_score_mean": 1.6771354589513803,
    "inception_score_std": 0.09979882832557113,
    "fid_per_class": {
        "airplane": 1235.5952127639043,
        "automobile": 1316.5917558355438,
        "bird": 1534.0463109165653,
        "cat": 1234.4349210328332,
        "deer": 1589.0574176732598,
        "dog": 1306.332523644618,
        "frog": 1985.5554875283706,
        "horse": 1429.26632411435,
        "ship": 1102.4716159941356,
        "truck": 1264.925675868016
    },
    "fid": 1051.4107409561757,
    "wasserstein_distance": null,
    "g_loss": null,
    "g_cost": null,
    "d_loss_real": null,
    "d_loss_fake": null
}