{
    "epoch": 40,
    "avg_current_window": 1724.8187777065523,
    "avg_prior_window": 1822.4914283330347,
    "inception_score_mean": 1.47345432936068,
    "inception_score_std": 0.08260499976366799,
    "fid_per_class": {
        "airplane": 1298.7620480597013,
        "automobile": 1401.9605094074118,
        "bird": 1870.8339565380188,
        "cat": 1615.5609562335596,
        "deer": 1923.4723468641414,
        "dog": 1769.2947438118756,
        "frog": 2481.503806935625,
        "horse": 1701.2758260836995,
        "ship": 1109.4604693493277,
        "truck": 1300.835725750697
    },
    "fid": 1336.535455646022,
    "wasserstein_distance": null,
    "g_loss": null,
    "g_cost": null,
    "d_loss_real": null,
    "d_loss_fake": null
}