{
    "epoch": 14,
    "avg_current_window": 1955.0422118474646,
    "avg_prior_window": 1924.3638627147047,
    "inception_score_mean": 1.1276472893300336,
    "inception_score_std": 0.10130237980521521,
    "fid_per_class": {
        "airplane": 1766.9439084827447,
        "automobile": 2317.258223267978,
        "bird": 2494.8831958683277,
        "cat": 2265.190228702447,
        "deer": 2723.5998864722296,
        "dog": 2588.730683190844,
        "frog": 2926.0877987476547,
        "horse": 2523.9556990386886,
        "ship": 2320.019348495018,
        "truck": 2200.156674605345
    },
    "fid": 2177.5392519215197,
    "wasserstein_distance": null,
    "g_loss": null,
    "g_cost": null,
    "d_loss_real": null,
    "d_loss_fake": null
}