{
    "epoch": 15,
    "avg_current_window": 1969.8753478524015,
    "avg_prior_window": 2000.704373489282,
    "inception_score_mean": 1.2498450102918621,
    "inception_score_std": 0.06579724300383842,
    "fid_per_class": {
        "airplane": 1989.2097900748138,
        "automobile": 1716.6525638386252,
        "bird": 2091.2090966477635,
        "cat": 1758.143824852871,
        "deer": 2659.1762502031957,
        "dog": 2095.9750623332534,
        "frog": 2347.2573963750565,
        "horse": 2370.9215217664123,
        "ship": 2093.0114559462418,
        "truck": 1963.1206486596077
    },
    "fid": 1745.6102629362927,
    "wasserstein_distance": null,
    "g_loss": null,
    "g_cost": null,
    "d_loss_real": null,
    "d_loss_fake": null
}