{
    "epoch": 28,
    "avg_current_window": 1899.1102127013705,
    "avg_prior_window": 2065.156086137578,
    "inception_score_mean": 1.239420574824208,
    "inception_score_std": 0.0397719019139161,
    "fid_per_class": {
        "airplane": 1516.152408384262,
        "automobile": 1526.605643855545,
        "bird": 1710.7963281252814,
        "cat": 1431.047199583661,
        "deer": 1569.4901876820925,
        "dog": 1621.1673372101568,
        "frog": 2044.4063969980737,
        "horse": 1718.4028175933518,
        "ship": 1393.1829995376202,
        "truck": 1371.160570627625
    },
    "fid": 1328.7267144039265,
    "wasserstein_distance": null,
    "g_loss": null,
    "g_cost": null,
    "d_loss_real": null,
    "d_loss_fake": null
}