{
    "epoch": 22,
    "avg_current_window": 1970.139251209097,
    "avg_prior_window": 2073.3641124592414,
    "inception_score_mean": 1.050990285409206,
    "inception_score_std": 0.013746610352642432,
    "fid_per_class": {
        "airplane": 1824.975274422874,
        "automobile": 1963.0418958127127,
        "bird": 2427.8353075727227,
        "cat": 2248.0889060286013,
        "deer": 2816.9697219312393,
        "dog": 2437.8125529066556,
        "frog": 2635.001419962667,
        "horse": 2383.857800215005,
        "ship": 2123.6416217058263,
        "truck": 2042.6259990293386
    },
    "fid": 2090.514470630166,
    "wasserstein_distance": null,
    "g_loss": null,
    "g_cost": null,
    "d_loss_real": null,
    "d_loss_fake": null
}