{
    "epoch": 38,
    "avg_current_window": 1750.611913915573,
    "avg_prior_window": 1850.5733622258729,
    "inception_score_mean": 1.3824323319703988,
    "inception_score_std": 0.06018092089808275,
    "fid_per_class": {
        "airplane": 1348.5230432315561,
        "automobile": 1305.728036851681,
        "bird": 1847.2810302158914,
        "cat": 1255.980930185984,
        "deer": 1698.6537722701134,
        "dog": 1501.7866987444793,
        "frog": 2044.7084670488996,
        "horse": 1574.0688296194903,
        "ship": 1121.7593104522985,
        "truck": 1271.0964116001985
    },
    "fid": 1189.8721936669835,
    "wasserstein_distance": null,
    "g_loss": null,
    "g_cost": null,
    "d_loss_real": null,
    "d_loss_fake": null
}