{
    "epoch": 4,
    "avg_current_window": 1462.1739515082918,
    "avg_prior_window": 1890.294445200068,
    "inception_score_mean": 1.0624056718925414,
    "inception_score_std": 0.007702090749871353,
    "fid_per_class": {
        "airplane": 1765.029594992773,
        "automobile": 1697.7419687697459,
        "bird": 2319.2684670356307,
        "cat": 2121.477699156518,
        "deer": 2420.8529313453773,
        "dog": 2226.8267292120618,
        "frog": 2760.9917556996934,
        "horse": 2150.882947138225,
        "ship": 1745.2557837860943,
        "truck": 1446.815900474182
    },
    "fid": 1915.3221332958535,
    "wasserstein_distance": null,
    "g_loss": null,
    "g_cost": null,
    "d_loss_real": null,
    "d_loss_fake": null
}