{
    "epoch": 35,
    "avg_current_window": 1784.1330320853062,
    "avg_prior_window": 1902.5396861319655,
    "inception_score_mean": 1.35661949792286,
    "inception_score_std": 0.04967618518408971,
    "fid_per_class": {
        "airplane": 1480.1496668424247,
        "automobile": 1423.236084841759,
        "bird": 1796.6319119758432,
        "cat": 1480.1633424449853,
        "deer": 1789.3211405066847,
        "dog": 1691.702374586388,
        "frog": 2238.6945396532356,
        "horse": 1632.412127834384,
        "ship": 1222.018625417712,
        "truck": 1317.3174299645193
    },
    "fid": 1342.5438686704917,
    "wasserstein_distance": null,
    "g_loss": null,
    "g_cost": null,
    "d_loss_real": null,
    "d_loss_fake": null
}