{
    "epoch": 47,
    "avg_current_window": 1651.7306579055462,
    "avg_prior_window": 1732.6662033602308,
    "inception_score_mean": 1.7374944180798848,
    "inception_score_std": 0.10559617600030209,
    "fid_per_class": {
        "airplane": 1293.3419235216602,
        "automobile": 1314.7514307346935,
        "bird": 1524.563514588599,
        "cat": 1289.9876857556915,
        "deer": 1682.2788016245424,
        "dog": 1337.9364904018523,
        "frog": 1938.6271579736053,
        "horse": 1558.8996492325489,
        "ship": 1210.3309747095786,
        "truck": 1171.4798052957497
    },
    "fid": 1078.4683855717713,
    "wasserstein_distance": null,
    "g_loss": null,
    "g_cost": null,
    "d_loss_real": null,
    "d_loss_fake": null
}