{
    "epoch": 39,
    "avg_current_window": 1736.2339723707375,
    "avg_prior_window": 1836.6075330289916,
    "inception_score_mean": 1.501045014186985,
    "inception_score_std": 0.057581026775411444,
    "fid_per_class": {
        "airplane": 1404.137952427313,
        "automobile": 1307.4888824628342,
        "bird": 1918.7519678738104,
        "cat": 1399.7874665725324,
        "deer": 1952.855323268256,
        "dog": 1646.4508175622684,
        "frog": 2255.151006435306,
        "horse": 1701.1144502596235,
        "ship": 1211.7812304893425,
        "truck": 1220.6162180356669
    },
    "fid": 1279.6261858033254,
    "wasserstein_distance": null,
    "g_loss": null,
    "g_cost": null,
    "d_loss_real": null,
    "d_loss_fake": null
}