{
    "epoch": 12,
    "avg_current_window": 1891.0578409617192,
    "avg_prior_window": 1934.1303857083933,
    "inception_score_mean": 1.0000000000183173,
    "inception_score_std": 1.1576395125470686e-11,
    "fid_per_class": {
        "airplane": 2309.872532366802,
        "automobile": 2425.322659766757,
        "bird": 2708.818215055269,
        "cat": 2766.7464458438226,
        "deer": 3127.717550150624,
        "dog": 2788.8375996795885,
        "frog": 2989.2852058007006,
        "horse": 2800.5294483603843,
        "ship": 2558.2831403121654,
        "truck": 2457.913026335801
    },
    "fid": 2685.653726590617,
    "wasserstein_distance": null,
    "g_loss": null,
    "g_cost": null,
    "d_loss_real": null,
    "d_loss_fake": null
}