{
    "epoch": 63,
    "avg_current_window": 1505.8030027043083,
    "avg_prior_window": 1563.1573621955413,
    "inception_score_mean": 1.6493560154618163,
    "inception_score_std": 0.09863483070432531,
    "fid_per_class": {
        "airplane": 1240.9362991211692,
        "automobile": 1335.4787192685972,
        "bird": 1484.628986751904,
        "cat": 1197.6995201362706,
        "deer": 1599.8005521793339,
        "dog": 1382.4929945208403,
        "frog": 1997.8473932631298,
        "horse": 1434.9869264361755,
        "ship": 1096.3417596557724,
        "truck": 1305.5045034028155
    },
    "fid": 1070.6657367332398,
    "wasserstein_distance": null,
    "g_loss": null,
    "g_cost": null,
    "d_loss_real": null,
    "d_loss_fake": null
}