{
    "epoch": 31,
    "avg_current_window": 1841.1674381922248,
    "avg_prior_window": 1985.2388393347412,
    "inception_score_mean": 1.3254065598452869,
    "inception_score_std": 0.06014962841229099,
    "fid_per_class": {
        "airplane": 1483.7996110286324,
        "automobile": 1495.5684874464448,
        "bird": 1718.1359829703479,
        "cat": 1447.4086916334104,
        "deer": 1721.498836012786,
        "dog": 1752.0011258850432,
        "frog": 2145.6279981308257,
        "horse": 1727.1252035319992,
        "ship": 1356.4667220667284,
        "truck": 1499.9373221734545
    },
    "fid": 1368.8132129535156,
    "wasserstein_distance": null,
    "g_loss": null,
    "g_cost": null,
    "d_loss_real": null,
    "d_loss_fake": null
}