{
    "epoch": 5,
    "avg_current_window": 1552.8035878658043,
    "avg_prior_window": 1889.294445200068,
    "inception_score_mean": 1.1337842536698157,
    "inception_score_std": 0.015562015261014802,
    "fid_per_class": {
        "airplane": 1924.8986275999218,
        "automobile": 1978.9041614343732,
        "bird": 2412.253323960598,
        "cat": 1991.9342605141069,
        "deer": 2319.671323539639,
        "dog": 2207.141003186021,
        "frog": 3024.400254646243,
        "horse": 2180.594005016427,
        "ship": 1741.0953189583033,
        "truck": 1532.0744363563065
    },
    "fid": 1914.4263394094778,
    "wasserstein_distance": null,
    "g_loss": null,
    "g_cost": null,
    "d_loss_real": null,
    "d_loss_fake": null
}