{
    "epoch": 26,
    "avg_current_window": 1920.871081245838,
    "avg_prior_window": 2063.9554060285777,
    "inception_score_mean": 1.218446040680311,
    "inception_score_std": 0.050501651595842474,
    "fid_per_class": {
        "airplane": 1733.4148466319318,
        "automobile": 1716.212408865213,
        "bird": 2020.5329615855594,
        "cat": 1768.5412223946778,
        "deer": 2206.506240887563,
        "dog": 2002.9487833888368,
        "frog": 2152.0326740173477,
        "horse": 1991.913647930844,
        "ship": 1588.3326668229201,
        "truck": 1510.278891269098
    },
    "fid": 1673.5617103114807,
    "wasserstein_distance": null,
    "g_loss": null,
    "g_cost": null,
    "d_loss_real": null,
    "d_loss_fake": null
}