{
    "epoch": 87,
    "avg_current_window": 1361.1330648179658,
    "avg_prior_window": 1397.817988357171,
    "inception_score_mean": 1.6722214463329574,
    "inception_score_std": 0.07623967727925951,
    "fid_per_class": {
        "airplane": 1220.9099757176568,
        "automobile": 1269.3104278280716,
        "bird": 1415.25581576979,
        "cat": 1112.9044884622108,
        "deer": 1573.1175750322482,
        "dog": 1208.3201897910658,
        "frog": 1796.6123568739397,
        "horse": 1428.1208763187087,
        "ship": 1031.3935535379258,
        "truck": 1257.9904822178844
    },
    "fid": 991.2055273195698,
    "wasserstein_distance": null,
    "g_loss": null,
    "g_cost": null,
    "d_loss_real": null,
    "d_loss_fake": null
}