{
    "epoch": 69,
    "avg_current_window": 1464.1846438590796,
    "avg_prior_window": 1514.4685194738997,
    "inception_score_mean": 1.5948625460232198,
    "inception_score_std": 0.09891452935537434,
    "fid_per_class": {
        "airplane": 1172.4092628740314,
        "automobile": 1253.4093669716203,
        "bird": 1508.7010064868334,
        "cat": 1148.2381689046329,
        "deer": 1516.212232827567,
        "dog": 1254.5741113736976,
        "frog": 1864.2848637029592,
        "horse": 1342.4388357319942,
        "ship": 1077.8630915165172,
        "truck": 1220.698242192031
    },
    "fid": 979.6480634956984,
    "wasserstein_distance": null,
    "g_loss": null,
    "g_cost": null,
    "d_loss_real": null,
    "d_loss_fake": null
}