{
    "epoch": 100,
    "avg_current_window": 1306.1883165730314,
    "avg_prior_window": 1336.148737879737,
    "inception_score_mean": 1.7461984057938575,
    "inception_score_std": 0.1099830934268382,
    "fid_per_class": {
        "airplane": 1089.838956422671,
        "automobile": 1272.063985317318,
        "bird": 1492.0083758683027,
        "cat": 1091.021589171995,
        "deer": 1532.9243831213778,
        "dog": 1215.3367338408507,
        "frog": 1783.271825758683,
        "horse": 1340.4349535956644,
        "ship": 1085.7412533543634,
        "truck": 1233.485499556167
    },
    "fid": 962.7341704023997,
    "wasserstein_distance": null,
    "g_loss": null,
    "g_cost": null,
    "d_loss_real": null,
    "d_loss_fake": null
}