{
    "epoch": 34,
    "avg_current_window": 1796.1447339251117,
    "avg_prior_window": 1922.8238722172505,
    "inception_score_mean": 1.3132603719479528,
    "inception_score_std": 0.040975493084577215,
    "fid_per_class": {
        "airplane": 1512.141045042081,
        "automobile": 1454.110182222941,
        "bird": 1689.9565662968412,
        "cat": 1590.7675467673168,
        "deer": 1675.0049903664924,
        "dog": 1775.3854275368044,
        "frog": 2248.5142305539407,
        "horse": 1608.1708472824712,
        "ship": 1315.50619810816,
        "truck": 1386.8297966030432
    },
    "fid": 1375.7351695319128,
    "wasserstein_distance": null,
    "g_loss": null,
    "g_cost": null,
    "d_loss_real": null,
    "d_loss_fake": null
}