{
    "epoch": 92,
    "avg_current_window": 1338.831540834848,
    "avg_prior_window": 1372.5262317986505,
    "inception_score_mean": 1.70670626426183,
    "inception_score_std": 0.08447209839910166,
    "fid_per_class": {
        "airplane": 1168.7112866420712,
        "automobile": 1218.757097121929,
        "bird": 1491.5265018655355,
        "cat": 1149.043121410621,
        "deer": 1522.7777448515167,
        "dog": 1204.9747681459423,
        "frog": 1792.2343435390408,
        "horse": 1381.4192935069018,
        "ship": 1078.497597270541,
        "truck": 1243.2425455800505
    },
    "fid": 980.711538924565,
    "wasserstein_distance": null,
    "g_loss": null,
    "g_cost": null,
    "d_loss_real": null,
    "d_loss_fake": null
}