{
    "epoch": 60,
    "avg_current_window": 1528.6219079676875,
    "avg_prior_window": 1590.0594242160362,
    "inception_score_mean": 1.7120092139872178,
    "inception_score_std": 0.14288675988907662,
    "fid_per_class": {
        "airplane": 1179.2751988952796,
        "automobile": 1302.8750870150752,
        "bird": 1581.8495666907672,
        "cat": 1225.2741853592902,
        "deer": 1583.7168570708827,
        "dog": 1306.4016297542196,
        "frog": 1880.502989537902,
        "horse": 1395.6028640979716,
        "ship": 1112.3812517475983,
        "truck": 1235.7829944930288
    },
    "fid": 1029.6453570605086,
    "wasserstein_distance": null,
    "g_loss": null,
    "g_cost": null,
    "d_loss_real": null,
    "d_loss_fake": null
}