{
    "epoch": 5,
    "avg_current_window": 1672.692299264474,
    "avg_prior_window": 1748.3392538629348,
    "inception_score_mean": 1.142235189782201,
    "inception_score_std": 0.02650992520672056,
    "fid_per_class": {
        "airplane": 1782.6484478507102,
        "automobile": 1915.66724008046,
        "bird": 2262.5821076376037,
        "cat": 2264.2724997647438,
        "deer": 2383.027983094161,
        "dog": 2260.2256450730038,
        "frog": 2615.126395655494,
        "horse": 2248.0409022704785,
        "ship": 1903.465550272194,
        "truck": 1824.341821422664
    },
    "fid": 1950.615613863027,
    "wasserstein_distance": null,
    "g_loss": null,
    "g_cost": null,
    "d_loss_real": null,
    "d_loss_fake": null
}