{
    "epoch": 16,
    "avg_current_window": 1658.8289981497976,
    "avg_prior_window": 1940.2781488037515,
    "inception_score_mean": 1.5141541410491146,
    "inception_score_std": 0.10186731952933528,
    "fid_per_class": {
        "airplane": 1209.043582341451,
        "automobile": 1353.8862338869228,
        "bird": 1507.4440229531756,
        "cat": 1495.321436746254,
        "deer": 1565.7134897866692,
        "dog": 1638.8777229523184,
        "frog": 1865.8749677618425,
        "horse": 1604.812237430873,
        "ship": 1092.3439641267128,
        "truck": 1156.239531473972
    },
    "fid": 1154.3467963632784,
    "wasserstein_distance": null,
    "g_loss": null,
    "g_cost": null,
    "d_loss_real": null,
    "d_loss_fake": null
}