{
    "epoch": 60,
    "avg_current_window": 1026.2160422387167,
    "avg_prior_window": 1066.896328667218,
    "inception_score_mean": 1.837564933046989,
    "inception_score_std": 0.12325251108368084,
    "fid_per_class": {
        "airplane": 891.1258699243846,
        "automobile": 1126.9009355666503,
        "bird": 1168.8989032100042,
        "cat": 949.2385317929818,
        "deer": 1339.665523363361,
        "dog": 981.4804461408216,
        "frog": 1383.4977770875398,
        "horse": 1231.3767956554238,
        "ship": 800.4423267742399,
        "truck": 1057.4102816590644
    },
    "fid": 697.939218146309,
    "wasserstein_distance": null,
    "g_loss": null,
    "g_cost": null,
    "d_loss_real": null,
    "d_loss_fake": null
}