{
    "epoch": 25,
    "avg_current_window": 1394.5705449183667,
    "avg_prior_window": 1573.6128825031774,
    "inception_score_mean": 1.65773365105897,
    "inception_score_std": 0.10050787185394303,
    "fid_per_class": {
        "airplane": 981.2860843593625,
        "automobile": 1172.4347229070304,
        "bird": 1365.9661832517693,
        "cat": 1254.1537256723684,
        "deer": 1564.204115589474,
        "dog": 1458.754637940501,
        "frog": 1720.237613380592,
        "horse": 1414.399727698014,
        "ship": 831.7161928260223,
        "truck": 1014.1083897552095
    },
    "fid": 899.6914757299908,
    "wasserstein_distance": null,
    "g_loss": null,
    "g_cost": null,
    "d_loss_real": null,
    "d_loss_fake": null
}