{
    "epoch": 75,
    "avg_current_window": 963.8683198403857,
    "avg_prior_window": 993.2017889689822,
    "inception_score_mean": 1.78868291331633,
    "inception_score_std": 0.1204064524809714,
    "fid_per_class": {
        "airplane": 930.5717183528658,
        "automobile": 1135.0985746048996,
        "bird": 1241.3295068682776,
        "cat": 968.6009948931118,
        "deer": 1325.7988130063359,
        "dog": 985.2049934168622,
        "frog": 1357.2932614939111,
        "horse": 1192.4903465405655,
        "ship": 836.0091307251652,
        "truck": 1153.33322391387
    },
    "fid": 725.4403810615769,
    "wasserstein_distance": null,
    "g_loss": null,
    "g_cost": null,
    "d_loss_real": null,
    "d_loss_fake": null
}