{
    "epoch": 67,
    "avg_current_window": 994.188636460947,
    "avg_prior_window": 1027.3786727565862,
    "inception_score_mean": 1.7842799055580134,
    "inception_score_std": 0.11541945036271088,
    "fid_per_class": {
        "airplane": 973.3389405145833,
        "automobile": 1127.4039075968078,
        "bird": 1286.8687848391344,
        "cat": 1000.0874834643207,
        "deer": 1314.796972045844,
        "dog": 1046.5775624050357,
        "frog": 1398.6421401858915,
        "horse": 1273.6266002579557,
        "ship": 874.0737628728554,
        "truck": 1126.296377824532
    },
    "fid": 771.9883119794175,
    "wasserstein_distance": null,
    "g_loss": null,
    "g_cost": null,
    "d_loss_real": null,
    "d_loss_fake": null
}