{
    "epoch": 22,
    "avg_current_window": 1470.5628290594561,
    "avg_prior_window": 1683.5098025044329,
    "inception_score_mean": 1.5591344869156285,
    "inception_score_std": 0.056854896731419614,
    "fid_per_class": {
        "airplane": 1091.6758356127532,
        "automobile": 1250.4715672667558,
        "bird": 1326.5690932694442,
        "cat": 1255.3749166983246,
        "deer": 1381.1488606229677,
        "dog": 1437.6497592459161,
        "frog": 1689.2123037228816,
        "horse": 1441.9586425547666,
        "ship": 970.5707198393275,
        "truck": 1106.1482962407122
    },
    "fid": 953.8378133688386,
    "wasserstein_distance": null,
    "g_loss": null,
    "g_cost": null,
    "d_loss_real": null,
    "d_loss_fake": null
}