{
    "epoch": 86,
    "avg_current_window": 930.9066337058401,
    "avg_prior_window": 953.9430435070914,
    "inception_score_mean": 1.7845605022856863,
    "inception_score_std": 0.13138299447404317,
    "fid_per_class": {
        "airplane": 952.3855122679568,
        "automobile": 1207.5240495916278,
        "bird": 1291.9364941337167,
        "cat": 1012.6306295956213,
        "deer": 1323.8437022384992,
        "dog": 1012.5770511574838,
        "frog": 1334.649905081903,
        "horse": 1247.091791169262,
        "ship": 881.9495266658253,
        "truck": 1214.90831474496
    },
    "fid": 761.7148122798139,
    "wasserstein_distance": null,
    "g_loss": null,
    "g_cost": null,
    "d_loss_real": null,
    "d_loss_fake": null
}