{
    "epoch": 41,
    "avg_current_window": 1165.7902230568986,
    "avg_prior_window": 1244.6208453401537,
    "inception_score_mean": 1.8937416145734303,
    "inception_score_std": 0.1684933995471177,
    "fid_per_class": {
        "airplane": 932.3360261816651,
        "automobile": 1151.817601141665,
        "bird": 1159.1055335922738,
        "cat": 943.231449740566,
        "deer": 1229.5151585940307,
        "dog": 958.3877472028672,
        "frog": 1347.1567178609203,
        "horse": 1265.3847534491467,
        "ship": 879.1755145135618,
        "truck": 1085.386993337032
    },
    "fid": 685.959713002286,
    "wasserstein_distance": null,
    "g_loss": null,
    "g_cost": null,
    "d_loss_real": null,
    "d_loss_fake": null
}