{
    "epoch": 59,
    "avg_current_window": 1031.8713131744157,
    "avg_prior_window": 1072.9204826756336,
    "inception_score_mean": 1.773223798439878,
    "inception_score_std": 0.09271734180450214,
    "fid_per_class": {
        "airplane": 905.0595681773354,
        "automobile": 1212.2701462949067,
        "bird": 1214.598000431008,
        "cat": 924.838660912429,
        "deer": 1208.0223821712862,
        "dog": 922.9757066420177,
        "frog": 1319.7601937571153,
        "horse": 1239.1167134516743,
        "ship": 835.2256553650079,
        "truck": 1142.7100196511328
    },
    "fid": 692.5550570324779,
    "wasserstein_distance": null,
    "g_loss": null,
    "g_cost": null,
    "d_loss_real": null,
    "d_loss_fake": null
}