{
    "epoch": 33,
    "avg_current_window": 1260.0088297280122,
    "avg_prior_window": 1367.757215789486,
    "inception_score_mean": 1.6619794411777882,
    "inception_score_std": 0.08557114052018741,
    "fid_per_class": {
        "airplane": 1072.822385741183,
        "automobile": 1470.2780794573084,
        "bird": 1162.6450834035336,
        "cat": 1085.700158378277,
        "deer": 1337.177529998473,
        "dog": 1084.419049560602,
        "frog": 1466.4144287814147,
        "horse": 1358.3453786348696,
        "ship": 1019.3144079393256,
        "truck": 1331.229897743091
    },
    "fid": 835.4525868389715,
    "wasserstein_distance": null,
    "g_loss": null,
    "g_cost": null,
    "d_loss_real": null,
    "d_loss_fake": null
}