{
    "epoch": 53,
    "avg_current_window": 1064.569589334743,
    "avg_prior_window": 1115.7588580474824,
    "inception_score_mean": 1.7755870604445838,
    "inception_score_std": 0.1078049149246517,
    "fid_per_class": {
        "airplane": 932.3279361971968,
        "automobile": 1220.983576551201,
        "bird": 1257.8201708316374,
        "cat": 974.3013920459261,
        "deer": 1334.1765008395846,
        "dog": 951.7148817722069,
        "frog": 1408.8588575102901,
        "horse": 1321.690628009288,
        "ship": 889.6610627952432,
        "truck": 1107.8482398769847
    },
    "fid": 743.2523235200581,
    "wasserstein_distance": null,
    "g_loss": null,
    "g_cost": null,
    "d_loss_real": null,
    "d_loss_fake": null
}