{
    "epoch": 93,
    "avg_current_window": 912.9797654108179,
    "avg_prior_window": 933.9051693121647,
    "inception_score_mean": 1.8539290447742487,
    "inception_score_std": 0.13198275784450117,
    "fid_per_class": {
        "airplane": 926.5597372053064,
        "automobile": 1142.8810996218913,
        "bird": 1176.45113731547,
        "cat": 967.0663121776689,
        "deer": 1247.5841743765727,
        "dog": 1008.5574669350233,
        "frog": 1288.8458136909344,
        "horse": 1181.3547021178128,
        "ship": 832.4034006276884,
        "truck": 1049.2490287509636
    },
    "fid": 688.2716515818917,
    "wasserstein_distance": null,
    "g_loss": null,
    "g_cost": null,
    "d_loss_real": null,
    "d_loss_fake": null
}