{
    "epoch": 39,
    "avg_current_window": 1188.1111110715883,
    "avg_prior_window": 1271.6694254267527,
    "inception_score_mean": 1.8382101938904918,
    "inception_score_std": 0.15737663732262824,
    "fid_per_class": {
        "airplane": 987.8403094681469,
        "automobile": 1305.1992604517513,
        "bird": 1201.7352855784957,
        "cat": 1015.5384098327536,
        "deer": 1300.206657148334,
        "dog": 1028.6069507911661,
        "frog": 1390.2201021634903,
        "horse": 1331.1422702484601,
        "ship": 1004.6436271752784,
        "truck": 1166.8365852575712
    },
    "fid": 758.5714403957195,
    "wasserstein_distance": null,
    "g_loss": null,
    "g_cost": null,
    "d_loss_real": null,
    "d_loss_fake": null
}