{
    "epoch": 17,
    "avg_current_window": 1629.1535745152964,
    "avg_prior_window": 1874.9728470156542,
    "inception_score_mean": 1.533401597870394,
    "inception_score_std": 0.0706219602955335,
    "fid_per_class": {
        "airplane": 1107.178517151689,
        "automobile": 1246.317296762099,
        "bird": 1228.4727011486407,
        "cat": 1252.9254440924046,
        "deer": 1316.2703195746603,
        "dog": 1445.824494672379,
        "frog": 1571.8190953153526,
        "horse": 1310.2708096148663,
        "ship": 1015.3216841722383,
        "truck": 1089.4755704305958
    },
    "fid": 924.055875815318,
    "wasserstein_distance": null,
    "g_loss": null,
    "g_cost": null,
    "d_loss_real": null,
    "d_loss_fake": null
}