{
    "epoch": 29,
    "avg_current_window": 1320.5931738657107,
    "avg_prior_window": 1452.6776509566319,
    "inception_score_mean": 1.7662156757413374,
    "inception_score_std": 0.10210053461973773,
    "fid_per_class": {
        "airplane": 1087.4786499145484,
        "automobile": 1230.2872738918488,
        "bird": 1298.646705428959,
        "cat": 1101.8605070796038,
        "deer": 1472.2565679626518,
        "dog": 1153.782301838752,
        "frog": 1568.0524452245315,
        "horse": 1330.4172036391092,
        "ship": 924.5988952983148,
        "truck": 1031.4995585667941
    },
    "fid": 858.0025929120067,
    "wasserstein_distance": null,
    "g_loss": null,
    "g_cost": null,
    "d_loss_real": null,
    "d_loss_fake": null
}