{
    "epoch": 46,
    "avg_current_window": 1116.6206416097132,
    "avg_prior_window": 1182.5209477642716,
    "inception_score_mean": 1.7746090697090409,
    "inception_score_std": 0.12747050379421146,
    "fid_per_class": {
        "airplane": 923.8738875689044,
        "automobile": 1215.8754241762613,
        "bird": 1232.8474455408127,
        "cat": 965.0220927420266,
        "deer": 1225.2765258798408,
        "dog": 942.6578559539481,
        "frog": 1426.0661559333325,
        "horse": 1237.002090497439,
        "ship": 865.9510975573139,
        "truck": 1033.822213698164
    },
    "fid": 727.9566567700926,
    "wasserstein_distance": null,
    "g_loss": null,
    "g_cost": null,
    "d_loss_real": null,
    "d_loss_fake": null
}