{
    "epoch": 35,
    "avg_current_window": 1235.3360132717025,
    "avg_prior_window": 1333.064061922648,
    "inception_score_mean": 1.699591563338289,
    "inception_score_std": 0.08051007845433988,
    "fid_per_class": {
        "airplane": 1024.525951403945,
        "automobile": 1484.5643376641274,
        "bird": 1236.5969569242493,
        "cat": 1009.9343539721817,
        "deer": 1247.0081455508491,
        "dog": 958.0489221411231,
        "frog": 1384.2447506144933,
        "horse": 1372.6313369876789,
        "ship": 947.4597494297511,
        "truck": 1359.7022550173215
    },
    "fid": 804.1188111449144,
    "wasserstein_distance": null,
    "g_loss": null,
    "g_cost": null,
    "d_loss_real": null,
    "d_loss_fake": null
}