{
    "epoch": 100,
    "avg_current_window": 896.4687926982425,
    "avg_prior_window": 915.6352026752527,
    "inception_score_mean": 1.9563970373601465,
    "inception_score_std": 0.09915492075438112,
    "fid_per_class": {
        "airplane": 894.5131498214864,
        "automobile": 1146.170376224598,
        "bird": 1136.7713140209437,
        "cat": 941.4734871829344,
        "deer": 1163.4318707304542,
        "dog": 942.5136916160407,
        "frog": 1242.415119831579,
        "horse": 1129.5339121280751,
        "ship": 823.8692552588609,
        "truck": 1156.69728281373
    },
    "fid": 655.1136727967962,
    "wasserstein_distance": null,
    "g_loss": null,
    "g_cost": null,
    "d_loss_real": null,
    "d_loss_fake": null
}