{
    "epoch": 55,
    "avg_current_window": 1053.4128375360765,
    "avg_prior_window": 1099.6712892347564,
    "inception_score_mean": 1.7510564748947826,
    "inception_score_std": 0.1047457638032877,
    "fid_per_class": {
        "airplane": 948.7518422837416,
        "automobile": 1205.9375140357743,
        "bird": 1225.2469733664466,
        "cat": 1004.4704366909775,
        "deer": 1282.1130624850875,
        "dog": 1021.7700032594937,
        "frog": 1380.740309412861,
        "horse": 1260.1182875049135,
        "ship": 886.8995570734112,
        "truck": 1079.142389239917
    },
    "fid": 741.5920122127794,
    "wasserstein_distance": null,
    "g_loss": null,
    "g_cost": null,
    "d_loss_real": null,
    "d_loss_fake": null
}