{
    "epoch": 32,
    "avg_current_window": 1274.1911418474426,
    "avg_prior_window": 1386.923399420943,
    "inception_score_mean": 1.803288512723982,
    "inception_score_std": 0.11724839756796777,
    "fid_per_class": {
        "airplane": 1024.6803298126506,
        "automobile": 1235.422708553258,
        "bird": 1286.8190301174077,
        "cat": 1116.6092711112715,
        "deer": 1335.4485987836651,
        "dog": 991.7434516744095,
        "frog": 1434.4571859754265,
        "horse": 1388.7150456946702,
        "ship": 916.966027349772,
        "truck": 1234.3308081215425
    },
    "fid": 806.174841906236,
    "wasserstein_distance": null,
    "g_loss": null,
    "g_cost": null,
    "d_loss_real": null,
    "d_loss_fake": null
}