{
    "epoch": 47,
    "avg_current_window": 1108.3511951237638,
    "avg_prior_window": 1171.4338901316128,
    "inception_score_mean": 1.8797347589914541,
    "inception_score_std": 0.08903814312318284,
    "fid_per_class": {
        "airplane": 925.2759695177674,
        "automobile": 1247.10690962439,
        "bird": 1172.0501933685705,
        "cat": 930.6448597168288,
        "deer": 1314.391836885243,
        "dog": 930.039534083244,
        "frog": 1347.5586490248497,
        "horse": 1340.1760968815693,
        "ship": 840.8856638288864,
        "truck": 1089.637517954402
    },
    "fid": 711.0702634984042,
    "wasserstein_distance": null,
    "g_loss": null,
    "g_cost": null,
    "d_loss_real": null,
    "d_loss_fake": null
}