{
    "epoch": 58,
    "avg_current_window": 1036.6285932034139,
    "avg_prior_window": 1078.5932180804043,
    "inception_score_mean": 1.7738722010003751,
    "inception_score_std": 0.08645596535094989,
    "fid_per_class": {
        "airplane": 983.021808704749,
        "automobile": 1196.5903643017627,
        "bird": 1160.4011872886226,
        "cat": 961.1238082811536,
        "deer": 1313.7970283017778,
        "dog": 1036.8575318125966,
        "frog": 1422.124003287473,
        "horse": 1279.7853274349088,
        "ship": 897.3029507996426,
        "truck": 1093.3824750300826
    },
    "fid": 755.9490714925091,
    "wasserstein_distance": null,
    "g_loss": null,
    "g_cost": null,
    "d_loss_real": null,
    "d_loss_fake": null
}