{
    "epoch": 2,
    "avg_current_window": 874.1696269314674,
    "avg_prior_window": 1751.3392538629348,
    "inception_score_mean": 1.4072517439854728,
    "inception_score_std": 0.049872413827980105,
    "fid_per_class": {
        "airplane": 2245.2355799613783,
        "automobile": 2349.2627733220825,
        "bird": 2578.5401860851853,
        "cat": 2593.9689920776455,
        "deer": 2769.2506160739026,
        "dog": 2593.035031924599,
        "frog": 2797.6612116835704,
        "horse": 2742.868519831276,
        "ship": 2269.2604278287813,
        "truck": 2215.5335336174207
    },
    "fid": 2306.773941346739,
    "wasserstein_distance": null,
    "g_loss": null,
    "g_cost": null,
    "d_loss_real": null,
    "d_loss_fake": null
}