{
    "epoch": 61,
    "avg_current_window": 1020.8344549585133,
    "avg_prior_window": 1060.3443065195193,
    "inception_score_mean": 1.7899359657239686,
    "inception_score_std": 0.08907430194071063,
    "fid_per_class": {
        "airplane": 928.1402450427875,
        "automobile": 1196.441576037992,
        "bird": 1144.2275630447975,
        "cat": 912.7572700888293,
        "deer": 1164.3293471941588,
        "dog": 959.993028100125,
        "frog": 1338.5704678351126,
        "horse": 1217.8896994193296,
        "ship": 851.314673704223,
        "truck": 1127.243647324009
    },
    "fid": 699.7779707216156,
    "wasserstein_distance": null,
    "g_loss": null,
    "g_cost": null,
    "d_loss_real": null,
    "d_loss_fake": null
}