{
    "epoch": 97,
    "avg_current_window": 904.1628408836348,
    "avg_prior_window": 922.9034585131094,
    "inception_score_mean": 1.9887941689383823,
    "inception_score_std": 0.13767100228985077,
    "fid_per_class": {
        "airplane": 869.1300897142658,
        "automobile": 1060.8456396284041,
        "bird": 1132.237904839141,
        "cat": 904.9631723811771,
        "deer": 1172.1728631138367,
        "dog": 945.4304709817245,
        "frog": 1250.1846593650357,
        "horse": 1113.7941311353536,
        "ship": 854.9992494400343,
        "truck": 1080.4384621178274
    },
    "fid": 633.6772885176642,
    "wasserstein_distance": null,
    "g_loss": null,
    "g_cost": null,
    "d_loss_real": null,
    "d_loss_fake": null
}