{
    "epoch": 23,
    "avg_current_window": 1448.0965240294295,
    "avg_prior_window": 1642.9634852266247,
    "inception_score_mean": 1.726339354532692,
    "inception_score_std": 0.1199260120218577,
    "fid_per_class": {
        "airplane": 951.1804969700685,
        "automobile": 1031.435544652938,
        "bird": 1258.9689293319639,
        "cat": 1023.9854031744105,
        "deer": 1270.7648620494826,
        "dog": 1118.3995415752358,
        "frog": 1561.4643089150927,
        "horse": 1240.0621839078567,
        "ship": 862.9085860272719,
        "truck": 945.8756545030966
    },
    "fid": 755.4977496740551,
    "wasserstein_distance": null,
    "g_loss": null,
    "g_cost": null,
    "d_loss_real": null,
    "d_loss_fake": null
}