{
    "epoch": 65,
    "avg_current_window": 1002.1759980819797,
    "avg_prior_window": 1037.8483625411552,
    "inception_score_mean": 1.7838142388622735,
    "inception_score_std": 0.09703805550077428,
    "fid_per_class": {
        "airplane": 947.1495444572928,
        "automobile": 1148.5433507341963,
        "bird": 1190.882061808269,
        "cat": 991.8617379593959,
        "deer": 1252.6657819796656,
        "dog": 989.6535316176316,
        "frog": 1360.4190863980984,
        "horse": 1276.4505965472847,
        "ship": 890.0251107998952,
        "truck": 1121.2583456193345
    },
    "fid": 741.8221469297491,
    "wasserstein_distance": null,
    "g_loss": null,
    "g_cost": null,
    "d_loss_real": null,
    "d_loss_fake": null
}