{
    "epoch": 11,
    "avg_current_window": 1819.0312932335694,
    "avg_prior_window": 2101.4254904446893,
    "inception_score_mean": 1.3469519157250047,
    "inception_score_std": 0.03317165895027331,
    "fid_per_class": {
        "airplane": 1457.179780247374,
        "automobile": 1618.4976766208222,
        "bird": 1391.952754982884,
        "cat": 1579.6743314927048,
        "deer": 1716.1083872768231,
        "dog": 1619.2051150531752,
        "frog": 1826.3926995352408,
        "horse": 1692.0704476798871,
        "ship": 1492.9162199589314,
        "truck": 1688.5792402719476
    },
    "fid": 1333.715411272,
    "wasserstein_distance": null,
    "g_loss": null,
    "g_cost": null,
    "d_loss_real": null,
    "d_loss_fake": null
}