{
    "epoch": 88,
    "avg_current_window": 925.75725577964,
    "avg_prior_window": 948.0517235171893,
    "inception_score_mean": 1.8589939018028947,
    "inception_score_std": 0.1285943471807325,
    "fid_per_class": {
        "airplane": 900.9429611407347,
        "automobile": 1211.1720345119575,
        "bird": 1269.2621471291554,
        "cat": 980.8979415746389,
        "deer": 1280.0998565703967,
        "dog": 1011.3080785535628,
        "frog": 1326.7580715876322,
        "horse": 1174.8431368530833,
        "ship": 906.1059601855773,
        "truck": 1139.7698926534963
    },
    "fid": 717.0163908621801,
    "wasserstein_distance": null,
    "g_loss": null,
    "g_cost": null,
    "d_loss_real": null,
    "d_loss_fake": null
}