{
    "epoch": 71,
    "avg_current_window": 791.76947235226,
    "avg_prior_window": 807.9647699330561,
    "inception_score_mean": 1.8531971153411964,
    "inception_score_std": 0.13553458839597707,
    "fid_per_class": {
        "airplane": 987.0217092172243,
        "automobile": 1166.0855995142163,
        "bird": 1189.5095683255968,
        "cat": 990.5598342372257,
        "deer": 1426.5720210729169,
        "dog": 967.1658059777736,
        "frog": 1434.7056718792169,
        "horse": 1215.1259396787955,
        "ship": 824.6666064874798,
        "truck": 1176.0114071001465
    },
    "fid": 760.6739215358594,
    "wasserstein_distance": null,
    "g_loss": null,
    "g_cost": null,
    "d_loss_real": null,
    "d_loss_fake": null
}