{
    "epoch": 101,
    "avg_current_window": 769.4218869725714,
    "avg_prior_window": 779.6885273873742,
    "inception_score_mean": 1.9241802975359708,
    "inception_score_std": 0.16175723443978274,
    "fid_per_class": {
        "airplane": 1017.9584345758835,
        "automobile": 1160.3187632945396,
        "bird": 1194.1586970583164,
        "cat": 946.5931989827624,
        "deer": 1250.4976372606081,
        "dog": 930.1046678028177,
        "frog": 1213.5352769411597,
        "horse": 1145.7466272755694,
        "ship": 895.0718620070975,
        "truck": 1149.7107283547127
    },
    "fid": 686.6401506853168,
    "wasserstein_distance": null,
    "g_loss": null,
    "g_cost": null,
    "d_loss_real": null,
    "d_loss_fake": null
}