{
    "epoch": 2,
    "avg_current_window": 916.1437681945537,
    "avg_prior_window": 1835.2875363891073,
    "inception_score_mean": 1.2411063505530688,
    "inception_score_std": 0.024576551393270904,
    "fid_per_class": {
        "airplane": 1450.3640090182878,
        "automobile": 1811.0500047502287,
        "bird": 1213.3570031133572,
        "cat": 1569.8761451311302,
        "deer": 1380.0917557221173,
        "dog": 1707.4541860741087,
        "frog": 1594.3357663189395,
        "horse": 1691.1401306066427,
        "ship": 1469.805539760107,
        "truck": 1594.9313745123216
    },
    "fid": 1299.295374444508,
    "wasserstein_distance": null,
    "g_loss": null,
    "g_cost": null,
    "d_loss_real": null,
    "d_loss_fake": null
}