{
    "epoch": 45,
    "avg_current_window": 832.7756216297244,
    "avg_prior_window": 861.3196645300683,
    "inception_score_mean": 1.7043037161350152,
    "inception_score_std": 0.08975968306721893,
    "fid_per_class": {
        "airplane": 998.0727728338952,
        "automobile": 1302.64559259335,
        "bird": 1247.2463451836588,
        "cat": 999.3988177834185,
        "deer": 1370.8279483691908,
        "dog": 1044.4822448683149,
        "frog": 1379.90535035922,
        "horse": 1312.849197321991,
        "ship": 910.8983061612792,
        "truck": 1209.0637648123538
    },
    "fid": 790.8876349973212,
    "wasserstein_distance": null,
    "g_loss": null,
    "g_cost": null,
    "d_loss_real": null,
    "d_loss_fake": null
}