{
    "epoch": 5,
    "avg_current_window": 1074.440953682029,
    "avg_prior_window": 1832.2875363891073,
    "inception_score_mean": 1.5187529146750676,
    "inception_score_std": 0.09090827865083312,
    "fid_per_class": {
        "airplane": 1150.1424627601682,
        "automobile": 1373.057305324452,
        "bird": 1300.5834082202814,
        "cat": 1401.0462556585198,
        "deer": 1435.929347131599,
        "dog": 1529.888529801469,
        "frog": 1568.9377093830199,
        "horse": 1373.1012674229567,
        "ship": 1030.0052451638674,
        "truck": 1231.7758829630675
    },
    "fid": 1026.147830153986,
    "wasserstein_distance": null,
    "g_loss": null,
    "g_cost": null,
    "d_loss_real": null,
    "d_loss_fake": null
}