{
    "epoch": 58,
    "avg_current_window": 807.7215682946642,
    "avg_prior_window": 830.7818884999253,
    "inception_score_mean": 1.88536013359657,
    "inception_score_std": 0.16427056740342058,
    "fid_per_class": {
        "airplane": 974.5427193927379,
        "automobile": 1130.0115136104682,
        "bird": 1219.1787905667186,
        "cat": 982.2488947248656,
        "deer": 1257.6876072679697,
        "dog": 972.4795329830245,
        "frog": 1385.1571519552572,
        "horse": 1178.168542497286,
        "ship": 808.8070790045363,
        "truck": 1023.4128400509328
    },
    "fid": 701.4641162594062,
    "wasserstein_distance": null,
    "g_loss": null,
    "g_cost": null,
    "d_loss_real": null,
    "d_loss_fake": null
}