{
    "epoch": 59,
    "avg_current_window": 805.9205945313547,
    "avg_prior_window": 828.0845290585642,
    "inception_score_mean": 1.823583176102214,
    "inception_score_std": 0.10119011051865953,
    "fid_per_class": {
        "airplane": 966.3922733964185,
        "automobile": 1197.3267712648249,
        "bird": 1193.0834891903917,
        "cat": 971.2317563261747,
        "deer": 1235.717793658471,
        "dog": 927.7178234635965,
        "frog": 1295.038332711736,
        "horse": 1181.8596485226133,
        "ship": 862.3042208200268,
        "truck": 1113.2027366909917
    },
    "fid": 695.5270698415015,
    "wasserstein_distance": null,
    "g_loss": null,
    "g_cost": null,
    "d_loss_real": null,
    "d_loss_fake": null
}