{
    "epoch": 3,
    "avg_current_window": 434.09845814816936,
    "avg_prior_window": 1834.2875363891073,
    "inception_score_mean": 1.3216872318920296,
    "inception_score_std": 0.05328645089365517,
    "fid_per_class": {
        "airplane": 1261.6973307664039,
        "automobile": 1406.9072011595294,
        "bird": 1366.180742711587,
        "cat": 1465.0232800730596,
        "deer": 1383.3715909440593,
        "dog": 1562.5693657610439,
        "frog": 1642.8523695192612,
        "horse": 1427.841436374525,
        "ship": 1126.63375355665,
        "truck": 1248.7630756029866
    },
    "fid": 1117.732971399818,
    "wasserstein_distance": null,
    "g_loss": null,
    "g_cost": null,
    "d_loss_real": null,
    "d_loss_fake": null
}