{
    "epoch": 84,
    "avg_current_window": 779.5352686436746,
    "avg_prior_window": 792.847237818326,
    "inception_score_mean": 1.8532289856272393,
    "inception_score_std": 0.1399822152677936,
    "fid_per_class": {
        "airplane": 1002.4778809686505,
        "automobile": 1171.3647708309577,
        "bird": 1259.6964407828918,
        "cat": 938.3759503025319,
        "deer": 1294.3823083442635,
        "dog": 955.3143887663532,
        "frog": 1373.3283948822377,
        "horse": 1175.8582105871699,
        "ship": 889.210995315739,
        "truck": 1135.4956700579737
    },
    "fid": 739.2000256570758,
    "wasserstein_distance": null,
    "g_loss": null,
    "g_cost": null,
    "d_loss_real": null,
    "d_loss_fake": null
}