{
    "epoch": 64,
    "avg_current_window": 799.7530428589446,
    "avg_prior_window": 817.709188935448,
    "inception_score_mean": 1.8744112680202556,
    "inception_score_std": 0.09827236742565508,
    "fid_per_class": {
        "airplane": 968.7730934692989,
        "automobile": 1210.406817424335,
        "bird": 1148.1750870099736,
        "cat": 908.584766258462,
        "deer": 1279.358041973579,
        "dog": 889.7932508564625,
        "frog": 1273.3485294854033,
        "horse": 1172.8340150521144,
        "ship": 832.0842013772289,
        "truck": 1200.0717745325137
    },
    "fid": 683.6903251011295,
    "wasserstein_distance": null,
    "g_loss": null,
    "g_cost": null,
    "d_loss_real": null,
    "d_loss_fake": null
}