{
    "epoch": 161,
    "avg_current_window": 745.4032764691649,
    "avg_prior_window": 751.3657325954147,
    "inception_score_mean": 1.9518772785949132,
    "inception_score_std": 0.12861371396626556,
    "fid_per_class": {
        "airplane": 1032.3025121541032,
        "automobile": 1074.694710507447,
        "bird": 1233.5112351972757,
        "cat": 892.3405679518578,
        "deer": 1226.9616802424382,
        "dog": 972.1696926069732,
        "frog": 1253.3316860762634,
        "horse": 1088.5209261287541,
        "ship": 838.4331086737013,
        "truck": 1032.5739463590414
    },
    "fid": 654.8816363393389,
    "wasserstein_distance": null,
    "g_loss": null,
    "g_cost": null,
    "d_loss_real": null,
    "d_loss_fake": null
}