{
    "epoch": 34,
    "avg_current_window": 857.7485490022141,
    "avg_prior_window": 899.1015287647377,
    "inception_score_mean": 1.6930174640200053,
    "inception_score_std": 0.10382473650438918,
    "fid_per_class": {
        "airplane": 1063.0126400781114,
        "automobile": 1247.3275871594133,
        "bird": 1248.6420499372225,
        "cat": 921.2427751084365,
        "deer": 1258.9690745212167,
        "dog": 1053.0455097226652,
        "frog": 1281.8029535136943,
        "horse": 1268.2425475566,
        "ship": 902.795791214118,
        "truck": 1231.2116010108475
    },
    "fid": 765.8261836361967,
    "wasserstein_distance": null,
    "g_loss": null,
    "g_cost": null,
    "d_loss_real": null,
    "d_loss_fake": null
}