{
    "epoch": 130,
    "avg_current_window": 754.5437772045993,
    "avg_prior_window": 762.3468244372073,
    "inception_score_mean": 1.8893987727109487,
    "inception_score_std": 0.1312169538317111,
    "fid_per_class": {
        "airplane": 1013.2532571311071,
        "automobile": 1115.3349311301124,
        "bird": 1195.73658377246,
        "cat": 893.2678475849855,
        "deer": 1240.099126659352,
        "dog": 918.831233447763,
        "frog": 1310.0946922002663,
        "horse": 1147.215020335507,
        "ship": 837.9469283240628,
        "truck": 1112.005042957586
    },
    "fid": 679.1279429543202,
    "wasserstein_distance": null,
    "g_loss": null,
    "g_cost": null,
    "d_loss_real": null,
    "d_loss_fake": null
}