{
    "epoch": 162,
    "avg_current_window": 744.8445009128079,
    "avg_prior_window": 750.9330313648516,
    "inception_score_mean": 1.8749673119980037,
    "inception_score_std": 0.10625302723067417,
    "fid_per_class": {
        "airplane": 977.2076748164495,
        "automobile": 1080.6674787994968,
        "bird": 1198.8691578049734,
        "cat": 923.0756733424757,
        "deer": 1138.4556197712623,
        "dog": 970.0545286003946,
        "frog": 1225.7862412894433,
        "horse": 1107.5083231140356,
        "ship": 841.9547929703374,
        "truck": 1110.7159802527055
    },
    "fid": 654.3035254101417,
    "wasserstein_distance": null,
    "g_loss": null,
    "g_cost": null,
    "d_loss_real": null,
    "d_loss_fake": null
}