{
    "epoch": 28,
    "avg_current_window": 875.1699551709537,
    "avg_prior_window": 933.9643191979173,
    "inception_score_mean": 1.6875472591622245,
    "inception_score_std": 0.062178112741900944,
    "fid_per_class": {
        "airplane": 1056.450630449215,
        "automobile": 1236.1065974077849,
        "bird": 1252.7194060146053,
        "cat": 971.2497231105792,
        "deer": 1204.6229849254719,
        "dog": 1011.9666500084795,
        "frog": 1250.9272982808793,
        "horse": 1285.938527199838,
        "ship": 812.6549570028151,
        "truck": 1187.1827579724832
    },
    "fid": 758.1329573692408,
    "wasserstein_distance": null,
    "g_loss": null,
    "g_cost": null,
    "d_loss_real": null,
    "d_loss_fake": null
}