{
    "epoch": 20,
    "avg_current_window": 914.1707860076743,
    "avg_prior_window": 988.4456005176464,
    "inception_score_mean": 1.6661642145188047,
    "inception_score_std": 0.0821931704333988,
    "fid_per_class": {
        "airplane": 1181.167676983453,
        "automobile": 1424.1426527984097,
        "bird": 1257.934701137829,
        "cat": 1002.4834486704242,
        "deer": 1363.5133589642326,
        "dog": 1025.575892140047,
        "frog": 1271.209791088621,
        "horse": 1319.158357826031,
        "ship": 916.4121794322826,
        "truck": 1345.5122485623824
    },
    "fid": 836.6789846940035,
    "wasserstein_distance": null,
    "g_loss": null,
    "g_cost": null,
    "d_loss_real": null,
    "d_loss_fake": null
}