{
    "epoch": 127,
    "avg_current_window": 756.3449325779043,
    "avg_prior_window": 763.8494545700554,
    "inception_score_mean": 1.8741197133283305,
    "inception_score_std": 0.11525338812040518,
    "fid_per_class": {
        "airplane": 949.8466468478348,
        "automobile": 1077.2986356928957,
        "bird": 1249.3828084851211,
        "cat": 946.4443750160531,
        "deer": 1349.3054122642393,
        "dog": 995.3111220070314,
        "frog": 1294.3398693132272,
        "horse": 1162.86245357332,
        "ship": 790.0571899505542,
        "truck": 1133.211535352727
    },
    "fid": 705.9413003177108,
    "wasserstein_distance": null,
    "g_loss": null,
    "g_cost": null,
    "d_loss_real": null,
    "d_loss_fake": null
}