{
    "epoch": 193,
    "avg_current_window": 737.5675354368177,
    "avg_prior_window": 742.1900137225844,
    "inception_score_mean": 1.9125785917952953,
    "inception_score_std": 0.09545818855628159,
    "fid_per_class": {
        "airplane": 1012.7129471077051,
        "automobile": 1116.093900750757,
        "bird": 1208.1218617376608,
        "cat": 942.2624071664625,
        "deer": 1239.1022739910186,
        "dog": 930.107144038771,
        "frog": 1231.1205891907634,
        "horse": 1128.5835578141566,
        "ship": 821.1627604469134,
        "truck": 1029.8566865305488
    },
    "fid": 666.3427463697933,
    "wasserstein_distance": null,
    "g_loss": null,
    "g_cost": null,
    "d_loss_real": null,
    "d_loss_fake": null
}