{
    "epoch": 182,
    "avg_current_window": 739.5382448658016,
    "avg_prior_window": 744.5894795053028,
    "inception_score_mean": 1.8657614503672846,
    "inception_score_std": 0.0971821392641279,
    "fid_per_class": {
        "airplane": 1014.8449962273742,
        "automobile": 1100.5238010797468,
        "bird": 1271.3049562065398,
        "cat": 981.8495219642161,
        "deer": 1312.9083886545486,
        "dog": 1039.9288885355586,
        "frog": 1345.7057229998782,
        "horse": 1136.6152882396932,
        "ship": 846.3676427141361,
        "truck": 1070.428085312753
    },
    "fid": 718.1280246861952,
    "wasserstein_distance": null,
    "g_loss": null,
    "g_cost": null,
    "d_loss_real": null,
    "d_loss_fake": null
}