{
    "epoch": 113,
    "avg_current_window": 762.7839641041434,
    "avg_prior_window": 771.0897558675572,
    "inception_score_mean": 1.8559315336414308,
    "inception_score_std": 0.12032850723021135,
    "fid_per_class": {
        "airplane": 982.0615397001488,
        "automobile": 1143.3647470071157,
        "bird": 1221.1178136177605,
        "cat": 890.6136171422742,
        "deer": 1305.3992574626186,
        "dog": 970.9208086666923,
        "frog": 1370.3887771779255,
        "horse": 1138.5393503974421,
        "ship": 833.1020823241132,
        "truck": 1072.3188527865386
    },
    "fid": 699.538603986249,
    "wasserstein_distance": null,
    "g_loss": null,
    "g_cost": null,
    "d_loss_real": null,
    "d_loss_fake": null
}