{
    "epoch": 61,
    "avg_current_window": 802.504227238368,
    "avg_prior_window": 824.3539614523567,
    "inception_score_mean": 1.7763488449090015,
    "inception_score_std": 0.10324308256860096,
    "fid_per_class": {
        "airplane": 1003.5915123476242,
        "automobile": 1181.907142612937,
        "bird": 1226.9179952607044,
        "cat": 973.07643439498,
        "deer": 1259.8433793445586,
        "dog": 957.2063242809361,
        "frog": 1379.7211773597355,
        "horse": 1251.6295908054772,
        "ship": 861.0054311920092,
        "truck": 1149.6514767027677
    },
    "fid": 748.103490891862,
    "wasserstein_distance": null,
    "g_loss": null,
    "g_cost": null,
    "d_loss_real": null,
    "d_loss_fake": null
}