{
    "epoch": 150,
    "avg_current_window": 748.3358834707952,
    "avg_prior_window": 753.9946900203033,
    "inception_score_mean": 1.9633308289680063,
    "inception_score_std": 0.15159419683173464,
    "fid_per_class": {
        "airplane": 1009.4609286238233,
        "automobile": 1029.1072901410644,
        "bird": 1226.6899947128754,
        "cat": 966.3996570741447,
        "deer": 1376.7668866269569,
        "dog": 1009.4752002972159,
        "frog": 1409.343174323384,
        "horse": 1153.302418012126,
        "ship": 820.9932794708172,
        "truck": 1019.2531490448653
    },
    "fid": 707.9747675245072,
    "wasserstein_distance": null,
    "g_loss": null,
    "g_cost": null,
    "d_loss_real": null,
    "d_loss_fake": null
}