{
    "epoch": 179,
    "avg_current_window": 740.4002322260718,
    "avg_prior_window": 745.0514280742345,
    "inception_score_mean": 1.8841788741157117,
    "inception_score_std": 0.04123045078419816,
    "fid_per_class": {
        "airplane": 965.9923669426904,
        "automobile": 1035.9688400141404,
        "bird": 1196.0220288083096,
        "cat": 926.5334484399713,
        "deer": 1251.6813043705424,
        "dog": 900.0352586201092,
        "frog": 1307.3915685420548,
        "horse": 1058.657798488965,
        "ship": 888.9300068556495,
        "truck": 1019.5854067788557
    },
    "fid": 647.7638605567699,
    "wasserstein_distance": null,
    "g_loss": null,
    "g_cost": null,
    "d_loss_real": null,
    "d_loss_fake": null
}