{
    "epoch": 79,
    "avg_current_window": 783.4702602075013,
    "avg_prior_window": 798.8545556014712,
    "inception_score_mean": 1.8616516623820494,
    "inception_score_std": 0.07973245470559134,
    "fid_per_class": {
        "airplane": 984.5252974369682,
        "automobile": 1194.1582220734451,
        "bird": 1240.116593061229,
        "cat": 998.1845613599435,
        "deer": 1367.5459467419212,
        "dog": 973.932899757277,
        "frog": 1350.497390248197,
        "horse": 1210.6398787592686,
        "ship": 847.3975234296717,
        "truck": 1176.4861926233834
    },
    "fid": 740.7812312551491,
    "wasserstein_distance": null,
    "g_loss": null,
    "g_cost": null,
    "d_loss_real": null,
    "d_loss_fake": null
}