{
    "epoch": 42,
    "avg_current_window": 839.5613031188984,
    "avg_prior_window": 869.6886563966553,
    "inception_score_mean": 1.7280694832784083,
    "inception_score_std": 0.09314295292946738,
    "fid_per_class": {
        "airplane": 1117.1163739089045,
        "automobile": 1210.4893211950084,
        "bird": 1301.3032966088467,
        "cat": 985.1802107679997,
        "deer": 1350.9354468622907,
        "dog": 1006.2416350775277,
        "frog": 1317.7580262647393,
        "horse": 1311.3152214699562,
        "ship": 889.1855364228177,
        "truck": 1199.2574127471485
    },
    "fid": 782.0263225339309,
    "wasserstein_distance": null,
    "g_loss": null,
    "g_cost": null,
    "d_loss_real": null,
    "d_loss_fake": null
}