{
    "epoch": 57,
    "avg_current_window": 809.8916112514381,
    "avg_prior_window": 832.867165098046,
    "inception_score_mean": 1.8348041078439628,
    "inception_score_std": 0.0882152135944566,
    "fid_per_class": {
        "airplane": 1019.4654445859389,
        "automobile": 1133.2990270413554,
        "bird": 1120.4019762505077,
        "cat": 950.0269395830396,
        "deer": 1251.4106419999498,
        "dog": 912.7344576703256,
        "frog": 1322.3654876931303,
        "horse": 1189.3352108037302,
        "ship": 835.2880973413755,
        "truck": 1108.2727771954214
    },
    "fid": 684.0291197585566,
    "wasserstein_distance": null,
    "g_loss": null,
    "g_cost": null,
    "d_loss_real": null,
    "d_loss_fake": null
}