{
    "epoch": 129,
    "avg_current_window": 754.7572390421528,
    "avg_prior_window": 763.0542665678084,
    "inception_score_mean": 1.8542448885742835,
    "inception_score_std": 0.11226136902573934,
    "fid_per_class": {
        "airplane": 1047.7904493251442,
        "automobile": 1090.8901613398161,
        "bird": 1215.1755809315455,
        "cat": 966.5485453899271,
        "deer": 1357.1664294419375,
        "dog": 981.7867735375767,
        "frog": 1354.6201676397275,
        "horse": 1183.0604863116112,
        "ship": 854.7209915725974,
        "truck": 1109.4037240912915
    },
    "fid": 727.0072001601932,
    "wasserstein_distance": null,
    "g_loss": null,
    "g_cost": null,
    "d_loss_real": null,
    "d_loss_fake": null
}