{
    "epoch": 6,
    "avg_current_window": 1066.3920997606886,
    "avg_prior_window": 3.0,
    "inception_score_mean": 1.4290400965789571,
    "inception_score_std": 0.05468622351727073,
    "fid_per_class": {
        "airplane": 1107.173884468385,
        "automobile": 1321.0491879261613,
        "bird": 1115.0922305701986,
        "cat": 1260.7450873168225,
        "deer": 1124.6954902240768,
        "dog": 1362.2946072151906,
        "frog": 1365.4535447410267,
        "horse": 1213.2113605689556,
        "ship": 1125.4661945051898,
        "truck": 1256.6815067056477
    },
    "fid": 886.3431938775723,
    "wasserstein_distance": null,
    "g_loss": null,
    "g_cost": null,
    "d_loss_real": null,
    "d_loss_fake": null
}