{
    "epoch": 111,
    "avg_current_window": 763.4039796225723,
    "avg_prior_window": 773.0313710479719,
    "inception_score_mean": 1.876948086465834,
    "inception_score_std": 0.14506522338496292,
    "fid_per_class": {
        "airplane": 973.7639494980972,
        "automobile": 1148.0393960802444,
        "bird": 1310.353873079901,
        "cat": 986.9349853482418,
        "deer": 1369.3928816612865,
        "dog": 982.1784877783523,
        "frog": 1396.3248084792176,
        "horse": 1231.1537099967677,
        "ship": 809.441080762825,
        "truck": 1098.9742128764494
    },
    "fid": 736.2639961495099,
    "wasserstein_distance": null,
    "g_loss": null,
    "g_cost": null,
    "d_loss_real": null,
    "d_loss_fake": null
}