{
    "epoch": 172,
    "avg_current_window": 741.2072199995441,
    "avg_prior_window": 746.2282379217465,
    "inception_score_mean": 1.933561494610505,
    "inception_score_std": 0.08412556586732772,
    "fid_per_class": {
        "airplane": 999.0835426704332,
        "automobile": 1154.472225413228,
        "bird": 1297.355130709308,
        "cat": 950.2937830353799,
        "deer": 1333.537129793836,
        "dog": 991.4056502912728,
        "frog": 1400.525853721974,
        "horse": 1164.5029096557546,
        "ship": 841.7877126914339,
        "truck": 1151.572292595457
    },
    "fid": 723.9350446333299,
    "wasserstein_distance": null,
    "g_loss": null,
    "g_cost": null,
    "d_loss_real": null,
    "d_loss_fake": null
}