{
    "epoch": 74,
    "avg_current_window": 789.1105135522627,
    "avg_prior_window": 805.1074050438266,
    "inception_score_mean": 1.8913427463778287,
    "inception_score_std": 0.0888524831176903,
    "fid_per_class": {
        "airplane": 979.9643887866133,
        "automobile": 1249.7981059733322,
        "bird": 1182.1230863530518,
        "cat": 934.1323910687663,
        "deer": 1334.892983726416,
        "dog": 939.3922456557257,
        "frog": 1356.298674622898,
        "horse": 1183.8240264662616,
        "ship": 901.8985135251525,
        "truck": 1172.940680042533
    },
    "fid": 721.0591116414336,
    "wasserstein_distance": null,
    "g_loss": null,
    "g_cost": null,
    "d_loss_real": null,
    "d_loss_fake": null
}