{
    "epoch": 72,
    "avg_current_window": 791.3375897020322,
    "avg_prior_window": 806.6842638300699,
    "inception_score_mean": 1.916069507496972,
    "inception_score_std": 0.1540105721759146,
    "fid_per_class": {
        "airplane": 950.7547062895919,
        "automobile": 1109.738551377513,
        "bird": 1203.2281947837512,
        "cat": 941.0960181035186,
        "deer": 1275.2134026890853,
        "dog": 979.7149326388105,
        "frog": 1338.2191245734766,
        "horse": 1191.355627834546,
        "ship": 808.2952729089334,
        "truck": 1103.5862994141185
    },
    "fid": 703.40670909221,
    "wasserstein_distance": null,
    "g_loss": null,
    "g_cost": null,
    "d_loss_real": null,
    "d_loss_fake": null
}