{
    "epoch": 40,
    "avg_current_window": 843.1556034914968,
    "avg_prior_window": 876.8916921385423,
    "inception_score_mean": 1.7528983210015405,
    "inception_score_std": 0.09881624772181158,
    "fid_per_class": {
        "airplane": 971.5655851133445,
        "automobile": 1181.1915456210895,
        "bird": 1241.9142360741657,
        "cat": 976.4125319737423,
        "deer": 1221.9801484765344,
        "dog": 965.1945675438619,
        "frog": 1262.1266672705237,
        "horse": 1241.8620783701879,
        "ship": 843.1882267600135,
        "truck": 1183.965636902732
    },
    "fid": 726.562441542864,
    "wasserstein_distance": null,
    "g_loss": null,
    "g_cost": null,
    "d_loss_real": null,
    "d_loss_fake": null
}