{
    "epoch": 105,
    "avg_current_window": 766.9158392995578,
    "avg_prior_window": 777.1161058422971,
    "inception_score_mean": 1.9109128685715155,
    "inception_score_std": 0.11227747052431294,
    "fid_per_class": {
        "airplane": 1000.5053835011213,
        "automobile": 1131.097231305484,
        "bird": 1239.607048612293,
        "cat": 967.4703390948757,
        "deer": 1354.1897409050146,
        "dog": 951.6074930597807,
        "frog": 1378.107262619653,
        "horse": 1168.4603587497056,
        "ship": 831.3931265753661,
        "truck": 1125.2688655691236
    },
    "fid": 719.2639105351408,
    "wasserstein_distance": null,
    "g_loss": null,
    "g_cost": null,
    "d_loss_real": null,
    "d_loss_fake": null
}