{
    "epoch": 174,
    "avg_current_window": 741.1600492804233,
    "avg_prior_window": 746.0313904054528,
    "inception_score_mean": 1.8857460952760694,
    "inception_score_std": 0.09403587388123487,
    "fid_per_class": {
        "airplane": 1008.123433592918,
        "automobile": 1107.0398033964348,
        "bird": 1211.1691832734577,
        "cat": 886.8026898477411,
        "deer": 1282.989722020553,
        "dog": 956.6396044858856,
        "frog": 1332.0396027541133,
        "horse": 1066.6809175759745,
        "ship": 892.6331132909163,
        "truck": 1071.4467175471814
    },
    "fid": 677.0999101231608,
    "wasserstein_distance": null,
    "g_loss": null,
    "g_cost": null,
    "d_loss_real": null,
    "d_loss_fake": null
}