{
    "epoch": 190,
    "avg_current_window": 738.043764227861,
    "avg_prior_window": 743.0585036465126,
    "inception_score_mean": 1.850455264370018,
    "inception_score_std": 0.08801800940893197,
    "fid_per_class": {
        "airplane": 1024.2434868905734,
        "automobile": 1097.9531689741711,
        "bird": 1206.053065587972,
        "cat": 919.6382688424155,
        "deer": 1348.1292966176993,
        "dog": 943.4744923673836,
        "frog": 1233.4140118907897,
        "horse": 1213.3460357052795,
        "ship": 910.5641077556581,
        "truck": 1159.9749679266852
    },
    "fid": 700.4829899731719,
    "wasserstein_distance": null,
    "g_loss": null,
    "g_cost": null,
    "d_loss_real": null,
    "d_loss_fake": null
}