{
    "epoch": 118,
    "avg_current_window": 759.5873368174664,
    "avg_prior_window": 768.974571219066,
    "inception_score_mean": 1.9685833114665314,
    "inception_score_std": 0.1793283817226372,
    "fid_per_class": {
        "airplane": 1007.5421438078399,
        "automobile": 1160.1824444614376,
        "bird": 1308.2467872667214,
        "cat": 1011.4922077361712,
        "deer": 1382.616212820457,
        "dog": 956.7001906884072,
        "frog": 1430.7753642342293,
        "horse": 1195.7873051973206,
        "ship": 839.6655926492966,
        "truck": 1098.1530142888548
    },
    "fid": 747.371766289658,
    "wasserstein_distance": null,
    "g_loss": null,
    "g_cost": null,
    "d_loss_real": null,
    "d_loss_fake": null
}