{
    "epoch": 81,
    "avg_current_window": 782.0381713090255,
    "avg_prior_window": 795.2929964438077,
    "inception_score_mean": 1.8830733104562083,
    "inception_score_std": 0.1502592897813341,
    "fid_per_class": {
        "airplane": 1060.0271481462544,
        "automobile": 1163.2479457013076,
        "bird": 1247.4002767937463,
        "cat": 955.9014337623971,
        "deer": 1311.875292049714,
        "dog": 950.7064067421137,
        "frog": 1334.1517308950538,
        "horse": 1137.8213931838454,
        "ship": 856.5174156749304,
        "truck": 1138.6030165120533
    },
    "fid": 726.9959819405432,
    "wasserstein_distance": null,
    "g_loss": null,
    "g_cost": null,
    "d_loss_real": null,
    "d_loss_fake": null
}