{
    "epoch": 32,
    "avg_current_window": 860.8566096397498,
    "avg_prior_window": 907.5836572143224,
    "inception_score_mean": 1.7216988367154002,
    "inception_score_std": 0.05367006245436174,
    "fid_per_class": {
        "airplane": 1153.6664293886402,
        "automobile": 1271.1514350706088,
        "bird": 1351.6283288830841,
        "cat": 992.894268190282,
        "deer": 1346.7648089048573,
        "dog": 1050.7992515002948,
        "frog": 1327.3010426013225,
        "horse": 1311.075345926875,
        "ship": 880.6226739267663,
        "truck": 1284.280566649591
    },
    "fid": 813.8063453293693,
    "wasserstein_distance": null,
    "g_loss": null,
    "g_cost": null,
    "d_loss_real": null,
    "d_loss_fake": null
}