{
    "epoch": 104,
    "avg_current_window": 768.2335134514204,
    "avg_prior_window": 777.5300131805441,
    "inception_score_mean": 1.9334099062341121,
    "inception_score_std": 0.1125112615728907,
    "fid_per_class": {
        "airplane": 949.4682571653314,
        "automobile": 1047.7882311056053,
        "bird": 1130.5026644678817,
        "cat": 863.4863443143338,
        "deer": 1139.1687754222016,
        "dog": 927.5663401336051,
        "frog": 1251.0378098444405,
        "horse": 1058.987472000741,
        "ship": 820.7783571864562,
        "truck": 1034.2968174270823
    },
    "fid": 629.8777275058392,
    "wasserstein_distance": null,
    "g_loss": null,
    "g_cost": null,
    "d_loss_real": null,
    "d_loss_fake": null
}