{
    "epoch": 136,
    "avg_current_window": 751.9051530835306,
    "avg_prior_window": 759.5629048091175,
    "inception_score_mean": 1.8976739776091152,
    "inception_score_std": 0.09820842186064414,
    "fid_per_class": {
        "airplane": 958.0512451330253,
        "automobile": 1002.8243863750099,
        "bird": 1242.5944836851504,
        "cat": 1012.9979796279954,
        "deer": 1349.8336703418481,
        "dog": 1006.2162959453316,
        "frog": 1443.3549868341522,
        "horse": 1167.349522017339,
        "ship": 788.0644775852502,
        "truck": 1004.8030341680067
    },
    "fid": 710.2916505086969,
    "wasserstein_distance": null,
    "g_loss": null,
    "g_cost": null,
    "d_loss_real": null,
    "d_loss_fake": null
}