{
    "epoch": 184,
    "avg_current_window": 739.3447252673419,
    "avg_prior_window": 744.0190247431486,
    "inception_score_mean": 1.883674768806657,
    "inception_score_std": 0.09813615945640257,
    "fid_per_class": {
        "airplane": 1070.4812578976203,
        "automobile": 1119.049744705623,
        "bird": 1256.4818448625979,
        "cat": 997.5955269108581,
        "deer": 1351.7661869118779,
        "dog": 979.6939836597676,
        "frog": 1324.103455636191,
        "horse": 1210.270954384278,
        "ship": 909.1479908749282,
        "truck": 1084.6224116699782
    },
    "fid": 743.6465942096377,
    "wasserstein_distance": null,
    "g_loss": null,
    "g_cost": null,
    "d_loss_real": null,
    "d_loss_fake": null
}