{
    "epoch": 29,
    "avg_current_window": 871.1341966260671,
    "avg_prior_window": 925.5418565424446,
    "inception_score_mean": 1.6556072353408204,
    "inception_score_std": 0.10343764047954468,
    "fid_per_class": {
        "airplane": 1042.169417927483,
        "automobile": 1331.5362444755783,
        "bird": 1344.8701734934218,
        "cat": 1016.60130878683,
        "deer": 1349.3090085597587,
        "dog": 1062.4051209487525,
        "frog": 1347.5223387517462,
        "horse": 1310.1532064406097,
        "ship": 925.0525684819368,
        "truck": 1196.2189250746105
    },
    "fid": 811.0526320214467,
    "wasserstein_distance": null,
    "g_loss": null,
    "g_cost": null,
    "d_loss_real": null,
    "d_loss_fake": null
}