{
    "epoch": 195,
    "avg_current_window": 736.8552092673223,
    "avg_prior_window": 741.7305168066672,
    "inception_score_mean": 1.9067756249638066,
    "inception_score_std": 0.09453348541182598,
    "fid_per_class": {
        "airplane": 962.0067410688688,
        "automobile": 1116.9907890816016,
        "bird": 1200.641297611874,
        "cat": 947.4276427916208,
        "deer": 1327.3617354117118,
        "dog": 939.8860763064732,
        "frog": 1332.6465408129968,
        "horse": 1169.1441328913859,
        "ship": 905.60872263961,
        "truck": 1130.9803172500115
    },
    "fid": 696.4573042807548,
    "wasserstein_distance": null,
    "g_loss": null,
    "g_cost": null,
    "d_loss_real": null,
    "d_loss_fake": null
}