{
    "epoch": 126,
    "avg_current_window": 756.2964528146898,
    "avg_prior_window": 764.5690204261151,
    "inception_score_mean": 1.9202763442459478,
    "inception_score_std": 0.1251553024381265,
    "fid_per_class": {
        "airplane": 993.2076870723736,
        "automobile": 1165.0393780175255,
        "bird": 1242.0206568727021,
        "cat": 991.0335360955357,
        "deer": 1459.7352881582838,
        "dog": 1018.5230928011575,
        "frog": 1432.310178515482,
        "horse": 1187.162808865594,
        "ship": 869.8987463597123,
        "truck": 1093.2670744043835
    },
    "fid": 762.4533827429264,
    "wasserstein_distance": null,
    "g_loss": null,
    "g_cost": null,
    "d_loss_real": null,
    "d_loss_fake": null
}