{
    "epoch": 38,
    "avg_current_window": 846.8021128072696,
    "avg_prior_window": 883.7409292750084,
    "inception_score_mean": 1.6944674025789,
    "inception_score_std": 0.08907898514605099,
    "fid_per_class": {
        "airplane": 1025.5509986995926,
        "automobile": 1245.2016427420626,
        "bird": 1271.4526886453093,
        "cat": 979.714577234651,
        "deer": 1297.64540131282,
        "dog": 1014.427173897019,
        "frog": 1360.1124864923029,
        "horse": 1275.5811174175274,
        "ship": 847.5389344207769,
        "truck": 1219.6985823383911
    },
    "fid": 770.7415553279868,
    "wasserstein_distance": null,
    "g_loss": null,
    "g_cost": null,
    "d_loss_real": null,
    "d_loss_fake": null
}