{
    "epoch": 163,
    "avg_current_window": 744.2890348054297,
    "avg_prior_window": 750.604750857072,
    "inception_score_mean": 1.9552626991888011,
    "inception_score_std": 0.11704083440690903,
    "fid_per_class": {
        "airplane": 1033.9245677394717,
        "automobile": 1132.025949332899,
        "bird": 1170.8055283467015,
        "cat": 902.535721165006,
        "deer": 1280.7421700875057,
        "dog": 919.6167583077608,
        "frog": 1329.782207599074,
        "horse": 1127.233892415362,
        "ship": 883.5060274099155,
        "truck": 1109.5293247561972
    },
    "fid": 691.8358991636093,
    "wasserstein_distance": null,
    "g_loss": null,
    "g_cost": null,
    "d_loss_real": null,
    "d_loss_fake": null
}