{
    "epoch": 97,
    "avg_current_window": 771.6505013318342,
    "avg_prior_window": 781.8676777737238,
    "inception_score_mean": 1.9015561496174311,
    "inception_score_std": 0.13844982469335987,
    "fid_per_class": {
        "airplane": 979.6647876039872,
        "automobile": 1110.8361908656145,
        "bird": 1197.777321732602,
        "cat": 903.8489518579867,
        "deer": 1169.3475014747266,
        "dog": 925.2140902466286,
        "frog": 1222.1325005338758,
        "horse": 1043.223479063721,
        "ship": 885.9206164190299,
        "truck": 1105.845190031026
    },
    "fid": 659.761140457307,
    "wasserstein_distance": null,
    "g_loss": null,
    "g_cost": null,
    "d_loss_real": null,
    "d_loss_fake": null
}