{
    "epoch": 128,
    "avg_current_window": 755.9511542008715,
    "avg_prior_window": 763.4200214083754,
    "inception_score_mean": 1.9109517766659998,
    "inception_score_std": 0.10023630031945052,
    "fid_per_class": {
        "airplane": 1026.481919129977,
        "automobile": 1099.1468391299484,
        "bird": 1081.9320628401479,
        "cat": 847.8204435033391,
        "deer": 1113.2593442582493,
        "dog": 857.582660906739,
        "frog": 1160.5079331195402,
        "horse": 1006.3454386522185,
        "ship": 845.6608026099677,
        "truck": 1066.8507538327174
    },
    "fid": 601.9360987261609,
    "wasserstein_distance": null,
    "g_loss": null,
    "g_cost": null,
    "d_loss_real": null,
    "d_loss_fake": null
}