{
    "epoch": 157,
    "avg_current_window": 746.5799635979917,
    "avg_prior_window": 752.5032878552046,
    "inception_score_mean": 1.8534631995309252,
    "inception_score_std": 0.06435362505171026,
    "fid_per_class": {
        "airplane": 1012.9934893753176,
        "automobile": 1109.2269255407764,
        "bird": 1233.9095590906006,
        "cat": 911.0839820329732,
        "deer": 1268.0911328298248,
        "dog": 935.0449875725762,
        "frog": 1242.6097503959531,
        "horse": 1157.4516309556661,
        "ship": 880.2309370306556,
        "truck": 1108.2489691874202
    },
    "fid": 683.4316393970071,
    "wasserstein_distance": null,
    "g_loss": null,
    "g_cost": null,
    "d_loss_real": null,
    "d_loss_fake": null
}