{
    "epoch": 177,
    "avg_current_window": 740.2764453349266,
    "avg_prior_window": 745.4161446776449,
    "inception_score_mean": 1.8726856887807508,
    "inception_score_std": 0.11280080068978636,
    "fid_per_class": {
        "airplane": 1057.896451455009,
        "automobile": 1112.2740531385498,
        "bird": 1276.4571225844954,
        "cat": 1019.5387243723967,
        "deer": 1396.169572224453,
        "dog": 1026.1670157689332,
        "frog": 1416.110681303386,
        "horse": 1192.156565099282,
        "ship": 852.2092670229442,
        "truck": 1135.113629325453
    },
    "fid": 763.4070481565852,
    "wasserstein_distance": null,
    "g_loss": null,
    "g_cost": null,
    "d_loss_real": null,
    "d_loss_fake": null
}