{
    "epoch": 139,
    "avg_current_window": 751.241350833984,
    "avg_prior_window": 757.9579461719728,
    "inception_score_mean": 1.8404690060074729,
    "inception_score_std": 0.12456072801539647,
    "fid_per_class": {
        "airplane": 978.9830194339635,
        "automobile": 1105.8680657237187,
        "bird": 1232.7292964163653,
        "cat": 987.8065196818586,
        "deer": 1334.5499112202208,
        "dog": 1011.9760665500544,
        "frog": 1392.2629607023475,
        "horse": 1224.2805240091616,
        "ship": 886.5128619826223,
        "truck": 1184.1825942853636
    },
    "fid": 743.0699405211057,
    "wasserstein_distance": null,
    "g_loss": null,
    "g_cost": null,
    "d_loss_real": null,
    "d_loss_fake": null
}