{
    "epoch": 56,
    "avg_current_window": 811.1937392151931,
    "avg_prior_window": 834.6736158930047,
    "inception_score_mean": 1.8084809298923248,
    "inception_score_std": 0.14503872592421616,
    "fid_per_class": {
        "airplane": 1029.614461987806,
        "automobile": 1237.6529495348436,
        "bird": 1180.6271188251642,
        "cat": 987.6686942027554,
        "deer": 1311.2838757192908,
        "dog": 963.1505136767041,
        "frog": 1289.4616558937641,
        "horse": 1226.559661973811,
        "ship": 878.6444608551509,
        "truck": 1181.2829507788738
    },
    "fid": 736.9724452811555,
    "wasserstein_distance": null,
    "g_loss": null,
    "g_cost": null,
    "d_loss_real": null,
    "d_loss_fake": null
}