{
    "epoch": 39,
    "avg_current_window": 844.8518421026727,
    "avg_prior_window": 880.2728485209257,
    "inception_score_mean": 1.734507089137319,
    "inception_score_std": 0.05254022364629404,
    "fid_per_class": {
        "airplane": 1029.7507650338368,
        "automobile": 1179.32689477548,
        "bird": 1287.1676628110358,
        "cat": 971.8927682521949,
        "deer": 1362.5602296922818,
        "dog": 1068.1452119601547,
        "frog": 1350.4027271185053,
        "horse": 1322.0200126658724,
        "ship": 868.4608416882463,
        "truck": 1125.4400071664222
    },
    "fid": 777.0022976556379,
    "wasserstein_distance": null,
    "g_loss": null,
    "g_cost": null,
    "d_loss_real": null,
    "d_loss_fake": null
}