{
    "epoch": 199,
    "avg_current_window": 735.5258401028875,
    "avg_prior_window": 740.6534319955043,
    "inception_score_mean": 1.93654126047116,
    "inception_score_std": 0.11354520334475239,
    "fid_per_class": {
        "airplane": 999.3207416027763,
        "automobile": 1216.5033693468602,
        "bird": 1279.1630003446558,
        "cat": 1033.1050584585885,
        "deer": 1344.139984209801,
        "dog": 1049.0876784721352,
        "frog": 1457.0415040984515,
        "horse": 1256.9697725552987,
        "ship": 879.3648283222653,
        "truck": 1125.9970184627916
    },
    "fid": 769.2251996441921,
    "wasserstein_distance": null,
    "g_loss": null,
    "g_cost": null,
    "d_loss_real": null,
    "d_loss_fake": null
}