{
    "epoch": 169,
    "avg_current_window": 741.5395260362,
    "avg_prior_window": 747.9445304669109,
    "inception_score_mean": 1.9412453187705325,
    "inception_score_std": 0.13905786707419257,
    "fid_per_class": {
        "airplane": 1016.4255428525823,
        "automobile": 1137.121510281719,
        "bird": 1267.4202181323694,
        "cat": 1006.6178814107154,
        "deer": 1421.7444052067583,
        "dog": 1000.5964221794968,
        "frog": 1439.5768184080166,
        "horse": 1262.7065402047576,
        "ship": 848.4560955726153,
        "truck": 1102.6240393180676
    },
    "fid": 759.1250784037342,
    "wasserstein_distance": null,
    "g_loss": null,
    "g_cost": null,
    "d_loss_real": null,
    "d_loss_fake": null
}