{
    "epoch": 155,
    "avg_current_window": 747.1736351695237,
    "avg_prior_window": 753.055715254292,
    "inception_score_mean": 1.9091918783193222,
    "inception_score_std": 0.10934680495226869,
    "fid_per_class": {
        "airplane": 1008.9800151543819,
        "automobile": 1115.07109861343,
        "bird": 1186.3064360020078,
        "cat": 942.7011561667289,
        "deer": 1305.394274552191,
        "dog": 948.1230261162095,
        "frog": 1298.8761900457132,
        "horse": 1204.3255497261757,
        "ship": 872.2405413278984,
        "truck": 1089.0985617241101
    },
    "fid": 697.3310681593904,
    "wasserstein_distance": null,
    "g_loss": null,
    "g_cost": null,
    "d_loss_real": null,
    "d_loss_fake": null
}