{
    "epoch": 121,
    "avg_current_window": 758.2877528823187,
    "avg_prior_window": 766.4153708744562,
    "inception_score_mean": 1.8380342917041066,
    "inception_score_std": 0.11735455770742628,
    "fid_per_class": {
        "airplane": 1004.9194385537032,
        "automobile": 1153.3053037111492,
        "bird": 1211.007816259539,
        "cat": 1006.9693889935603,
        "deer": 1354.2875344252554,
        "dog": 1002.0435223269001,
        "frog": 1414.4850168335038,
        "horse": 1193.0287016456607,
        "ship": 941.7490636188019,
        "truck": 1184.6194482084738
    },
    "fid": 760.0333727993734,
    "wasserstein_distance": null,
    "g_loss": null,
    "g_cost": null,
    "d_loss_real": null,
    "d_loss_fake": null
}