{
    "epoch": 147,
    "avg_current_window": 749.0809742542912,
    "avg_prior_window": 754.7592918214535,
    "inception_score_mean": 1.9831265430737162,
    "inception_score_std": 0.11224145110664611,
    "fid_per_class": {
        "airplane": 1011.8029956601132,
        "automobile": 1097.8765974961182,
        "bird": 1264.4442149710414,
        "cat": 945.5745117460121,
        "deer": 1331.771313228885,
        "dog": 983.4626920084606,
        "frog": 1307.093905755657,
        "horse": 1166.816691799662,
        "ship": 847.0696030873669,
        "truck": 1117.3348747227146
    },
    "fid": 700.700912814405,
    "wasserstein_distance": null,
    "g_loss": null,
    "g_cost": null,
    "d_loss_real": null,
    "d_loss_fake": null
}