{
    "epoch": 75,
    "avg_current_window": 788.203161526785,
    "avg_prior_window": 803.0804648144351,
    "inception_score_mean": 1.853063211264201,
    "inception_score_std": 0.13733801673037319,
    "fid_per_class": {
        "airplane": 999.2395392003752,
        "automobile": 1083.1020386575692,
        "bird": 1129.4766647383387,
        "cat": 924.2240831754474,
        "deer": 1161.6247956252805,
        "dog": 950.6947528761947,
        "frog": 1246.3668057189425,
        "horse": 1070.59274300797,
        "ship": 891.609908402,
        "truck": 1126.9850661279174
    },
    "fid": 665.6429348043691,
    "wasserstein_distance": null,
    "g_loss": null,
    "g_cost": null,
    "d_loss_real": null,
    "d_loss_fake": null
}