{
    "epoch": 1,
    "avg_current_window": 3.0,
    "avg_prior_window": 8.0,
    "inception_score_mean": 1.2926903045318443,
    "inception_score_std": 0.047136046415964444,
    "fid_per_class": {
        "airplane": 1726.9501977873274,
        "automobile": 1774.1705825381548,
        "bird": 1901.6150701771421,
        "cat": 1990.9031872428977,
        "deer": 2277.6693657496417,
        "dog": 2078.3198522331486,
        "frog": 2186.4170797425763,
        "horse": 2185.7101305611177,
        "ship": 1887.0193138814911,
        "truck": 1767.9423099766182
    },
    "fid": 1828.2875363891073,
    "wasserstein_distance": null,
    "g_loss": null,
    "g_cost": null,
    "d_loss_real": null,
    "d_loss_fake": null
}