{
    "epoch": 87,
    "avg_current_window": 778.6280716654909,
    "avg_prior_window": 790.1162200260784,
    "inception_score_mean": 1.918447156489273,
    "inception_score_std": 0.06884493387733488,
    "fid_per_class": {
        "airplane": 993.1787685584759,
        "automobile": 1191.3250926084866,
        "bird": 1246.3767089636901,
        "cat": 919.1946904047808,
        "deer": 1216.1992370029993,
        "dog": 920.2293832673652,
        "frog": 1354.128051398532,
        "horse": 1102.105334694493,
        "ship": 877.4539900538707,
        "truck": 1139.7137398677728
    },
    "fid": 694.1770536418614,
    "wasserstein_distance": null,
    "g_loss": null,
    "g_cost": null,
    "d_loss_real": null,
    "d_loss_fake": null
}