{
    "epoch": 170,
    "avg_current_window": 741.6429704618913,
    "avg_prior_window": 747.5316265848944,
    "inception_score_mean": 1.8816952350482095,
    "inception_score_std": 0.1455407493306663,
    "fid_per_class": {
        "airplane": 972.8738430131385,
        "automobile": 1118.6973777422909,
        "bird": 1288.722307771091,
        "cat": 963.1143568347379,
        "deer": 1408.8812171421457,
        "dog": 979.4678425024072,
        "frog": 1394.6516513371735,
        "horse": 1235.5047525106374,
        "ship": 919.7535726350137,
        "truck": 1129.0631701982916
    },
    "fid": 752.714560657222,
    "wasserstein_distance": null,
    "g_loss": null,
    "g_cost": null,
    "d_loss_real": null,
    "d_loss_fake": null
}