{
    "epoch": 141,
    "avg_current_window": 751.215502819172,
    "avg_prior_window": 757.1278858078593,
    "inception_score_mean": 1.9288214486212365,
    "inception_score_std": 0.16252941467516313,
    "fid_per_class": {
        "airplane": 1024.8402985987207,
        "automobile": 1029.0974147653328,
        "bird": 1185.9515728963013,
        "cat": 874.0222634638756,
        "deer": 1175.301233695197,
        "dog": 876.2566146524152,
        "frog": 1217.2857906684649,
        "horse": 1046.305625516455,
        "ship": 857.9365877875147,
        "truck": 1079.089336961882
    },
    "fid": 626.1048667176499,
    "wasserstein_distance": null,
    "g_loss": null,
    "g_cost": null,
    "d_loss_real": null,
    "d_loss_fake": null
}