{
    "epoch": 60,
    "avg_current_window": 804.0807024531906,
    "avg_prior_window": 825.942716291833,
    "inception_score_mean": 1.867604685497571,
    "inception_score_std": 0.13262491918830255,
    "fid_per_class": {
        "airplane": 978.7353036178829,
        "automobile": 1210.9381714308056,
        "bird": 1160.8026349564161,
        "cat": 968.813854144044,
        "deer": 1287.7334312973444,
        "dog": 992.5730283038406,
        "frog": 1298.326413308495,
        "horse": 1218.560257675952,
        "ship": 816.3257879463823,
        "truck": 1142.96596363226
    },
    "fid": 707.9157143490132,
    "wasserstein_distance": null,
    "g_loss": null,
    "g_cost": null,
    "d_loss_real": null,
    "d_loss_fake": null
}