{
    "epoch": 142,
    "avg_current_window": 750.3344420015557,
    "avg_prior_window": 756.5839284231987,
    "inception_score_mean": 1.8989475472211559,
    "inception_score_std": 0.08725133102613347,
    "fid_per_class": {
        "airplane": 950.7537490252894,
        "automobile": 1066.635569371552,
        "bird": 1167.6124459218513,
        "cat": 868.085340735363,
        "deer": 1228.8822631672767,
        "dog": 901.9667134735879,
        "frog": 1254.839954396619,
        "horse": 1085.247598781861,
        "ship": 849.6247373870606,
        "truck": 972.0354574805606
    },
    "fid": 628.3286744254997,
    "wasserstein_distance": null,
    "g_loss": null,
    "g_cost": null,
    "d_loss_real": null,
    "d_loss_fake": null
}