{
    "epoch": 49,
    "avg_current_window": 825.098916806538,
    "avg_prior_window": 851.7023403031271,
    "inception_score_mean": 1.7502414358288914,
    "inception_score_std": 0.10865297269810588,
    "fid_per_class": {
        "airplane": 1068.5836193278974,
        "automobile": 1206.3164589955097,
        "bird": 1250.7698452912123,
        "cat": 977.5230931664765,
        "deer": 1194.640950489446,
        "dog": 1016.4210907597862,
        "frog": 1264.7552108580699,
        "horse": 1212.908024533101,
        "ship": 897.0594570778433,
        "truck": 1252.0569097800287
    },
    "fid": 727.1177075582829,
    "wasserstein_distance": null,
    "g_loss": null,
    "g_cost": null,
    "d_loss_real": null,
    "d_loss_fake": null
}