{
    "epoch": 27,
    "avg_current_window": 878.7940014271883,
    "avg_prior_window": 940.2849047002802,
    "inception_score_mean": 1.6930128081964368,
    "inception_score_std": 0.08394124731274638,
    "fid_per_class": {
        "airplane": 1075.5303855090965,
        "automobile": 1267.0119811596214,
        "bird": 1317.9907228545903,
        "cat": 975.7418409540062,
        "deer": 1255.7894129045749,
        "dog": 970.9457537433767,
        "frog": 1289.7182185089218,
        "horse": 1279.5261987374743,
        "ship": 893.8431753758699,
        "truck": 1178.7299150643435
    },
    "fid": 777.3207062526212,
    "wasserstein_distance": null,
    "g_loss": null,
    "g_cost": null,
    "d_loss_real": null,
    "d_loss_fake": null
}