{
    "epoch": 183,
    "avg_current_window": 880.4006018092762,
    "avg_prior_window": 888.7858097042823,
    "inception_score_mean": 1.97031020113161,
    "inception_score_std": 0.12918142099607255,
    "fid_per_class": {
        "airplane": 965.4095577497687,
        "automobile": 1150.286426029984,
        "bird": 1201.810735363931,
        "cat": 1036.8823401118707,
        "deer": 1494.2436297265062,
        "dog": 1081.4444835408854,
        "frog": 1418.8815610203196,
        "horse": 1209.698397261079,
        "ship": 938.1507969935121,
        "truck": 1073.3412895409963
    },
    "fid": 773.0889927866701,
    "wasserstein_distance": null,
    "g_loss": null,
    "g_cost": null,
    "d_loss_real": null,
    "d_loss_fake": null
}