{
    "epoch": 101,
    "avg_current_window": 994.0916144694008,
    "avg_prior_window": 1013.6558403902164,
    "inception_score_mean": 1.9616919075209587,
    "inception_score_std": 0.16786180771485815,
    "fid_per_class": {
        "airplane": 955.5787142354051,
        "automobile": 1159.788493292368,
        "bird": 1195.3119629050288,
        "cat": 1054.8460356966104,
        "deer": 1502.5040501614762,
        "dog": 1104.6005017935681,
        "frog": 1442.837164927364,
        "horse": 1121.559894834737,
        "ship": 849.8716052984697,
        "truck": 1176.7411014576953
    },
    "fid": 748.5109475655829,
    "wasserstein_distance": null,
    "g_loss": null,
    "g_cost": null,
    "d_loss_real": null,
    "d_loss_fake": null
}