{
    "epoch": 111,
    "avg_current_window": 972.262815135964,
    "avg_prior_window": 989.9089359961447,
    "inception_score_mean": 1.9920003635763295,
    "inception_score_std": 0.17926910609017274,
    "fid_per_class": {
        "airplane": 1031.3396422493715,
        "automobile": 1205.4997141824042,
        "bird": 1164.1270896429405,
        "cat": 1003.1601246872588,
        "deer": 1381.6686383370188,
        "dog": 1093.6182144934826,
        "frog": 1409.3535101533544,
        "horse": 1190.6964572582199,
        "ship": 955.3342735762254,
        "truck": 1158.6740495369447
    },
    "fid": 759.080841832081,
    "wasserstein_distance": null,
    "g_loss": null,
    "g_cost": null,
    "d_loss_real": null,
    "d_loss_fake": null
}