{
    "epoch": 76,
    "avg_current_window": 1069.0640696504956,
    "avg_prior_window": 1099.5102348722605,
    "inception_score_mean": 1.8537734701031692,
    "inception_score_std": 0.15066763897972785,
    "fid_per_class": {
        "airplane": 952.5752358440445,
        "automobile": 1224.3720393332815,
        "bird": 1347.7964631393043,
        "cat": 1126.625505266115,
        "deer": 1638.5147288561354,
        "dog": 1160.9675121650307,
        "frog": 1580.979898119711,
        "horse": 1307.3335650186468,
        "ship": 904.6911858713531,
        "truck": 1204.1432938156645
    },
    "fid": 866.1485760109925,
    "wasserstein_distance": null,
    "g_loss": null,
    "g_cost": null,
    "d_loss_real": null,
    "d_loss_fake": null
}