{
    "epoch": 171,
    "avg_current_window": 890.9751477754018,
    "avg_prior_window": 900.5564647736489,
    "inception_score_mean": 2.0118762237652974,
    "inception_score_std": 0.12184977585765969,
    "fid_per_class": {
        "airplane": 980.7884937963724,
        "automobile": 1128.8793401844914,
        "bird": 1130.4171237530586,
        "cat": 1013.4623356248173,
        "deer": 1263.6636664745886,
        "dog": 1037.7830958570448,
        "frog": 1520.821856718841,
        "horse": 1105.0267446157231,
        "ship": 936.4312899559501,
        "truck": 1137.6934772457614
    },
    "fid": 706.2437144455452,
    "wasserstein_distance": null,
    "g_loss": null,
    "g_cost": null,
    "d_loss_real": null,
    "d_loss_fake": null
}