{
    "epoch": 123,
    "avg_current_window": 951.221269526226,
    "avg_prior_window": 965.4509695956225,
    "inception_score_mean": 2.0681702563355246,
    "inception_score_std": 0.1443523102080056,
    "fid_per_class": {
        "airplane": 981.4069685242748,
        "automobile": 1083.4525832742315,
        "bird": 1156.573297038086,
        "cat": 1044.2028161322728,
        "deer": 1351.405080340413,
        "dog": 1050.529112624967,
        "frog": 1350.8649931089217,
        "horse": 1068.5990487077756,
        "ship": 898.3829272583304,
        "truck": 1104.7636600095002
    },
    "fid": 703.3021735143566,
    "wasserstein_distance": null,
    "g_loss": null,
    "g_cost": null,
    "d_loss_real": null,
    "d_loss_fake": null
}