{
    "epoch": 50,
    "avg_current_window": 1195.311073198031,
    "avg_prior_window": 1249.9059315565344,
    "inception_score_mean": 1.8642252037728002,
    "inception_score_std": 0.07142338547720468,
    "fid_per_class": {
        "airplane": 1018.8470313842635,
        "automobile": 1214.032872866615,
        "bird": 1256.057973837573,
        "cat": 1054.3410880943188,
        "deer": 1523.8687216457652,
        "dog": 1125.3438419786085,
        "frog": 1524.4788332479707,
        "horse": 1335.823562473105,
        "ship": 920.9271508656507,
        "truck": 1170.7943692623844
    },
    "fid": 829.3850723043877,
    "wasserstein_distance": null,
    "g_loss": null,
    "g_cost": null,
    "d_loss_real": null,
    "d_loss_fake": null
}