{
    "epoch": 47,
    "avg_current_window": 1216.5222167755094,
    "avg_prior_window": 1275.7629436555774,
    "inception_score_mean": 1.8994280058312634,
    "inception_score_std": 0.11361514644983892,
    "fid_per_class": {
        "airplane": 1014.2017279482973,
        "automobile": 1204.6352171485012,
        "bird": 1308.6231288002873,
        "cat": 1047.726423492425,
        "deer": 1496.6814630918752,
        "dog": 1105.664923762248,
        "frog": 1666.0458676961323,
        "horse": 1284.586513988584,
        "ship": 907.069992128144,
        "truck": 1239.7435604360826
    },
    "fid": 841.0199690163906,
    "wasserstein_distance": null,
    "g_loss": null,
    "g_cost": null,
    "d_loss_real": null,
    "d_loss_fake": null
}