{
    "epoch": 128,
    "avg_current_window": 942.9560059320065,
    "avg_prior_window": 956.9391733759363,
    "inception_score_mean": 2.063848419157691,
    "inception_score_std": 0.17977072491786378,
    "fid_per_class": {
        "airplane": 931.9453377162329,
        "automobile": 1164.3469549711335,
        "bird": 1180.3339347629092,
        "cat": 1058.4864426630456,
        "deer": 1396.6019723413892,
        "dog": 1110.5879426417766,
        "frog": 1411.9637387584075,
        "horse": 1216.5060456017866,
        "ship": 874.6113103752227,
        "truck": 1099.382246677636
    },
    "fid": 742.1640269078041,
    "wasserstein_distance": null,
    "g_loss": null,
    "g_cost": null,
    "d_loss_real": null,
    "d_loss_fake": null
}