{
    "epoch": 70,
    "avg_current_window": 1093.0640979721302,
    "avg_prior_window": 1127.2942932141104,
    "inception_score_mean": 1.8838577687035578,
    "inception_score_std": 0.11247141556851108,
    "fid_per_class": {
        "airplane": 998.3035282683386,
        "automobile": 1155.3869775380458,
        "bird": 1203.2624690806558,
        "cat": 1001.7407511143052,
        "deer": 1447.3968477229432,
        "dog": 1079.7637283131185,
        "frog": 1490.650352866897,
        "horse": 1169.9998955356216,
        "ship": 904.0561701634477,
        "truck": 1157.6034460287185
    },
    "fid": 782.0216720826621,
    "wasserstein_distance": null,
    "g_loss": null,
    "g_cost": null,
    "d_loss_real": null,
    "d_loss_fake": null
}