{
    "epoch": 175,
    "avg_current_window": 887.1618687676845,
    "avg_prior_window": 896.2161780564335,
    "inception_score_mean": 2.0413301662305696,
    "inception_score_std": 0.10216907562244466,
    "fid_per_class": {
        "airplane": 948.6008928300345,
        "automobile": 1029.6433346237143,
        "bird": 1064.0041944083696,
        "cat": 928.231597094157,
        "deer": 1341.9267751097086,
        "dog": 984.7966751928786,
        "frog": 1306.4748271943542,
        "horse": 1047.3945326950202,
        "ship": 878.4618759060423,
        "truck": 1064.555837856732
    },
    "fid": 642.5605414479661,
    "wasserstein_distance": null,
    "g_loss": null,
    "g_cost": null,
    "d_loss_real": null,
    "d_loss_fake": null
}