{
    "epoch": 35,
    "avg_current_window": 1313.3614865549832,
    "avg_prior_window": 1396.5701731759104,
    "inception_score_mean": 1.7260838763524826,
    "inception_score_std": 0.14870384852302063,
    "fid_per_class": {
        "airplane": 1086.7817148803992,
        "automobile": 1303.8540188465058,
        "bird": 1402.248537654662,
        "cat": 1138.0147835258854,
        "deer": 1674.9987790329274,
        "dog": 1200.7971742854243,
        "frog": 1929.6455189149508,
        "horse": 1400.0435339513274,
        "ship": 1014.400251511103,
        "truck": 1268.1873309093473
    },
    "fid": 992.279459528516,
    "wasserstein_distance": null,
    "g_loss": null,
    "g_cost": null,
    "d_loss_real": null,
    "d_loss_fake": null
}