{
    "epoch": 26,
    "avg_current_window": 1414.0202824666283,
    "avg_prior_window": 1534.6756745679825,
    "inception_score_mean": 1.7358651966782825,
    "inception_score_std": 0.14073162908572207,
    "fid_per_class": {
        "airplane": 1191.2502297546994,
        "automobile": 1375.1830778515603,
        "bird": 1390.4429692992253,
        "cat": 1168.9270426170995,
        "deer": 1593.1484452560655,
        "dog": 1251.4423350814895,
        "frog": 1807.395530699118,
        "horse": 1394.295773497794,
        "ship": 1034.385844147751,
        "truck": 1346.0539584366838
    },
    "fid": 1010.9424487176216,
    "wasserstein_distance": null,
    "g_loss": null,
    "g_cost": null,
    "d_loss_real": null,
    "d_loss_fake": null
}