{
    "epoch": 160,
    "avg_current_window": 902.5324902818995,
    "avg_prior_window": 912.7170052039696,
    "inception_score_mean": 1.934045663682409,
    "inception_score_std": 0.14387444709718442,
    "fid_per_class": {
        "airplane": 950.565347384807,
        "automobile": 1193.6007220080567,
        "bird": 1245.7070013829878,
        "cat": 1107.890000600115,
        "deer": 1475.995387424407,
        "dog": 1122.9441745275903,
        "frog": 1551.814511840705,
        "horse": 1258.6311923576832,
        "ship": 946.9292035750858,
        "truck": 1159.6197479944094
    },
    "fid": 819.1584657888059,
    "wasserstein_distance": null,
    "g_loss": null,
    "g_cost": null,
    "d_loss_real": null,
    "d_loss_fake": null
}