{
    "epoch": 168,
    "avg_current_window": 894.5724428816129,
    "avg_prior_window": 904.3147433794884,
    "inception_score_mean": 2.071991107868887,
    "inception_score_std": 0.12955429865003867,
    "fid_per_class": {
        "airplane": 902.6291771650774,
        "automobile": 1048.6329083427634,
        "bird": 1141.5901872058926,
        "cat": 989.2161946377383,
        "deer": 1343.5286053784819,
        "dog": 1032.0784624240337,
        "frog": 1319.2293813068954,
        "horse": 1120.4177833810206,
        "ship": 841.9095472842782,
        "truck": 1031.318621423385
    },
    "fid": 661.4924277781847,
    "wasserstein_distance": null,
    "g_loss": null,
    "g_cost": null,
    "d_loss_real": null,
    "d_loss_fake": null
}