{
    "epoch": 15,
    "avg_current_window": 1552.2849236025993,
    "avg_prior_window": 1741.2234658857865,
    "inception_score_mean": 1.4744101831593408,
    "inception_score_std": 0.10680515423689045,
    "fid_per_class": {
        "airplane": 1395.0552185021393,
        "automobile": 1451.9511072030864,
        "bird": 1853.0202725574964,
        "cat": 1670.3373383997132,
        "deer": 1882.9088344744462,
        "dog": 1687.1254755807183,
        "frog": 2022.2341513461915,
        "horse": 1461.2542018885244,
        "ship": 1166.309266260868,
        "truck": 1363.6274323992366
    },
    "fid": 1302.9106431996815,
    "wasserstein_distance": null,
    "g_loss": null,
    "g_cost": null,
    "d_loss_real": null,
    "d_loss_fake": null
}