{
    "epoch": 195,
    "avg_current_window": 869.9041753318763,
    "avg_prior_window": 877.9999530955178,
    "inception_score_mean": 2.0387089919894783,
    "inception_score_std": 0.14656117277748376,
    "fid_per_class": {
        "airplane": 934.7778615964129,
        "automobile": 1140.632674319198,
        "bird": 1220.9713782052777,
        "cat": 1032.504773439468,
        "deer": 1424.0814743281717,
        "dog": 1086.8807560839628,
        "frog": 1385.9858357883331,
        "horse": 1151.2914295129349,
        "ship": 950.4934684563376,
        "truck": 1089.3045930972823
    },
    "fid": 743.4211169829784,
    "wasserstein_distance": null,
    "g_loss": null,
    "g_cost": null,
    "d_loss_real": null,
    "d_loss_fake": null
}