{
    "epoch": 157,
    "avg_current_window": 905.4611203414377,
    "avg_prior_window": 915.5609121641279,
    "inception_score_mean": 1.98593132296912,
    "inception_score_std": 0.16148220262282242,
    "fid_per_class": {
        "airplane": 952.391343318226,
        "automobile": 1079.0089301662279,
        "bird": 1292.7702853895298,
        "cat": 1017.2485942645679,
        "deer": 1493.4737188292536,
        "dog": 1014.0233214899155,
        "frog": 1527.6822073210506,
        "horse": 1156.2864980823542,
        "ship": 928.3041929115258,
        "truck": 1107.7777653235166
    },
    "fid": 762.1616641474585,
    "wasserstein_distance": null,
    "g_loss": null,
    "g_cost": null,
    "d_loss_real": null,
    "d_loss_fake": null
}