{
    "epoch": 178,
    "avg_current_window": 884.7025339871798,
    "avg_prior_window": 892.773593216208,
    "inception_score_mean": 1.9476742231905895,
    "inception_score_std": 0.13119420392600903,
    "fid_per_class": {
        "airplane": 983.4462428373434,
        "automobile": 1077.9375006478363,
        "bird": 1172.8390446239266,
        "cat": 1034.0259293907575,
        "deer": 1449.273185720314,
        "dog": 1061.4906679766445,
        "frog": 1398.0197577898232,
        "horse": 1088.3198281271505,
        "ship": 936.9369517291854,
        "truck": 1142.9558031281508
    },
    "fid": 726.8230776442374,
    "wasserstein_distance": null,
    "g_loss": null,
    "g_cost": null,
    "d_loss_real": null,
    "d_loss_fake": null
}