{
    "epoch": 30,
    "avg_current_window": 1360.0644438486752,
    "avg_prior_window": 1470.5810937652934,
    "inception_score_mean": 1.5626815387638866,
    "inception_score_std": 0.1213107491269948,
    "fid_per_class": {
        "airplane": 1195.7805424125845,
        "automobile": 1339.0307454905603,
        "bird": 1501.6289797213399,
        "cat": 1280.3547295036774,
        "deer": 1717.1003311061208,
        "dog": 1398.9862650108325,
        "frog": 1992.23096471201,
        "horse": 1431.051549696555,
        "ship": 1044.1506202427097,
        "truck": 1322.3940409845702
    },
    "fid": 1095.1718798170534,
    "wasserstein_distance": null,
    "g_loss": null,
    "g_cost": null,
    "d_loss_real": null,
    "d_loss_fake": null
}