{
    "epoch": 105,
    "avg_current_window": 984.9665436224457,
    "avg_prior_window": 1004.0325306140949,
    "inception_score_mean": 1.970312739025908,
    "inception_score_std": 0.1471686788202613,
    "fid_per_class": {
        "airplane": 952.4669341926607,
        "automobile": 1124.1420953791799,
        "bird": 1142.6605666359924,
        "cat": 1030.5075478164918,
        "deer": 1528.1293107829351,
        "dog": 1106.6201084041945,
        "frog": 1444.4514011514216,
        "horse": 1158.7929900451074,
        "ship": 834.6103878890059,
        "truck": 1082.6905687217486
    },
    "fid": 745.440037848681,
    "wasserstein_distance": null,
    "g_loss": null,
    "g_cost": null,
    "d_loss_real": null,
    "d_loss_fake": null
}