{
    "epoch": 55,
    "avg_current_window": 1164.6452865437768,
    "avg_prior_window": 1211.8987746441187,
    "inception_score_mean": 1.9258755904979687,
    "inception_score_std": 0.12668769257563794,
    "fid_per_class": {
        "airplane": 1026.652669108145,
        "automobile": 1242.843417679472,
        "bird": 1275.8746028968344,
        "cat": 1061.7852868398438,
        "deer": 1573.7479487959208,
        "dog": 1134.4304051057845,
        "frog": 1756.604277130189,
        "horse": 1349.6990646827255,
        "ship": 949.3727517628836,
        "truck": 1220.8513726149492
    },
    "fid": 874.6747531104947,
    "wasserstein_distance": null,
    "g_loss": null,
    "g_cost": null,
    "d_loss_real": null,
    "d_loss_fake": null
}