{
    "epoch": 75,
    "avg_current_window": 1071.8914219030044,
    "avg_prior_window": 1104.2358361447396,
    "inception_score_mean": 1.916191384018786,
    "inception_score_std": 0.15002946446717874,
    "fid_per_class": {
        "airplane": 997.4141694363244,
        "automobile": 1246.6926793866573,
        "bird": 1306.0605947135912,
        "cat": 1082.6825440435018,
        "deer": 1536.183900026768,
        "dog": 1125.9074559837525,
        "frog": 1602.5837079792066,
        "horse": 1319.9239062175166,
        "ship": 920.3618101762473,
        "truck": 1206.9092427826536
    },
    "fid": 857.0126507123539,
    "wasserstein_distance": null,
    "g_loss": null,
    "g_cost": null,
    "d_loss_real": null,
    "d_loss_fake": null
}