{
    "epoch": 146,
    "avg_current_window": 919.3985680367284,
    "avg_prior_window": 931.2139954640497,
    "inception_score_mean": 2.0440927266381372,
    "inception_score_std": 0.16033209622087394,
    "fid_per_class": {
        "airplane": 919.967507110097,
        "automobile": 1117.8766156639208,
        "bird": 1180.2077982849755,
        "cat": 923.8362633305811,
        "deer": 1400.4945630359498,
        "dog": 1038.6506055603143,
        "frog": 1330.8609026205854,
        "horse": 1152.659873736894,
        "ship": 902.6016005115753,
        "truck": 1053.1558599042376
    },
    "fid": 699.1555940210274,
    "wasserstein_distance": null,
    "g_loss": null,
    "g_cost": null,
    "d_loss_real": null,
    "d_loss_fake": null
}