{
    "epoch": 1,
    "avg_current_window": 3.0,
    "avg_prior_window": 8.0,
    "inception_score_mean": 1.0106846941642573,
    "inception_score_std": 0.0012270683999189504,
    "fid_per_class": {
        "airplane": 1895.0838591659708,
        "automobile": 1863.514908186804,
        "bird": 2268.8540304398043,
        "cat": 2174.4009075600875,
        "deer": 2452.9340584762367,
        "dog": 2237.2896751049007,
        "frog": 2434.5546479801415,
        "horse": 2175.9808931163816,
        "ship": 1680.431729223853,
        "truck": 1720.0460712947333
    },
    "fid": 2011.2902050128318,
    "wasserstein_distance": null,
    "g_loss": null,
    "g_cost": null,
    "d_loss_real": null,
    "d_loss_fake": null
}