{
    "epoch": 115,
    "avg_current_window": 963.8967558800465,
    "avg_prior_window": 981.1015680008364,
    "inception_score_mean": 1.8779424762333083,
    "inception_score_std": 0.19955665536638376,
    "fid_per_class": {
        "airplane": 1072.0994651761127,
        "automobile": 1235.6839899081194,
        "bird": 1289.237229420907,
        "cat": 1107.4451168485612,
        "deer": 1622.9960338066408,
        "dog": 1158.4239433429666,
        "frog": 1617.2027247003364,
        "horse": 1305.8997753113913,
        "ship": 1023.4457588514733,
        "truck": 1243.7253370928406
    },
    "fid": 893.1325541951384,
    "wasserstein_distance": null,
    "g_loss": null,
    "g_cost": null,
    "d_loss_real": null,
    "d_loss_fake": null
}