{
    "epoch": 118,
    "avg_current_window": 959.7209313044021,
    "avg_prior_window": 974.8402690982235,
    "inception_score_mean": 2.0556191918197726,
    "inception_score_std": 0.13096853161239813,
    "fid_per_class": {
        "airplane": 934.6785345645446,
        "automobile": 1067.3077101814026,
        "bird": 1156.1640831033717,
        "cat": 973.37968974719,
        "deer": 1359.4357073305664,
        "dog": 1039.714808314269,
        "frog": 1387.2014984170303,
        "horse": 1028.8985643178896,
        "ship": 890.8100118203704,
        "truck": 1076.4712735162575
    },
    "fid": 676.1445183640083,
    "wasserstein_distance": null,
    "g_loss": null,
    "g_cost": null,
    "d_loss_real": null,
    "d_loss_fake": null
}