{
    "epoch": 185,
    "avg_current_window": 878.6524946690492,
    "avg_prior_window": 887.2073576460224,
    "inception_score_mean": 1.9563316522047116,
    "inception_score_std": 0.19491149777681627,
    "fid_per_class": {
        "airplane": 966.5133524694479,
        "automobile": 1129.8323868222337,
        "bird": 1236.260795728234,
        "cat": 1053.2888138983312,
        "deer": 1506.184969013178,
        "dog": 1111.1636263609967,
        "frog": 1480.5032137558755,
        "horse": 1200.7183146232903,
        "ship": 977.3377855883224,
        "truck": 1134.2425760829447
    },
    "fid": 776.7807420002428,
    "wasserstein_distance": null,
    "g_loss": null,
    "g_cost": null,
    "d_loss_real": null,
    "d_loss_fake": null
}