{
    "epoch": 14,
    "avg_current_window": 1564.6566964723293,
    "avg_prior_window": 1791.422989774891,
    "inception_score_mean": 1.3908025063340212,
    "inception_score_std": 0.11645336792671616,
    "fid_per_class": {
        "airplane": 1279.4645564919024,
        "automobile": 1538.8257707939545,
        "bird": 1984.8397006281016,
        "cat": 1687.3906893676992,
        "deer": 2075.676979166802,
        "dog": 1738.9648259155933,
        "frog": 2414.8876382983667,
        "horse": 1733.2058369925455,
        "ship": 1161.0798206815211,
        "truck": 1397.8927597897693
    },
    "fid": 1379.0801034263834,
    "wasserstein_distance": null,
    "g_loss": null,
    "g_cost": null,
    "d_loss_real": null,
    "d_loss_fake": null
}