{
    "epoch": 46,
    "avg_current_window": 1222.7340634792183,
    "avg_prior_window": 1283.9809572595384,
    "inception_score_mean": 1.8374807697045408,
    "inception_score_std": 0.10673246274579634,
    "fid_per_class": {
        "airplane": 1067.5433988513141,
        "automobile": 1282.7086826929194,
        "bird": 1393.6028743922009,
        "cat": 1132.4668061290454,
        "deer": 1628.5450282887184,
        "dog": 1204.8962930857713,
        "frog": 1805.8440183970843,
        "horse": 1380.3363449703663,
        "ship": 972.7967217392313,
        "truck": 1307.5982229382923
    },
    "fid": 930.7772684048994,
    "wasserstein_distance": null,
    "g_loss": null,
    "g_cost": null,
    "d_loss_real": null,
    "d_loss_fake": null
}