{
    "epoch": 107,
    "avg_current_window": 980.6574506130031,
    "avg_prior_window": 999.1834208453056,
    "inception_score_mean": 2.0266486494417566,
    "inception_score_std": 0.17114024464847796,
    "fid_per_class": {
        "airplane": 955.1866283288218,
        "automobile": 1095.2625371730192,
        "bird": 1227.870175930618,
        "cat": 1010.9044351565756,
        "deer": 1473.6698029174731,
        "dog": 1100.659954543552,
        "frog": 1504.2811547170388,
        "horse": 1181.1899999645498,
        "ship": 875.9430869094584,
        "truck": 1089.044994289245
    },
    "fid": 754.6347535160348,
    "wasserstein_distance": null,
    "g_loss": null,
    "g_cost": null,
    "d_loss_real": null,
    "d_loss_fake": null
}