{
    "epoch": 89,
    "avg_current_window": 1025.9935440405552,
    "avg_prior_window": 1050.000473376233,
    "inception_score_mean": 1.911334419495563,
    "inception_score_std": 0.12850746030044335,
    "fid_per_class": {
        "airplane": 985.9866240702663,
        "automobile": 1117.2774583527425,
        "bird": 1207.9884205706253,
        "cat": 1015.6433415047508,
        "deer": 1461.118483734256,
        "dog": 1068.3733305161732,
        "frog": 1416.714591940243,
        "horse": 1155.3172998753262,
        "ship": 856.9329923412449,
        "truck": 1176.837876775938
    },
    "fid": 749.6793526053611,
    "wasserstein_distance": null,
    "g_loss": null,
    "g_cost": null,
    "d_loss_real": null,
    "d_loss_fake": null
}