{
    "epoch": 114,
    "avg_current_window": 966.2890386675374,
    "avg_prior_window": 983.2891521714147,
    "inception_score_mean": 1.9948213305542022,
    "inception_score_std": 0.1441617056685411,
    "fid_per_class": {
        "airplane": 969.4367395900816,
        "automobile": 1054.140414119959,
        "bird": 1189.0428808806391,
        "cat": 919.3363498793486,
        "deer": 1425.9632533068682,
        "dog": 992.0595616184384,
        "frog": 1318.4000669184488,
        "horse": 1125.0386072794145,
        "ship": 910.451102144644,
        "truck": 1062.4798806480803
    },
    "fid": 691.1765181060878,
    "wasserstein_distance": null,
    "g_loss": null,
    "g_cost": null,
    "d_loss_real": null,
    "d_loss_fake": null
}