{
    "epoch": 52,
    "avg_current_window": 1182.1861268919658,
    "avg_prior_window": 1234.4162586694752,
    "inception_score_mean": 1.9199448038641929,
    "inception_score_std": 0.08977059287625627,
    "fid_per_class": {
        "airplane": 1042.9374803140681,
        "automobile": 1181.683175503732,
        "bird": 1251.5915725524724,
        "cat": 1035.6933247096824,
        "deer": 1492.3387433053408,
        "dog": 1136.4240224211094,
        "frog": 1694.3301519132212,
        "horse": 1248.9993952806612,
        "ship": 986.6868196133764,
        "truck": 1223.9666481650254
    },
    "fid": 836.700706300566,
    "wasserstein_distance": null,
    "g_loss": null,
    "g_cost": null,
    "d_loss_real": null,
    "d_loss_fake": null
}