{
    "epoch": 38,
    "avg_current_window": 1286.9673005138677,
    "avg_prior_window": 1363.9907184174251,
    "inception_score_mean": 1.832467232972414,
    "inception_score_std": 0.07669538098955421,
    "fid_per_class": {
        "airplane": 1033.010313603451,
        "automobile": 1244.944497601436,
        "bird": 1337.6152416357363,
        "cat": 1176.929751964371,
        "deer": 1556.9293054234406,
        "dog": 1221.7057664291492,
        "frog": 1775.8599974811752,
        "horse": 1375.9619831110138,
        "ship": 975.045233758859,
        "truck": 1263.8653263272204
    },
    "fid": 923.2327975915113,
    "wasserstein_distance": null,
    "g_loss": null,
    "g_cost": null,
    "d_loss_real": null,
    "d_loss_fake": null
}