{
    "epoch": 13,
    "avg_current_window": 1575.1276425658123,
    "avg_prior_window": 1829.2155355886316,
    "inception_score_mean": 1.4537047403632637,
    "inception_score_std": 0.10533634109896066,
    "fid_per_class": {
        "airplane": 1356.7340798904402,
        "automobile": 1545.4207961880054,
        "bird": 1710.916923309088,
        "cat": 1705.2565413595396,
        "deer": 2165.1744346042515,
        "dog": 1862.3435513512736,
        "frog": 2429.344088643075,
        "horse": 1840.7822020903518,
        "ship": 1141.3226054124652,
        "truck": 1507.9538862252161
    },
    "fid": 1428.5343972570477,
    "wasserstein_distance": null,
    "g_loss": null,
    "g_cost": null,
    "d_loss_real": null,
    "d_loss_fake": null
}