{
    "epoch": 66,
    "avg_current_window": 1110.2140766502603,
    "avg_prior_window": 1148.1522979224585,
    "inception_score_mean": 1.873216811667763,
    "inception_score_std": 0.15339439273618047,
    "fid_per_class": {
        "airplane": 1021.2911850811638,
        "automobile": 1207.1639986805167,
        "bird": 1291.060270767548,
        "cat": 1050.7044694925232,
        "deer": 1511.301062867229,
        "dog": 1109.583755444894,
        "frog": 1598.5528783494392,
        "horse": 1330.6996905701176,
        "ship": 969.3146263696685,
        "truck": 1171.572705432855
    },
    "fid": 849.361836836975,
    "wasserstein_distance": null,
    "g_loss": null,
    "g_cost": null,
    "d_loss_real": null,
    "d_loss_fake": null
}