{
    "epoch": 124,
    "avg_current_window": 949.2219219777432,
    "avg_prior_window": 964.165559820092,
    "inception_score_mean": 2.0344701877397195,
    "inception_score_std": 0.14141265303478273,
    "fid_per_class": {
        "airplane": 935.4014662920029,
        "automobile": 1069.3991673344199,
        "bird": 1184.2291576511775,
        "cat": 1003.4748541435454,
        "deer": 1474.856187181509,
        "dog": 1051.9054544242417,
        "frog": 1517.8044445075693,
        "horse": 1126.3470873393937,
        "ship": 918.6635436915461,
        "truck": 1109.1819916591676
    },
    "fid": 744.8447515863547,
    "wasserstein_distance": null,
    "g_loss": null,
    "g_cost": null,
    "d_loss_real": null,
    "d_loss_fake": null
}