{
    "epoch": 147,
    "avg_current_window": 917.9003165128121,
    "avg_prior_window": 929.9859991855069,
    "inception_score_mean": 1.9586016563521578,
    "inception_score_std": 0.08127764065853689,
    "fid_per_class": {
        "airplane": 942.8656569294133,
        "automobile": 1084.479579599265,
        "bird": 1123.446194043382,
        "cat": 962.1268611354707,
        "deer": 1415.5037611241128,
        "dog": 1022.7891587980697,
        "frog": 1361.8886952352943,
        "horse": 1105.1869389359385,
        "ship": 895.2242963269159,
        "truck": 1091.7481287811092
    },
    "fid": 689.8909216950774,
    "wasserstein_distance": null,
    "g_loss": null,
    "g_cost": null,
    "d_loss_real": null,
    "d_loss_fake": null
}