{
    "epoch": 22,
    "avg_current_window": 1464.917689360347,
    "avg_prior_window": 1612.4883571112223,
    "inception_score_mean": 1.6043346375407315,
    "inception_score_std": 0.10264275779501691,
    "fid_per_class": {
        "airplane": 1235.8514566225065,
        "automobile": 1365.0933547310863,
        "bird": 1643.0032407787442,
        "cat": 1321.8088835267754,
        "deer": 1902.5002882140411,
        "dog": 1411.1766348246642,
        "frog": 1968.0285700097152,
        "horse": 1540.4899475839818,
        "ship": 1162.2028332678228,
        "truck": 1322.4834356658446
    },
    "fid": 1157.5327578737038,
    "wasserstein_distance": null,
    "g_loss": null,
    "g_cost": null,
    "d_loss_real": null,
    "d_loss_fake": null
}