{
    "epoch": 5,
    "avg_current_window": 1472.889549325289,
    "avg_prior_window": 2015.2902050128318,
    "inception_score_mean": 1.2319394028326442,
    "inception_score_std": 0.0482327432036689,
    "fid_per_class": {
        "airplane": 2004.4549101976352,
        "automobile": 2086.0664122364547,
        "bird": 2405.754438808626,
        "cat": 2272.0501926626093,
        "deer": 2699.583696279151,
        "dog": 2490.3539268986615,
        "frog": 2800.3524157602933,
        "horse": 2491.594574684326,
        "ship": 1772.6797500765392,
        "truck": 1901.681462919393
    },
    "fid": 2088.081861612809,
    "wasserstein_distance": null,
    "g_loss": null,
    "g_cost": null,
    "d_loss_real": null,
    "d_loss_fake": null
}