{
    "epoch": 44,
    "avg_current_window": 1237.3734008067402,
    "avg_prior_window": 1301.3358093741565,
    "inception_score_mean": 1.8170117926205502,
    "inception_score_std": 0.10610290011448537,
    "fid_per_class": {
        "airplane": 1076.091932004865,
        "automobile": 1250.6377413181392,
        "bird": 1348.7389146641237,
        "cat": 1095.572499366901,
        "deer": 1644.7975090191774,
        "dog": 1159.6496866986797,
        "frog": 1790.1762331930188,
        "horse": 1389.6790781980692,
        "ship": 965.1734819097159,
        "truck": 1237.8174756638618
    },
    "fid": 927.7827638980837,
    "wasserstein_distance": null,
    "g_loss": null,
    "g_cost": null,
    "d_loss_real": null,
    "d_loss_fake": null
}