{
    "epoch": 117,
    "avg_current_window": 961.3527290457934,
    "avg_prior_window": 976.6025653370917,
    "inception_score_mean": 1.9410952448613323,
    "inception_score_std": 0.15360618245360266,
    "fid_per_class": {
        "airplane": 889.6270771534066,
        "automobile": 1202.8023289411021,
        "bird": 1165.8470398558184,
        "cat": 1031.73131067145,
        "deer": 1465.4783065104573,
        "dog": 1092.4525445000686,
        "frog": 1495.4205331808676,
        "horse": 1199.8102224231268,
        "ship": 894.962932858879,
        "truck": 1119.8375411128409
    },
    "fid": 768.8005955616327,
    "wasserstein_distance": null,
    "g_loss": null,
    "g_cost": null,
    "d_loss_real": null,
    "d_loss_fake": null
}