{
    "epoch": 28,
    "avg_current_window": 1385.84692208595,
    "avg_prior_window": 1500.7965144574416,
    "inception_score_mean": 1.6597843367513903,
    "inception_score_std": 0.1006373780124722,
    "fid_per_class": {
        "airplane": 1135.6098815015966,
        "automobile": 1352.991161014818,
        "bird": 1383.173156119632,
        "cat": 1211.1118933527846,
        "deer": 1678.9424016923829,
        "dog": 1309.8729434446436,
        "frog": 1931.7335334699462,
        "horse": 1380.4861709036836,
        "ship": 991.6326289433995,
        "truck": 1222.8488208213384
    },
    "fid": 1016.4414485804346,
    "wasserstein_distance": null,
    "g_loss": null,
    "g_cost": null,
    "d_loss_real": null,
    "d_loss_fake": null
}