{
    "epoch": 9,
    "avg_current_window": 1625.9693649676726,
    "avg_prior_window": 1841.1119366566113,
    "inception_score_mean": 1.311235511121613,
    "inception_score_std": 0.05150805865041831,
    "fid_per_class": {
        "airplane": 1569.7066863285102,
        "automobile": 1510.395447397899,
        "bird": 2032.2923208862496,
        "cat": 2021.9559468586963,
        "deer": 2075.4481161029767,
        "dog": 2022.0682728851211,
        "frog": 2113.8003497851505,
        "horse": 1755.2515512533719,
        "ship": 1326.7968035628069,
        "truck": 1551.4146951862913
    },
    "fid": 1489.082623264967,
    "wasserstein_distance": null,
    "g_loss": null,
    "g_cost": null,
    "d_loss_real": null,
    "d_loss_fake": null
}