{
    "epoch": 174,
    "avg_current_window": 887.6427104965746,
    "avg_prior_window": 897.2557723947554,
    "inception_score_mean": 1.944053807278968,
    "inception_score_std": 0.10994755205543363,
    "fid_per_class": {
        "airplane": 984.149738512458,
        "automobile": 1155.3145717955103,
        "bird": 1223.3974320309394,
        "cat": 1096.2512338982585,
        "deer": 1487.5869908746106,
        "dog": 1081.7712269637825,
        "frog": 1571.3514151387624,
        "horse": 1242.7677427337399,
        "ship": 950.2568742654572,
        "truck": 1191.5766299030586
    },
    "fid": 803.4954079407769,
    "wasserstein_distance": null,
    "g_loss": null,
    "g_cost": null,
    "d_loss_real": null,
    "d_loss_fake": null
}