{
    "epoch": 113,
    "avg_current_window": 967.9600647588874,
    "avg_prior_window": 985.4027662624868,
    "inception_score_mean": 1.9563217332824738,
    "inception_score_std": 0.08778463005030665,
    "fid_per_class": {
        "airplane": 973.2921868617738,
        "automobile": 1159.2357270925577,
        "bird": 1203.8024626694896,
        "cat": 1036.1621418470256,
        "deer": 1464.8559137907578,
        "dog": 1050.5905200130544,
        "frog": 1561.796592869389,
        "horse": 1123.9916109978394,
        "ship": 906.1163321162263,
        "truck": 1204.0711694416502
    },
    "fid": 777.4630903449894,
    "wasserstein_distance": null,
    "g_loss": null,
    "g_cost": null,
    "d_loss_real": null,
    "d_loss_fake": null
}