{
    "epoch": 11,
    "avg_current_window": 1582.9304235325333,
    "avg_prior_window": 1879.140300448642,
    "inception_score_mean": 1.3284412785143147,
    "inception_score_std": 0.07258719790277972,
    "fid_per_class": {
        "airplane": 1371.7714826903023,
        "automobile": 1545.817466478447,
        "bird": 1897.6847234134116,
        "cat": 1635.5399213448065,
        "deer": 2042.9386443934395,
        "dog": 1749.7599336896328,
        "frog": 2110.3760112676428,
        "horse": 1781.9141566576868,
        "ship": 1409.1144671093987,
        "truck": 1351.692386356567
    },
    "fid": 1391.8603936609595,
    "wasserstein_distance": null,
    "g_loss": null,
    "g_cost": null,
    "d_loss_real": null,
    "d_loss_fake": null
}