{
    "epoch": 31,
    "avg_current_window": 1351.5195224283004,
    "avg_prior_window": 1452.902684340383,
    "inception_score_mean": 1.7113397593712711,
    "inception_score_std": 0.15647536176350924,
    "fid_per_class": {
        "airplane": 1132.0508900453585,
        "automobile": 1262.9949437059406,
        "bird": 1459.456675337302,
        "cat": 1121.5547921656123,
        "deer": 1719.6024940548214,
        "dog": 1162.473018208705,
        "frog": 2078.2009622932815,
        "horse": 1426.1967412521105,
        "ship": 1058.911728649159,
        "truck": 1304.5385862870253
    },
    "fid": 1014.7211619794653,
    "wasserstein_distance": null,
    "g_loss": null,
    "g_cost": null,
    "d_loss_real": null,
    "d_loss_fake": null
}