{
    "epoch": 138,
    "avg_current_window": 928.9207446847561,
    "avg_prior_window": 941.3587323414813,
    "inception_score_mean": 1.9779036732701907,
    "inception_score_std": 0.10220880940002235,
    "fid_per_class": {
        "airplane": 970.7333889848692,
        "automobile": 1074.0498685655057,
        "bird": 1134.8937050172078,
        "cat": 999.3744924410073,
        "deer": 1510.0019235784011,
        "dog": 1035.7423125776304,
        "frog": 1530.5029475439437,
        "horse": 1129.027750366066,
        "ship": 891.0587436706778,
        "truck": 1117.2258261733946
    },
    "fid": 736.7694672837816,
    "wasserstein_distance": null,
    "g_loss": null,
    "g_cost": null,
    "d_loss_real": null,
    "d_loss_fake": null
}