{
    "epoch": 159,
    "avg_current_window": 903.540264933498,
    "avg_prior_window": 913.4292067911422,
    "inception_score_mean": 2.063402429761502,
    "inception_score_std": 0.13629127782323835,
    "fid_per_class": {
        "airplane": 994.5212157981407,
        "automobile": 1106.4405535155024,
        "bird": 1222.469590414441,
        "cat": 1050.5315507335558,
        "deer": 1450.9050713514935,
        "dog": 1130.597227498946,
        "frog": 1446.1183320992325,
        "horse": 1142.4383204795556,
        "ship": 928.3806476647567,
        "truck": 1086.3409698678468
    },
    "fid": 742.2963206777441,
    "wasserstein_distance": null,
    "g_loss": null,
    "g_cost": null,
    "d_loss_real": null,
    "d_loss_fake": null
}