{
    "epoch": 125,
    "avg_current_window": 947.5869046146121,
    "avg_prior_window": 961.9111918151435,
    "inception_score_mean": 2.0541470353386644,
    "inception_score_std": 0.13571009698417208,
    "fid_per_class": {
        "airplane": 941.6809954401292,
        "automobile": 1063.6804680601656,
        "bird": 1189.6545888055462,
        "cat": 982.9937163140196,
        "deer": 1383.9398667250139,
        "dog": 1087.5656416880183,
        "frog": 1434.04279641396,
        "horse": 1099.7144059933448,
        "ship": 875.5816489409699,
        "truck": 1067.7981639664094
    },
    "fid": 703.1980124880978,
    "wasserstein_distance": null,
    "g_loss": null,
    "g_cost": null,
    "d_loss_real": null,
    "d_loss_fake": null
}