{
    "epoch": 10,
    "avg_current_window": 1612.280690797402,
    "avg_prior_window": 1890.5059216478508,
    "inception_score_mean": 1.389590067477308,
    "inception_score_std": 0.06871156229837062,
    "fid_per_class": {
        "airplane": 1401.5256948464403,
        "automobile": 1484.6741321824782,
        "bird": 1826.406799316686,
        "cat": 1412.6454854941485,
        "deer": 1943.6000271721311,
        "dog": 1626.8616056409478,
        "frog": 2029.777213405407,
        "horse": 1508.105128603112,
        "ship": 1323.895002166072,
        "truck": 1467.582417981696
    },
    "fid": 1289.4277508838475,
    "wasserstein_distance": null,
    "g_loss": null,
    "g_cost": null,
    "d_loss_real": null,
    "d_loss_fake": null
}