{
    "epoch": 32,
    "avg_current_window": 1340.9945736642744,
    "avg_prior_window": 1437.174585866911,
    "inception_score_mean": 1.7275188349699966,
    "inception_score_std": 0.10745012729882569,
    "fid_per_class": {
        "airplane": 1149.6508718539212,
        "automobile": 1295.652130747575,
        "bird": 1528.6443949833745,
        "cat": 1361.418025305975,
        "deer": 1714.7324548780707,
        "dog": 1409.6272230514805,
        "frog": 1986.897135335998,
        "horse": 1508.918005693877,
        "ship": 975.0875729219595,
        "truck": 1322.3491737308673
    },
    "fid": 1083.1613116067963,
    "wasserstein_distance": null,
    "g_loss": null,
    "g_cost": null,
    "d_loss_real": null,
    "d_loss_fake": null
}