{
    "epoch": 90,
    "avg_current_window": 1022.9233863579419,
    "avg_prior_window": 1047.7278884692591,
    "inception_score_mean": 1.9487471468684565,
    "inception_score_std": 0.11728447432625327,
    "fid_per_class": {
        "airplane": 969.1664945531422,
        "automobile": 1146.822489226368,
        "bird": 1235.976422018633,
        "cat": 1015.8963351519385,
        "deer": 1410.7859612025,
        "dog": 1044.46193666187,
        "frog": 1355.3078738743511,
        "horse": 1135.4756088368842,
        "ship": 842.5685906338417,
        "truck": 1077.8361468559237
    },
    "fid": 728.2287774936443,
    "wasserstein_distance": null,
    "g_loss": null,
    "g_cost": null,
    "d_loss_real": null,
    "d_loss_fake": null
}