{
    "epoch": 39,
    "avg_current_window": 1277.6407747979097,
    "avg_prior_window": 1351.9897655713062,
    "inception_score_mean": 1.800468830620026,
    "inception_score_std": 0.09995232900192629,
    "fid_per_class": {
        "airplane": 1108.1171483010608,
        "automobile": 1220.6015699864452,
        "bird": 1347.8586408028798,
        "cat": 1113.0651916115307,
        "deer": 1561.0968605745406,
        "dog": 1164.1016695952276,
        "frog": 1831.087781272949,
        "horse": 1290.4651971933556,
        "ship": 1004.149746199805,
        "truck": 1288.9303037795216
    },
    "fid": 924.1063484736245,
    "wasserstein_distance": null,
    "g_loss": null,
    "g_cost": null,
    "d_loss_real": null,
    "d_loss_fake": null
}