{
    "epoch": 110,
    "avg_current_window": 974.3501598789474,
    "avg_prior_window": 992.0659725543378,
    "inception_score_mean": 2.035994293227161,
    "inception_score_std": 0.14573668047211585,
    "fid_per_class": {
        "airplane": 929.2345804984284,
        "automobile": 1169.9069444518723,
        "bird": 1204.788298958907,
        "cat": 1052.5739155251529,
        "deer": 1372.425168320684,
        "dog": 1130.8966232457776,
        "frog": 1526.446331851737,
        "horse": 1032.123822398531,
        "ship": 833.4281482154983,
        "truck": 1222.6323611488397
    },
    "fid": 742.6548934078082,
    "wasserstein_distance": null,
    "g_loss": null,
    "g_cost": null,
    "d_loss_real": null,
    "d_loss_fake": null
}