{
    "epoch": 169,
    "avg_current_window": 893.1932711946105,
    "avg_prior_window": 903.4445988661458,
    "inception_score_mean": 2.06386922101613,
    "inception_score_std": 0.15747743897222502,
    "fid_per_class": {
        "airplane": 916.936350091295,
        "automobile": 1075.33424449733,
        "bird": 1109.3888574068565,
        "cat": 954.5906085867857,
        "deer": 1374.221137539717,
        "dog": 1009.6264207755828,
        "frog": 1432.676054359692,
        "horse": 1056.473543067285,
        "ship": 977.5094042000046,
        "truck": 1070.2580797314927
    },
    "fid": 686.5627028244801,
    "wasserstein_distance": null,
    "g_loss": null,
    "g_cost": null,
    "d_loss_real": null,
    "d_loss_fake": null
}