{
    "epoch": 77,
    "avg_current_window": 1066.4288034993333,
    "avg_prior_window": 1095.0946361514095,
    "inception_score_mean": 1.9822393611890157,
    "inception_score_std": 0.1739483247258777,
    "fid_per_class": {
        "airplane": 973.7058697898935,
        "automobile": 1137.2139514010942,
        "bird": 1182.1000437599819,
        "cat": 1005.4521685900038,
        "deer": 1484.7497063766984,
        "dog": 1052.497145654545,
        "frog": 1423.4555290878893,
        "horse": 1212.545141836436,
        "ship": 975.1200001117036,
        "truck": 1171.1542225702794
    },
    "fid": 769.1243710427195,
    "wasserstein_distance": null,
    "g_loss": null,
    "g_cost": null,
    "d_loss_real": null,
    "d_loss_fake": null
}