{
    "epoch": 198,
    "avg_current_window": 867.6158822072204,
    "avg_prior_window": 875.4551139804082,
    "inception_score_mean": 2.019483333975123,
    "inception_score_std": 0.12994674235174988,
    "fid_per_class": {
        "airplane": 895.9531785860844,
        "automobile": 1083.5113976503317,
        "bird": 1139.8155133341127,
        "cat": 930.8907013125599,
        "deer": 1303.286726647998,
        "dog": 977.3948041178529,
        "frog": 1262.7548672830735,
        "horse": 1014.1655415178064,
        "ship": 844.7086292507591,
        "truck": 1076.2471914993596
    },
    "fid": 640.590894835553,
    "wasserstein_distance": null,
    "g_loss": null,
    "g_cost": null,
    "d_loss_real": null,
    "d_loss_fake": null
}