{
    "epoch": 92,
    "avg_current_window": 1017.0975666276321,
    "avg_prior_window": 1041.058763173672,
    "inception_score_mean": 1.921842218683849,
    "inception_score_std": 0.1603289485847078,
    "fid_per_class": {
        "airplane": 974.3259056240441,
        "automobile": 1142.9914180213304,
        "bird": 1213.6831485074042,
        "cat": 974.9662286562019,
        "deer": 1481.6602504335438,
        "dog": 1027.546330928662,
        "frog": 1433.0774070767334,
        "horse": 1219.2052937851045,
        "ship": 912.5677634387382,
        "truck": 1088.25422839016
    },
    "fid": 752.3115745331115,
    "wasserstein_distance": null,
    "g_loss": null,
    "g_cost": null,
    "d_loss_real": null,
    "d_loss_fake": null
}