{
    "epoch": 95,
    "avg_current_window": 1008.3362308490085,
    "avg_prior_window": 1031.0148172189824,
    "inception_score_mean": 1.9297200290284546,
    "inception_score_std": 0.1631830035833658,
    "fid_per_class": {
        "airplane": 1045.4400157506195,
        "automobile": 1191.8271508398414,
        "bird": 1242.979349601215,
        "cat": 978.3936456400335,
        "deer": 1463.880103497355,
        "dog": 1089.7990312667762,
        "frog": 1398.7511174101555,
        "horse": 1172.120221307513,
        "ship": 978.479944777714,
        "truck": 1139.2610047766266
    },
    "fid": 775.8936654265942,
    "wasserstein_distance": null,
    "g_loss": null,
    "g_cost": null,
    "d_loss_real": null,
    "d_loss_fake": null
}