{
    "epoch": 143,
    "avg_current_window": 923.4826005898041,
    "avg_prior_window": 934.2596538679719,
    "inception_score_mean": 1.98324729941915,
    "inception_score_std": 0.13549678723639397,
    "fid_per_class": {
        "airplane": 971.4613496717333,
        "automobile": 1117.9698425775018,
        "bird": 1114.5926600108098,
        "cat": 931.9568410618306,
        "deer": 1442.519615267244,
        "dog": 1008.7097888904659,
        "frog": 1455.5241891178057,
        "horse": 1100.4519796869697,
        "ship": 881.3513406727793,
        "truck": 1080.188611373847
    },
    "fid": 698.2085051559775,
    "wasserstein_distance": null,
    "g_loss": null,
    "g_cost": null,
    "d_loss_real": null,
    "d_loss_fake": null
}