{
    "epoch": 127,
    "avg_current_window": 944.4870256080438,
    "avg_prior_window": 959.0181651780804,
    "inception_score_mean": 1.9841289905325978,
    "inception_score_std": 0.20331813765694043,
    "fid_per_class": {
        "airplane": 934.0084508109056,
        "automobile": 1135.146167686114,
        "bird": 1182.3326100378895,
        "cat": 1038.6798300324385,
        "deer": 1477.7370570557996,
        "dog": 1057.4814422941506,
        "frog": 1468.0197688038768,
        "horse": 1134.9330670446184,
        "ship": 883.8269691864565,
        "truck": 1102.3981034720764
    },
    "fid": 748.5165070752658,
    "wasserstein_distance": null,
    "g_loss": null,
    "g_cost": null,
    "d_loss_real": null,
    "d_loss_fake": null
}