{
    "epoch": 181,
    "avg_current_window": 882.3056595374808,
    "avg_prior_window": 890.5953173839621,
    "inception_score_mean": 1.9619141493962382,
    "inception_score_std": 0.10081216076570973,
    "fid_per_class": {
        "airplane": 957.6175818041845,
        "automobile": 1111.3108670082827,
        "bird": 1150.6423305230564,
        "cat": 1029.4067173106198,
        "deer": 1539.2113765691963,
        "dog": 1040.1027952755542,
        "frog": 1514.2199518624277,
        "horse": 1192.7480488931997,
        "ship": 979.7325904491552,
        "truck": 1085.5130157365938
    },
    "fid": 761.9034629572914,
    "wasserstein_distance": null,
    "g_loss": null,
    "g_cost": null,
    "d_loss_real": null,
    "d_loss_fake": null
}