{
    "epoch": 131,
    "avg_current_window": 938.2471459307209,
    "avg_prior_window": 951.9829543827108,
    "inception_score_mean": 1.970139828461584,
    "inception_score_std": 0.14806352951430785,
    "fid_per_class": {
        "airplane": 953.584565704588,
        "automobile": 1176.7052408078027,
        "bird": 1240.3413492899595,
        "cat": 1025.0125265029606,
        "deer": 1438.1962446661644,
        "dog": 1094.3105626095287,
        "frog": 1491.1558834749549,
        "horse": 1094.2120345515111,
        "ship": 898.5899774833775,
        "truck": 1080.8788571361415
    },
    "fid": 756.432608293989,
    "wasserstein_distance": null,
    "g_loss": null,
    "g_cost": null,
    "d_loss_real": null,
    "d_loss_fake": null
}