{
    "epoch": 79,
    "avg_current_window": 1058.6047330230385,
    "avg_prior_window": 1086.3764411179097,
    "inception_score_mean": 1.8588373105158216,
    "inception_score_std": 0.12758467063139156,
    "fid_per_class": {
        "airplane": 1044.9953093940624,
        "automobile": 1215.4478727896883,
        "bird": 1208.430065213467,
        "cat": 1012.3134888668229,
        "deer": 1443.968269734687,
        "dog": 1015.798557430882,
        "frog": 1489.0692166557758,
        "horse": 1194.1435772300426,
        "ship": 939.6979622360307,
        "truck": 1157.2989645517018
    },
    "fid": 776.274754674854,
    "wasserstein_distance": null,
    "g_loss": null,
    "g_cost": null,
    "d_loss_real": null,
    "d_loss_fake": null
}