{
    "epoch": 193,
    "avg_current_window": 871.8951870078665,
    "avg_prior_window": 879.9088889092928,
    "inception_score_mean": 2.0908039698291985,
    "inception_score_std": 0.17096445952134537,
    "fid_per_class": {
        "airplane": 905.5846950177079,
        "automobile": 1064.132147260556,
        "bird": 1188.1487336497366,
        "cat": 954.7363376143533,
        "deer": 1400.0691250903458,
        "dog": 981.0394246807624,
        "frog": 1437.4245588961778,
        "horse": 1055.5103257866272,
        "ship": 867.3482324580693,
        "truck": 1061.7417516243756
    },
    "fid": 687.0659057005612,
    "wasserstein_distance": null,
    "g_loss": null,
    "g_cost": null,
    "d_loss_real": null,
    "d_loss_fake": null
}