{
    "epoch": 56,
    "avg_current_window": 1159.4672413038966,
    "avg_prior_window": 1205.3662470271024,
    "inception_score_mean": 1.9261043553667712,
    "inception_score_std": 0.16705037696974598,
    "fid_per_class": {
        "airplane": 973.1750078463879,
        "automobile": 1200.9792668597015,
        "bird": 1292.6731398133902,
        "cat": 1035.968744036522,
        "deer": 1556.0082087886178,
        "dog": 1062.5455675167004,
        "frog": 1619.8726003366935,
        "horse": 1290.8428943540116,
        "ship": 951.8337089132929,
        "truck": 1183.6635413503684
    },
    "fid": 821.4469753224294,
    "wasserstein_distance": null,
    "g_loss": null,
    "g_cost": null,
    "d_loss_real": null,
    "d_loss_fake": null
}