{
    "epoch": 43,
    "avg_current_window": 823.3320874163869,
    "avg_prior_window": 858.1513667611679,
    "inception_score_mean": 2.0133730110131975,
    "inception_score_std": 0.18085952800211771,
    "fid_per_class": {
        "airplane": 949.0974643403094,
        "automobile": 1148.5573933657647,
        "bird": 1161.087032602249,
        "cat": 869.8416803491074,
        "deer": 1255.412962487474,
        "dog": 896.2118297671109,
        "frog": 1279.9071798907976,
        "horse": 1166.9282382038048,
        "ship": 902.1100789716878,
        "truck": 1048.036738836473
    },
    "fid": 650.5215732550247,
    "wasserstein_distance": null,
    "g_loss": null,
    "g_cost": null,
    "d_loss_real": null,
    "d_loss_fake": null
}