{
    "epoch": 141,
    "avg_current_window": 698.1560037406895,
    "avg_prior_window": 705.6769902265519,
    "inception_score_mean": 2.0349712532887145,
    "inception_score_std": 0.10765171574915929,
    "fid_per_class": {
        "airplane": 918.8515541851702,
        "automobile": 1099.764817852665,
        "bird": 1063.5500874069667,
        "cat": 917.7503383271129,
        "deer": 1155.0525849059982,
        "dog": 879.2212276115442,
        "frog": 1217.8711060484895,
        "horse": 1020.0964352650262,
        "ship": 886.4360058562725,
        "truck": 993.2218377065714
    },
    "fid": 596.2203545274084,
    "wasserstein_distance": null,
    "g_loss": null,
    "g_cost": null,
    "d_loss_real": null,
    "d_loss_fake": null
}