{
    "epoch": 39,
    "avg_current_window": 836.1474855621635,
    "avg_prior_window": 879.270123895275,
    "inception_score_mean": 1.9913358292671592,
    "inception_score_std": 0.17085313716313139,
    "fid_per_class": {
        "airplane": 941.678343069793,
        "automobile": 1150.4847340185806,
        "bird": 1202.2826596431728,
        "cat": 951.1860449608237,
        "deer": 1297.8329468795976,
        "dog": 940.1027767902855,
        "frog": 1458.5740170056179,
        "horse": 1169.2577537312327,
        "ship": 929.8106297079868,
        "truck": 1107.0272876664185
    },
    "fid": 702.4041264120742,
    "wasserstein_distance": null,
    "g_loss": null,
    "g_cost": null,
    "d_loss_real": null,
    "d_loss_fake": null
}