{
    "epoch": 42,
    "avg_current_window": 825.8184728942315,
    "avg_prior_window": 863.9043526689746,
    "inception_score_mean": 1.9953280230545887,
    "inception_score_std": 0.170289040060955,
    "fid_per_class": {
        "airplane": 969.6815713210149,
        "automobile": 1205.6741721872652,
        "bird": 1207.2990902144913,
        "cat": 987.2992520433062,
        "deer": 1261.339552832079,
        "dog": 986.2188092682098,
        "frog": 1452.7951401507266,
        "horse": 1172.5581290621355,
        "ship": 838.5959890494405,
        "truck": 1180.957678164567
    },
    "fid": 718.9038973469105,
    "wasserstein_distance": null,
    "g_loss": null,
    "g_cost": null,
    "d_loss_real": null,
    "d_loss_fake": null
}