{
    "epoch": 67,
    "avg_current_window": 767.9299111912478,
    "avg_prior_window": 788.2911993471095,
    "inception_score_mean": 1.9905703528244765,
    "inception_score_std": 0.199293960322644,
    "fid_per_class": {
        "airplane": 966.4473313375331,
        "automobile": 1131.492551688768,
        "bird": 1247.9107907193932,
        "cat": 960.3930332354792,
        "deer": 1302.0816387889654,
        "dog": 975.6944660973373,
        "frog": 1466.6764399890224,
        "horse": 1153.1331547586258,
        "ship": 894.9754092245299,
        "truck": 1083.8522919100024
    },
    "fid": 705.3841957450844,
    "wasserstein_distance": null,
    "g_loss": null,
    "g_cost": null,
    "d_loss_real": null,
    "d_loss_fake": null
}