{
    "epoch": 183,
    "avg_current_window": 675.4020891277827,
    "avg_prior_window": 681.0529816071019,
    "inception_score_mean": 2.081109963849666,
    "inception_score_std": 0.1446178983498842,
    "fid_per_class": {
        "airplane": 868.3183715225098,
        "automobile": 1051.5373199773344,
        "bird": 1082.9714757970062,
        "cat": 883.9523144406758,
        "deer": 1079.6053101283665,
        "dog": 909.6070248993583,
        "frog": 1172.6815736074668,
        "horse": 1019.737343924439,
        "ship": 854.4487247960727,
        "truck": 959.2293836239971
    },
    "fid": 574.1968871074341,
    "wasserstein_distance": null,
    "g_loss": null,
    "g_cost": null,
    "d_loss_real": null,
    "d_loss_fake": null
}