{
    "epoch": 178,
    "avg_current_window": 677.6974966942369,
    "avg_prior_window": 683.8482676660336,
    "inception_score_mean": 2.020430841742755,
    "inception_score_std": 0.1000107397923891,
    "fid_per_class": {
        "airplane": 878.5262673617215,
        "automobile": 1008.8755157655523,
        "bird": 1133.2409410623006,
        "cat": 877.7973270771463,
        "deer": 1178.7003735089104,
        "dog": 898.290656238967,
        "frog": 1292.613583935265,
        "horse": 1038.8196053589359,
        "ship": 834.4923585023614,
        "truck": 964.2496468157638
    },
    "fid": 597.2763144899777,
    "wasserstein_distance": null,
    "g_loss": null,
    "g_cost": null,
    "d_loss_real": null,
    "d_loss_fake": null
}