{
    "epoch": 130,
    "avg_current_window": 705.5466530511499,
    "avg_prior_window": 713.7519873653772,
    "inception_score_mean": 2.0486281730613607,
    "inception_score_std": 0.10885798312487684,
    "fid_per_class": {
        "airplane": 845.8098103158779,
        "automobile": 1075.4671197045895,
        "bird": 1226.48318733034,
        "cat": 907.1063027521947,
        "deer": 1234.9621715142835,
        "dog": 928.1429505490537,
        "frog": 1364.9200268499028,
        "horse": 1044.3751350245375,
        "ship": 855.077232785464,
        "truck": 1062.3803874707567
    },
    "fid": 632.933500986222,
    "wasserstein_distance": null,
    "g_loss": null,
    "g_cost": null,
    "d_loss_real": null,
    "d_loss_fake": null
}