{
    "epoch": 134,
    "avg_current_window": 703.1105305229183,
    "avg_prior_window": 711.0160069507712,
    "inception_score_mean": 2.027299553105959,
    "inception_score_std": 0.1029068674089512,
    "fid_per_class": {
        "airplane": 837.288358917617,
        "automobile": 1077.3708768773877,
        "bird": 1096.4177895491043,
        "cat": 869.8950788274997,
        "deer": 1122.5329263892127,
        "dog": 857.1875087633568,
        "frog": 1288.6091683911782,
        "horse": 1049.3014899017694,
        "ship": 894.0652737441837,
        "truck": 992.4682682989192
    },
    "fid": 594.4880380998841,
    "wasserstein_distance": null,
    "g_loss": null,
    "g_cost": null,
    "d_loss_real": null,
    "d_loss_fake": null
}