{
    "epoch": 93,
    "avg_current_window": 735.2194252198761,
    "avg_prior_window": 746.9887383238362,
    "inception_score_mean": 2.0877205100790865,
    "inception_score_std": 0.18146517025154593,
    "fid_per_class": {
        "airplane": 856.983022751279,
        "automobile": 1096.1335762483482,
        "bird": 1176.877364904884,
        "cat": 889.111413084554,
        "deer": 1207.118069265838,
        "dog": 882.9402433455286,
        "frog": 1350.6359841882904,
        "horse": 1073.766654966606,
        "ship": 895.8884613386199,
        "truck": 1033.500559080416
    },
    "fid": 622.7998093805686,
    "wasserstein_distance": null,
    "g_loss": null,
    "g_cost": null,
    "d_loss_real": null,
    "d_loss_fake": null
}