{
    "epoch": 199,
    "avg_current_window": 668.7383953012899,
    "avg_prior_window": 673.6657621840549,
    "inception_score_mean": 2.1034457620512077,
    "inception_score_std": 0.1595928817652158,
    "fid_per_class": {
        "airplane": 799.3116594744274,
        "automobile": 982.4051004601616,
        "bird": 1119.1362887187304,
        "cat": 887.5413764352822,
        "deer": 1092.082383682149,
        "dog": 921.1276129234276,
        "frog": 1237.9476880176146,
        "horse": 952.2976991730652,
        "ship": 779.0901453305719,
        "truck": 919.2610235332835
    },
    "fid": 551.9070038257621,
    "wasserstein_distance": null,
    "g_loss": null,
    "g_cost": null,
    "d_loss_real": null,
    "d_loss_fake": null
}