{
    "epoch": 142,
    "avg_current_window": 697.4381470560888,
    "avg_prior_window": 705.2903392685128,
    "inception_score_mean": 2.065994954037501,
    "inception_score_std": 0.171437233694063,
    "fid_per_class": {
        "airplane": 911.5460583735819,
        "automobile": 1090.3804881265082,
        "bird": 1141.9176818587657,
        "cat": 915.86579749604,
        "deer": 1254.5255874721915,
        "dog": 941.2809201652535,
        "frog": 1321.745235969639,
        "horse": 1060.9357342295384,
        "ship": 836.2861473688739,
        "truck": 1015.7106313871648
    },
    "fid": 629.9446150617043,
    "wasserstein_distance": null,
    "g_loss": null,
    "g_cost": null,
    "d_loss_real": null,
    "d_loss_fake": null
}