{
    "epoch": 52,
    "avg_current_window": 799.397353414035,
    "avg_prior_window": 825.5357034312286,
    "inception_score_mean": 2.0070362056182125,
    "inception_score_std": 0.12069118030434965,
    "fid_per_class": {
        "airplane": 909.9379969096269,
        "automobile": 1030.559989061087,
        "bird": 1243.4492340111635,
        "cat": 928.2159742893242,
        "deer": 1242.4392839390616,
        "dog": 961.1996212198314,
        "frog": 1373.6974710423135,
        "horse": 1166.4291993241554,
        "ship": 850.3746144763763,
        "truck": 970.0595127049829
    },
    "fid": 661.8790904401632,
    "wasserstein_distance": null,
    "g_loss": null,
    "g_cost": null,
    "d_loss_real": null,
    "d_loss_fake": null
}