{
    "epoch": 135,
    "avg_current_window": 702.3059194679329,
    "avg_prior_window": 710.4153722895054,
    "inception_score_mean": 2.125565165460918,
    "inception_score_std": 0.16545563167709043,
    "fid_per_class": {
        "airplane": 859.4216637491603,
        "automobile": 1016.525748194733,
        "bird": 1121.4150364713728,
        "cat": 876.3713897191283,
        "deer": 1138.9219450047808,
        "dog": 910.6390179612213,
        "frog": 1254.5119313483633,
        "horse": 987.827141915027,
        "ship": 862.5270875380694,
        "truck": 998.6933362779168
    },
    "fid": 587.0516149141579,
    "wasserstein_distance": null,
    "g_loss": null,
    "g_cost": null,
    "d_loss_real": null,
    "d_loss_fake": null
}