{
    "epoch": 150,
    "avg_current_window": 692.3900579964246,
    "avg_prior_window": 699.9349574535825,
    "inception_score_mean": 2.13836497418592,
    "inception_score_std": 0.19928801660626091,
    "fid_per_class": {
        "airplane": 856.1112505861968,
        "automobile": 1060.377463285256,
        "bird": 1217.6222623577091,
        "cat": 897.5014776009386,
        "deer": 1193.1512555663571,
        "dog": 949.5518091936115,
        "frog": 1316.8223861606543,
        "horse": 1022.6875258499609,
        "ship": 891.865095169316,
        "truck": 999.8737981363745
    },
    "fid": 626.7276025563692,
    "wasserstein_distance": null,
    "g_loss": null,
    "g_cost": null,
    "d_loss_real": null,
    "d_loss_fake": null
}