{
    "epoch": 140,
    "avg_current_window": 698.8237416703665,
    "avg_prior_window": 706.6544499487785,
    "inception_score_mean": 1.9722324248046277,
    "inception_score_std": 0.09146225274308022,
    "fid_per_class": {
        "airplane": 859.1540808962638,
        "automobile": 1049.0415814541666,
        "bird": 1194.0969920849152,
        "cat": 865.4014512157421,
        "deer": 1198.4151013840278,
        "dog": 898.5606530531672,
        "frog": 1220.1002950416425,
        "horse": 990.907874244588,
        "ship": 908.4787034564487,
        "truck": 993.0668395472437
    },
    "fid": 604.6726935858852,
    "wasserstein_distance": null,
    "g_loss": null,
    "g_cost": null,
    "d_loss_real": null,
    "d_loss_fake": null
}