{
    "epoch": 75,
    "avg_current_window": 755.1639972169737,
    "avg_prior_window": 772.4718836269801,
    "inception_score_mean": 2.0154408451717414,
    "inception_score_std": 0.1530660056765388,
    "fid_per_class": {
        "airplane": 920.2134601959069,
        "automobile": 1105.3845728723281,
        "bird": 1198.3206785405534,
        "cat": 929.5511803784236,
        "deer": 1204.6776576960071,
        "dog": 921.0884825186881,
        "frog": 1402.504771429324,
        "horse": 1110.4581555498512,
        "ship": 843.9565700428059,
        "truck": 1010.3317479606176
    },
    "fid": 654.866317215681,
    "wasserstein_distance": null,
    "g_loss": null,
    "g_cost": null,
    "d_loss_real": null,
    "d_loss_fake": null
}