{
    "epoch": 88,
    "avg_current_window": 739.2790974457502,
    "avg_prior_window": 752.7207745999563,
    "inception_score_mean": 2.0490550051546883,
    "inception_score_std": 0.1423457698208832,
    "fid_per_class": {
        "airplane": 895.0918859617269,
        "automobile": 1073.8055698578028,
        "bird": 1230.2758948602122,
        "cat": 928.2284677568641,
        "deer": 1322.4108937404872,
        "dog": 951.7718526770902,
        "frog": 1499.9341189253562,
        "horse": 1153.4021269991413,
        "ship": 822.085548780803,
        "truck": 1053.9823793158448
    },
    "fid": 678.4483972715697,
    "wasserstein_distance": null,
    "g_loss": null,
    "g_cost": null,
    "d_loss_real": null,
    "d_loss_fake": null
}