{
    "epoch": 85,
    "avg_current_window": 743.0091909990208,
    "avg_prior_window": 755.7118934837915,
    "inception_score_mean": 2.0150844820414724,
    "inception_score_std": 0.12802686446644318,
    "fid_per_class": {
        "airplane": 904.1545977070659,
        "automobile": 1145.8671148256722,
        "bird": 1116.5281424363243,
        "cat": 892.8475568228699,
        "deer": 1226.6171876426856,
        "dog": 939.9516678042637,
        "frog": 1386.8281593110262,
        "horse": 1074.6368132099697,
        "ship": 854.5400190210448,
        "truck": 1042.9950480134744
    },
    "fid": 636.7775389122089,
    "wasserstein_distance": null,
    "g_loss": null,
    "g_cost": null,
    "d_loss_real": null,
    "d_loss_fake": null
}