{
    "epoch": 18,
    "avg_current_window": 996.634687317928,
    "avg_prior_window": 1139.2627502598443,
    "inception_score_mean": 2.040393670953672,
    "inception_score_std": 0.13138731573758242,
    "fid_per_class": {
        "airplane": 961.4607621324199,
        "automobile": 1211.605563376597,
        "bird": 1113.8474652927566,
        "cat": 947.3102007413481,
        "deer": 1173.9443396959114,
        "dog": 1005.8178319509751,
        "frog": 1364.518876330771,
        "horse": 1197.844235595162,
        "ship": 796.5709849842367,
        "truck": 1131.8854585044696
    },
    "fid": 653.9525902240723,
    "wasserstein_distance": null,
    "g_loss": null,
    "g_cost": null,
    "d_loss_real": null,
    "d_loss_fake": null
}