{
    "epoch": 1,
    "avg_current_window": 3.0,
    "avg_prior_window": 8.0,
    "inception_score_mean": 1.437255655861687,
    "inception_score_std": 0.11210074390916713,
    "fid_per_class": {
        "airplane": 1452.1395984214637,
        "automobile": 1762.138083606765,
        "bird": 1852.9206632394248,
        "cat": 1526.001381466229,
        "deer": 1979.7131923988645,
        "dog": 1867.7984541196458,
        "frog": 2168.3793747465515,
        "horse": 1842.051561509385,
        "ship": 1465.6388072453567,
        "truck": 1642.882771291908
    },
    "fid": 1452.6206100793102,
    "wasserstein_distance": null,
    "g_loss": null,
    "g_cost": null,
    "d_loss_real": null,
    "d_loss_fake": null
}