{
    "epoch": 189,
    "avg_current_window": 672.795334878976,
    "avg_prior_window": 678.0379652492827,
    "inception_score_mean": 2.0029807010205842,
    "inception_score_std": 0.07547374000224166,
    "fid_per_class": {
        "airplane": 889.9561679343328,
        "automobile": 1046.1926921954125,
        "bird": 1115.3057238083966,
        "cat": 919.9646490163439,
        "deer": 1120.458718905598,
        "dog": 916.1503508022308,
        "frog": 1240.8172901195776,
        "horse": 1059.286501426117,
        "ship": 797.0281713464728,
        "truck": 963.4393442389298
    },
    "fid": 606.5034719148996,
    "wasserstein_distance": null,
    "g_loss": null,
    "g_cost": null,
    "d_loss_real": null,
    "d_loss_fake": null
}