{
    "epoch": 200,
    "avg_current_window": 668.1542383439123,
    "avg_prior_window": 673.3061192366582,
    "inception_score_mean": 2.0411421457178065,
    "inception_score_std": 0.09325920021814461,
    "fid_per_class": {
        "airplane": 877.5731180537373,
        "automobile": 988.296864251981,
        "bird": 1069.6028903243287,
        "cat": 892.0895210609838,
        "deer": 1139.2119993303472,
        "dog": 883.9062197253659,
        "frog": 1186.3041486063887,
        "horse": 992.0385147067027,
        "ship": 855.6996980281376,
        "truck": 948.9425638729415
    },
    "fid": 564.5781942296014,
    "wasserstein_distance": null,
    "g_loss": null,
    "g_cost": null,
    "d_loss_real": null,
    "d_loss_fake": null
}