{
    "epoch": 107,
    "avg_current_window": 722.5299244438634,
    "avg_prior_window": 732.9202528992624,
    "inception_score_mean": 2.015798531827876,
    "inception_score_std": 0.10492392037945145,
    "fid_per_class": {
        "airplane": 895.4985283489481,
        "automobile": 1058.4360893079975,
        "bird": 1204.7130434270118,
        "cat": 902.196735259842,
        "deer": 1258.6056859521245,
        "dog": 926.2144389083227,
        "frog": 1339.7034827393989,
        "horse": 1116.836131971804,
        "ship": 922.0082278972842,
        "truck": 1034.4855309652983
    },
    "fid": 656.654759809909,
    "wasserstein_distance": null,
    "g_loss": null,
    "g_cost": null,
    "d_loss_real": null,
    "d_loss_fake": null
}