{
    "epoch": 114,
    "avg_current_window": 717.2686447663843,
    "avg_prior_window": 727.2386048390838,
    "inception_score_mean": 2.0648499008232073,
    "inception_score_std": 0.13800005128497742,
    "fid_per_class": {
        "airplane": 869.9330282534489,
        "automobile": 1039.3963434850177,
        "bird": 1134.2975632330183,
        "cat": 916.0962129751437,
        "deer": 1170.5446622383447,
        "dog": 898.2688052782885,
        "frog": 1271.4375994043503,
        "horse": 995.870365223939,
        "ship": 906.9706049429511,
        "truck": 1002.0466519545648
    },
    "fid": 600.0069257780245,
    "wasserstein_distance": null,
    "g_loss": null,
    "g_cost": null,
    "d_loss_real": null,
    "d_loss_fake": null
}