{
    "epoch": 64,
    "avg_current_window": 772.834544793715,
    "avg_prior_window": 794.5590617508813,
    "inception_score_mean": 2.0476242851668958,
    "inception_score_std": 0.1244871011487773,
    "fid_per_class": {
        "airplane": 914.0434332814118,
        "automobile": 1031.6910531216577,
        "bird": 1241.6256900955752,
        "cat": 920.1999599112469,
        "deer": 1190.8557917071466,
        "dog": 911.5135900023488,
        "frog": 1509.4479456471747,
        "horse": 1043.7515282421623,
        "ship": 818.4428175471135,
        "truck": 977.9371986171465
    },
    "fid": 654.045966479651,
    "wasserstein_distance": null,
    "g_loss": null,
    "g_cost": null,
    "d_loss_real": null,
    "d_loss_fake": null
}