{
    "epoch": 167,
    "avg_current_window": 683.465958660722,
    "avg_prior_window": 689.838277180193,
    "inception_score_mean": 2.180891316780989,
    "inception_score_std": 0.1546878570110793,
    "fid_per_class": {
        "airplane": 858.4136404135005,
        "automobile": 1012.6206898838346,
        "bird": 1119.8849315717027,
        "cat": 825.7873447723118,
        "deer": 1151.3995466323074,
        "dog": 923.7906847192437,
        "frog": 1223.2722434062925,
        "horse": 1040.2112475370604,
        "ship": 895.4474053767169,
        "truck": 962.735691991563
    },
    "fid": 590.760297996526,
    "wasserstein_distance": null,
    "g_loss": null,
    "g_cost": null,
    "d_loss_real": null,
    "d_loss_fake": null
}