{
    "epoch": 14,
    "avg_current_window": 1057.8868395269983,
    "avg_prior_window": 1265.609072533745,
    "inception_score_mean": 1.8753842265165095,
    "inception_score_std": 0.1049602736397776,
    "fid_per_class": {
        "airplane": 940.2638141686951,
        "automobile": 1117.4969343243831,
        "bird": 1357.0413381831722,
        "cat": 1075.8086031078283,
        "deer": 1502.8700566404304,
        "dog": 1303.7043827487878,
        "frog": 1699.4026406509468,
        "horse": 1483.235577701794,
        "ship": 765.7229108197705,
        "truck": 1087.1702139892504
    },
    "fid": 845.2430589064285,
    "wasserstein_distance": null,
    "g_loss": null,
    "g_cost": null,
    "d_loss_real": null,
    "d_loss_fake": null
}