{
    "epoch": 91,
    "avg_current_window": 737.5558378902628,
    "avg_prior_window": 749.2805796278959,
    "inception_score_mean": 2.0000758009915307,
    "inception_score_std": 0.17429371875175342,
    "fid_per_class": {
        "airplane": 916.7515776951444,
        "automobile": 1127.903983346177,
        "bird": 1162.4515455334367,
        "cat": 940.8161447811895,
        "deer": 1206.5880038749885,
        "dog": 919.7626855783844,
        "frog": 1267.1971624515522,
        "horse": 1056.8846503773625,
        "ship": 969.6484120305705,
        "truck": 1101.242745286861
    },
    "fid": 644.1905650621508,
    "wasserstein_distance": null,
    "g_loss": null,
    "g_cost": null,
    "d_loss_real": null,
    "d_loss_fake": null
}