{
    "epoch": 149,
    "avg_current_window": 693.0876879612688,
    "avg_prior_window": 700.6772902262778,
    "inception_score_mean": 2.1040692364064837,
    "inception_score_std": 0.20171637332595,
    "fid_per_class": {
        "airplane": 858.5413638193231,
        "automobile": 1034.5112806899788,
        "bird": 1197.6548602342086,
        "cat": 856.3013673793549,
        "deer": 1120.8253819729748,
        "dog": 903.9471379210523,
        "frog": 1241.3562631122093,
        "horse": 1053.1858018537728,
        "ship": 869.8472335744058,
        "truck": 995.0985829036938
    },
    "fid": 588.4431932346504,
    "wasserstein_distance": null,
    "g_loss": null,
    "g_cost": null,
    "d_loss_real": null,
    "d_loss_fake": null
}