{
    "epoch": 96,
    "avg_current_window": 731.8811257839858,
    "avg_prior_window": 744.6348550887479,
    "inception_score_mean": 2.042500951114363,
    "inception_score_std": 0.10202343696642072,
    "fid_per_class": {
        "airplane": 904.6446196426111,
        "automobile": 1064.0134768177563,
        "bird": 1149.7573060013567,
        "cat": 898.573294795554,
        "deer": 1226.3289695131634,
        "dog": 868.095492628091,
        "frog": 1380.2805677914025,
        "horse": 998.3213324783626,
        "ship": 900.285393919868,
        "truck": 1002.7762309032842
    },
    "fid": 617.7609719783987,
    "wasserstein_distance": null,
    "g_loss": null,
    "g_cost": null,
    "d_loss_real": null,
    "d_loss_fake": null
}