{
    "epoch": 138,
    "avg_current_window": 700.1795397085959,
    "avg_prior_window": 708.3970758651959,
    "inception_score_mean": 2.0740415945570354,
    "inception_score_std": 0.15156106273859216,
    "fid_per_class": {
        "airplane": 805.4789613292053,
        "automobile": 1049.7041892934672,
        "bird": 1137.726136589285,
        "cat": 917.503721001098,
        "deer": 1117.6161443274775,
        "dog": 866.7170293365928,
        "frog": 1190.9551426053813,
        "horse": 1040.8466930835407,
        "ship": 901.4128846653307,
        "truck": 956.3873677402132
    },
    "fid": 585.3985985029649,
    "wasserstein_distance": null,
    "g_loss": null,
    "g_cost": null,
    "d_loss_real": null,
    "d_loss_fake": null
}