{
    "epoch": 77,
    "avg_current_window": 752.0591455728733,
    "avg_prior_window": 768.9685256111633,
    "inception_score_mean": 1.9983954594189997,
    "inception_score_std": 0.1777061344936128,
    "fid_per_class": {
        "airplane": 905.1187295073015,
        "automobile": 1070.2388876811642,
        "bird": 1169.729416311894,
        "cat": 896.4242475636443,
        "deer": 1107.3808084502352,
        "dog": 885.7577193470956,
        "frog": 1296.2981007799076,
        "horse": 1022.7695287967522,
        "ship": 876.7954850110639,
        "truck": 1025.5319563122102
    },
    "fid": 622.409225378472,
    "wasserstein_distance": null,
    "g_loss": null,
    "g_cost": null,
    "d_loss_real": null,
    "d_loss_fake": null
}