{
    "epoch": 145,
    "avg_current_window": 695.8450330523035,
    "avg_prior_window": 703.1428323388373,
    "inception_score_mean": 2.0510485510219167,
    "inception_score_std": 0.1276765786591384,
    "fid_per_class": {
        "airplane": 818.6399139876621,
        "automobile": 1027.5304625720212,
        "bird": 1117.083334204648,
        "cat": 877.668420988462,
        "deer": 1133.4368398545812,
        "dog": 935.3972101557617,
        "frog": 1245.6838803827466,
        "horse": 1038.1465811622254,
        "ship": 858.5729961762136,
        "truck": 970.628003418986
    },
    "fid": 593.039038185443,
    "wasserstein_distance": null,
    "g_loss": null,
    "g_cost": null,
    "d_loss_real": null,
    "d_loss_fake": null
}