{
    "epoch": 70,
    "avg_current_window": 762.8338126537767,
    "avg_prior_window": 781.189104881852,
    "inception_score_mean": 2.054698421800073,
    "inception_score_std": 0.12896849120256074,
    "fid_per_class": {
        "airplane": 898.6871616952136,
        "automobile": 1179.0518280338658,
        "bird": 1239.1786422342905,
        "cat": 935.6277896676614,
        "deer": 1196.894454999755,
        "dog": 973.8439856669581,
        "frog": 1391.633073041764,
        "horse": 1113.2138396905636,
        "ship": 883.2578882313541,
        "truck": 1033.7427605568957
    },
    "fid": 674.6649681242351,
    "wasserstein_distance": null,
    "g_loss": null,
    "g_cost": null,
    "d_loss_real": null,
    "d_loss_fake": null
}