{
    "epoch": 171,
    "avg_current_window": 681.3922892654465,
    "avg_prior_window": 687.5832234719312,
    "inception_score_mean": 2.092040377024367,
    "inception_score_std": 0.1322381483075235,
    "fid_per_class": {
        "airplane": 873.906703134893,
        "automobile": 1041.4079732449272,
        "bird": 1099.8544648546417,
        "cat": 888.7786274472201,
        "deer": 1162.8429026887252,
        "dog": 942.3203432285076,
        "frog": 1257.5097717916033,
        "horse": 1017.8674296381428,
        "ship": 831.0864693238353,
        "truck": 915.6846115019001
    },
    "fid": 595.4318017985486,
    "wasserstein_distance": null,
    "g_loss": null,
    "g_cost": null,
    "d_loss_real": null,
    "d_loss_fake": null
}