{
    "epoch": 30,
    "avg_current_window": 881.3586159041437,
    "avg_prior_window": 947.0242893975156,
    "inception_score_mean": 1.9583789200734032,
    "inception_score_std": 0.15085555854069266,
    "fid_per_class": {
        "airplane": 912.0414168183504,
        "automobile": 1074.698088110644,
        "bird": 1278.7834336767723,
        "cat": 966.9142490532213,
        "deer": 1309.4501026143637,
        "dog": 1034.5507277718427,
        "frog": 1485.59346254596,
        "horse": 1197.3586878685865,
        "ship": 855.8624514561874,
        "truck": 1033.651556058071
    },
    "fid": 695.4270454362965,
    "wasserstein_distance": null,
    "g_loss": null,
    "g_cost": null,
    "d_loss_real": null,
    "d_loss_fake": null
}