{
    "epoch": 155,
    "avg_current_window": 690.3214392019562,
    "avg_prior_window": 696.568242013467,
    "inception_score_mean": 2.0712886854783297,
    "inception_score_std": 0.17343964915917556,
    "fid_per_class": {
        "airplane": 852.9387744659082,
        "automobile": 1059.4528251531215,
        "bird": 1124.4961584357334,
        "cat": 861.0887375723185,
        "deer": 1156.1033604399342,
        "dog": 880.1980429098237,
        "frog": 1204.841891641588,
        "horse": 987.9274290967415,
        "ship": 873.1975205249728,
        "truck": 937.3784136464158
    },
    "fid": 580.4090847749349,
    "wasserstein_distance": null,
    "g_loss": null,
    "g_cost": null,
    "d_loss_real": null,
    "d_loss_fake": null
}