{
    "epoch": 8,
    "avg_current_window": 1208.9553471549837,
    "avg_prior_window": 1.0,
    "inception_score_mean": 1.7916487350892027,
    "inception_score_std": 0.17208660959190716,
    "fid_per_class": {
        "airplane": 1022.196818558385,
        "automobile": 1202.5896239979515,
        "bird": 1413.6418490398519,
        "cat": 1135.5219755160115,
        "deer": 1390.8830603158053,
        "dog": 1192.5940064982806,
        "frog": 1667.771169368478,
        "horse": 1343.8587209429747,
        "ship": 860.6388753116643,
        "truck": 1110.2365967963858
    },
    "fid": 846.6931493292204,
    "wasserstein_distance": null,
    "g_loss": null,
    "g_cost": null,
    "d_loss_real": null,
    "d_loss_fake": null
}