{
    "epoch": 147,
    "avg_current_window": 694.5874593748792,
    "avg_prior_window": 701.874376739622,
    "inception_score_mean": 2.0542444473165387,
    "inception_score_std": 0.11941009002699778,
    "fid_per_class": {
        "airplane": 869.327430546163,
        "automobile": 1028.335814611343,
        "bird": 1145.3431017622408,
        "cat": 900.6562381156108,
        "deer": 1126.3919871010062,
        "dog": 916.5663179082094,
        "frog": 1279.6803499521025,
        "horse": 944.1033520695227,
        "ship": 919.956220476406,
        "truck": 994.125770505107
    },
    "fid": 602.6690494084736,
    "wasserstein_distance": null,
    "g_loss": null,
    "g_cost": null,
    "d_loss_real": null,
    "d_loss_fake": null
}