{
    "epoch": 3,
    "avg_current_window": 532.3442765837616,
    "avg_prior_window": 1458.6206100793102,
    "inception_score_mean": 1.3227560780480982,
    "inception_score_std": 0.052103901298799854,
    "fid_per_class": {
        "airplane": 1663.365476202041,
        "automobile": 2159.696547744228,
        "bird": 1304.3490491137238,
        "cat": 1789.3860505295604,
        "deer": 1513.9007933623052,
        "dog": 1625.1769055637674,
        "frog": 1653.9659339381224,
        "horse": 1803.721831055118,
        "ship": 1885.3963001984785,
        "truck": 2039.9492400958447
    },
    "fid": 1499.3347394747175,
    "wasserstein_distance": null,
    "g_loss": null,
    "g_cost": null,
    "d_loss_real": null,
    "d_loss_fake": null
}