{
    "epoch": 124,
    "avg_current_window": 709.6282200195699,
    "avg_prior_window": 718.2228521369539,
    "inception_score_mean": 2.059844395778181,
    "inception_score_std": 0.08291388361551531,
    "fid_per_class": {
        "airplane": 847.1061327615412,
        "automobile": 1068.0639718958657,
        "bird": 1151.0909642095603,
        "cat": 888.5268707393552,
        "deer": 1210.0956953932982,
        "dog": 920.5134378662597,
        "frog": 1291.4874416474445,
        "horse": 1069.0586397685456,
        "ship": 906.79496778156,
        "truck": 1033.0614358458624
    },
    "fid": 610.4229242531184,
    "wasserstein_distance": null,
    "g_loss": null,
    "g_cost": null,
    "d_loss_real": null,
    "d_loss_fake": null
}