{
    "epoch": 80,
    "avg_current_window": 748.2878318267007,
    "avg_prior_window": 763.8955481131828,
    "inception_score_mean": 1.9625123924253889,
    "inception_score_std": 0.1734667856057706,
    "fid_per_class": {
        "airplane": 916.6215524594584,
        "automobile": 1011.0423839135127,
        "bird": 1112.1362059773194,
        "cat": 864.8706147812261,
        "deer": 1128.3444709106375,
        "dog": 848.5618546455894,
        "frog": 1253.924409939573,
        "horse": 1059.1414578490067,
        "ship": 828.6378037144331,
        "truck": 1055.3391383307335
    },
    "fid": 593.9249325672729,
    "wasserstein_distance": null,
    "g_loss": null,
    "g_cost": null,
    "d_loss_real": null,
    "d_loss_fake": null
}