{
    "epoch": 161,
    "avg_current_window": 686.5527324246472,
    "avg_prior_window": 693.242165476087,
    "inception_score_mean": 2.0488560131004845,
    "inception_score_std": 0.1085651390999879,
    "fid_per_class": {
        "airplane": 892.0565368475452,
        "automobile": 1019.1692722455327,
        "bird": 1126.2135551678668,
        "cat": 908.1041105917204,
        "deer": 1185.6672346746334,
        "dog": 931.0619941734011,
        "frog": 1306.1590323838814,
        "horse": 1058.6505710401739,
        "ship": 892.1584111586506,
        "truck": 996.9016665155004
    },
    "fid": 628.9230280387886,
    "wasserstein_distance": null,
    "g_loss": null,
    "g_cost": null,
    "d_loss_real": null,
    "d_loss_fake": null
}