{
    "epoch": 58,
    "avg_current_window": 786.2260473533793,
    "avg_prior_window": 809.0663629959968,
    "inception_score_mean": 2.039473518773198,
    "inception_score_std": 0.09363787271305556,
    "fid_per_class": {
        "airplane": 949.7784316555451,
        "automobile": 1096.7583414946441,
        "bird": 1154.2463151640702,
        "cat": 867.7464681478032,
        "deer": 1137.8967844771405,
        "dog": 885.1361556853923,
        "frog": 1345.680270849849,
        "horse": 1118.361199767886,
        "ship": 881.6634533458939,
        "truck": 1048.6905581763622
    },
    "fid": 635.459465275066,
    "wasserstein_distance": null,
    "g_loss": null,
    "g_cost": null,
    "d_loss_real": null,
    "d_loss_fake": null
}