{
    "epoch": 54,
    "avg_current_window": 794.083652570145,
    "avg_prior_window": 818.7325835715119,
    "inception_score_mean": 1.937761635012658,
    "inception_score_std": 0.1545664669137403,
    "fid_per_class": {
        "airplane": 926.3160396784976,
        "automobile": 1106.2213171389224,
        "bird": 1205.0412577726497,
        "cat": 941.3502595325574,
        "deer": 1185.2076034699066,
        "dog": 979.6395599636655,
        "frog": 1406.062799255108,
        "horse": 1177.199012375817,
        "ship": 841.4048911561504,
        "truck": 1061.888165063161
    },
    "fid": 679.6363277185455,
    "wasserstein_distance": null,
    "g_loss": null,
    "g_cost": null,
    "d_loss_real": null,
    "d_loss_fake": null
}