{
    "epoch": 190,
    "avg_current_window": 672.4464303370597,
    "avg_prior_window": 677.6278743454353,
    "inception_score_mean": 2.072852135332649,
    "inception_score_std": 0.16789134255687835,
    "fid_per_class": {
        "airplane": 862.8806347601703,
        "automobile": 1039.1948843811147,
        "bird": 1102.3097445814217,
        "cat": 867.9226284256102,
        "deer": 1096.8122976430905,
        "dog": 886.7844455309904,
        "frog": 1237.1631476334264,
        "horse": 958.4897870622274,
        "ship": 805.2445167850326,
        "truck": 966.02514360296
    },
    "fid": 564.4408435904912,
    "wasserstein_distance": null,
    "g_loss": null,
    "g_cost": null,
    "d_loss_real": null,
    "d_loss_fake": null
}