{
    "epoch": 111,
    "avg_current_window": 719.6835911111195,
    "avg_prior_window": 729.3462444857867,
    "inception_score_mean": 2.018025934711786,
    "inception_score_std": 0.09569202765735896,
    "fid_per_class": {
        "airplane": 864.0967952379058,
        "automobile": 1056.4963246710738,
        "bird": 1172.972183233203,
        "cat": 935.7892705061787,
        "deer": 1292.3328291677215,
        "dog": 1003.0234303132786,
        "frog": 1362.2579547612258,
        "horse": 1139.3657187847807,
        "ship": 890.3598437615167,
        "truck": 1014.7217434009408
    },
    "fid": 667.3641027513341,
    "wasserstein_distance": null,
    "g_loss": null,
    "g_cost": null,
    "d_loss_real": null,
    "d_loss_fake": null
}