{
    "epoch": 45,
    "avg_current_window": 817.5024047070768,
    "avg_prior_window": 849.7106221508951,
    "inception_score_mean": 1.990200006768364,
    "inception_score_std": 0.15563507425887319,
    "fid_per_class": {
        "airplane": 922.5745614119385,
        "automobile": 1035.7733199680247,
        "bird": 1157.451071527103,
        "cat": 937.8584945205766,
        "deer": 1227.6380569001658,
        "dog": 962.9571307675491,
        "frog": 1362.1322733603222,
        "horse": 1145.8524511181927,
        "ship": 793.5667493291131,
        "truck": 983.4416890581273
    },
    "fid": 643.6738938653499,
    "wasserstein_distance": null,
    "g_loss": null,
    "g_cost": null,
    "d_loss_real": null,
    "d_loss_fake": null
}