{
    "epoch": 133,
    "avg_current_window": 703.7218577124479,
    "avg_prior_window": 711.7650446075077,
    "inception_score_mean": 2.010242503234718,
    "inception_score_std": 0.14082154679539025,
    "fid_per_class": {
        "airplane": 854.5073361750894,
        "automobile": 1138.3960028853753,
        "bird": 1118.2408945936813,
        "cat": 942.2624754440828,
        "deer": 1250.6548064819622,
        "dog": 948.5731162033373,
        "frog": 1272.8460763158944,
        "horse": 1042.8798503277094,
        "ship": 906.1241021441359,
        "truck": 959.3252035664966
    },
    "fid": 621.8040143155008,
    "wasserstein_distance": null,
    "g_loss": null,
    "g_cost": null,
    "d_loss_real": null,
    "d_loss_fake": null
}