{
    "epoch": 7,
    "avg_current_window": 1232.2150169052754,
    "avg_prior_window": 2.0,
    "inception_score_mean": 1.5989609246827696,
    "inception_score_std": 0.08180381272328151,
    "fid_per_class": {
        "airplane": 1116.3899927491443,
        "automobile": 1274.8720351895363,
        "bird": 1629.6156616331348,
        "cat": 1314.657179354516,
        "deer": 1717.8107748915913,
        "dog": 1447.6307888862925,
        "frog": 1957.838605742126,
        "horse": 1547.4785053829376,
        "ship": 879.7001013588348,
        "truck": 1152.9305109457564
    },
    "fid": 1046.1376589029405,
    "wasserstein_distance": null,
    "g_loss": null,
    "g_cost": null,
    "d_loss_real": null,
    "d_loss_fake": null
}