{
    "epoch": 163,
    "avg_current_window": 685.6061405103759,
    "avg_prior_window": 691.9264060818787,
    "inception_score_mean": 2.0885555613682394,
    "inception_score_std": 0.07184990721618216,
    "fid_per_class": {
        "airplane": 888.7783612111457,
        "automobile": 1029.4555543528004,
        "bird": 1120.332214382657,
        "cat": 879.2597706176983,
        "deer": 1110.6320716986065,
        "dog": 887.9898740107124,
        "frog": 1162.3860171602962,
        "horse": 985.2330054129056,
        "ship": 848.7170718238198,
        "truck": 952.9349209331817
    },
    "fid": 579.6402604550082,
    "wasserstein_distance": null,
    "g_loss": null,
    "g_cost": null,
    "d_loss_real": null,
    "d_loss_fake": null
}