{
    "epoch": 117,
    "avg_current_window": 714.8917307120203,
    "avg_prior_window": 724.7924638614678,
    "inception_score_mean": 2.1120652787259457,
    "inception_score_std": 0.14361352273571612,
    "fid_per_class": {
        "airplane": 857.041806507387,
        "automobile": 1041.5258986867555,
        "bird": 1132.8626750056997,
        "cat": 871.7233984097584,
        "deer": 1221.4322624254141,
        "dog": 895.8057387364167,
        "frog": 1222.5992386619737,
        "horse": 1062.0232863295691,
        "ship": 916.5770157695684,
        "truck": 998.8156504292489
    },
    "fid": 599.5890783364518,
    "wasserstein_distance": null,
    "g_loss": null,
    "g_cost": null,
    "d_loss_real": null,
    "d_loss_fake": null
}