{
    "epoch": 179,
    "avg_current_window": 677.248216346727,
    "avg_prior_window": 682.9942031711697,
    "inception_score_mean": 2.0333852947357896,
    "inception_score_std": 0.1063667313425484,
    "fid_per_class": {
        "airplane": 884.5499454549479,
        "automobile": 1021.1150863908399,
        "bird": 1048.6608990342895,
        "cat": 902.3352148026237,
        "deer": 1148.2762936117588,
        "dog": 887.8482526107437,
        "frog": 1194.5521964533982,
        "horse": 938.01352865844,
        "ship": 831.9387991838224,
        "truck": 940.5381239875032
    },
    "fid": 564.7704900896855,
    "wasserstein_distance": null,
    "g_loss": null,
    "g_cost": null,
    "d_loss_real": null,
    "d_loss_fake": null
}