{
    "epoch": 104,
    "avg_current_window": 724.8960012236114,
    "avg_prior_window": 735.7396646465098,
    "inception_score_mean": 2.075200439834218,
    "inception_score_std": 0.1426374394405141,
    "fid_per_class": {
        "airplane": 909.066713906142,
        "automobile": 1102.3394651563196,
        "bird": 1135.5701779743135,
        "cat": 905.3722054005208,
        "deer": 1161.4454603405768,
        "dog": 906.0662667404854,
        "frog": 1290.7432582118233,
        "horse": 1044.3131835453637,
        "ship": 935.5468968985723,
        "truck": 1005.5280896499925
    },
    "fid": 623.5030158216792,
    "wasserstein_distance": null,
    "g_loss": null,
    "g_cost": null,
    "d_loss_real": null,
    "d_loss_fake": null
}