{
    "epoch": 118,
    "avg_current_window": 713.9145895901934,
    "avg_prior_window": 723.6161548970604,
    "inception_score_mean": 2.063237774736071,
    "inception_score_std": 0.12464961625479176,
    "fid_per_class": {
        "airplane": 863.2745037308623,
        "automobile": 1145.2899134254437,
        "bird": 1169.8798276303066,
        "cat": 952.8760545710751,
        "deer": 1213.582400502265,
        "dog": 961.7926967565555,
        "frog": 1290.0928770208693,
        "horse": 1087.9790344601474,
        "ship": 917.9879004610638,
        "truck": 1048.845990264128
    },
    "fid": 656.8324997376468,
    "wasserstein_distance": null,
    "g_loss": null,
    "g_cost": null,
    "d_loss_real": null,
    "d_loss_fake": null
}