{
    "epoch": 101,
    "avg_current_window": 727.4000847462117,
    "avg_prior_window": 738.3161359087608,
    "inception_score_mean": 2.057928088943067,
    "inception_score_std": 0.15792774468065887,
    "fid_per_class": {
        "airplane": 871.3600353073465,
        "automobile": 1101.8373535819196,
        "bird": 1156.6607381982349,
        "cat": 896.4296741839325,
        "deer": 1168.0652869484034,
        "dog": 936.2910078077551,
        "frog": 1258.5724477256485,
        "horse": 1042.7544996342606,
        "ship": 878.8475442336102,
        "truck": 1026.5070721949778
    },
    "fid": 621.1882735571526,
    "wasserstein_distance": null,
    "g_loss": null,
    "g_cost": null,
    "d_loss_real": null,
    "d_loss_fake": null
}