{
    "epoch": 159,
    "avg_current_window": 687.574667678848,
    "avg_prior_window": 694.8040459500208,
    "inception_score_mean": 2.09132692698792,
    "inception_score_std": 0.12739193281446098,
    "fid_per_class": {
        "airplane": 872.3825618052427,
        "automobile": 988.5642002540899,
        "bird": 1125.5714806507085,
        "cat": 895.5680964769888,
        "deer": 1156.7572554224062,
        "dog": 927.7904128585577,
        "frog": 1277.006159840066,
        "horse": 1017.1736951240471,
        "ship": 917.4187039779049,
        "truck": 929.6561622660728
    },
    "fid": 585.2849224781114,
    "wasserstein_distance": null,
    "g_loss": null,
    "g_cost": null,
    "d_loss_real": null,
    "d_loss_fake": null
}