{
    "epoch": 21,
    "avg_current_window": 961.8784942848823,
    "avg_prior_window": 1080.0525621670436,
    "inception_score_mean": 1.990317165455934,
    "inception_score_std": 0.14439674814006306,
    "fid_per_class": {
        "airplane": 961.1382505838994,
        "automobile": 1135.664618297041,
        "bird": 1148.941628732314,
        "cat": 904.038166205357,
        "deer": 1215.188945678564,
        "dog": 945.8644288531478,
        "frog": 1272.5696577997082,
        "horse": 1196.5910608425395,
        "ship": 806.3428627585705,
        "truck": 1064.993804782275
    },
    "fid": 639.72963191657,
    "wasserstein_distance": null,
    "g_loss": null,
    "g_cost": null,
    "d_loss_real": null,
    "d_loss_fake": null
}