{
    "epoch": 40,
    "avg_current_window": 832.8039015834113,
    "avg_prior_window": 872.8858952269011,
    "inception_score_mean": 1.9647680672699974,
    "inception_score_std": 0.11385535595335194,
    "fid_per_class": {
        "airplane": 868.885520626294,
        "automobile": 1137.856606459808,
        "bird": 1217.7443388665133,
        "cat": 946.4408756883039,
        "deer": 1230.286759779557,
        "dog": 940.0489203780002,
        "frog": 1403.6188188030417,
        "horse": 1092.9318282970341,
        "ship": 894.6338768970606,
        "truck": 1063.065346749912
    },
    "fid": 676.2688226993533,
    "wasserstein_distance": null,
    "g_loss": null,
    "g_cost": null,
    "d_loss_real": null,
    "d_loss_fake": null
}