{
    "epoch": 10,
    "avg_current_window": 1139.0481652803705,
    "avg_prior_window": 1493.246807420377,
    "inception_score_mean": 1.7878729944625853,
    "inception_score_std": 0.11873067200333323,
    "fid_per_class": {
        "airplane": 1065.3370727882923,
        "automobile": 1288.8977644917325,
        "bird": 1330.3996210837804,
        "cat": 1033.1245376149652,
        "deer": 1344.6202597140664,
        "dog": 1132.080971061145,
        "frog": 1529.4486980916913,
        "horse": 1316.957968347977,
        "ship": 933.358767458969,
        "truck": 1162.4304964541755
    },
    "fid": 823.3298123933896,
    "wasserstein_distance": null,
    "g_loss": null,
    "g_cost": null,
    "d_loss_real": null,
    "d_loss_fake": null
}