{
    "epoch": 115,
    "avg_current_window": 716.2489776447464,
    "avg_prior_window": 726.2261692121297,
    "inception_score_mean": 2.020624425610407,
    "inception_score_std": 0.1249234967448793,
    "fid_per_class": {
        "airplane": 872.7614696677335,
        "automobile": 1101.134476345802,
        "bird": 1187.7380326556663,
        "cat": 905.292471845624,
        "deer": 1224.3873919234934,
        "dog": 968.649689728097,
        "frog": 1287.1414092189245,
        "horse": 1022.2630415522481,
        "ship": 928.591255591654,
        "truck": 1010.4177541057039
    },
    "fid": 638.0985333842519,
    "wasserstein_distance": null,
    "g_loss": null,
    "g_cost": null,
    "d_loss_real": null,
    "d_loss_fake": null
}