{
    "epoch": 66,
    "avg_current_window": 769.3529063230361,
    "avg_prior_window": 790.2283702416544,
    "inception_score_mean": 1.9605268851861062,
    "inception_score_std": 0.14279944523648927,
    "fid_per_class": {
        "airplane": 937.2042549318321,
        "automobile": 1117.8119631780623,
        "bird": 1212.522539509259,
        "cat": 956.9275294413954,
        "deer": 1250.0928599765914,
        "dog": 960.5917929959775,
        "frog": 1390.5580290567846,
        "horse": 1134.2129272972966,
        "ship": 846.6604154847957,
        "truck": 1049.203223489124
    },
    "fid": 674.0122324932257,
    "wasserstein_distance": null,
    "g_loss": null,
    "g_cost": null,
    "d_loss_real": null,
    "d_loss_fake": null
}