{
    "epoch": 35,
    "avg_current_window": 854.1481203554099,
    "avg_prior_window": 904.5395174186868,
    "inception_score_mean": 1.9175157201040953,
    "inception_score_std": 0.11983915532133767,
    "fid_per_class": {
        "airplane": 844.686651019457,
        "automobile": 1126.5058144255095,
        "bird": 1223.8353863064212,
        "cat": 933.8336042486367,
        "deer": 1227.0576129125898,
        "dog": 996.038295526497,
        "frog": 1437.891501060289,
        "horse": 1155.200276362149,
        "ship": 795.4899513844128,
        "truck": 1093.7362562396888
    },
    "fid": 655.8221205021925,
    "wasserstein_distance": null,
    "g_loss": null,
    "g_cost": null,
    "d_loss_real": null,
    "d_loss_fake": null
}