{
    "epoch": 148,
    "avg_current_window": 693.9663890372684,
    "avg_prior_window": 700.89170128362,
    "inception_score_mean": 2.13330040427424,
    "inception_score_std": 0.20603489322729895,
    "fid_per_class": {
        "airplane": 830.7610512525595,
        "automobile": 1014.2783372301607,
        "bird": 1018.3096243010689,
        "cat": 874.3920593442547,
        "deer": 1141.6938920201037,
        "dog": 905.0607348015322,
        "frog": 1197.8397506789438,
        "horse": 955.3006783142288,
        "ship": 885.815313565814,
        "truck": 914.01825673297
    },
    "fid": 563.0399287133125,
    "wasserstein_distance": null,
    "g_loss": null,
    "g_cost": null,
    "d_loss_real": null,
    "d_loss_fake": null
}