{
    "epoch": 132,
    "avg_current_window": 704.2732478799566,
    "avg_prior_window": 712.3476588938877,
    "inception_score_mean": 2.0507552783743743,
    "inception_score_std": 0.11561380678161655,
    "fid_per_class": {
        "airplane": 858.6074441929089,
        "automobile": 1087.0815392209756,
        "bird": 1170.1955943921516,
        "cat": 960.5036820298401,
        "deer": 1212.6214219730132,
        "dog": 1005.3882973796956,
        "frog": 1326.952700171133,
        "horse": 1012.8296798674091,
        "ship": 855.8890355734513,
        "truck": 928.0117914748981
    },
    "fid": 630.9383556012986,
    "wasserstein_distance": null,
    "g_loss": null,
    "g_cost": null,
    "d_loss_real": null,
    "d_loss_fake": null
}