{
    "epoch": 198,
    "avg_current_window": 669.064623422145,
    "avg_prior_window": 674.183377544835,
    "inception_score_mean": 2.067635010172296,
    "inception_score_std": 0.140360188913389,
    "fid_per_class": {
        "airplane": 833.8978862211462,
        "automobile": 1058.8842464900674,
        "bird": 1148.2042266217297,
        "cat": 904.4316531972702,
        "deer": 1222.262563388177,
        "dog": 919.5254386721817,
        "frog": 1249.0441935692784,
        "horse": 1034.7579846909139,
        "ship": 869.5057287129376,
        "truck": 958.7507791713933
    },
    "fid": 604.1452273719843,
    "wasserstein_distance": null,
    "g_loss": null,
    "g_cost": null,
    "d_loss_real": null,
    "d_loss_fake": null
}