{
    "epoch": 78,
    "avg_current_window": 750.3969671088424,
    "avg_prior_window": 767.3616743845865,
    "inception_score_mean": 1.9973630117524988,
    "inception_score_std": 0.09332356920687448,
    "fid_per_class": {
        "airplane": 976.3019791237722,
        "automobile": 1105.663469526583,
        "bird": 1227.2912265226919,
        "cat": 906.4150363546223,
        "deer": 1202.1820962811435,
        "dog": 968.0401627398662,
        "frog": 1461.7092623050012,
        "horse": 1064.641149557715,
        "ship": 911.8188405063554,
        "truck": 1027.0198405465303
    },
    "fid": 662.9818359230769,
    "wasserstein_distance": null,
    "g_loss": null,
    "g_cost": null,
    "d_loss_real": null,
    "d_loss_fake": null
}