{
    "epoch": 20,
    "avg_current_window": 969.2352360951667,
    "avg_prior_window": 1098.576223738097,
    "inception_score_mean": 1.8770022329527964,
    "inception_score_std": 0.09172113763711832,
    "fid_per_class": {
        "airplane": 1035.5993489006541,
        "automobile": 1180.279082563377,
        "bird": 1378.9993959992876,
        "cat": 1079.761453397558,
        "deer": 1413.2742185721474,
        "dog": 1217.6096177118127,
        "frog": 1647.5246780128427,
        "horse": 1279.725578504674,
        "ship": 931.0360517700208,
        "truck": 1107.0885430860624
    },
    "fid": 814.7436580791949,
    "wasserstein_distance": null,
    "g_loss": null,
    "g_cost": null,
    "d_loss_real": null,
    "d_loss_fake": null
}