{
    "epoch": 100,
    "avg_current_window": 728.3822680000447,
    "avg_prior_window": 739.5851376343436,
    "inception_score_mean": 2.038788247769649,
    "inception_score_std": 0.15764499597006598,
    "fid_per_class": {
        "airplane": 872.5301056647777,
        "automobile": 1067.161244013073,
        "bird": 1200.190833739722,
        "cat": 856.4436501907865,
        "deer": 1242.4311368638432,
        "dog": 948.3241333384856,
        "frog": 1342.6341068766174,
        "horse": 1038.6059715876281,
        "ship": 876.6078299971059,
        "truck": 967.925234693135
    },
    "fid": 629.1817593629064,
    "wasserstein_distance": null,
    "g_loss": null,
    "g_cost": null,
    "d_loss_real": null,
    "d_loss_fake": null
}