{
    "epoch": 136,
    "avg_current_window": 701.458461346214,
    "avg_prior_window": 709.6493795431622,
    "inception_score_mean": 2.0786370290399656,
    "inception_score_std": 0.1485176504433043,
    "fid_per_class": {
        "airplane": 852.8259427419407,
        "automobile": 1027.7233896372595,
        "bird": 1136.0282654588345,
        "cat": 927.0491913217097,
        "deer": 1133.170600004006,
        "dog": 906.4408840427504,
        "frog": 1176.0437806776708,
        "horse": 1069.3118780587483,
        "ship": 830.8597474613584,
        "truck": 886.6259318993017
    },
    "fid": 573.7199277259488,
    "wasserstein_distance": null,
    "g_loss": null,
    "g_cost": null,
    "d_loss_real": null,
    "d_loss_fake": null
}