{
    "epoch": 61,
    "avg_current_window": 1303.6351816266524,
    "avg_prior_window": 1352.6003959043885,
    "inception_score_mean": 1.9787525364252363,
    "inception_score_std": 0.17064019918023374,
    "fid_per_class": {
        "airplane": 1066.5452957511939,
        "automobile": 1144.1568001823043,
        "bird": 1379.290721207621,
        "cat": 1070.0272645670705,
        "deer": 1596.8683909830213,
        "dog": 1169.406061107044,
        "frog": 1853.4587209325932,
        "horse": 1397.4814789718605,
        "ship": 981.7802610890291,
        "truck": 1126.9037835566141
    },
    "fid": 895.6259131239235,
    "wasserstein_distance": null,
    "g_loss": null,
    "g_cost": null,
    "d_loss_real": null,
    "d_loss_fake": null
}