{
    "epoch": 163,
    "avg_current_window": 1006.8072306512763,
    "avg_prior_window": 1018.7431364756628,
    "inception_score_mean": 2.0751221460210814,
    "inception_score_std": 0.13882721342446244,
    "fid_per_class": {
        "airplane": 1022.5424684163479,
        "automobile": 1059.3858876646673,
        "bird": 1376.117392883763,
        "cat": 1036.0856732407046,
        "deer": 1515.106234003858,
        "dog": 1156.043580039908,
        "frog": 1669.3618056228995,
        "horse": 1268.6827807320096,
        "ship": 969.8306274400177,
        "truck": 1068.5736023230495
    },
    "fid": 815.1163719743522,
    "wasserstein_distance": null,
    "g_loss": null,
    "g_cost": null,
    "d_loss_real": null,
    "d_loss_fake": null
}