{
    "epoch": 186,
    "avg_current_window": 980.511628069641,
    "avg_prior_window": 989.930543870329,
    "inception_score_mean": 2.1197026946089017,
    "inception_score_std": 0.1190370998475832,
    "fid_per_class": {
        "airplane": 999.8764816687874,
        "automobile": 1121.1080395547374,
        "bird": 1316.3653175861054,
        "cat": 1023.6843617784447,
        "deer": 1444.3626915192176,
        "dog": 1131.4444184756753,
        "frog": 1696.6013475514435,
        "horse": 1087.0374472557246,
        "ship": 933.1950401519634,
        "truck": 1051.2967890219409
    },
    "fid": 748.9021510503142,
    "wasserstein_distance": null,
    "g_loss": null,
    "g_cost": null,
    "d_loss_real": null,
    "d_loss_fake": null
}