{
    "epoch": 130,
    "avg_current_window": 1060.3951253571001,
    "avg_prior_window": 1076.6729677294925,
    "inception_score_mean": 1.9460610823859334,
    "inception_score_std": 0.09799004447996644,
    "fid_per_class": {
        "airplane": 1074.2853403099089,
        "automobile": 1125.431592998006,
        "bird": 1391.6504645371538,
        "cat": 1050.0988475418555,
        "deer": 1614.477990302656,
        "dog": 1152.6288535169883,
        "frog": 1793.3391813363921,
        "horse": 1288.7898442632554,
        "ship": 964.9299010862767,
        "truck": 1129.5920044056388
    },
    "fid": 853.5655579786304,
    "wasserstein_distance": null,
    "g_loss": null,
    "g_cost": null,
    "d_loss_real": null,
    "d_loss_fake": null
}