{
    "epoch": 68,
    "avg_current_window": 1261.9565974695292,
    "avg_prior_window": 1305.501037703314,
    "inception_score_mean": 1.9433620081270255,
    "inception_score_std": 0.12441809128954032,
    "fid_per_class": {
        "airplane": 1058.8560787453055,
        "automobile": 1170.313602976735,
        "bird": 1365.8405425372782,
        "cat": 1103.8208255281604,
        "deer": 1537.4174968161906,
        "dog": 1206.848008391904,
        "frog": 1630.8621225494078,
        "horse": 1387.4336455643986,
        "ship": 949.4916211063857,
        "truck": 1192.875226370606
    },
    "fid": 887.2867373489511,
    "wasserstein_distance": null,
    "g_loss": null,
    "g_cost": null,
    "d_loss_real": null,
    "d_loss_fake": null
}