{
    "epoch": 104,
    "avg_current_window": 1121.7628762067877,
    "avg_prior_window": 1143.9119930345876,
    "inception_score_mean": 1.9804600327199853,
    "inception_score_std": 0.13687432187205767,
    "fid_per_class": {
        "airplane": 978.0837127801217,
        "automobile": 1139.334674264359,
        "bird": 1328.3147821148334,
        "cat": 1035.0897382937374,
        "deer": 1443.1203782648327,
        "dog": 1072.6746939878042,
        "frog": 1690.4740779513445,
        "horse": 1300.7285398173653,
        "ship": 991.169214665618,
        "truck": 1116.0986388859696
    },
    "fid": 819.0751745883103,
    "wasserstein_distance": null,
    "g_loss": null,
    "g_cost": null,
    "d_loss_real": null,
    "d_loss_fake": null
}