{
    "epoch": 125,
    "avg_current_window": 1069.7208872439896,
    "avg_prior_window": 1087.0235661606007,
    "inception_score_mean": 1.9306775495149633,
    "inception_score_std": 0.11797324782790901,
    "fid_per_class": {
        "airplane": 1091.515704591291,
        "automobile": 1124.5406794085511,
        "bird": 1359.166928634249,
        "cat": 1139.9073829666372,
        "deer": 1560.29607508784,
        "dog": 1157.9139871447983,
        "frog": 1752.202479449069,
        "horse": 1313.4451649047528,
        "ship": 988.4760844870078,
        "truck": 1125.08279735872
    },
    "fid": 869.0100606878601,
    "wasserstein_distance": null,
    "g_loss": null,
    "g_cost": null,
    "d_loss_real": null,
    "d_loss_fake": null
}