{
    "epoch": 169,
    "avg_current_window": 999.0381713323623,
    "avg_prior_window": 1010.2309205369,
    "inception_score_mean": 2.000250096259559,
    "inception_score_std": 0.07965284809719848,
    "fid_per_class": {
        "airplane": 996.0295089087792,
        "automobile": 1049.4642539527858,
        "bird": 1362.0525244473533,
        "cat": 1025.9110260841812,
        "deer": 1555.2442712459006,
        "dog": 1097.1950313202244,
        "frog": 1728.7033505615116,
        "horse": 1150.272224859969,
        "ship": 912.2506991065219,
        "truck": 1065.6695323002696
    },
    "fid": 772.9232266113793,
    "wasserstein_distance": null,
    "g_loss": null,
    "g_cost": null,
    "d_loss_real": null,
    "d_loss_fake": null
}