{
    "epoch": 198,
    "avg_current_window": 969.68904663372,
    "avg_prior_window": 977.9976316608015,
    "inception_score_mean": 2.0342358324637995,
    "inception_score_std": 0.12254116027445838,
    "fid_per_class": {
        "airplane": 1124.1754233680906,
        "automobile": 1145.959937116463,
        "bird": 1374.9172378042579,
        "cat": 1073.2188486172613,
        "deer": 1525.1980074179423,
        "dog": 1176.35238585342,
        "frog": 1786.626936001329,
        "horse": 1242.1128216116363,
        "ship": 1013.5592958693233,
        "truck": 1175.5974558044468
    },
    "fid": 857.7827413089532,
    "wasserstein_distance": null,
    "g_loss": null,
    "g_cost": null,
    "d_loss_real": null,
    "d_loss_fake": null
}