{
    "epoch": 166,
    "avg_current_window": 1002.9216590257116,
    "avg_prior_window": 1014.4463564388988,
    "inception_score_mean": 2.1019008809371797,
    "inception_score_std": 0.14502070404190173,
    "fid_per_class": {
        "airplane": 1090.0490715609035,
        "automobile": 1022.7609724631409,
        "bird": 1254.6949359602859,
        "cat": 1000.5490440707764,
        "deer": 1480.3108709896042,
        "dog": 996.9085827138034,
        "frog": 1500.1066018186827,
        "horse": 1186.0652221256369,
        "ship": 895.3909492812993,
        "truck": 1074.0140913538905
    },
    "fid": 734.4414696108104,
    "wasserstein_distance": null,
    "g_loss": null,
    "g_cost": null,
    "d_loss_real": null,
    "d_loss_fake": null
}