{
    "epoch": 49,
    "avg_current_window": 1390.4642076529515,
    "avg_prior_window": 1459.7189576067858,
    "inception_score_mean": 1.9812052425459954,
    "inception_score_std": 0.11950729002609776,
    "fid_per_class": {
        "airplane": 1126.403938945089,
        "automobile": 1267.2625692068723,
        "bird": 1468.7475843386912,
        "cat": 1067.700184168411,
        "deer": 1650.0052250257381,
        "dog": 1273.5662416312894,
        "frog": 1882.3724682364132,
        "horse": 1493.8988995744983,
        "ship": 1101.802810167128,
        "truck": 1221.4758706341158
    },
    "fid": 975.5152572918607,
    "wasserstein_distance": null,
    "g_loss": null,
    "g_cost": null,
    "d_loss_real": null,
    "d_loss_fake": null
}