{
    "epoch": 11,
    "avg_current_window": 1878.696161149335,
    "avg_prior_window": 2273.723093566044,
    "inception_score_mean": 1.3729718036885648,
    "inception_score_std": 0.09755370934505893,
    "fid_per_class": {
        "airplane": 1828.7977407608907,
        "automobile": 1691.323767007955,
        "bird": 2288.9764908608154,
        "cat": 2074.123264964418,
        "deer": 2477.782032731117,
        "dog": 2254.9596763384047,
        "frog": 2423.0039165267103,
        "horse": 2164.570385022849,
        "ship": 1601.448719125357,
        "truck": 1612.8712350133112
    },
    "fid": 1806.3756793629068,
    "wasserstein_distance": null,
    "g_loss": null,
    "g_cost": null,
    "d_loss_real": null,
    "d_loss_fake": null
}