{
    "epoch": 200,
    "avg_current_window": 968.5791339082655,
    "avg_prior_window": 976.071761675983,
    "inception_score_mean": 2.0013969790933315,
    "inception_score_std": 0.11563206878096978,
    "fid_per_class": {
        "airplane": 1058.2655108031008,
        "automobile": 1085.1200784083571,
        "bird": 1313.1460090736466,
        "cat": 1042.1348541195964,
        "deer": 1544.3398528644634,
        "dog": 1073.270992350816,
        "frog": 1776.6276897194164,
        "horse": 1212.7292333307664,
        "ship": 921.9656466505271,
        "truck": 1103.3381617477248
    },
    "fid": 795.6254927202642,
    "wasserstein_distance": null,
    "g_loss": null,
    "g_cost": null,
    "d_loss_real": null,
    "d_loss_fake": null
}