{
    "epoch": 90,
    "avg_current_window": 1165.295320884419,
    "avg_prior_window": 1192.8204573367632,
    "inception_score_mean": 2.0269330988099434,
    "inception_score_std": 0.13702125316448208,
    "fid_per_class": {
        "airplane": 1075.459266222635,
        "automobile": 1078.9702253440144,
        "bird": 1302.5269701923933,
        "cat": 1078.5953604996562,
        "deer": 1549.2228324653352,
        "dog": 1086.2176234831468,
        "frog": 1697.7196387382671,
        "horse": 1244.0806265011715,
        "ship": 964.2218705722844,
        "truck": 1150.6463247862353
    },
    "fid": 827.7132492548897,
    "wasserstein_distance": null,
    "g_loss": null,
    "g_cost": null,
    "d_loss_real": null,
    "d_loss_fake": null
}