{
    "epoch": 111,
    "avg_current_window": 1102.8932822236952,
    "avg_prior_window": 1123.5833098700364,
    "inception_score_mean": 2.0787445919326926,
    "inception_score_std": 0.18356542042918256,
    "fid_per_class": {
        "airplane": 1025.3150441716036,
        "automobile": 1060.2519568054217,
        "bird": 1362.834166875737,
        "cat": 1020.8014426191324,
        "deer": 1532.6204083638245,
        "dog": 1077.4860980684102,
        "frog": 1649.7425610075557,
        "horse": 1243.3478488538801,
        "ship": 959.7578180195297,
        "truck": 1126.8624149516154
    },
    "fid": 803.0203782731704,
    "wasserstein_distance": null,
    "g_loss": null,
    "g_cost": null,
    "d_loss_real": null,
    "d_loss_fake": null
}