{
    "epoch": 109,
    "avg_current_window": 1107.6784475674394,
    "avg_prior_window": 1129.6385990393678,
    "inception_score_mean": 2.0235630423067916,
    "inception_score_std": 0.16438149847052946,
    "fid_per_class": {
        "airplane": 1015.3094940665726,
        "automobile": 1062.4718605163398,
        "bird": 1327.4084328321655,
        "cat": 1152.5717912531081,
        "deer": 1574.5280687282893,
        "dog": 1197.8683544446953,
        "frog": 1732.8142631631217,
        "horse": 1313.35334224249,
        "ship": 931.7392049407036,
        "truck": 1140.4696949815034
    },
    "fid": 856.6390609875541,
    "wasserstein_distance": null,
    "g_loss": null,
    "g_cost": null,
    "d_loss_real": null,
    "d_loss_fake": null
}