{
    "epoch": 155,
    "avg_current_window": 1018.1845619927537,
    "avg_prior_window": 1031.1679343269939,
    "inception_score_mean": 2.0399470687152004,
    "inception_score_std": 0.0941714261276293,
    "fid_per_class": {
        "airplane": 1021.6256705907649,
        "automobile": 1113.3593935770978,
        "bird": 1348.1328160574762,
        "cat": 1047.2328540176027,
        "deer": 1439.0940551742624,
        "dog": 1153.1885901445849,
        "frog": 1738.447507675783,
        "horse": 1186.4445615213513,
        "ship": 923.995583810254,
        "truck": 1111.0567761556763
    },
    "fid": 793.256985801291,
    "wasserstein_distance": null,
    "g_loss": null,
    "g_cost": null,
    "d_loss_real": null,
    "d_loss_fake": null
}