{
    "epoch": 156,
    "avg_current_window": 1016.742718555629,
    "avg_prior_window": 1029.8055172754616,
    "inception_score_mean": 2.0695852521111795,
    "inception_score_std": 0.0807835424314103,
    "fid_per_class": {
        "airplane": 1018.6178017051924,
        "automobile": 1057.2095395015165,
        "bird": 1395.5397864653132,
        "cat": 1029.9927690125583,
        "deer": 1532.9810171291451,
        "dog": 1150.1059613881976,
        "frog": 1697.7817448463993,
        "horse": 1104.9993517491007,
        "ship": 903.8092211772023,
        "truck": 1094.8113726108859
    },
    "fid": 791.6964704328886,
    "wasserstein_distance": null,
    "g_loss": null,
    "g_cost": null,
    "d_loss_real": null,
    "d_loss_fake": null
}