{
    "epoch": 115,
    "avg_current_window": 1092.457758162484,
    "avg_prior_window": 1112.919584789365,
    "inception_score_mean": 1.9967560024904816,
    "inception_score_std": 0.14161933236850513,
    "fid_per_class": {
        "airplane": 1060.7783983161373,
        "automobile": 1134.621930178705,
        "bird": 1373.3892006350675,
        "cat": 1039.8763073229752,
        "deer": 1572.0345796654797,
        "dog": 1134.1006006994396,
        "frog": 1742.324994826544,
        "horse": 1261.5061608448455,
        "ship": 944.2972188491264,
        "truck": 1158.4261782283547
    },
    "fid": 839.088477710757,
    "wasserstein_distance": null,
    "g_loss": null,
    "g_cost": null,
    "d_loss_real": null,
    "d_loss_fake": null
}