{
    "epoch": 144,
    "avg_current_window": 1036.8017633056932,
    "avg_prior_window": 1050.5116194744878,
    "inception_score_mean": 2.0347095330268825,
    "inception_score_std": 0.10770960918173904,
    "fid_per_class": {
        "airplane": 1058.282581643799,
        "automobile": 1085.4784312587972,
        "bird": 1256.149005696882,
        "cat": 979.19794903348,
        "deer": 1407.18119737827,
        "dog": 1078.6858088508227,
        "frog": 1558.3076934712367,
        "horse": 1098.9179059901683,
        "ship": 969.9001463627319,
        "truck": 1060.843957950068
    },
    "fid": 752.463611995576,
    "wasserstein_distance": null,
    "g_loss": null,
    "g_cost": null,
    "d_loss_real": null,
    "d_loss_fake": null
}