{
    "epoch": 143,
    "avg_current_window": 1038.418202657329,
    "avg_prior_window": 1052.466199484451,
    "inception_score_mean": 1.9991075431932224,
    "inception_score_std": 0.10230979205909208,
    "fid_per_class": {
        "airplane": 1074.792977226116,
        "automobile": 1081.3751204342584,
        "bird": 1354.0138049188254,
        "cat": 1017.4461951408132,
        "deer": 1538.7979877418056,
        "dog": 1070.1018546696105,
        "frog": 1687.9977753088624,
        "horse": 1164.7948410669608,
        "ship": 991.9260812853242,
        "truck": 1085.5731860990695
    },
    "fid": 805.6509360217822,
    "wasserstein_distance": null,
    "g_loss": null,
    "g_cost": null,
    "d_loss_real": null,
    "d_loss_fake": null
}