{
    "epoch": 91,
    "avg_current_window": 1161.585627789589,
    "avg_prior_window": 1188.4608138859746,
    "inception_score_mean": 2.0741512413574847,
    "inception_score_std": 0.1727701810073878,
    "fid_per_class": {
        "airplane": 983.6960361078103,
        "automobile": 1092.745867024711,
        "bird": 1307.8019475559665,
        "cat": 1036.1263264038826,
        "deer": 1438.4362151126172,
        "dog": 1117.0403743335387,
        "frog": 1729.7225751789078,
        "horse": 1179.4839324697318,
        "ship": 893.5030778677644,
        "truck": 1136.7990945053064
    },
    "fid": 787.6348962004705,
    "wasserstein_distance": null,
    "g_loss": null,
    "g_cost": null,
    "d_loss_real": null,
    "d_loss_fake": null
}