{
    "epoch": 46,
    "avg_current_window": 1418.1817447319072,
    "avg_prior_window": 1495.7008424707633,
    "inception_score_mean": 1.7647676667674326,
    "inception_score_std": 0.16685938761313318,
    "fid_per_class": {
        "airplane": 1137.8862352969259,
        "automobile": 1248.3407844448252,
        "bird": 1537.3247980646997,
        "cat": 1093.2146768240734,
        "deer": 1598.3573709404807,
        "dog": 1236.8671232562017,
        "frog": 1929.4737743336882,
        "horse": 1540.0384977203091,
        "ship": 1135.7503776816507,
        "truck": 1237.8501247277654
    },
    "fid": 1010.5098920122008,
    "wasserstein_distance": null,
    "g_loss": null,
    "g_cost": null,
    "d_loss_real": null,
    "d_loss_fake": null
}