{
    "epoch": 99,
    "avg_current_window": 1135.6872822816122,
    "avg_prior_window": 1159.0215324173362,
    "inception_score_mean": 1.9499904062975986,
    "inception_score_std": 0.1563821258102664,
    "fid_per_class": {
        "airplane": 1077.2027154410985,
        "automobile": 1137.3202579426488,
        "bird": 1377.2997874441621,
        "cat": 1046.222241964757,
        "deer": 1488.677490187039,
        "dog": 1116.607297646224,
        "frog": 1669.5199265913534,
        "horse": 1163.79284406701,
        "ship": 961.4048612163459,
        "truck": 1170.448392022521
    },
    "fid": 814.246364544569,
    "wasserstein_distance": null,
    "g_loss": null,
    "g_cost": null,
    "d_loss_real": null,
    "d_loss_fake": null
}