{
    "epoch": 128,
    "avg_current_window": 1063.8303870706943,
    "avg_prior_window": 1080.1935579381827,
    "inception_score_mean": 1.9616103026702358,
    "inception_score_std": 0.12706177793844262,
    "fid_per_class": {
        "airplane": 1094.5789528669604,
        "automobile": 1150.8738451716479,
        "bird": 1391.0797992384782,
        "cat": 1079.2447699242084,
        "deer": 1442.0981151676133,
        "dog": 1161.5868790685645,
        "frog": 1709.8681574301438,
        "horse": 1259.3712654556114,
        "ship": 895.0501396870322,
        "truck": 1140.2378586447887
    },
    "fid": 837.9253658494567,
    "wasserstein_distance": null,
    "g_loss": null,
    "g_cost": null,
    "d_loss_real": null,
    "d_loss_fake": null
}