{
    "epoch": 149,
    "avg_current_window": 1027.7576940675488,
    "avg_prior_window": 1042.0272050556623,
    "inception_score_mean": 1.9557732112836086,
    "inception_score_std": 0.12978718464259226,
    "fid_per_class": {
        "airplane": 996.6753480498669,
        "automobile": 1046.2727883093883,
        "bird": 1287.8694963449934,
        "cat": 1001.2781489325129,
        "deer": 1372.7627673151067,
        "dog": 1113.0560517836388,
        "frog": 1609.29328226843,
        "horse": 1274.0129619140632,
        "ship": 944.2756964677586,
        "truck": 1111.5032631701924
    },
    "fid": 783.7677562378167,
    "wasserstein_distance": null,
    "g_loss": null,
    "g_cost": null,
    "d_loss_real": null,
    "d_loss_fake": null
}