{
    "epoch": 45,
    "avg_current_window": 1427.2807585488574,
    "avg_prior_window": 1506.6513566669514,
    "inception_score_mean": 1.8256601602733535,
    "inception_score_std": 0.1104047448919849,
    "fid_per_class": {
        "airplane": 1113.3869049337889,
        "automobile": 1246.5484592371745,
        "bird": 1426.8761877301251,
        "cat": 1172.1074395841097,
        "deer": 1660.7776203485178,
        "dog": 1330.6535120332935,
        "frog": 1835.9313836497067,
        "horse": 1562.8896484775723,
        "ship": 1104.913584561743,
        "truck": 1177.0007125513143
    },
    "fid": 1008.7261229691492,
    "wasserstein_distance": null,
    "g_loss": null,
    "g_cost": null,
    "d_loss_real": null,
    "d_loss_fake": null
}