{
    "epoch": 84,
    "avg_current_window": 1187.5930621354398,
    "avg_prior_window": 1217.6215058248508,
    "inception_score_mean": 2.001236804183506,
    "inception_score_std": 0.1168987727843144,
    "fid_per_class": {
        "airplane": 1019.9805122482924,
        "automobile": 1142.6097619801592,
        "bird": 1322.4236094593239,
        "cat": 973.3722419890107,
        "deer": 1433.312922376077,
        "dog": 1029.5430928717096,
        "frog": 1632.2320461446825,
        "horse": 1262.521795617907,
        "ship": 980.4742012474464,
        "truck": 1193.4182882237965
    },
    "fid": 808.6201818590781,
    "wasserstein_distance": null,
    "g_loss": null,
    "g_cost": null,
    "d_loss_real": null,
    "d_loss_fake": null
}