{
    "epoch": 127,
    "avg_current_window": 1065.6541655647754,
    "avg_prior_window": 1082.1627013507832,
    "inception_score_mean": 1.9712112994051942,
    "inception_score_std": 0.09323826329319627,
    "fid_per_class": {
        "airplane": 1095.4982413123062,
        "automobile": 1179.6818360261484,
        "bird": 1304.6013899406425,
        "cat": 1038.7163818294518,
        "deer": 1447.2580595689878,
        "dog": 1170.127736480394,
        "frog": 1721.8832314357996,
        "horse": 1206.106796180551,
        "ship": 989.0070551642808,
        "truck": 1142.9892923877437
    },
    "fid": 832.210518322381,
    "wasserstein_distance": null,
    "g_loss": null,
    "g_cost": null,
    "d_loss_real": null,
    "d_loss_fake": null
}