{
    "epoch": 192,
    "avg_current_window": 974.7041403845175,
    "avg_prior_window": 983.8532649175842,
    "inception_score_mean": 2.036926810066225,
    "inception_score_std": 0.11759898331939028,
    "fid_per_class": {
        "airplane": 1038.4100724699633,
        "automobile": 1080.171498745268,
        "bird": 1340.32226868703,
        "cat": 1059.1987414377027,
        "deer": 1460.4593178383986,
        "dog": 1149.675863174763,
        "frog": 1756.3825975324864,
        "horse": 1206.7468340566163,
        "ship": 1007.2465703140556,
        "truck": 1086.6083486135733
    },
    "fid": 806.0453528667563,
    "wasserstein_distance": null,
    "g_loss": null,
    "g_cost": null,
    "d_loss_real": null,
    "d_loss_fake": null
}