{
    "epoch": 32,
    "avg_current_window": 1581.4109039358773,
    "avg_prior_window": 1696.5242036692055,
    "inception_score_mean": 1.8527799094631543,
    "inception_score_std": 0.1084329554558583,
    "fid_per_class": {
        "airplane": 1188.4721653575525,
        "automobile": 1204.2923152813798,
        "bird": 1722.4687524692092,
        "cat": 1282.1927001125491,
        "deer": 1888.1165862843222,
        "dog": 1515.6357735568167,
        "frog": 2208.575161394513,
        "horse": 1550.577600671998,
        "ship": 1133.7823851789208,
        "truck": 1253.1602052274802
    },
    "fid": 1117.3131362284935,
    "wasserstein_distance": null,
    "g_loss": null,
    "g_cost": null,
    "d_loss_real": null,
    "d_loss_fake": null
}