{
    "epoch": 10,
    "avg_current_window": 1898.5936819036456,
    "avg_prior_window": 2388.134968007116,
    "inception_score_mean": 1.2548317597496088,
    "inception_score_std": 0.053413508886553954,
    "fid_per_class": {
        "airplane": 1875.2634257242046,
        "automobile": 1583.7984168556522,
        "bird": 2009.1258041876615,
        "cat": 1817.3951718640724,
        "deer": 2189.396185813527,
        "dog": 2015.5876417880008,
        "frog": 2356.3150692925046,
        "horse": 1991.504542088977,
        "ship": 1656.946656081465,
        "truck": 1498.6453783876311
    },
    "fid": 1679.7209536062287,
    "wasserstein_distance": null,
    "g_loss": null,
    "g_cost": null,
    "d_loss_real": null,
    "d_loss_fake": null
}