{
    "epoch": 100,
    "avg_current_window": 1132.4728731042417,
    "avg_prior_window": 1156.0737040823037,
    "inception_score_mean": 1.9778549290733405,
    "inception_score_std": 0.15636099294274666,
    "fid_per_class": {
        "airplane": 1055.440226370257,
        "automobile": 1163.716605055978,
        "bird": 1346.0578117951636,
        "cat": 1109.7200966312448,
        "deer": 1541.8751169735926,
        "dog": 1164.402924659969,
        "frog": 1773.9228092015396,
        "horse": 1423.2720774085028,
        "ship": 1008.3192330931539,
        "truck": 1207.0296411608379
    },
    "fid": 887.2563858399299,
    "wasserstein_distance": null,
    "g_loss": null,
    "g_cost": null,
    "d_loss_real": null,
    "d_loss_fake": null
}