{
    "epoch": 158,
    "avg_current_window": 1013.8041539779222,
    "avg_prior_window": 1026.3478007076308,
    "inception_score_mean": 1.9740942454774604,
    "inception_score_std": 0.09109496417502688,
    "fid_per_class": {
        "airplane": 997.8691817511254,
        "automobile": 1044.3030471899274,
        "bird": 1340.1424828301551,
        "cat": 1043.4815003796298,
        "deer": 1433.9278569420478,
        "dog": 1180.3168344342832,
        "frog": 1719.4110929778417,
        "horse": 1197.7267107923935,
        "ship": 933.50174476753,
        "truck": 1053.8398391019196
    },
    "fid": 780.3592346430295,
    "wasserstein_distance": null,
    "g_loss": null,
    "g_cost": null,
    "d_loss_real": null,
    "d_loss_fake": null
}