{
    "epoch": 102,
    "avg_current_window": 1127.176221570163,
    "avg_prior_window": 1149.9863522420756,
    "inception_score_mean": 1.964618497174253,
    "inception_score_std": 0.10762630685236793,
    "fid_per_class": {
        "airplane": 1061.7044216875452,
        "automobile": 1154.5470458546217,
        "bird": 1395.7493210399857,
        "cat": 1094.6312467547748,
        "deer": 1541.060476936497,
        "dog": 1230.8561452194733,
        "frog": 1761.1029121598153,
        "horse": 1290.256573253338,
        "ship": 973.8056226791784,
        "truck": 1180.3847186186722
    },
    "fid": 872.3884634511749,
    "wasserstein_distance": null,
    "g_loss": null,
    "g_cost": null,
    "d_loss_real": null,
    "d_loss_fake": null
}