{
    "epoch": 75,
    "avg_current_window": 1224.3859926179953,
    "avg_prior_window": 1263.8268685382943,
    "inception_score_mean": 2.0889649916699886,
    "inception_score_std": 0.14667231924352417,
    "fid_per_class": {
        "airplane": 1080.0660111212328,
        "automobile": 1164.6857195608686,
        "bird": 1247.3218975927991,
        "cat": 969.1648193867221,
        "deer": 1489.0162312426041,
        "dog": 1083.921729848632,
        "frog": 1565.6072515940546,
        "horse": 1301.9908880638893,
        "ship": 1000.3625771165661,
        "truck": 1174.2483584274491
    },
    "fid": 808.6895963981585,
    "wasserstein_distance": null,
    "g_loss": null,
    "g_cost": null,
    "d_loss_real": null,
    "d_loss_fake": null
}