{
    "epoch": 52,
    "avg_current_window": 1364.4148181916682,
    "avg_prior_window": 1429.7910209679574,
    "inception_score_mean": 1.986073445440337,
    "inception_score_std": 0.10721123241266749,
    "fid_per_class": {
        "airplane": 1102.0339115693903,
        "automobile": 1269.337804069781,
        "bird": 1465.0062844205388,
        "cat": 1098.20861175582,
        "deer": 1664.9763650671543,
        "dog": 1220.611512076721,
        "frog": 1782.0942675061933,
        "horse": 1528.423531465167,
        "ship": 1062.1073005372964,
        "truck": 1236.2517842744817
    },
    "fid": 980.8773711324704,
    "wasserstein_distance": null,
    "g_loss": null,
    "g_cost": null,
    "d_loss_real": null,
    "d_loss_fake": null
}