{
    "epoch": 20,
    "avg_current_window": 1743.710939675635,
    "avg_prior_window": 1944.4572993679394,
    "inception_score_mean": 1.4476060278604406,
    "inception_score_std": 0.09110686424618689,
    "fid_per_class": {
        "airplane": 1551.358691032462,
        "automobile": 1601.8633589021895,
        "bird": 2060.7290973632257,
        "cat": 1768.7987919433872,
        "deer": 2082.373732922386,
        "dog": 1904.7184847503772,
        "frog": 2384.1988683003383,
        "horse": 1923.3867656901043,
        "ship": 1505.363159467182,
        "truck": 1529.6612646058102
    },
    "fid": 1565.6374982403445,
    "wasserstein_distance": null,
    "g_loss": null,
    "g_cost": null,
    "d_loss_real": null,
    "d_loss_fake": null
}