{
    "epoch": 146,
    "avg_current_window": 1033.3360644088996,
    "avg_prior_window": 1047.0631656373196,
    "inception_score_mean": 2.015414513210123,
    "inception_score_std": 0.09486361364066527,
    "fid_per_class": {
        "airplane": 1056.9813193578295,
        "automobile": 1053.868954331822,
        "bird": 1317.7749013145674,
        "cat": 971.7095238932714,
        "deer": 1420.0902283654887,
        "dog": 1087.590781364749,
        "frog": 1661.7264923422722,
        "horse": 1142.2979927172792,
        "ship": 959.6759437447533,
        "truck": 1070.7441834788099
    },
    "fid": 746.9919601015919,
    "wasserstein_distance": null,
    "g_loss": null,
    "g_cost": null,
    "d_loss_real": null,
    "d_loss_fake": null
}