{
    "epoch": 185,
    "avg_current_window": 981.456031039126,
    "avg_prior_window": 990.8690499457246,
    "inception_score_mean": 1.9931988260636373,
    "inception_score_std": 0.11333103031444898,
    "fid_per_class": {
        "airplane": 979.328804055722,
        "automobile": 1079.9695893293017,
        "bird": 1443.2251175152342,
        "cat": 1058.2083780658768,
        "deer": 1453.1946905286081,
        "dog": 1149.4310979673828,
        "frog": 1742.3258101353545,
        "horse": 1160.212089240251,
        "ship": 977.9727004504678,
        "truck": 1089.5382223879037
    },
    "fid": 805.7970787149247,
    "wasserstein_distance": null,
    "g_loss": null,
    "g_cost": null,
    "d_loss_real": null,
    "d_loss_fake": null
}