{
    "epoch": 59,
    "avg_current_window": 1314.908920689295,
    "avg_prior_window": 1366.89213712066,
    "inception_score_mean": 1.9228887550033593,
    "inception_score_std": 0.10718703076854313,
    "fid_per_class": {
        "airplane": 1127.6872859801194,
        "automobile": 1273.525994921817,
        "bird": 1430.3032891831358,
        "cat": 1144.135702221572,
        "deer": 1748.5024689118898,
        "dog": 1197.6164506766575,
        "frog": 1833.1826826237602,
        "horse": 1464.5157519542272,
        "ship": 1050.7564737353946,
        "truck": 1202.9942711163199
    },
    "fid": 978.0400016242913,
    "wasserstein_distance": null,
    "g_loss": null,
    "g_cost": null,
    "d_loss_real": null,
    "d_loss_fake": null
}