{
    "epoch": 129,
    "avg_current_window": 1062.079185355801,
    "avg_prior_window": 1078.3476685927315,
    "inception_score_mean": 1.980391824373744,
    "inception_score_std": 0.09036993949608006,
    "fid_per_class": {
        "airplane": 1031.4420116739013,
        "automobile": 1134.5222157340036,
        "bird": 1334.5373645966706,
        "cat": 1095.1300280212977,
        "deer": 1475.0112381186786,
        "dog": 1164.169648128663,
        "frog": 1721.9911509997885,
        "horse": 1253.4704840547113,
        "ship": 943.7969576080689,
        "truck": 1140.5596865731136
    },
    "fid": 843.1513855247018,
    "wasserstein_distance": null,
    "g_loss": null,
    "g_cost": null,
    "d_loss_real": null,
    "d_loss_fake": null
}