{
    "epoch": 120,
    "avg_current_window": 1080.4527581745006,
    "avg_prior_window": 1099.754179707795,
    "inception_score_mean": 1.9878082793226635,
    "inception_score_std": 0.17868281216409396,
    "fid_per_class": {
        "airplane": 975.5897736377499,
        "automobile": 1094.5672892397079,
        "bird": 1316.0358762748594,
        "cat": 1128.7452189994474,
        "deer": 1511.6466059083828,
        "dog": 1154.9830203125312,
        "frog": 1631.9356056665802,
        "horse": 1200.6164519202425,
        "ship": 872.190988846836,
        "truck": 1088.8124722894197
    },
    "fid": 788.496958332002,
    "wasserstein_distance": null,
    "g_loss": null,
    "g_cost": null,
    "d_loss_real": null,
    "d_loss_fake": null
}