{
    "epoch": 21,
    "avg_current_window": 1735.2312519882403,
    "avg_prior_window": 1918.4213946230434,
    "inception_score_mean": 1.7972198996417152,
    "inception_score_std": 0.21505100188179507,
    "fid_per_class": {
        "airplane": 1484.167840920094,
        "automobile": 1497.2129546264987,
        "bird": 1695.8881241681993,
        "cat": 1583.6499086907052,
        "deer": 1837.4834908171158,
        "dog": 1584.392015171689,
        "frog": 2078.574038370502,
        "horse": 1838.8580403790704,
        "ship": 1386.3269292959512,
        "truck": 1491.0347738593337
    },
    "fid": 1328.523776884297,
    "wasserstein_distance": null,
    "g_loss": null,
    "g_cost": null,
    "d_loss_real": null,
    "d_loss_fake": null
}