{
    "epoch": 175,
    "avg_current_window": 992.1905285473119,
    "avg_prior_window": 1002.5484004983064,
    "inception_score_mean": 2.077679368736528,
    "inception_score_std": 0.08764008012468359,
    "fid_per_class": {
        "airplane": 1062.6175680844156,
        "automobile": 1079.2602426468259,
        "bird": 1367.0975055828026,
        "cat": 1040.6483624819302,
        "deer": 1472.4177330052678,
        "dog": 1138.3021503646944,
        "frog": 1653.8303718273528,
        "horse": 1220.8250510788473,
        "ship": 868.7029865167715,
        "truck": 1086.1087289974932
    },
    "fid": 780.1713953472807,
    "wasserstein_distance": null,
    "g_loss": null,
    "g_cost": null,
    "d_loss_real": null,
    "d_loss_fake": null
}