{
    "epoch": 106,
    "avg_current_window": 1116.0810701951664,
    "avg_prior_window": 1138.3363821797686,
    "inception_score_mean": 2.088345856351436,
    "inception_score_std": 0.14542501316118542,
    "fid_per_class": {
        "airplane": 978.4941089039397,
        "automobile": 1111.742618313508,
        "bird": 1320.5298530550056,
        "cat": 1063.999772639118,
        "deer": 1471.6016532565545,
        "dog": 1044.3462146374275,
        "frog": 1603.123280105904,
        "horse": 1360.034178730955,
        "ship": 945.0217967529027,
        "truck": 1114.3681274192722
    },
    "fid": 795.237405536207,
    "wasserstein_distance": null,
    "g_loss": null,
    "g_cost": null,
    "d_loss_real": null,
    "d_loss_fake": null
}