{
    "epoch": 15,
    "avg_current_window": 1830.667772282603,
    "avg_prior_window": 2066.5657772642685,
    "inception_score_mean": 1.3324136687549433,
    "inception_score_std": 0.12465758453913055,
    "fid_per_class": {
        "airplane": 1705.7559579835925,
        "automobile": 1394.7747377407413,
        "bird": 2353.71398406274,
        "cat": 2010.2093410896478,
        "deer": 2442.5717223835813,
        "dog": 2082.4736633238913,
        "frog": 2656.602042318155,
        "horse": 2069.2856115899467,
        "ship": 1482.6969882904575,
        "truck": 1358.4222547347158
    },
    "fid": 1706.8429062800476,
    "wasserstein_distance": null,
    "g_loss": null,
    "g_cost": null,
    "d_loss_real": null,
    "d_loss_fake": null
}