{
    "epoch": 53,
    "avg_current_window": 1357.178262586778,
    "avg_prior_window": 1419.4322119790547,
    "inception_score_mean": 1.9213031173668391,
    "inception_score_std": 0.1068313015370922,
    "fid_per_class": {
        "airplane": 1044.0341133494003,
        "automobile": 1184.9429864867043,
        "bird": 1369.58275737874,
        "cat": 1062.554485318074,
        "deer": 1612.9601722661953,
        "dog": 1149.8334160271954,
        "frog": 1764.3675550437088,
        "horse": 1374.4699867546872,
        "ship": 981.856616469875,
        "truck": 1139.927312218068
    },
    "fid": 886.0859364474079,
    "wasserstein_distance": null,
    "g_loss": null,
    "g_cost": null,
    "d_loss_real": null,
    "d_loss_fake": null
}