{
    "epoch": 117,
    "avg_current_window": 1087.9857267756843,
    "avg_prior_window": 1107.6606775781272,
    "inception_score_mean": 2.042775323408499,
    "inception_score_std": 0.08645210329118123,
    "fid_per_class": {
        "airplane": 936.6394330203933,
        "automobile": 1104.5624414338888,
        "bird": 1239.9332860335655,
        "cat": 1028.4690797533071,
        "deer": 1404.3884871549171,
        "dog": 1139.2520876608885,
        "frog": 1523.9867056361766,
        "horse": 1238.4955948242462,
        "ship": 944.8561047012388,
        "truck": 1089.3118756930317
    },
    "fid": 751.0891313323489,
    "wasserstein_distance": null,
    "g_loss": null,
    "g_cost": null,
    "d_loss_real": null,
    "d_loss_fake": null
}