{
    "epoch": 151,
    "avg_current_window": 1024.3390076095966,
    "avg_prior_window": 1038.4524476972665,
    "inception_score_mean": 1.9931634960445428,
    "inception_score_std": 0.12523239940294825,
    "fid_per_class": {
        "airplane": 1110.2090782210305,
        "automobile": 1075.991704478094,
        "bird": 1365.0107691706967,
        "cat": 1036.0266246263277,
        "deer": 1528.3252838237963,
        "dog": 1159.130978006595,
        "frog": 1732.7436771529078,
        "horse": 1225.553074077227,
        "ship": 999.4920340068089,
        "truck": 1083.3370158976468
    },
    "fid": 825.4429595456459,
    "wasserstein_distance": null,
    "g_loss": null,
    "g_cost": null,
    "d_loss_real": null,
    "d_loss_fake": null
}