{
    "epoch": 167,
    "avg_current_window": 1001.313993220832,
    "avg_prior_window": 1013.022090099741,
    "inception_score_mean": 2.01456008066899,
    "inception_score_std": 0.15692907494602873,
    "fid_per_class": {
        "airplane": 1110.3357801746447,
        "automobile": 1090.1565754795768,
        "bird": 1330.9680787531988,
        "cat": 1050.5821235927915,
        "deer": 1514.053564764005,
        "dog": 1083.4683084924607,
        "frog": 1648.646168172665,
        "horse": 1205.1343239950015,
        "ship": 1005.3601227409106,
        "truck": 1098.6411644328005
    },
    "fid": 807.2493554769762,
    "wasserstein_distance": null,
    "g_loss": null,
    "g_cost": null,
    "d_loss_real": null,
    "d_loss_fake": null
}