{
    "epoch": 85,
    "avg_current_window": 1183.1345576616002,
    "avg_prior_window": 1214.0821491996144,
    "inception_score_mean": 2.099831125741178,
    "inception_score_std": 0.1271617612722045,
    "fid_per_class": {
        "airplane": 1066.2557681207622,
        "automobile": 1097.6708149508324,
        "bird": 1423.404735029549,
        "cat": 1077.878227059024,
        "deer": 1464.388106372329,
        "dog": 1132.4995733694955,
        "frog": 1731.32915517098,
        "horse": 1226.3567910597355,
        "ship": 959.0205446023834,
        "truck": 1143.382725696707
    },
    "fid": 823.3014723888537,
    "wasserstein_distance": null,
    "g_loss": null,
    "g_cost": null,
    "d_loss_real": null,
    "d_loss_fake": null
}