{
    "epoch": 22,
    "avg_current_window": 1716.7445485744247,
    "avg_prior_window": 1900.0831744283837,
    "inception_score_mean": 1.6183457104538501,
    "inception_score_std": 0.1269263670660812,
    "fid_per_class": {
        "airplane": 1355.7613499453512,
        "automobile": 1541.1991277408347,
        "bird": 1854.9111652663946,
        "cat": 1602.9191363203379,
        "deer": 2003.5895300294915,
        "dog": 1783.7367698647931,
        "frog": 2361.384011750391,
        "horse": 1769.5717642042264,
        "ship": 1194.354329398794,
        "truck": 1449.6805119862101
    },
    "fid": 1378.582862694291,
    "wasserstein_distance": null,
    "g_loss": null,
    "g_cost": null,
    "d_loss_real": null,
    "d_loss_fake": null
}