{
    "epoch": 113,
    "avg_current_window": 1097.858370696905,
    "avg_prior_window": 1117.93472948936,
    "inception_score_mean": 1.9694782186890563,
    "inception_score_std": 0.104000905022111,
    "fid_per_class": {
        "airplane": 1025.809072871591,
        "automobile": 1103.1896815246932,
        "bird": 1344.161635426296,
        "cat": 1133.3755929855552,
        "deer": 1520.4614196320713,
        "dog": 1154.483577231606,
        "frog": 1557.8051334635998,
        "horse": 1236.1161288563185,
        "ship": 958.8030135293753,
        "truck": 1088.2458242026569
    },
    "fid": 814.8086348654156,
    "wasserstein_distance": null,
    "g_loss": null,
    "g_cost": null,
    "d_loss_real": null,
    "d_loss_fake": null
}