{
    "epoch": 170,
    "avg_current_window": 997.7080834222387,
    "avg_prior_window": 1008.9999721107159,
    "inception_score_mean": 2.010693086421232,
    "inception_score_std": 0.0965712230284047,
    "fid_per_class": {
        "airplane": 998.8177564869375,
        "automobile": 1045.783299895684,
        "bird": 1381.172736814825,
        "cat": 1016.6433375529175,
        "deer": 1557.3047448889074,
        "dog": 1205.0664780795967,
        "frog": 1718.8180425814853,
        "horse": 1181.9614412533401,
        "ship": 1002.1595954875854,
        "truck": 1067.610594003965
    },
    "fid": 822.8539029314937,
    "wasserstein_distance": null,
    "g_loss": null,
    "g_cost": null,
    "d_loss_real": null,
    "d_loss_fake": null
}