{
    "epoch": 25,
    "avg_current_window": 1675.4573998362978,
    "avg_prior_window": 1821.9928145876522,
    "inception_score_mean": 1.6818940728163412,
    "inception_score_std": 0.13487708571751586,
    "fid_per_class": {
        "airplane": 1349.781763525745,
        "automobile": 1388.99452369049,
        "bird": 1752.0767698362495,
        "cat": 1464.2559037354579,
        "deer": 1849.104764635767,
        "dog": 1568.8504866625333,
        "frog": 2155.4305856418537,
        "horse": 1689.0505945989898,
        "ship": 1212.4818087376625,
        "truck": 1417.3580555182225
    },
    "fid": 1251.1997042028763,
    "wasserstein_distance": null,
    "g_loss": null,
    "g_cost": null,
    "d_loss_real": null,
    "d_loss_fake": null
}