{
    "epoch": 150,
    "avg_current_window": 1026.1310944820173,
    "avg_prior_window": 1040.4625200255125,
    "inception_score_mean": 1.939813360237609,
    "inception_score_std": 0.12624647548740356,
    "fid_per_class": {
        "airplane": 966.5577352628516,
        "automobile": 1060.2579111043465,
        "bird": 1244.7635235306102,
        "cat": 1017.061322468215,
        "deer": 1398.0994443562226,
        "dog": 1130.0830406798357,
        "frog": 1640.4044674118145,
        "horse": 1171.9399636204498,
        "ship": 906.0817854252982,
        "truck": 1104.7110033947952
    },
    "fid": 755.5259767464923,
    "wasserstein_distance": null,
    "g_loss": null,
    "g_cost": null,
    "d_loss_real": null,
    "d_loss_fake": null
}