{
    "epoch": 190,
    "avg_current_window": 976.9368840526056,
    "avg_prior_window": 985.8116909240715,
    "inception_score_mean": 2.0502090600442093,
    "inception_score_std": 0.10972531912080435,
    "fid_per_class": {
        "airplane": 1088.3551232603281,
        "automobile": 1108.2557797423656,
        "bird": 1402.7286569728512,
        "cat": 1040.8493482365616,
        "deer": 1464.6062119253831,
        "dog": 1172.1496598902147,
        "frog": 1628.9938269982606,
        "horse": 1180.4133065482245,
        "ship": 961.3198699543998,
        "truck": 1099.1709910511847
    },
    "fid": 801.8492389973378,
    "wasserstein_distance": null,
    "g_loss": null,
    "g_cost": null,
    "d_loss_real": null,
    "d_loss_fake": null
}