{
    "epoch": 92,
    "avg_current_window": 1157.5209459244898,
    "avg_prior_window": 1184.24774279496,
    "inception_score_mean": 1.9873191247847113,
    "inception_score_std": 0.12991039175864486,
    "fid_per_class": {
        "airplane": 1024.5107888161388,
        "automobile": 1102.0083463789156,
        "bird": 1299.5910230939292,
        "cat": 1042.1605707868398,
        "deer": 1483.6218051034111,
        "dog": 1166.7501798122964,
        "frog": 1697.4628644391591,
        "horse": 1285.5979683706737,
        "ship": 939.5149052410487,
        "truck": 1085.33404618289
    },
    "fid": 803.5440608749425,
    "wasserstein_distance": null,
    "g_loss": null,
    "g_cost": null,
    "d_loss_real": null,
    "d_loss_fake": null
}