{
    "epoch": 60,
    "avg_current_window": 1309.2944387048783,
    "avg_prior_window": 1360.0690276996881,
    "inception_score_mean": 1.902486666084592,
    "inception_score_std": 0.15081976589719343,
    "fid_per_class": {
        "airplane": 1111.1109539079557,
        "automobile": 1196.2093059899748,
        "bird": 1409.3449936406366,
        "cat": 1140.3432623357435,
        "deer": 1662.4549530400805,
        "dog": 1249.163802761771,
        "frog": 1921.9604697797008,
        "horse": 1459.7004210155762,
        "ship": 1100.3161625618914,
        "truck": 1217.3315506870124
    },
    "fid": 964.0797569330939,
    "wasserstein_distance": null,
    "g_loss": null,
    "g_cost": null,
    "d_loss_real": null,
    "d_loss_fake": null
}