{
    "epoch": 51,
    "avg_current_window": 1373.1809869637443,
    "avg_prior_window": 1440.1493510799985,
    "inception_score_mean": 1.9595634374296094,
    "inception_score_std": 0.13888917545162965,
    "fid_per_class": {
        "airplane": 1108.2200541218049,
        "automobile": 1180.2818542544455,
        "bird": 1417.7357698787027,
        "cat": 1077.6088444329705,
        "deer": 1586.5648877002413,
        "dog": 1167.2075781190094,
        "frog": 1794.7250055862307,
        "horse": 1435.3679434512756,
        "ship": 1071.256318524097,
        "truck": 1192.894594856414
    },
    "fid": 917.3402108157953,
    "wasserstein_distance": null,
    "g_loss": null,
    "g_cost": null,
    "d_loss_real": null,
    "d_loss_fake": null
}