{
    "epoch": 140,
    "avg_current_window": 1043.00796504967,
    "avg_prior_window": 1057.8947770944167,
    "inception_score_mean": 2.0300144631404367,
    "inception_score_std": 0.10387068635695407,
    "fid_per_class": {
        "airplane": 1050.576666867368,
        "automobile": 1029.3575168282844,
        "bird": 1292.6793294295078,
        "cat": 1057.332896120659,
        "deer": 1547.3587554833148,
        "dog": 1115.2613802427968,
        "frog": 1681.2694006531021,
        "horse": 1245.8553890177268,
        "ship": 974.414520909203,
        "truck": 1151.4143496824468
    },
    "fid": 803.1701911497578,
    "wasserstein_distance": null,
    "g_loss": null,
    "g_cost": null,
    "d_loss_real": null,
    "d_loss_fake": null
}