{
    "epoch": 55,
    "avg_current_window": 1342.0395528093752,
    "avg_prior_window": 1400.6446067030192,
    "inception_score_mean": 1.9236674259601994,
    "inception_score_std": 0.058184916065745815,
    "fid_per_class": {
        "airplane": 1176.4951018808538,
        "automobile": 1224.7434780059887,
        "bird": 1450.0802548373235,
        "cat": 1191.0407668771772,
        "deer": 1659.5419927934686,
        "dog": 1216.3061354154654,
        "frog": 1841.4287115613106,
        "horse": 1574.5513702253666,
        "ship": 1101.0938026949982,
        "truck": 1231.3403246024982
    },
    "fid": 991.6211189671989,
    "wasserstein_distance": null,
    "g_loss": null,
    "g_cost": null,
    "d_loss_real": null,
    "d_loss_fake": null
}