{
    "epoch": 132,
    "avg_current_window": 1057.2432956416487,
    "avg_prior_window": 1072.2070042917235,
    "inception_score_mean": 2.0223717928645732,
    "inception_score_std": 0.1459629787503529,
    "fid_per_class": {
        "airplane": 1056.7179958113502,
        "automobile": 1050.9506982964008,
        "bird": 1371.8251486223173,
        "cat": 1082.047880507264,
        "deer": 1606.9281131693729,
        "dog": 1126.6860756627138,
        "frog": 1686.5089264772141,
        "horse": 1242.8194849332247,
        "ship": 979.5582793866457,
        "truck": 1080.2074683656126
    },
    "fid": 823.7369751372014,
    "wasserstein_distance": null,
    "g_loss": null,
    "g_cost": null,
    "d_loss_real": null,
    "d_loss_fake": null
}