{
    "epoch": 178,
    "avg_current_window": 988.5216897312832,
    "avg_prior_window": 999.1539307397742,
    "inception_score_mean": 2.0991972245802812,
    "inception_score_std": 0.09810719206156385,
    "fid_per_class": {
        "airplane": 1030.0612328851362,
        "automobile": 1074.063290675026,
        "bird": 1311.6795900195057,
        "cat": 1057.9175635283648,
        "deer": 1431.2273116372155,
        "dog": 1171.8295285298202,
        "frog": 1666.3561961680307,
        "horse": 1187.9707893116201,
        "ship": 965.3319470994068,
        "truck": 1108.0950072471833
    },
    "fid": 782.3444448529956,
    "wasserstein_distance": null,
    "g_loss": null,
    "g_cost": null,
    "d_loss_real": null,
    "d_loss_fake": null
}