{
    "epoch": 134,
    "avg_current_window": 1053.913376333893,
    "avg_prior_window": 1068.6152426079304,
    "inception_score_mean": 1.960657930218045,
    "inception_score_std": 0.11994070912596846,
    "fid_per_class": {
        "airplane": 1040.4364415371763,
        "automobile": 1086.6527077443434,
        "bird": 1344.7115282417171,
        "cat": 1055.1205482326668,
        "deer": 1532.3553236290038,
        "dog": 1175.0041005989497,
        "frog": 1737.4313739458576,
        "horse": 1216.5186977189421,
        "ship": 895.8671537196791,
        "truck": 1089.8453561897634
    },
    "fid": 816.3189083606528,
    "wasserstein_distance": null,
    "g_loss": null,
    "g_cost": null,
    "d_loss_real": null,
    "d_loss_fake": null
}