{
    "epoch": 193,
    "avg_current_window": 973.8302606564462,
    "avg_prior_window": 982.7618046109504,
    "inception_score_mean": 1.9778224551684729,
    "inception_score_std": 0.08525259815922089,
    "fid_per_class": {
        "airplane": 1039.5776204373628,
        "automobile": 1078.6923268564092,
        "bird": 1346.3913974835873,
        "cat": 1035.0392197828526,
        "deer": 1472.3278466925328,
        "dog": 1104.6414933246976,
        "frog": 1745.7269198189288,
        "horse": 1200.1305124150654,
        "ship": 962.3774008004966,
        "truck": 1072.343553560815
    },
    "fid": 804.3026038405716,
    "wasserstein_distance": null,
    "g_loss": null,
    "g_cost": null,
    "d_loss_real": null,
    "d_loss_fake": null
}