{
    "epoch": 80,
    "avg_current_window": 1202.4012370020403,
    "avg_prior_window": 1235.1685205699705,
    "inception_score_mean": 1.9365164466132896,
    "inception_score_std": 0.096600269584131,
    "fid_per_class": {
        "airplane": 1138.8264176484904,
        "automobile": 1204.8565152075892,
        "bird": 1450.0520901292068,
        "cat": 1125.8686997574785,
        "deer": 1610.872294176477,
        "dog": 1180.1866631147523,
        "frog": 1833.1688839962408,
        "horse": 1361.3412702517635,
        "ship": 997.5425150455976,
        "truck": 1202.606392294102
    },
    "fid": 934.4729758059293,
    "wasserstein_distance": null,
    "g_loss": null,
    "g_cost": null,
    "d_loss_real": null,
    "d_loss_fake": null
}