{
    "epoch": 162,
    "avg_current_window": 1008.1843418929797,
    "avg_prior_window": 1020.2615052771447,
    "inception_score_mean": 2.0352345781365786,
    "inception_score_std": 0.1188660014573224,
    "fid_per_class": {
        "airplane": 1032.7763773822899,
        "automobile": 1181.4848654167827,
        "bird": 1202.3071044214157,
        "cat": 1009.6920971128541,
        "deer": 1484.9677612459939,
        "dog": 1110.5719285010698,
        "frog": 1694.46542168506,
        "horse": 1147.8476470418907,
        "ship": 895.5198725359699,
        "truck": 1178.6021399863007
    },
    "fid": 783.7152094953299,
    "wasserstein_distance": null,
    "g_loss": null,
    "g_cost": null,
    "d_loss_real": null,
    "d_loss_fake": null
}