{
    "epoch": 69,
    "avg_current_window": 1256.5265994967674,
    "avg_prior_window": 1299.1806945547264,
    "inception_score_mean": 1.9151977669602687,
    "inception_score_std": 0.15200516544363799,
    "fid_per_class": {
        "airplane": 1109.8601234762627,
        "automobile": 1188.0165759793304,
        "bird": 1416.8067764703237,
        "cat": 1074.54231622337,
        "deer": 1646.8230064495792,
        "dog": 1207.3850453028108,
        "frog": 1770.6464055173055,
        "horse": 1368.5004983655642,
        "ship": 1066.0146296670919,
        "truck": 1179.8474419080471
    },
    "fid": 928.868666381489,
    "wasserstein_distance": null,
    "g_loss": null,
    "g_cost": null,
    "d_loss_real": null,
    "d_loss_fake": null
}