{
    "epoch": 95,
    "avg_current_window": 1146.8213057603116,
    "avg_prior_window": 1174.4921347650286,
    "inception_score_mean": 1.9244193622817285,
    "inception_score_std": 0.10808908890899556,
    "fid_per_class": {
        "airplane": 1119.9950926975825,
        "automobile": 1118.0439424164451,
        "bird": 1424.1390105828825,
        "cat": 1068.5921071834177,
        "deer": 1571.33761125297,
        "dog": 1215.6405349476763,
        "frog": 1760.5555924780908,
        "horse": 1323.7762042936174,
        "ship": 972.9374092242267,
        "truck": 1144.5084978371333
    },
    "fid": 878.9778405892523,
    "wasserstein_distance": null,
    "g_loss": null,
    "g_cost": null,
    "d_loss_real": null,
    "d_loss_fake": null
}