{
    "epoch": 6,
    "avg_current_window": 1456.3064790299186,
    "avg_prior_window": 3.0,
    "inception_score_mean": 1.3131193737716664,
    "inception_score_std": 0.04798257493539201,
    "fid_per_class": {
        "airplane": 1283.8978486991123,
        "automobile": 1316.782537603038,
        "bird": 1296.0138890827625,
        "cat": 1341.675236134075,
        "deer": 1322.2102507580378,
        "dog": 1536.059198724187,
        "frog": 1592.5087514713737,
        "horse": 1517.818616338821,
        "ship": 1252.7285819560402,
        "truck": 1310.3281166702511
    },
    "fid": 1109.0740682118362,
    "wasserstein_distance": null,
    "g_loss": null,
    "g_cost": null,
    "d_loss_real": null,
    "d_loss_fake": null
}