{
    "epoch": 91,
    "avg_current_window": 820.7418970808066,
    "avg_prior_window": 836.409412856914,
    "inception_score_mean": 1.8399988679794703,
    "inception_score_std": 0.18328456657786776,
    "fid_per_class": {
        "airplane": 861.9644758192578,
        "automobile": 1156.4813720541729,
        "bird": 1309.832954233957,
        "cat": 1005.2017482184831,
        "deer": 1299.5345301441585,
        "dog": 1101.972078894465,
        "frog": 1444.4812574821121,
        "horse": 1234.0437552650815,
        "ship": 790.5711381011618,
        "truck": 946.2297987183971
    },
    "fid": 721.5379225448046,
    "wasserstein_distance": null,
    "g_loss": null,
    "g_cost": null,
    "d_loss_real": null,
    "d_loss_fake": null
}