{
    "epoch": 106,
    "avg_current_window": 916.1162705711251,
    "avg_prior_window": 934.2294477064943,
    "inception_score_mean": 1.9057344418229367,
    "inception_score_std": 0.1383168381790898,
    "fid_per_class": {
        "airplane": 905.3471959245941,
        "automobile": 1089.6713954515108,
        "bird": 1188.4366300239328,
        "cat": 920.2522723678492,
        "deer": 1196.2637731914074,
        "dog": 935.5560616978707,
        "frog": 1371.3174290899785,
        "horse": 1224.8477920286925,
        "ship": 829.7074045117376,
        "truck": 988.8566765975083
    },
    "fid": 686.404903297241,
    "wasserstein_distance": null,
    "g_loss": null,
    "g_cost": null,
    "d_loss_real": null,
    "d_loss_fake": null
}