{
    "epoch": 93,
    "avg_current_window": 818.1886837133572,
    "avg_prior_window": 832.934142875384,
    "inception_score_mean": 1.8493946377131583,
    "inception_score_std": 0.14100779097046998,
    "fid_per_class": {
        "airplane": 829.9129882392795,
        "automobile": 1092.5500356253337,
        "bird": 1294.0364536378593,
        "cat": 980.4957495336439,
        "deer": 1309.3867297697052,
        "dog": 1085.874507047609,
        "frog": 1424.6467735790707,
        "horse": 1217.2969807670672,
        "ship": 818.8560843801306,
        "truck": 909.6708811348431
    },
    "fid": 707.6202617040109,
    "wasserstein_distance": null,
    "g_loss": null,
    "g_cost": null,
    "d_loss_real": null,
    "d_loss_fake": null
}