{
    "epoch": 173,
    "avg_current_window": 822.1659312002138,
    "avg_prior_window": 830.9931251032655,
    "inception_score_mean": 1.8974504877001155,
    "inception_score_std": 0.15041787135732973,
    "fid_per_class": {
        "airplane": 975.0235974114215,
        "automobile": 1125.71104424472,
        "bird": 1159.8371078642235,
        "cat": 871.3448076016286,
        "deer": 1124.186662246458,
        "dog": 866.2425000271063,
        "frog": 1222.8758299231388,
        "horse": 1145.7794470571407,
        "ship": 886.1853139024402,
        "truck": 1050.782385638414
    },
    "fid": 626.1724783568511,
    "wasserstein_distance": null,
    "g_loss": null,
    "g_cost": null,
    "d_loss_real": null,
    "d_loss_fake": null
}