{
    "epoch": 4,
    "avg_current_window": 1425.0084387495235,
    "avg_prior_window": 1809.3613841010983,
    "inception_score_mean": 1.2503937188559866,
    "inception_score_std": 0.029827025005758307,
    "fid_per_class": {
        "airplane": 1595.4214973479918,
        "automobile": 1753.0278192304895,
        "bird": 1533.7888946657074,
        "cat": 1706.5716115936457,
        "deer": 1788.455614874638,
        "dog": 1850.1291319586485,
        "frog": 1878.1572259097254,
        "horse": 1918.3585841097238,
        "ship": 1651.291306351733,
        "truck": 1715.5628889795432
    },
    "fid": 1507.527766957408,
    "wasserstein_distance": null,
    "g_loss": null,
    "g_cost": null,
    "d_loss_real": null,
    "d_loss_fake": null
}