{
    "epoch": 71,
    "avg_current_window": 858.8950006097593,
    "avg_prior_window": 881.7231108149344,
    "inception_score_mean": 1.8425719460372516,
    "inception_score_std": 0.13150584374063104,
    "fid_per_class": {
        "airplane": 861.144648478918,
        "automobile": 1084.513437118736,
        "bird": 1303.7788247929398,
        "cat": 988.8047143536382,
        "deer": 1241.0513003782937,
        "dog": 1043.0399963080138,
        "frog": 1332.3147045993687,
        "horse": 1258.6575662865184,
        "ship": 816.4125211579312,
        "truck": 951.9664008238868
    },
    "fid": 722.8370682986484,
    "wasserstein_distance": null,
    "g_loss": null,
    "g_cost": null,
    "d_loss_real": null,
    "d_loss_fake": null
}