{
    "epoch": 191,
    "avg_current_window": 806.3484184367918,
    "avg_prior_window": 814.534700469345,
    "inception_score_mean": 2.0061178318233783,
    "inception_score_std": 0.1443853464841092,
    "fid_per_class": {
        "airplane": 856.3568581177101,
        "automobile": 1092.726369298006,
        "bird": 1213.8849286471109,
        "cat": 909.2831158368878,
        "deer": 1206.570199875106,
        "dog": 890.7194149628554,
        "frog": 1220.7662450259593,
        "horse": 1145.6414091509907,
        "ship": 864.9047086191395,
        "truck": 1079.0191990879152
    },
    "fid": 638.7130285271039,
    "wasserstein_distance": null,
    "g_loss": null,
    "g_cost": null,
    "d_loss_real": null,
    "d_loss_fake": null
}