{
    "epoch": 15,
    "avg_current_window": 1241.2831650855935,
    "avg_prior_window": 1457.1446023738072,
    "inception_score_mean": 1.7112704646244588,
    "inception_score_std": 0.10115496327324218,
    "fid_per_class": {
        "airplane": 1088.1258129246287,
        "automobile": 1146.6365780564931,
        "bird": 1701.1200994044361,
        "cat": 1473.38829581748,
        "deer": 1592.7048737277478,
        "dog": 1496.5553303415236,
        "frog": 1971.5140592845214,
        "horse": 1533.1730245919125,
        "ship": 970.8093304512297,
        "truck": 1027.7282742567368
    },
    "fid": 1053.5091238384991,
    "wasserstein_distance": null,
    "g_loss": null,
    "g_cost": null,
    "d_loss_real": null,
    "d_loss_fake": null
}