{
    "epoch": 157,
    "avg_current_window": 838.0933085327831,
    "avg_prior_window": 848.1258315716631,
    "inception_score_mean": 1.9104198584333176,
    "inception_score_std": 0.15260506635577406,
    "fid_per_class": {
        "airplane": 904.7710612918814,
        "automobile": 1113.9020182782685,
        "bird": 1170.997567173369,
        "cat": 921.1662534993133,
        "deer": 1324.3706681453098,
        "dog": 941.9677702973459,
        "frog": 1454.4807815530587,
        "horse": 1233.8511795717761,
        "ship": 877.8103427952911,
        "truck": 1032.7503949960897
    },
    "fid": 708.569428957711,
    "wasserstein_distance": null,
    "g_loss": null,
    "g_cost": null,
    "d_loss_real": null,
    "d_loss_fake": null
}