{
    "epoch": 76,
    "avg_current_window": 847.2518280846522,
    "avg_prior_window": 869.0758043886136,
    "inception_score_mean": 1.8139500259980323,
    "inception_score_std": 0.10846272553858878,
    "fid_per_class": {
        "airplane": 878.5901401187292,
        "automobile": 1137.5172164312912,
        "bird": 1363.3009401127235,
        "cat": 974.9117100105427,
        "deer": 1263.4109127461834,
        "dog": 1018.7573118967961,
        "frog": 1372.5044238078947,
        "horse": 1201.8806771375766,
        "ship": 773.4176373112637,
        "truck": 981.3610353146255
    },
    "fid": 716.0657307031597,
    "wasserstein_distance": null,
    "g_loss": null,
    "g_cost": null,
    "d_loss_real": null,
    "d_loss_fake": null
}