{
    "epoch": 107,
    "avg_current_window": 913.969435362958,
    "avg_prior_window": 931.7578504892223,
    "inception_score_mean": 1.8577314058531424,
    "inception_score_std": 0.1615419823551494,
    "fid_per_class": {
        "airplane": 894.9002397528151,
        "automobile": 1138.659984480908,
        "bird": 1200.5221791363438,
        "cat": 978.077117560529,
        "deer": 1280.5061638842935,
        "dog": 916.802478427843,
        "frog": 1401.295785204439,
        "horse": 1240.1043865205882,
        "ship": 892.5757163202294,
        "truck": 1069.2894357631576
    },
    "fid": 734.8911362096268,
    "wasserstein_distance": null,
    "g_loss": null,
    "g_cost": null,
    "d_loss_real": null,
    "d_loss_fake": null
}