{
    "epoch": 96,
    "avg_current_window": 814.3645987204472,
    "avg_prior_window": 828.6708852406394,
    "inception_score_mean": 1.881510042558802,
    "inception_score_std": 0.12379591038683521,
    "fid_per_class": {
        "airplane": 844.3967707625477,
        "automobile": 1093.008914310742,
        "bird": 1197.0155997347279,
        "cat": 943.796698177308,
        "deer": 1235.0413769392235,
        "dog": 974.3812711779341,
        "frog": 1295.936111310965,
        "horse": 1127.524853127797,
        "ship": 847.2654763684083,
        "truck": 929.4606335310897
    },
    "fid": 656.5565635343,
    "wasserstein_distance": null,
    "g_loss": null,
    "g_cost": null,
    "d_loss_real": null,
    "d_loss_fake": null
}