{
    "epoch": 133,
    "avg_current_window": 867.4324749015858,
    "avg_prior_window": 880.4591421501203,
    "inception_score_mean": 1.8668834058730048,
    "inception_score_std": 0.10838460683645457,
    "fid_per_class": {
        "airplane": 884.9921596255604,
        "automobile": 1200.9483567025334,
        "bird": 1196.3317753968254,
        "cat": 940.1240113409673,
        "deer": 1279.1390055017462,
        "dog": 914.9010273037089,
        "frog": 1385.5126687288061,
        "horse": 1189.0303008196975,
        "ship": 860.3141404027454,
        "truck": 1054.5971428992375
    },
    "fid": 703.3185456331845,
    "wasserstein_distance": null,
    "g_loss": null,
    "g_cost": null,
    "d_loss_real": null,
    "d_loss_fake": null
}