{
    "epoch": 167,
    "avg_current_window": 828.1465536479503,
    "avg_prior_window": 837.327475024399,
    "inception_score_mean": 1.9257861743499531,
    "inception_score_std": 0.1731538265714441,
    "fid_per_class": {
        "airplane": 901.9801344370567,
        "automobile": 1085.6537807758546,
        "bird": 1211.0055411873404,
        "cat": 945.747099538161,
        "deer": 1326.796516121765,
        "dog": 935.6863865268765,
        "frog": 1405.9129588569535,
        "horse": 1167.4320209808498,
        "ship": 887.323151329404,
        "truck": 1027.4379597027878
    },
    "fid": 690.6763368742456,
    "wasserstein_distance": null,
    "g_loss": null,
    "g_cost": null,
    "d_loss_real": null,
    "d_loss_fake": null
}