{
    "epoch": 199,
    "avg_current_window": 799.9239032794812,
    "avg_prior_window": 807.089109642218,
    "inception_score_mean": 2.008251654196642,
    "inception_score_std": 0.16356932973207539,
    "fid_per_class": {
        "airplane": 897.6645458243465,
        "automobile": 1116.05163441167,
        "bird": 1200.148677032891,
        "cat": 992.0566150240264,
        "deer": 1294.1325212762474,
        "dog": 969.3834345686721,
        "frog": 1415.7382742382943,
        "horse": 1201.38476249778,
        "ship": 872.6933029851284,
        "truck": 1040.4412284826312
    },
    "fid": 707.1000456158758,
    "wasserstein_distance": null,
    "g_loss": null,
    "g_cost": null,
    "d_loss_real": null,
    "d_loss_fake": null
}