{
    "epoch": 128,
    "avg_current_window": 874.7131887843583,
    "avg_prior_window": 888.709386295967,
    "inception_score_mean": 1.91257171694413,
    "inception_score_std": 0.14647483808590078,
    "fid_per_class": {
        "airplane": 871.1956550412717,
        "automobile": 1117.0841788082635,
        "bird": 1273.8214374008198,
        "cat": 952.0344375686186,
        "deer": 1361.8572576649185,
        "dog": 950.7658306751243,
        "frog": 1523.4868960297804,
        "horse": 1241.127789926902,
        "ship": 792.431207444243,
        "truck": 974.2411988445856
    },
    "fid": 735.482030817536,
    "wasserstein_distance": null,
    "g_loss": null,
    "g_cost": null,
    "d_loss_real": null,
    "d_loss_fake": null
}