{
    "epoch": 25,
    "avg_current_window": 1092.52701925426,
    "avg_prior_window": 1192.021333674118,
    "inception_score_mean": 1.9085919317824505,
    "inception_score_std": 0.11630361912391676,
    "fid_per_class": {
        "airplane": 953.2479717652453,
        "automobile": 1116.4878115474714,
        "bird": 1458.7873813841115,
        "cat": 1100.8441819525865,
        "deer": 1384.8312790571854,
        "dog": 1217.5668406019927,
        "frog": 1610.2283972128587,
        "horse": 1338.6017436970096,
        "ship": 831.5763137964348,
        "truck": 1029.7746018269013
    },
    "fid": 851.41157835955,
    "wasserstein_distance": null,
    "g_loss": null,
    "g_cost": null,
    "d_loss_real": null,
    "d_loss_fake": null
}