{
    "epoch": 10,
    "avg_current_window": 1348.9267576871284,
    "avg_prior_window": 1747.5677748359024,
    "inception_score_mean": 1.465639884424552,
    "inception_score_std": 0.06268844839614844,
    "fid_per_class": {
        "airplane": 1245.3759587340678,
        "automobile": 1234.4017659842032,
        "bird": 1482.7174138811476,
        "cat": 1389.4365732455544,
        "deer": 1560.5327660998635,
        "dog": 1552.809833368566,
        "frog": 1661.6546327774156,
        "horse": 1378.1395946637597,
        "ship": 1164.5325593565049,
        "truck": 1145.3462676781005
    },
    "fid": 1082.178446866788,
    "wasserstein_distance": null,
    "g_loss": null,
    "g_cost": null,
    "d_loss_real": null,
    "d_loss_fake": null
}