{
    "epoch": 13,
    "avg_current_window": 1284.3291031558888,
    "avg_prior_window": 1532.5703657771794,
    "inception_score_mean": 1.6837266752095683,
    "inception_score_std": 0.05891277547287567,
    "fid_per_class": {
        "airplane": 1053.0459719202956,
        "automobile": 1169.8092149284128,
        "bird": 1766.1003191462457,
        "cat": 1656.086580933063,
        "deer": 1783.842628452568,
        "dog": 1619.454649395094,
        "frog": 1902.6767308530518,
        "horse": 1552.6321058057142,
        "ship": 861.1858726860996,
        "truck": 976.0440428443522
    },
    "fid": 1075.3203448297813,
    "wasserstein_distance": null,
    "g_loss": null,
    "g_cost": null,
    "d_loss_real": null,
    "d_loss_fake": null
}