{
    "epoch": 36,
    "avg_current_window": 996.3125781438282,
    "avg_prior_window": 1055.2087598936364,
    "inception_score_mean": 1.8991127081430037,
    "inception_score_std": 0.07956244432172829,
    "fid_per_class": {
        "airplane": 973.1708919423393,
        "automobile": 1205.0941618221234,
        "bird": 1459.3828445636154,
        "cat": 993.1395860198829,
        "deer": 1349.3766698365355,
        "dog": 1102.0125993911042,
        "frog": 1472.9175416345577,
        "horse": 1296.2923567756761,
        "ship": 778.0086748594131,
        "truck": 1066.9041848803747
    },
    "fid": 782.3770031404038,
    "wasserstein_distance": null,
    "g_loss": null,
    "g_cost": null,
    "d_loss_real": null,
    "d_loss_fake": null
}