{
    "epoch": 38,
    "avg_current_window": 983.8325388354924,
    "avg_prior_window": 1036.8162835366866,
    "inception_score_mean": 1.9193388108655889,
    "inception_score_std": 0.09529591021801151,
    "fid_per_class": {
        "airplane": 953.4523056115718,
        "automobile": 1138.4032838851874,
        "bird": 1333.8214422404917,
        "cat": 977.3679127496379,
        "deer": 1343.5436402041946,
        "dog": 1081.96213585019,
        "frog": 1429.968249456328,
        "horse": 1239.4564621249808,
        "ship": 789.604696706343,
        "truck": 1019.7249521957049
    },
    "fid": 751.4703631637728,
    "wasserstein_distance": null,
    "g_loss": null,
    "g_cost": null,
    "d_loss_real": null,
    "d_loss_fake": null
}