{
    "epoch": 151,
    "avg_current_window": 845.1491375837005,
    "avg_prior_window": 855.5254773456729,
    "inception_score_mean": 1.9651411775391026,
    "inception_score_std": 0.12749863478184834,
    "fid_per_class": {
        "airplane": 911.053004994784,
        "automobile": 1119.2483301180216,
        "bird": 1097.0908136242488,
        "cat": 869.5874635567093,
        "deer": 1144.6259809938838,
        "dog": 847.4263606389393,
        "frog": 1286.0596181871385,
        "horse": 1107.0903931247003,
        "ship": 812.2280857521993,
        "truck": 971.1417392668399
    },
    "fid": 608.971357328788,
    "wasserstein_distance": null,
    "g_loss": null,
    "g_cost": null,
    "d_loss_real": null,
    "d_loss_fake": null
}