{
    "epoch": 147,
    "avg_current_window": 849.7055761392398,
    "avg_prior_window": 860.3505627034042,
    "inception_score_mean": 1.950592080188215,
    "inception_score_std": 0.12428966524336932,
    "fid_per_class": {
        "airplane": 893.4010873008358,
        "automobile": 1083.185656033707,
        "bird": 1176.6441140346235,
        "cat": 893.9033272339233,
        "deer": 1157.488412954728,
        "dog": 941.67017276536,
        "frog": 1296.3534605403506,
        "horse": 1059.1086338381706,
        "ship": 924.566192784903,
        "truck": 978.7414324364224
    },
    "fid": 649.0547043950755,
    "wasserstein_distance": null,
    "g_loss": null,
    "g_cost": null,
    "d_loss_real": null,
    "d_loss_fake": null
}