{
    "epoch": 131,
    "avg_current_window": 870.5397181318976,
    "avg_prior_window": 883.3217952926673,
    "inception_score_mean": 1.908075806187303,
    "inception_score_std": 0.11980002933093008,
    "fid_per_class": {
        "airplane": 928.3052016304332,
        "automobile": 1134.3376508463186,
        "bird": 1231.862545506854,
        "cat": 893.3692920955368,
        "deer": 1185.8070748739344,
        "dog": 909.3995472506125,
        "frog": 1369.2599949695568,
        "horse": 1190.4781005137738,
        "ship": 863.8469420853801,
        "truck": 1039.4053530226702
    },
    "fid": 688.460831381111,
    "wasserstein_distance": null,
    "g_loss": null,
    "g_cost": null,
    "d_loss_real": null,
    "d_loss_fake": null
}