{
    "epoch": 112,
    "avg_current_window": 904.0558211658324,
    "avg_prior_window": 920.8375768228611,
    "inception_score_mean": 1.9091339653616402,
    "inception_score_std": 0.1578792675196906,
    "fid_per_class": {
        "airplane": 874.9831577768658,
        "automobile": 1120.607530405673,
        "bird": 1211.9146094549944,
        "cat": 890.7252805988904,
        "deer": 1131.9422576008067,
        "dog": 906.2458197789282,
        "frog": 1284.837863956928,
        "horse": 1091.2694653078918,
        "ship": 831.5661311612538,
        "truck": 1022.4351152644311
    },
    "fid": 656.6234881150771,
    "wasserstein_distance": null,
    "g_loss": null,
    "g_cost": null,
    "d_loss_real": null,
    "d_loss_fake": null
}