{
    "epoch": 60,
    "avg_current_window": 891.1269133091423,
    "avg_prior_window": 918.6253087254361,
    "inception_score_mean": 1.850653652700099,
    "inception_score_std": 0.138973845513445,
    "fid_per_class": {
        "airplane": 813.4764122424008,
        "automobile": 1086.649492571606,
        "bird": 1244.0002880757843,
        "cat": 940.6648517891183,
        "deer": 1198.6110522186727,
        "dog": 1006.0993337418396,
        "frog": 1306.2756326204546,
        "horse": 1139.949487961991,
        "ship": 740.2826734158023,
        "truck": 1003.2326248307228
    },
    "fid": 647.3443440643664,
    "wasserstein_distance": null,
    "g_loss": null,
    "g_cost": null,
    "d_loss_real": null,
    "d_loss_fake": null
}