{
    "epoch": 8,
    "avg_current_window": 1367.5864085635806,
    "avg_prior_window": 1.0,
    "inception_score_mean": 1.5979240100099847,
    "inception_score_std": 0.12908898906368838,
    "fid_per_class": {
        "airplane": 1306.6665642974108,
        "automobile": 1363.3969581428696,
        "bird": 1807.538570523572,
        "cat": 1704.9135098971449,
        "deer": 1826.2795605796478,
        "dog": 1769.6574738518452,
        "frog": 2099.2138264674654,
        "horse": 1659.5070690483249,
        "ship": 1392.0515431377526,
        "truck": 1230.5674654962904
    },
    "fid": 1319.8716577087912,
    "wasserstein_distance": null,
    "g_loss": null,
    "g_cost": null,
    "d_loss_real": null,
    "d_loss_fake": null
}