{
    "epoch": 178,
    "avg_current_window": 818.018182243892,
    "avg_prior_window": 825.7854252947621,
    "inception_score_mean": 2.0112818838048687,
    "inception_score_std": 0.19311423022078608,
    "fid_per_class": {
        "airplane": 871.3559329005363,
        "automobile": 1083.291964806515,
        "bird": 1198.944697088326,
        "cat": 906.8160079334772,
        "deer": 1218.2368266085691,
        "dog": 884.3038302008069,
        "frog": 1387.8670505477035,
        "horse": 1153.3525886427976,
        "ship": 827.5007989993765,
        "truck": 982.4368409716882
    },
    "fid": 659.1438860936462,
    "wasserstein_distance": null,
    "g_loss": null,
    "g_cost": null,
    "d_loss_real": null,
    "d_loss_fake": null
}