{
    "epoch": 65,
    "avg_current_window": 875.1172264820949,
    "avg_prior_window": 901.9159857102151,
    "inception_score_mean": 1.9345628918230677,
    "inception_score_std": 0.09070372344330714,
    "fid_per_class": {
        "airplane": 811.624803266189,
        "automobile": 1074.6753978092227,
        "bird": 1329.1570920874806,
        "cat": 954.9381052032691,
        "deer": 1231.8478516427626,
        "dog": 1056.8523632120132,
        "frog": 1309.9891196144545,
        "horse": 1163.0279075934288,
        "ship": 775.2788362572429,
        "truck": 971.9107454909819
    },
    "fid": 667.0074399389696,
    "wasserstein_distance": null,
    "g_loss": null,
    "g_cost": null,
    "d_loss_real": null,
    "d_loss_fake": null
}