{
    "epoch": 82,
    "avg_current_window": 835.3503651623697,
    "avg_prior_window": 854.3351797138421,
    "inception_score_mean": 1.9279217677319056,
    "inception_score_std": 0.1131194807255809,
    "fid_per_class": {
        "airplane": 812.1633297798643,
        "automobile": 1111.6237743547822,
        "bird": 1238.705718307732,
        "cat": 928.5526064262291,
        "deer": 1252.4759817483405,
        "dog": 1047.8812570818125,
        "frog": 1251.7523308435589,
        "horse": 1140.5014720293257,
        "ship": 811.148037101357,
        "truck": 951.6569944191963
    },
    "fid": 655.137346267885,
    "wasserstein_distance": null,
    "g_loss": null,
    "g_cost": null,
    "d_loss_real": null,
    "d_loss_fake": null
}