{
    "epoch": 161,
    "avg_current_window": 834.2881027139074,
    "avg_prior_window": 843.4657015361984,
    "inception_score_mean": 1.9007345243583305,
    "inception_score_std": 0.14920392441056965,
    "fid_per_class": {
        "airplane": 870.5049629427064,
        "automobile": 1159.1346535896582,
        "bird": 1187.7866694024528,
        "cat": 894.4043505232252,
        "deer": 1188.1549686664396,
        "dog": 904.5327229055681,
        "frog": 1288.3134906109306,
        "horse": 1125.793782401625,
        "ship": 843.9773105247313,
        "truck": 1029.4358756724264
    },
    "fid": 645.9635726192994,
    "wasserstein_distance": null,
    "g_loss": null,
    "g_cost": null,
    "d_loss_real": null,
    "d_loss_fake": null
}