{
    "epoch": 189,
    "avg_current_window": 808.0453620016204,
    "avg_prior_window": 816.2676334386714,
    "inception_score_mean": 1.9289683947442569,
    "inception_score_std": 0.13866995656802814,
    "fid_per_class": {
        "airplane": 846.3790715901273,
        "automobile": 1097.4666035493424,
        "bird": 1138.1784643585002,
        "cat": 928.1656661695575,
        "deer": 1170.9526602089147,
        "dog": 838.822449659229,
        "frog": 1320.6289840328623,
        "horse": 1140.3656329018677,
        "ship": 843.6907710915048,
        "truck": 1041.9461507531992
    },
    "fid": 635.7980290461743,
    "wasserstein_distance": null,
    "g_loss": null,
    "g_cost": null,
    "d_loss_real": null,
    "d_loss_fake": null
}