{
    "epoch": 68,
    "avg_current_window": 866.9285662103155,
    "avg_prior_window": 891.9457992787767,
    "inception_score_mean": 1.861780736501847,
    "inception_score_std": 0.11452559983051842,
    "fid_per_class": {
        "airplane": 869.7417144808805,
        "automobile": 1116.1644049515694,
        "bird": 1237.4391755951274,
        "cat": 934.4307346858022,
        "deer": 1218.2161943101673,
        "dog": 992.985162994541,
        "frog": 1333.6817723489821,
        "horse": 1130.3083746596587,
        "ship": 824.9809906733853,
        "truck": 988.485900522339
    },
    "fid": 665.6798029319123,
    "wasserstein_distance": null,
    "g_loss": null,
    "g_cost": null,
    "d_loss_real": null,
    "d_loss_fake": null
}