{
    "epoch": 186,
    "avg_current_window": 810.9027395540421,
    "avg_prior_window": 818.9745555157702,
    "inception_score_mean": 1.947551073548174,
    "inception_score_std": 0.16329769584935303,
    "fid_per_class": {
        "airplane": 817.6910335896727,
        "automobile": 1081.3064524713177,
        "bird": 1200.0809921518162,
        "cat": 935.5084186438348,
        "deer": 1188.3883014903986,
        "dog": 896.793801506021,
        "frog": 1337.5899599396423,
        "horse": 1213.969456037987,
        "ship": 839.4836883478795,
        "truck": 1067.5746395715057
    },
    "fid": 675.5447302463316,
    "wasserstein_distance": null,
    "g_loss": null,
    "g_cost": null,
    "d_loss_real": null,
    "d_loss_fake": null
}