{
    "epoch": 73,
    "avg_current_window": 854.3634870786143,
    "avg_prior_window": 876.7179750769612,
    "inception_score_mean": 1.7980807733899478,
    "inception_score_std": 0.1123592664890044,
    "fid_per_class": {
        "airplane": 866.3545968209596,
        "automobile": 1092.9980926429178,
        "bird": 1309.1225725439326,
        "cat": 885.0465507775759,
        "deer": 1253.849092258539,
        "dog": 1030.3065106115373,
        "frog": 1334.7192371411504,
        "horse": 1144.2646873391725,
        "ship": 818.6940376150617,
        "truck": 1027.0446842673905
    },
    "fid": 672.0445562310886,
    "wasserstein_distance": null,
    "g_loss": null,
    "g_cost": null,
    "d_loss_real": null,
    "d_loss_fake": null
}