{
    "epoch": 132,
    "avg_current_window": 869.1603326262099,
    "avg_prior_window": 881.6006942078571,
    "inception_score_mean": 1.9431302554214707,
    "inception_score_std": 0.1526872605708219,
    "fid_per_class": {
        "airplane": 855.7405920566282,
        "automobile": 1168.3047747055566,
        "bird": 1103.1289783357306,
        "cat": 917.809482633104,
        "deer": 1185.0400443669523,
        "dog": 884.5219393983136,
        "frog": 1284.4987819184971,
        "horse": 1140.740265186905,
        "ship": 784.1362551063481,
        "truck": 973.6765917998825
    },
    "fid": 639.3552552512162,
    "wasserstein_distance": null,
    "g_loss": null,
    "g_cost": null,
    "d_loss_real": null,
    "d_loss_fake": null
}