{
    "epoch": 111,
    "avg_current_window": 906.1664836465366,
    "avg_prior_window": 922.5917885267595,
    "inception_score_mean": 1.879925676734251,
    "inception_score_std": 0.1323242276363769,
    "fid_per_class": {
        "airplane": 897.133265236454,
        "automobile": 1065.3179045461784,
        "bird": 1175.3389204319617,
        "cat": 935.2881964927128,
        "deer": 1244.1837179123233,
        "dog": 930.578570993786,
        "frog": 1349.250870860576,
        "horse": 1197.1836554514268,
        "ship": 799.624909282633,
        "truck": 975.724933850404
    },
    "fid": 669.7722858076733,
    "wasserstein_distance": null,
    "g_loss": null,
    "g_cost": null,
    "d_loss_real": null,
    "d_loss_fake": null
}