{
    "epoch": 57,
    "avg_current_window": 899.9715074388444,
    "avg_prior_window": 929.2237541344468,
    "inception_score_mean": 1.8751427477066351,
    "inception_score_std": 0.08182649945838423,
    "fid_per_class": {
        "airplane": 843.5552086409753,
        "automobile": 1114.4903359721409,
        "bird": 1352.4238210984806,
        "cat": 1004.2856245361769,
        "deer": 1325.7496152603585,
        "dog": 1170.3351574100934,
        "frog": 1439.7904421524456,
        "horse": 1185.9084207567003,
        "ship": 781.4845474113688,
        "truck": 935.8122480370997
    },
    "fid": 737.2837019250048,
    "wasserstein_distance": null,
    "g_loss": null,
    "g_cost": null,
    "d_loss_real": null,
    "d_loss_fake": null
}