{
    "epoch": 198,
    "avg_current_window": 800.6118330139476,
    "avg_prior_window": 807.8403995118255,
    "inception_score_mean": 1.9821150596072035,
    "inception_score_std": 0.14236335359495064,
    "fid_per_class": {
        "airplane": 873.8736475015585,
        "automobile": 1117.096056616726,
        "bird": 1177.970304353586,
        "cat": 931.9864380923225,
        "deer": 1259.163124625105,
        "dog": 925.6551367163565,
        "frog": 1260.0790597646967,
        "horse": 1164.742322825679,
        "ship": 856.8271380168504,
        "truck": 975.3272580887892
    },
    "fid": 663.7138158551105,
    "wasserstein_distance": null,
    "g_loss": null,
    "g_cost": null,
    "d_loss_real": null,
    "d_loss_fake": null
}