{
    "epoch": 162,
    "avg_current_window": 833.125605614558,
    "avg_prior_window": 842.6064896089468,
    "inception_score_mean": 1.8863923174432078,
    "inception_score_std": 0.14391220232470622,
    "fid_per_class": {
        "airplane": 880.5006535757335,
        "automobile": 1097.954166241767,
        "bird": 1182.7252829482072,
        "cat": 942.2910794497636,
        "deer": 1278.7111027592605,
        "dog": 924.9792046373926,
        "frog": 1329.7407904942197,
        "horse": 1168.9282062010898,
        "ship": 876.1799520471612,
        "truck": 1010.1116609783305
    },
    "fid": 680.7028443942327,
    "wasserstein_distance": null,
    "g_loss": null,
    "g_cost": null,
    "d_loss_real": null,
    "d_loss_fake": null
}