{
    "epoch": 1,
    "avg_current_window": 3.0,
    "avg_prior_window": 8.0,
    "inception_score_mean": 1.1431652199875335,
    "inception_score_std": 0.02116584843383871,
    "fid_per_class": {
        "airplane": 1714.4578517636905,
        "automobile": 1897.9775109876196,
        "bird": 1988.1232363857316,
        "cat": 1966.6106832082269,
        "deer": 2035.0041970124578,
        "dog": 1875.2133904170541,
        "frog": 2077.1965579969433,
        "horse": 1989.0236804986314,
        "ship": 1753.6193901710963,
        "truck": 1711.7588922761258
    },
    "fid": 1804.3613841010983,
    "wasserstein_distance": null,
    "g_loss": null,
    "g_cost": null,
    "d_loss_real": null,
    "d_loss_fake": null
}