{
    "epoch": 77,
    "avg_current_window": 845.5481125342432,
    "avg_prior_window": 866.2296466213728,
    "inception_score_mean": 1.8645343787863937,
    "inception_score_std": 0.09567886687449355,
    "fid_per_class": {
        "airplane": 825.3703131151043,
        "automobile": 1065.0839859083255,
        "bird": 1271.7884614389259,
        "cat": 972.9050723852286,
        "deer": 1238.7167611399066,
        "dog": 1010.4163461263312,
        "frog": 1324.9582140673842,
        "horse": 1179.1843990951593,
        "ship": 794.6409549455338,
        "truck": 945.8988812360051
    },
    "fid": 676.6041728291128,
    "wasserstein_distance": null,
    "g_loss": null,
    "g_cost": null,
    "d_loss_real": null,
    "d_loss_fake": null
}