{
    "epoch": 129,
    "avg_current_window": 873.6338774822899,
    "avg_prior_window": 887.0022849959931,
    "inception_score_mean": 1.8886061003030175,
    "inception_score_std": 0.09475501169943937,
    "fid_per_class": {
        "airplane": 893.8236964696553,
        "automobile": 1138.2601925561962,
        "bird": 1165.1431739177542,
        "cat": 908.3420346709948,
        "deer": 1205.6248369346072,
        "dog": 882.5178682402438,
        "frog": 1344.50751751306,
        "horse": 1133.9211105411969,
        "ship": 815.1596747695703,
        "truck": 946.2453764581062
    },
    "fid": 650.7556994687975,
    "wasserstein_distance": null,
    "g_loss": null,
    "g_cost": null,
    "d_loss_real": null,
    "d_loss_fake": null
}