{
    "epoch": 113,
    "avg_current_window": 901.8661545016664,
    "avg_prior_window": 918.7679126669193,
    "inception_score_mean": 1.8778726058263235,
    "inception_score_std": 0.15250331456733443,
    "fid_per_class": {
        "airplane": 916.6035940502923,
        "automobile": 1119.079137676449,
        "bird": 1197.0327156207927,
        "cat": 864.9246708128715,
        "deer": 1261.7499357018082,
        "dog": 936.3400024841837,
        "frog": 1347.843365629581,
        "horse": 1186.3819765651451,
        "ship": 848.0673755145397,
        "truck": 1038.045595216212
    },
    "fid": 677.5642479839494,
    "wasserstein_distance": null,
    "g_loss": null,
    "g_cost": null,
    "d_loss_real": null,
    "d_loss_fake": null
}