{
    "epoch": 154,
    "avg_current_window": 841.5300549777863,
    "avg_prior_window": 851.8455927036581,
    "inception_score_mean": 1.9573839527199204,
    "inception_score_std": 0.1423570087535981,
    "fid_per_class": {
        "airplane": 863.5264482003587,
        "automobile": 1122.1675190835763,
        "bird": 1149.7092874790224,
        "cat": 907.8156507085325,
        "deer": 1170.235689531441,
        "dog": 853.3020370587767,
        "frog": 1330.9857225339597,
        "horse": 1104.1258637027356,
        "ship": 816.5313561067078,
        "truck": 929.3470580331676
    },
    "fid": 635.3363848658901,
    "wasserstein_distance": null,
    "g_loss": null,
    "g_cost": null,
    "d_loss_real": null,
    "d_loss_fake": null
}