{
    "epoch": 72,
    "avg_current_window": 857.0053071054384,
    "avg_prior_window": 879.8677985418127,
    "inception_score_mean": 1.8293710452258225,
    "inception_score_std": 0.11620343842642651,
    "fid_per_class": {
        "airplane": 859.0908723859051,
        "automobile": 1139.916912606152,
        "bird": 1293.472189064165,
        "cat": 924.0587277166817,
        "deer": 1174.208101469663,
        "dog": 965.4655505954441,
        "frog": 1303.0334692995182,
        "horse": 1178.2419832215141,
        "ship": 785.738565055906,
        "truck": 992.90433507074
    },
    "fid": 664.1524451472823,
    "wasserstein_distance": null,
    "g_loss": null,
    "g_cost": null,
    "d_loss_real": null,
    "d_loss_fake": null
}