{
    "epoch": 5,
    "avg_current_window": 1441.5123043911003,
    "avg_prior_window": 1808.3613841010983,
    "inception_score_mean": 1.3216433431111851,
    "inception_score_std": 0.02401330782668005,
    "fid_per_class": {
        "airplane": 1427.4201306025054,
        "automobile": 1402.5630273844176,
        "bird": 1944.7557165228625,
        "cat": 1846.0786599196738,
        "deer": 1957.0778239682327,
        "dog": 1966.6980209617848,
        "frog": 2101.6399865716435,
        "horse": 1764.7540739456117,
        "ship": 1552.259695272837,
        "truck": 1510.8666768912954
    },
    "fid": 1530.27735222401,
    "wasserstein_distance": null,
    "g_loss": null,
    "g_cost": null,
    "d_loss_real": null,
    "d_loss_fake": null
}