{
    "epoch": 39,
    "avg_current_window": 977.8745343310893,
    "avg_prior_window": 1030.0974599950748,
    "inception_score_mean": 1.8917159964463397,
    "inception_score_std": 0.12679229510366327,
    "fid_per_class": {
        "airplane": 900.2608735128904,
        "automobile": 1209.8530699664925,
        "bird": 1322.926699159607,
        "cat": 930.2472229526458,
        "deer": 1358.0847756563849,
        "dog": 1098.1630565641553,
        "frog": 1493.9598990722002,
        "horse": 1234.947160207099,
        "ship": 834.1992970009635,
        "truck": 1032.1323867004407
    },
    "fid": 728.6201910114718,
    "wasserstein_distance": null,
    "g_loss": null,
    "g_cost": null,
    "d_loss_real": null,
    "d_loss_fake": null
}