{
    "epoch": 170,
    "avg_current_window": 825.0972466567907,
    "avg_prior_window": 834.2544806845825,
    "inception_score_mean": 1.8712752116665992,
    "inception_score_std": 0.10798832515441112,
    "fid_per_class": {
        "airplane": 856.8742400011935,
        "automobile": 1173.2509709415976,
        "bird": 1159.782193902202,
        "cat": 921.5103108545568,
        "deer": 1165.5871750875897,
        "dog": 907.8723550289698,
        "frog": 1369.0973509105925,
        "horse": 1171.7485886689847,
        "ship": 875.6601675883941,
        "truck": 1039.556902852853
    },
    "fid": 667.8327627180803,
    "wasserstein_distance": null,
    "g_loss": null,
    "g_cost": null,
    "d_loss_real": null,
    "d_loss_fake": null
}