{
    "epoch": 9,
    "avg_current_window": 1362.284769579715,
    "avg_prior_window": 1801.8903804888755,
    "inception_score_mean": 1.439382449308922,
    "inception_score_std": 0.07591893017152283,
    "fid_per_class": {
        "airplane": 1217.109947982173,
        "automobile": 1163.2197998697222,
        "bird": 1789.4778495874666,
        "cat": 1608.497684269122,
        "deer": 1746.0628032828245,
        "dog": 1822.1776424792556,
        "frog": 2004.0244514294357,
        "horse": 1553.6902582003222,
        "ship": 1259.9460761347273,
        "truck": 1207.694620335173
    },
    "fid": 1228.7046506538486,
    "wasserstein_distance": null,
    "g_loss": null,
    "g_cost": null,
    "d_loss_real": null,
    "d_loss_fake": null
}