{
    "epoch": 52,
    "avg_current_window": 915.8475212412811,
    "avg_prior_window": 950.4077552897794,
    "inception_score_mean": 1.882124380166653,
    "inception_score_std": 0.13001535900369182,
    "fid_per_class": {
        "airplane": 858.5282262832314,
        "automobile": 1036.3105709274894,
        "bird": 1365.4344856857388,
        "cat": 979.5771314394883,
        "deer": 1251.6011702039773,
        "dog": 1048.3933882126257,
        "frog": 1329.4380039055782,
        "horse": 1164.3469915737387,
        "ship": 722.9880148994026,
        "truck": 918.4130020328046
    },
    "fid": 695.5641104446181,
    "wasserstein_distance": null,
    "g_loss": null,
    "g_cost": null,
    "d_loss_real": null,
    "d_loss_fake": null
}