{
    "epoch": 122,
    "avg_current_window": 885.3560327993567,
    "avg_prior_window": 899.8177077071284,
    "inception_score_mean": 1.9038360171781323,
    "inception_score_std": 0.16030781903565566,
    "fid_per_class": {
        "airplane": 875.4123663052924,
        "automobile": 1170.5607085779407,
        "bird": 1107.2754645460946,
        "cat": 904.9263502970083,
        "deer": 1180.24734454081,
        "dog": 895.6934355572812,
        "frog": 1318.4693635200863,
        "horse": 1179.7568312904814,
        "ship": 837.1411862420277,
        "truck": 1015.492109808447
    },
    "fid": 655.5945840759767,
    "wasserstein_distance": null,
    "g_loss": null,
    "g_cost": null,
    "d_loss_real": null,
    "d_loss_fake": null
}