{
    "epoch": 171,
    "avg_current_window": 824.17757131212,
    "avg_prior_window": 833.1353883084802,
    "inception_score_mean": 1.9489067330704521,
    "inception_score_std": 0.1322854096324735,
    "fid_per_class": {
        "airplane": 798.6055348099876,
        "automobile": 1174.6196395516374,
        "bird": 1213.1378619728653,
        "cat": 910.3730144868189,
        "deer": 1170.3499557537866,
        "dog": 920.558865650823,
        "frog": 1366.4411386820307,
        "horse": 1184.557566484529,
        "ship": 821.9853405026582,
        "truck": 986.5602485261508
    },
    "fid": 666.2550155256963,
    "wasserstein_distance": null,
    "g_loss": null,
    "g_cost": null,
    "d_loss_real": null,
    "d_loss_fake": null
}