{
    "epoch": 35,
    "avg_current_window": 1000.6661039952155,
    "avg_prior_window": 1065.785321651885,
    "inception_score_mean": 1.9014919507108285,
    "inception_score_std": 0.09224802286977359,
    "fid_per_class": {
        "airplane": 1024.369653783372,
        "automobile": 1346.26797308721,
        "bird": 1443.8172525424723,
        "cat": 1025.4354567714092,
        "deer": 1491.0975044777092,
        "dog": 1090.6458294468862,
        "frog": 1530.2476246864376,
        "horse": 1308.180198613756,
        "ship": 904.0046691760087,
        "truck": 1165.5576377907578
    },
    "fid": 843.9391733452751,
    "wasserstein_distance": null,
    "g_loss": null,
    "g_cost": null,
    "d_loss_real": null,
    "d_loss_fake": null
}