{
    "epoch": 185,
    "avg_current_window": 811.8553759606245,
    "avg_prior_window": 819.917358905851,
    "inception_score_mean": 1.9123139447915107,
    "inception_score_std": 0.10039179828535663,
    "fid_per_class": {
        "airplane": 873.7083040293186,
        "automobile": 1069.2196180498008,
        "bird": 1189.2806410859725,
        "cat": 925.0019593100951,
        "deer": 1203.0240516117942,
        "dog": 880.4865685982924,
        "frog": 1227.865219619415,
        "horse": 1155.165713267255,
        "ship": 815.3564314647359,
        "truck": 943.8748269858177
    },
    "fid": 634.665004336305,
    "wasserstein_distance": null,
    "g_loss": null,
    "g_cost": null,
    "d_loss_real": null,
    "d_loss_fake": null
}