{
    "epoch": 139,
    "avg_current_window": 859.4274798861092,
    "avg_prior_window": 871.4751033866801,
    "inception_score_mean": 1.8809556514968322,
    "inception_score_std": 0.09866592899776502,
    "fid_per_class": {
        "airplane": 876.292231438627,
        "automobile": 1104.4186432897322,
        "bird": 1182.5293344032475,
        "cat": 908.9127034739647,
        "deer": 1129.7575415917497,
        "dog": 910.835824587783,
        "frog": 1275.6436798400337,
        "horse": 1164.2852754220694,
        "ship": 884.9297882200703,
        "truck": 961.4348046442249
    },
    "fid": 673.3364011447991,
    "wasserstein_distance": null,
    "g_loss": null,
    "g_cost": null,
    "d_loss_real": null,
    "d_loss_fake": null
}