{
    "epoch": 22,
    "avg_current_window": 1121.2908455999304,
    "avg_prior_window": 1256.1043514894448,
    "inception_score_mean": 1.698023524674089,
    "inception_score_std": 0.09514679882358858,
    "fid_per_class": {
        "airplane": 1096.2768252353387,
        "automobile": 1247.539537928858,
        "bird": 1623.6919141317308,
        "cat": 1342.5779653881957,
        "deer": 1649.0175380551857,
        "dog": 1571.997899935734,
        "frog": 1740.8332334182212,
        "horse": 1531.3737223302442,
        "ship": 948.2616770259635,
        "truck": 1180.789318814903
    },
    "fid": 1037.7819228752694,
    "wasserstein_distance": null,
    "g_loss": null,
    "g_cost": null,
    "d_loss_real": null,
    "d_loss_fake": null
}