{
    "epoch": 117,
    "avg_current_window": 893.8371462078774,
    "avg_prior_window": 909.9185308811456,
    "inception_score_mean": 1.896315990323743,
    "inception_score_std": 0.15624038500739232,
    "fid_per_class": {
        "airplane": 881.9833379960155,
        "automobile": 1110.627094599235,
        "bird": 1219.185586834996,
        "cat": 951.0401632890051,
        "deer": 1290.960480530902,
        "dog": 921.0179505045621,
        "frog": 1351.8490827906317,
        "horse": 1205.9896885351743,
        "ship": 815.6039679996209,
        "truck": 1034.5561755218735
    },
    "fid": 699.7256954123662,
    "wasserstein_distance": null,
    "g_loss": null,
    "g_cost": null,
    "d_loss_real": null,
    "d_loss_fake": null
}