{
    "epoch": 24,
    "avg_current_window": 1106.6417437994942,
    "avg_prior_window": 1214.7245567056937,
    "inception_score_mean": 1.737652283678638,
    "inception_score_std": 0.11138116774358445,
    "fid_per_class": {
        "airplane": 1031.0512900409067,
        "automobile": 1134.42521562541,
        "bird": 1218.7428445110058,
        "cat": 994.4079725896024,
        "deer": 1095.7576791962542,
        "dog": 1100.7892032996858,
        "frog": 1264.5348218698218,
        "horse": 1241.522379793293,
        "ship": 906.4359911811514,
        "truck": 1091.5599561625195
    },
    "fid": 753.7736301686416,
    "wasserstein_distance": null,
    "g_loss": null,
    "g_cost": null,
    "d_loss_real": null,
    "d_loss_fake": null
}