{
    "epoch": 16,
    "avg_current_window": 1229.54728750765,
    "avg_prior_window": 1408.9245082406562,
    "inception_score_mean": 1.6262212393165876,
    "inception_score_std": 0.09494453907282623,
    "fid_per_class": {
        "airplane": 1062.5537236401815,
        "automobile": 1325.880478019219,
        "bird": 1220.2408112463272,
        "cat": 1159.5410934117572,
        "deer": 1103.7606631533695,
        "dog": 1215.8084785030212,
        "frog": 1530.615331946228,
        "horse": 1253.0402320629203,
        "ship": 932.9247800349392,
        "truck": 1162.0621383457287
    },
    "fid": 835.2135683759423,
    "wasserstein_distance": null,
    "g_loss": null,
    "g_cost": null,
    "d_loss_real": null,
    "d_loss_fake": null
}