{
    "epoch": 136,
    "avg_current_window": 863.509393819565,
    "avg_prior_window": 875.7951443256466,
    "inception_score_mean": 1.9059932387374494,
    "inception_score_std": 0.12312746780033383,
    "fid_per_class": {
        "airplane": 893.5671583471772,
        "automobile": 1147.1632974396787,
        "bird": 1168.5497609086945,
        "cat": 909.7469000474218,
        "deer": 1136.6981674079088,
        "dog": 921.0327959005692,
        "frog": 1397.7660443454085,
        "horse": 1147.9671087546783,
        "ship": 800.3430460987283,
        "truck": 999.0871228998069
    },
    "fid": 671.4072267759753,
    "wasserstein_distance": null,
    "g_loss": null,
    "g_cost": null,
    "d_loss_real": null,
    "d_loss_fake": null
}