{
    "epoch": 64,
    "avg_current_window": 878.0091461650458,
    "avg_prior_window": 906.2307592974329,
    "inception_score_mean": 1.8829782742482268,
    "inception_score_std": 0.09443446379237995,
    "fid_per_class": {
        "airplane": 856.3071748631444,
        "automobile": 1123.1541883954947,
        "bird": 1326.2767918292886,
        "cat": 960.3564159220319,
        "deer": 1225.4344936250945,
        "dog": 1063.835502927316,
        "frog": 1282.0223073499888,
        "horse": 1199.6307728447814,
        "ship": 793.7042975385906,
        "truck": 957.9503775846795
    },
    "fid": 690.0343667732407,
    "wasserstein_distance": null,
    "g_loss": null,
    "g_cost": null,
    "d_loss_real": null,
    "d_loss_fake": null
}