{
    "epoch": 12,
    "avg_current_window": 1291.5141325539348,
    "avg_prior_window": 1562.9558955012349,
    "inception_score_mean": 1.4682351507767097,
    "inception_score_std": 0.056553484670644076,
    "fid_per_class": {
        "airplane": 1177.3972474180855,
        "automobile": 1210.7363377534139,
        "bird": 1794.7401795297274,
        "cat": 1674.1841960842094,
        "deer": 1872.0478299120634,
        "dog": 1727.0504103603882,
        "frog": 2020.6149693815983,
        "horse": 1651.9483845125856,
        "ship": 1068.274555201317,
        "truck": 1104.82952671543
    },
    "fid": 1198.1087503793356,
    "wasserstein_distance": null,
    "g_loss": null,
    "g_cost": null,
    "d_loss_real": null,
    "d_loss_fake": null
}