{
    "epoch": 62,
    "avg_current_window": 883.7956398619756,
    "avg_prior_window": 912.9063092270025,
    "inception_score_mean": 1.854701103938336,
    "inception_score_std": 0.11423130431024436,
    "fid_per_class": {
        "airplane": 884.4712975615469,
        "automobile": 1143.099072496334,
        "bird": 1317.2970610808393,
        "cat": 996.7533680152537,
        "deer": 1249.9184395033556,
        "dog": 1063.3969571406378,
        "frog": 1383.3766421927687,
        "horse": 1157.182432376027,
        "ship": 807.5463051561701,
        "truck": 976.1410918864768
    },
    "fid": 712.7607393389987,
    "wasserstein_distance": null,
    "g_loss": null,
    "g_cost": null,
    "d_loss_real": null,
    "d_loss_fake": null
}