{
    "epoch": 26,
    "avg_current_window": 1083.2533484506175,
    "avg_prior_window": 1174.6856477713557,
    "inception_score_mean": 1.7253274596282229,
    "inception_score_std": 0.08699918810918673,
    "fid_per_class": {
        "airplane": 1003.0844129544713,
        "automobile": 1168.7569263997498,
        "bird": 1241.6772207176014,
        "cat": 1021.3148626259384,
        "deer": 1181.7248928642853,
        "dog": 1103.4424421631165,
        "frog": 1443.6669876288038,
        "horse": 1252.9618455599195,
        "ship": 861.6911110572831,
        "truck": 1144.1181449608455
    },
    "fid": 741.8718320824585,
    "wasserstein_distance": null,
    "g_loss": null,
    "g_cost": null,
    "d_loss_real": null,
    "d_loss_fake": null
}