{
    "epoch": 119,
    "avg_current_window": 890.2877161105837,
    "avg_prior_window": 905.8060884660309,
    "inception_score_mean": 1.9361019363165546,
    "inception_score_std": 0.15609438554088684,
    "fid_per_class": {
        "airplane": 912.8899679335971,
        "automobile": 1132.1696688032978,
        "bird": 1185.0880027692692,
        "cat": 918.4104504328504,
        "deer": 1194.0334502528274,
        "dog": 873.1275372947119,
        "frog": 1329.1907092348351,
        "horse": 1113.7042589087584,
        "ship": 832.6473714521583,
        "truck": 974.5560959576585
    },
    "fid": 666.445261282367,
    "wasserstein_distance": null,
    "g_loss": null,
    "g_cost": null,
    "d_loss_real": null,
    "d_loss_fake": null
}