{
    "epoch": 104,
    "avg_current_window": 920.7610803573856,
    "avg_prior_window": 939.7253399457726,
    "inception_score_mean": 1.9123103255178602,
    "inception_score_std": 0.12231453735461795,
    "fid_per_class": {
        "airplane": 1001.6915381688058,
        "automobile": 1184.2645233496025,
        "bird": 1196.6674288481895,
        "cat": 876.0912521827132,
        "deer": 1196.8118329540566,
        "dog": 896.2485947728329,
        "frog": 1300.3220264310864,
        "horse": 1136.0622629510724,
        "ship": 931.7006424719636,
        "truck": 1058.854585045793
    },
    "fid": 674.6854667159412,
    "wasserstein_distance": null,
    "g_loss": null,
    "g_cost": null,
    "d_loss_real": null,
    "d_loss_fake": null
}