{
    "epoch": 101,
    "avg_current_window": 927.8277895320865,
    "avg_prior_window": 947.5758839066481,
    "inception_score_mean": 1.8836127447468964,
    "inception_score_std": 0.13966723437865047,
    "fid_per_class": {
        "airplane": 874.8448650620664,
        "automobile": 1092.6159756472803,
        "bird": 1239.8236218905322,
        "cat": 907.4530837666825,
        "deer": 1192.4929248154258,
        "dog": 909.2787856374881,
        "frog": 1269.1127174588855,
        "horse": 1140.8900946736815,
        "ship": 772.2825976319225,
        "truck": 966.5702322822107
    },
    "fid": 646.567475615183,
    "wasserstein_distance": null,
    "g_loss": null,
    "g_cost": null,
    "d_loss_real": null,
    "d_loss_fake": null
}