{
    "epoch": 83,
    "avg_current_window": 833.17912397087,
    "avg_prior_window": 851.8695136430949,
    "inception_score_mean": 1.867899838729364,
    "inception_score_std": 0.1382423239667333,
    "fid_per_class": {
        "airplane": 838.991268684256,
        "automobile": 1051.5511633799733,
        "bird": 1310.0952507348102,
        "cat": 950.144802016072,
        "deer": 1263.1008743925,
        "dog": 1013.2012101758594,
        "frog": 1255.9441690792487,
        "horse": 1139.5001703382695,
        "ship": 779.7911608384696,
        "truck": 894.1107876353672
    },
    "fid": 644.7931626410403,
    "wasserstein_distance": null,
    "g_loss": null,
    "g_cost": null,
    "d_loss_real": null,
    "d_loss_fake": null
}