{
    "epoch": 138,
    "avg_current_window": 860.8206535903262,
    "avg_prior_window": 872.7205842672488,
    "inception_score_mean": 1.938933802028498,
    "inception_score_std": 0.05431705285765731,
    "fid_per_class": {
        "airplane": 874.9991776606038,
        "automobile": 1155.8043898577637,
        "bird": 1138.561432398581,
        "cat": 880.0439137141411,
        "deer": 1267.5651438246373,
        "dog": 881.8845854235058,
        "frog": 1370.5064969531318,
        "horse": 1159.5699704285557,
        "ship": 863.6020774878258,
        "truck": 985.0307846562914
    },
    "fid": 667.169508704161,
    "wasserstein_distance": null,
    "g_loss": null,
    "g_cost": null,
    "d_loss_real": null,
    "d_loss_fake": null
}