{
    "epoch": 18,
    "avg_current_window": 1186.3207764066979,
    "avg_prior_window": 1367.0460527581797,
    "inception_score_mean": 1.7890036414181008,
    "inception_score_std": 0.11631347018875964,
    "fid_per_class": {
        "airplane": 1063.4471394925206,
        "automobile": 1271.7953916964784,
        "bird": 1413.2620259654514,
        "cat": 1168.4823598540506,
        "deer": 1323.9995219626644,
        "dog": 1274.1856475192792,
        "frog": 1550.7164944610086,
        "horse": 1327.0228730390008,
        "ship": 900.9541832914563,
        "truck": 1124.3205703328053
    },
    "fid": 843.4852737121529,
    "wasserstein_distance": null,
    "g_loss": null,
    "g_cost": null,
    "d_loss_real": null,
    "d_loss_fake": null
}