{
    "epoch": 94,
    "avg_current_window": 817.0124239047472,
    "avg_prior_window": 831.14268832537,
    "inception_score_mean": 1.8585952782345363,
    "inception_score_std": 0.14728116908377334,
    "fid_per_class": {
        "airplane": 864.2090181545482,
        "automobile": 1088.2132660472055,
        "bird": 1247.974127976332,
        "cat": 972.6656505821616,
        "deer": 1221.8483891622025,
        "dog": 1059.7104431870296,
        "frog": 1339.8436960515637,
        "horse": 1146.3838710925713,
        "ship": 859.946928652583,
        "truck": 971.4063297823732
    },
    "fid": 674.0030796770346,
    "wasserstein_distance": null,
    "g_loss": null,
    "g_cost": null,
    "d_loss_real": null,
    "d_loss_fake": null
}