{
    "epoch": 149,
    "avg_current_window": 847.5216596868485,
    "avg_prior_window": 858.2851664248526,
    "inception_score_mean": 1.9218122844827945,
    "inception_score_std": 0.17045585415604594,
    "fid_per_class": {
        "airplane": 912.9848919772057,
        "automobile": 1099.6839937895516,
        "bird": 1166.9385939990282,
        "cat": 925.3016077416842,
        "deer": 1120.5669844514591,
        "dog": 858.6840375739246,
        "frog": 1296.3075883166796,
        "horse": 1090.7915774828125,
        "ship": 879.5390410368207,
        "truck": 988.3172011151833
    },
    "fid": 644.2660195046303,
    "wasserstein_distance": null,
    "g_loss": null,
    "g_cost": null,
    "d_loss_real": null,
    "d_loss_fake": null
}