{
    "epoch": 146,
    "avg_current_window": 851.0400854575621,
    "avg_prior_window": 861.5111083601358,
    "inception_score_mean": 1.926082436594126,
    "inception_score_std": 0.13483892702916647,
    "fid_per_class": {
        "airplane": 847.4722694717036,
        "automobile": 1159.7875908962478,
        "bird": 1153.5194569321666,
        "cat": 934.3493665746463,
        "deer": 1234.2979367525106,
        "dog": 919.7681248630365,
        "frog": 1301.9102807705972,
        "horse": 1146.6303428314623,
        "ship": 842.0297571778693,
        "truck": 989.7579778379045
    },
    "fid": 654.8672156641774,
    "wasserstein_distance": null,
    "g_loss": null,
    "g_cost": null,
    "d_loss_real": null,
    "d_loss_fake": null
}