{
    "epoch": 168,
    "avg_current_window": 1274.4791443958568,
    "avg_prior_window": 1290.6421161555456,
    "inception_score_mean": 1.670771483592046,
    "inception_score_std": 0.15070101642435718,
    "fid_per_class": {
        "airplane": 1137.0482901523746,
        "automobile": 1279.319401390804,
        "bird": 1309.9870441081578,
        "cat": 1136.6213883250077,
        "deer": 1542.6686719805625,
        "dog": 1239.6287356936202,
        "frog": 1711.830889497601,
        "horse": 1344.1253626542468,
        "ship": 993.8160183916441,
        "truck": 1256.9548565834316
    },
    "fid": 934.0915889278576,
    "wasserstein_distance": null,
    "g_loss": null,
    "g_cost": null,
    "d_loss_real": null,
    "d_loss_fake": null
}