{
    "epoch": 129,
    "avg_current_window": 1376.190332044098,
    "avg_prior_window": 1398.951699271069,
    "inception_score_mean": 1.6036966256347944,
    "inception_score_std": 0.12872561868773777,
    "fid_per_class": {
        "airplane": 1162.7650478584133,
        "automobile": 1335.5433998248193,
        "bird": 1391.8723127052563,
        "cat": 1215.5789506152337,
        "deer": 1570.1073159564287,
        "dog": 1333.63349773255,
        "frog": 1674.9074328717343,
        "horse": 1468.2898090320782,
        "ship": 1020.796000612721,
        "truck": 1297.8736942696764
    },
    "fid": 1009.7757565456563,
    "wasserstein_distance": null,
    "g_loss": null,
    "g_cost": null,
    "d_loss_real": null,
    "d_loss_fake": null
}