{
    "epoch": 112,
    "avg_current_window": 1434.892112584566,
    "avg_prior_window": 1462.6436071328615,
    "inception_score_mean": 1.6225623345844162,
    "inception_score_std": 0.1141049652412124,
    "fid_per_class": {
        "airplane": 1082.6891679596636,
        "automobile": 1216.2502667132353,
        "bird": 1263.3261171498214,
        "cat": 1013.8364066276813,
        "deer": 1426.3517199040675,
        "dog": 1078.2060976255034,
        "frog": 1322.2075271982815,
        "horse": 1355.149484920842,
        "ship": 1067.48424311909,
        "truck": 1227.4768168574433
    },
    "fid": 858.8192533509477,
    "wasserstein_distance": null,
    "g_loss": null,
    "g_cost": null,
    "d_loss_real": null,
    "d_loss_fake": null
}