{
    "epoch": 43,
    "avg_current_window": 2121.941228937374,
    "avg_prior_window": 2269.2060509662188,
    "inception_score_mean": 1.4365550649978687,
    "inception_score_std": 0.0655469765695952,
    "fid_per_class": {
        "airplane": 1262.310878233576,
        "automobile": 1342.8942140081506,
        "bird": 1476.5920922014093,
        "cat": 1442.5326702643831,
        "deer": 1617.8228834713616,
        "dog": 1441.528657700128,
        "frog": 1751.0914632736726,
        "horse": 1522.2523477989957,
        "ship": 1127.0382948770314,
        "truck": 1342.8566479157246
    },
    "fid": 1154.8493491326003,
    "wasserstein_distance": null,
    "g_loss": null,
    "g_cost": null,
    "d_loss_real": null,
    "d_loss_fake": null
}