{
    "epoch": 146,
    "avg_current_window": 1326.2795518675441,
    "avg_prior_window": 1346.256611934504,
    "inception_score_mean": 1.6446436273301877,
    "inception_score_std": 0.13940469009828643,
    "fid_per_class": {
        "airplane": 1234.123852290441,
        "automobile": 1456.5220391087903,
        "bird": 1357.0858879659568,
        "cat": 1213.8424203465504,
        "deer": 1687.3102565877093,
        "dog": 1286.048384115183,
        "frog": 1687.919418262655,
        "horse": 1533.4024704181925,
        "ship": 1131.8137794259637,
        "truck": 1381.1849875401872
    },
    "fid": 1050.1380149478407,
    "wasserstein_distance": null,
    "g_loss": null,
    "g_cost": null,
    "d_loss_real": null,
    "d_loss_fake": null
}