{
    "epoch": 120,
    "avg_current_window": 1403.2076436218547,
    "avg_prior_window": 1429.43308685223,
    "inception_score_mean": 1.5491780700688735,
    "inception_score_std": 0.10441951370167939,
    "fid_per_class": {
        "airplane": 1139.5216226658827,
        "automobile": 1351.6666209521138,
        "bird": 1438.3839871675223,
        "cat": 1346.0618806821349,
        "deer": 1725.3711818436173,
        "dog": 1373.1392337534662,
        "frog": 1775.2487379494974,
        "horse": 1590.7213332425947,
        "ship": 1064.6041791915954,
        "truck": 1388.6960004269015
    },
    "fid": 1095.7482238612038,
    "wasserstein_distance": null,
    "g_loss": null,
    "g_cost": null,
    "d_loss_real": null,
    "d_loss_fake": null
}