{
    "epoch": 147,
    "avg_current_window": 1324.4010380109476,
    "avg_prior_window": 1342.9383740213434,
    "inception_score_mean": 1.675957775218663,
    "inception_score_std": 0.11394174687505625,
    "fid_per_class": {
        "airplane": 1178.486396086863,
        "automobile": 1296.8050664297775,
        "bird": 1283.890490259553,
        "cat": 1116.427992536715,
        "deer": 1524.5382663326795,
        "dog": 1170.3614710208662,
        "frog": 1468.4365744476054,
        "horse": 1332.495421125775,
        "ship": 1063.0275801160724,
        "truck": 1219.5271605885227
    },
    "fid": 908.2636173253652,
    "wasserstein_distance": null,
    "g_loss": null,
    "g_cost": null,
    "d_loss_real": null,
    "d_loss_fake": null
}