{
    "epoch": 19,
    "avg_current_window": 2505.1721898231904,
    "avg_prior_window": 2685.0674061873247,
    "inception_score_mean": 1.000000243839915,
    "inception_score_std": 1.6023523483409958e-07,
    "fid_per_class": {
        "airplane": 2074.039134134481,
        "automobile": 2554.596633654932,
        "bird": 2523.1252432600613,
        "cat": 2793.782909709942,
        "deer": 2983.0461016626923,
        "dog": 2759.8545161007864,
        "frog": 2997.6049067717595,
        "horse": 2806.5681675644937,
        "ship": 2452.738999550325,
        "truck": 2372.8281077837983
    },
    "fid": 2623.8320804382793,
    "wasserstein_distance": null,
    "g_loss": null,
    "g_cost": null,
    "d_loss_real": null,
    "d_loss_fake": null
}