{
    "epoch": 18,
    "avg_current_window": 2498.5838462714473,
    "avg_prior_window": 2680.9763430572634,
    "inception_score_mean": 1.0000004410459478,
    "inception_score_std": 2.4320768687593015e-07,
    "fid_per_class": {
        "airplane": 2074.268951665861,
        "automobile": 2554.734753720376,
        "bird": 2521.986192889982,
        "cat": 2793.900480471859,
        "deer": 2983.633193235455,
        "dog": 2759.932149848324,
        "frog": 2998.2550512639327,
        "horse": 2806.6614430457807,
        "ship": 2452.906868900237,
        "truck": 2373.0894708000023
    },
    "fid": 2623.7623737545673,
    "wasserstein_distance": null,
    "g_loss": null,
    "g_cost": null,
    "d_loss_real": null,
    "d_loss_fake": null
}