{
    "epoch": 135,
    "avg_current_window": 1358.2741220089426,
    "avg_prior_window": 1382.3398918682667,
    "inception_score_mean": 1.616534996796706,
    "inception_score_std": 0.10573211233435359,
    "fid_per_class": {
        "airplane": 1178.450693048798,
        "automobile": 1337.9415351563641,
        "bird": 1341.2664412442498,
        "cat": 1099.6792826619583,
        "deer": 1491.7919971450406,
        "dog": 1218.8960972893785,
        "frog": 1539.9030316379112,
        "horse": 1419.2944265297692,
        "ship": 1117.2377216018883,
        "truck": 1304.2305184245024
    },
    "fid": 967.5911298378093,
    "wasserstein_distance": null,
    "g_loss": null,
    "g_cost": null,
    "d_loss_real": null,
    "d_loss_fake": null
}