{
    "epoch": 44,
    "avg_current_window": 2099.96186803272,
    "avg_prior_window": 2244.6667425162054,
    "inception_score_mean": 1.4095750880056794,
    "inception_score_std": 0.05260560369932006,
    "fid_per_class": {
        "airplane": 1358.209137476876,
        "automobile": 1466.2059773349652,
        "bird": 1554.0894193607467,
        "cat": 1557.1967236091798,
        "deer": 1742.840833404313,
        "dog": 1568.1911933104657,
        "frog": 1994.472251979891,
        "horse": 1718.4729516349435,
        "ship": 1186.3332667919465,
        "truck": 1350.5171296926621
    },
    "fid": 1275.0710263166875,
    "wasserstein_distance": null,
    "g_loss": null,
    "g_cost": null,
    "d_loss_real": null,
    "d_loss_fake": null
}