{
    "epoch": 100,
    "avg_current_window": 1485.2922735822629,
    "avg_prior_window": 1519.7593396903858,
    "inception_score_mean": 1.5088121412342437,
    "inception_score_std": 0.12764358656640626,
    "fid_per_class": {
        "airplane": 1186.3479279258463,
        "automobile": 1441.4430870146894,
        "bird": 1562.7422276398038,
        "cat": 1411.9971279440886,
        "deer": 1751.2032756127485,
        "dog": 1524.1734664673077,
        "frog": 1820.6792768801997,
        "horse": 1628.9537180157374,
        "ship": 1121.7471363155933,
        "truck": 1409.9829568567236
    },
    "fid": 1173.1171314800174,
    "wasserstein_distance": null,
    "g_loss": null,
    "g_cost": null,
    "d_loss_real": null,
    "d_loss_fake": null
}