{
    "epoch": 70,
    "avg_current_window": 1701.0449849427857,
    "avg_prior_window": 1769.3568828073508,
    "inception_score_mean": 1.4934540518873742,
    "inception_score_std": 0.09519321277178709,
    "fid_per_class": {
        "airplane": 1225.9460642133386,
        "automobile": 1337.3812013404731,
        "bird": 1429.9872361252594,
        "cat": 1218.339868166692,
        "deer": 1586.8041068394705,
        "dog": 1288.515269298315,
        "frog": 1782.0591378808658,
        "horse": 1457.5053256151236,
        "ship": 1049.2897777738644,
        "truck": 1316.1954509529337
    },
    "fid": 1040.253687533874,
    "wasserstein_distance": null,
    "g_loss": null,
    "g_cost": null,
    "d_loss_real": null,
    "d_loss_fake": null
}