{
    "epoch": 187,
    "avg_current_window": 1235.4830014707493,
    "avg_prior_window": 1249.0191611189568,
    "inception_score_mean": 2.352601981598183,
    "inception_score_std": 0.22189301341492923,
    "fid_per_class": {
        "airplane": 1319.296242722391,
        "automobile": 1948.59551919378,
        "bird": 1457.5819090194427,
        "cat": 1452.8381546326873,
        "deer": 1624.5094902266355,
        "dog": 1418.0930382011848,
        "frog": 1681.640777704635,
        "horse": 1667.2695478214066,
        "ship": 1539.1469032579093,
        "truck": 1832.48456048874
    },
    "fid": 1198.3748031719506,
    "wasserstein_distance": null,
    "g_loss": null,
    "g_cost": null,
    "d_loss_real": null,
    "d_loss_fake": null
}