{
    "epoch": 136,
    "avg_current_window": 1355.4014529488609,
    "avg_prior_window": 1378.9725655054433,
    "inception_score_mean": 1.571191937558496,
    "inception_score_std": 0.10748458664624128,
    "fid_per_class": {
        "airplane": 1244.6233010182464,
        "automobile": 1482.3742786081039,
        "bird": 1467.5200601278802,
        "cat": 1342.0350323394337,
        "deer": 1745.9529619235261,
        "dog": 1370.2537526467663,
        "frog": 1801.7781138920886,
        "horse": 1618.1856968231875,
        "ship": 1156.273144087034,
        "truck": 1429.7189260067505
    },
    "fid": 1141.408649146293,
    "wasserstein_distance": null,
    "g_loss": null,
    "g_cost": null,
    "d_loss_real": null,
    "d_loss_fake": null
}