{
    "epoch": 57,
    "avg_current_window": 1861.5815217752713,
    "avg_prior_window": 1967.375429876014,
    "inception_score_mean": 1.5014611917239316,
    "inception_score_std": 0.08064467044668588,
    "fid_per_class": {
        "airplane": 1273.942588559094,
        "automobile": 1415.439457593749,
        "bird": 1275.6719532126767,
        "cat": 1112.0821058871038,
        "deer": 1318.0438821711612,
        "dog": 1156.8923786517978,
        "frog": 1539.8876962307677,
        "horse": 1284.0134358000769,
        "ship": 1127.1656151865313,
        "truck": 1331.9466314526874
    },
    "fid": 934.5860361768548,
    "wasserstein_distance": null,
    "g_loss": null,
    "g_cost": null,
    "d_loss_real": null,
    "d_loss_fake": null
}