{
    "epoch": 177,
    "avg_current_window": 1255.858951467455,
    "avg_prior_window": 1269.7120432350114,
    "inception_score_mean": 1.71740653200475,
    "inception_score_std": 0.0998292359354888,
    "fid_per_class": {
        "airplane": 1030.916882716324,
        "automobile": 1240.4779637872218,
        "bird": 1251.2191965939228,
        "cat": 1071.8923195536547,
        "deer": 1541.0784232273822,
        "dog": 1173.1473339205843,
        "frog": 1602.385879352827,
        "horse": 1373.6181989028828,
        "ship": 947.9613920589891,
        "truck": 1125.720294366535
    },
    "fid": 859.3488638080449,
    "wasserstein_distance": null,
    "g_loss": null,
    "g_cost": null,
    "d_loss_real": null,
    "d_loss_fake": null
}