{
    "epoch": 105,
    "avg_current_window": 1461.877410272225,
    "avg_prior_window": 1497.023444897063,
    "inception_score_mean": 1.6011346686757135,
    "inception_score_std": 0.09909816689770175,
    "fid_per_class": {
        "airplane": 1197.2688759339148,
        "automobile": 1407.969138866637,
        "bird": 1363.4632963413271,
        "cat": 1175.4218915017386,
        "deer": 1516.0489663070707,
        "dog": 1152.3270070798726,
        "frog": 1461.4350278421146,
        "horse": 1465.9944278604403,
        "ship": 1122.7571593844375,
        "truck": 1364.2384226155652
    },
    "fid": 995.9414321915888,
    "wasserstein_distance": null,
    "g_loss": null,
    "g_cost": null,
    "d_loss_real": null,
    "d_loss_fake": null
}