{
    "epoch": 54,
    "avg_current_window": 1913.9695197897702,
    "avg_prior_window": 2026.368803410047,
    "inception_score_mean": 1.5024411395871384,
    "inception_score_std": 0.09802112529029455,
    "fid_per_class": {
        "airplane": 1186.5554771209913,
        "automobile": 1368.5010881604994,
        "bird": 1170.6116834721986,
        "cat": 1174.718799667138,
        "deer": 1198.2786817597068,
        "dog": 1071.2729105861517,
        "frog": 1461.4654294691245,
        "horse": 1248.1916386335042,
        "ship": 1051.9076181763594,
        "truck": 1316.015489581549
    },
    "fid": 875.6833570069891,
    "wasserstein_distance": null,
    "g_loss": null,
    "g_cost": null,
    "d_loss_real": null,
    "d_loss_fake": null
}