{
    "epoch": 24,
    "avg_current_window": 2529.248642864743,
    "avg_prior_window": 2643.268615109416,
    "inception_score_mean": 1.0066313188875986,
    "inception_score_std": 0.008909611577962294,
    "fid_per_class": {
        "airplane": 2271.6089796063843,
        "automobile": 2724.2513871543424,
        "bird": 2511.7272644969617,
        "cat": 2692.139944859533,
        "deer": 3143.679105442902,
        "dog": 2725.8821815214455,
        "frog": 3241.4005423190674,
        "horse": 2943.1951253582242,
        "ship": 2620.151820904467,
        "truck": 2538.0632745058924
    },
    "fid": 2642.073221782005,
    "wasserstein_distance": null,
    "g_loss": null,
    "g_cost": null,
    "d_loss_real": null,
    "d_loss_fake": null
}