{
    "epoch": 9,
    "avg_current_window": 2372.404658686624,
    "avg_prior_window": 2654.917060671695,
    "inception_score_mean": 1.0000000009956804,
    "inception_score_std": 1.7647262977082595e-09,
    "fid_per_class": {
        "airplane": 2289.1910735200836,
        "automobile": 2663.4531003041284,
        "bird": 2669.6283755891754,
        "cat": 2816.205617396072,
        "deer": 3086.468760960883,
        "dog": 2792.8891103124124,
        "frog": 3053.7534950360587,
        "horse": 2875.7692993563105,
        "ship": 2640.0414511370727,
        "truck": 2488.3139055314373
    },
    "fid": 2729.9488606962686,
    "wasserstein_distance": null,
    "g_loss": null,
    "g_cost": null,
    "d_loss_real": null,
    "d_loss_fake": null
}