{
    "epoch": 53,
    "avg_current_window": 1930.255138746278,
    "avg_prior_window": 2049.5476700061986,
    "inception_score_mean": 1.4756188777096508,
    "inception_score_std": 0.09214836317382706,
    "fid_per_class": {
        "airplane": 1233.2979466830293,
        "automobile": 1392.0193994105744,
        "bird": 1400.5340251532086,
        "cat": 1266.0397489040033,
        "deer": 1489.3914500020462,
        "dog": 1346.311987159359,
        "frog": 1734.4917121045182,
        "horse": 1373.4491691961002,
        "ship": 1062.1799475566231,
        "truck": 1377.241406438592
    },
    "fid": 1050.831715094856,
    "wasserstein_distance": null,
    "g_loss": null,
    "g_cost": null,
    "d_loss_real": null,
    "d_loss_fake": null
}