{
    "epoch": 148,
    "avg_current_window": 1321.589298681991,
    "avg_prior_window": 1340.9172377374266,
    "inception_score_mean": 1.5925691344386692,
    "inception_score_std": 0.12754540345482304,
    "fid_per_class": {
        "airplane": 1069.150025344612,
        "automobile": 1366.6801346886032,
        "bird": 1379.4279925400874,
        "cat": 1214.8747065289856,
        "deer": 1577.851821717159,
        "dog": 1348.217406796295,
        "frog": 1676.2355599791088,
        "horse": 1461.1476503313152,
        "ship": 1058.8349830185098,
        "truck": 1338.7293655078677
    },
    "fid": 1002.8131448533004,
    "wasserstein_distance": null,
    "g_loss": null,
    "g_cost": null,
    "d_loss_real": null,
    "d_loss_fake": null
}