{
    "epoch": 55,
    "avg_current_window": 1895.091589557356,
    "avg_prior_window": 2008.6495929335806,
    "inception_score_mean": 1.5473144477112275,
    "inception_score_std": 0.10689139833757706,
    "fid_per_class": {
        "airplane": 1193.6953597511,
        "automobile": 1323.1637546888246,
        "bird": 1169.216526792864,
        "cat": 1089.103195270491,
        "deer": 1294.7062439080164,
        "dog": 1130.460431693972,
        "frog": 1393.396777801086,
        "horse": 1248.4606690685566,
        "ship": 1070.0000132982364,
        "truck": 1344.6936111106943
    },
    "fid": 872.6336171621692,
    "wasserstein_distance": null,
    "g_loss": null,
    "g_cost": null,
    "d_loss_real": null,
    "d_loss_fake": null
}