{
    "epoch": 89,
    "avg_current_window": 1548.25182924263,
    "avg_prior_window": 1593.1127279412938,
    "inception_score_mean": 1.6057003686565274,
    "inception_score_std": 0.08142932897729266,
    "fid_per_class": {
        "airplane": 1148.8494401043686,
        "automobile": 1287.157603283881,
        "bird": 1213.085648047333,
        "cat": 1000.3575943487821,
        "deer": 1283.8797050274852,
        "dog": 1072.3034879624608,
        "frog": 1126.5251872972506,
        "horse": 1300.2051551039513,
        "ship": 1063.9074518459645,
        "truck": 1275.0437985724116
    },
    "fid": 831.46880166995,
    "wasserstein_distance": null,
    "g_loss": null,
    "g_cost": null,
    "d_loss_real": null,
    "d_loss_fake": null
}