{
    "epoch": 98,
    "avg_current_window": 1492.7501637825565,
    "avg_prior_window": 1532.223632136749,
    "inception_score_mean": 1.5623131995612514,
    "inception_score_std": 0.13145821219896323,
    "fid_per_class": {
        "airplane": 1217.8722637675974,
        "automobile": 1352.226406811817,
        "bird": 1400.9080268283356,
        "cat": 1207.625134965709,
        "deer": 1561.482793543319,
        "dog": 1285.5266368237506,
        "frog": 1545.4048134874174,
        "horse": 1556.624025985674,
        "ship": 1153.7579563122745,
        "truck": 1313.824538518016
    },
    "fid": 1038.2425859441707,
    "wasserstein_distance": null,
    "g_loss": null,
    "g_cost": null,
    "d_loss_real": null,
    "d_loss_fake": null
}