{
    "epoch": 149,
    "avg_current_window": 1319.449861407973,
    "avg_prior_window": 1339.1184547934756,
    "inception_score_mean": 1.5581895554770582,
    "inception_score_std": 0.12824412262338425,
    "fid_per_class": {
        "airplane": 1115.771906590179,
        "automobile": 1404.982316865617,
        "bird": 1404.0367590463957,
        "cat": 1232.0782913420317,
        "deer": 1730.3891058819943,
        "dog": 1286.6570869252791,
        "frog": 1794.9195529818894,
        "horse": 1460.5216040125965,
        "ship": 1072.2563242314436,
        "truck": 1348.2342071845064
    },
    "fid": 1039.9293290219823,
    "wasserstein_distance": null,
    "g_loss": null,
    "g_cost": null,
    "d_loss_real": null,
    "d_loss_fake": null
}