{
    "epoch": 34,
    "avg_current_window": 2350.333583374026,
    "avg_prior_window": 2544.5753089391987,
    "inception_score_mean": 1.190239296064772,
    "inception_score_std": 0.026087696441134445,
    "fid_per_class": {
        "airplane": 1511.240117192138,
        "automobile": 1529.7938674573302,
        "bird": 1513.450597634524,
        "cat": 1420.4587840243612,
        "deer": 1447.950445838234,
        "dog": 1628.7567057539682,
        "frog": 1785.2729234055046,
        "horse": 1583.079578694443,
        "ship": 1343.228645442132,
        "truck": 1422.8884446948905
    },
    "fid": 1306.9256440449715,
    "wasserstein_distance": null,
    "g_loss": null,
    "g_cost": null,
    "d_loss_real": null,
    "d_loss_fake": null
}