{
    "epoch": 88,
    "avg_current_window": 1554.0288803299322,
    "avg_prior_window": 1599.8023628806527,
    "inception_score_mean": 1.5256747790217986,
    "inception_score_std": 0.1272756201704966,
    "fid_per_class": {
        "airplane": 1173.1329639465923,
        "automobile": 1310.3871995462973,
        "bird": 1502.8767217247532,
        "cat": 1272.3329082941161,
        "deer": 1595.7704720727218,
        "dog": 1303.5488498536583,
        "frog": 1634.165929154695,
        "horse": 1508.685771299992,
        "ship": 1081.4550452569183,
        "truck": 1276.7094195230738
    },
    "fid": 1039.8713335600312,
    "wasserstein_distance": null,
    "g_loss": null,
    "g_cost": null,
    "d_loss_real": null,
    "d_loss_fake": null
}