{
    "epoch": 143,
    "avg_current_window": 1333.5471965806348,
    "avg_prior_window": 1356.859497053507,
    "inception_score_mean": 1.6046283464437265,
    "inception_score_std": 0.11701293883232566,
    "fid_per_class": {
        "airplane": 1151.4056057734674,
        "automobile": 1294.8358994829669,
        "bird": 1462.3235329895228,
        "cat": 1289.900074577752,
        "deer": 1673.5455713290787,
        "dog": 1391.5960529121292,
        "frog": 1724.279662313513,
        "horse": 1499.0137941442804,
        "ship": 1083.7333125042478,
        "truck": 1309.3368697219344
    },
    "fid": 1053.9158854212128,
    "wasserstein_distance": null,
    "g_loss": null,
    "g_cost": null,
    "d_loss_real": null,
    "d_loss_fake": null
}