{
    "epoch": 106,
    "avg_current_window": 1457.481787837502,
    "avg_prior_window": 1491.8116028416403,
    "inception_score_mean": 1.5266668463701147,
    "inception_score_std": 0.12022540806516493,
    "fid_per_class": {
        "airplane": 1183.3456287707684,
        "automobile": 1432.61063317877,
        "bird": 1440.593740494189,
        "cat": 1279.825192050142,
        "deer": 1598.8154794986967,
        "dog": 1380.6990101261406,
        "frog": 1661.7342410341817,
        "horse": 1544.2915486391378,
        "ship": 1178.235616273524,
        "truck": 1375.126473336859
    },
    "fid": 1083.2986016479636,
    "wasserstein_distance": null,
    "g_loss": null,
    "g_cost": null,
    "d_loss_real": null,
    "d_loss_fake": null
}