{
    "epoch": 161,
    "avg_current_window": 1289.6191849077493,
    "avg_prior_window": 1306.279235181932,
    "inception_score_mean": 1.810557403526941,
    "inception_score_std": 0.1145370192415577,
    "fid_per_class": {
        "airplane": 1231.3336225558312,
        "automobile": 1413.555016689747,
        "bird": 1219.562052937627,
        "cat": 1036.173777194527,
        "deer": 1360.167964042325,
        "dog": 1052.9482910346037,
        "frog": 1343.5314462791953,
        "horse": 1304.7650198332965,
        "ship": 1150.1735438312326,
        "truck": 1315.6306705058632
    },
    "fid": 862.3489936645135,
    "wasserstein_distance": null,
    "g_loss": null,
    "g_cost": null,
    "d_loss_real": null,
    "d_loss_fake": null
}