{
    "epoch": 90,
    "avg_current_window": 1540.2875733807114,
    "avg_prior_window": 1587.1637283686189,
    "inception_score_mean": 1.5584627803651672,
    "inception_score_std": 0.10813437151149255,
    "fid_per_class": {
        "airplane": 1218.956064327801,
        "automobile": 1426.8569405097148,
        "bird": 1459.8754491123934,
        "cat": 1288.9761033275445,
        "deer": 1658.00610798315,
        "dog": 1322.1711765028347,
        "frog": 1679.1646765000332,
        "horse": 1492.5586296930921,
        "ship": 1118.5729384385697,
        "truck": 1353.2004965923038
    },
    "fid": 1073.9057360661577,
    "wasserstein_distance": null,
    "g_loss": null,
    "g_cost": null,
    "d_loss_real": null,
    "d_loss_fake": null
}