{
    "epoch": 94,
    "avg_current_window": 1515.923380731039,
    "avg_prior_window": 1557.5941753288093,
    "inception_score_mean": 1.5769022453270485,
    "inception_score_std": 0.12308565643503773,
    "fid_per_class": {
        "airplane": 1128.1910605149253,
        "automobile": 1277.5738493313795,
        "bird": 1276.9069959439678,
        "cat": 1094.274725450704,
        "deer": 1345.0424426973273,
        "dog": 1239.3679296059454,
        "frog": 1248.9587513027145,
        "horse": 1319.5272890757212,
        "ship": 1087.178681892704,
        "truck": 1263.3788871158977
    },
    "fid": 896.8249161904441,
    "wasserstein_distance": null,
    "g_loss": null,
    "g_cost": null,
    "d_loss_real": null,
    "d_loss_fake": null
}