{
    "epoch": 178,
    "avg_current_window": 1253.6313667053232,
    "avg_prior_window": 1268.374495587631,
    "inception_score_mean": 1.6815963518023231,
    "inception_score_std": 0.10647146817895767,
    "fid_per_class": {
        "airplane": 1088.1715650079198,
        "automobile": 1279.8607299703178,
        "bird": 1276.0627638532496,
        "cat": 1164.2962144568046,
        "deer": 1518.14265036901,
        "dog": 1191.0864076385872,
        "frog": 1532.1279035474145,
        "horse": 1395.1445418508695,
        "ship": 1029.007899416909,
        "truck": 1216.3443135498158
    },
    "fid": 892.6788542663519,
    "wasserstein_distance": null,
    "g_loss": null,
    "g_cost": null,
    "d_loss_real": null,
    "d_loss_fake": null
}