{
    "epoch": 192,
    "avg_current_window": 1250.3462406622368,
    "avg_prior_window": 1241.891422878086,
    "inception_score_mean": 1.3023319698303797,
    "inception_score_std": 0.1291267333610052,
    "fid_per_class": {
        "airplane": 1779.7339476236086,
        "automobile": 2268.4676037862955,
        "bird": 1903.585610497064,
        "cat": 2125.4462883768965,
        "deer": 2511.678950035445,
        "dog": 2107.496411124591,
        "frog": 2611.89920240024,
        "horse": 2305.8366829517818,
        "ship": 2045.5364244204236,
        "truck": 2141.3194617553427
    },
    "fid": 1883.4745049147969,
    "wasserstein_distance": null,
    "g_loss": null,
    "g_cost": null,
    "d_loss_real": null,
    "d_loss_fake": null
}