{
    "epoch": 159,
    "avg_current_window": 1294.1125915074813,
    "avg_prior_window": 1311.9920904253586,
    "inception_score_mean": 1.5928556880725295,
    "inception_score_std": 0.09720860743165913,
    "fid_per_class": {
        "airplane": 1114.5073210959686,
        "automobile": 1353.6079933487931,
        "bird": 1339.710246012497,
        "cat": 1166.8134521288994,
        "deer": 1555.4608525400809,
        "dog": 1269.0076746830832,
        "frog": 1670.1415448817304,
        "horse": 1358.7741472741031,
        "ship": 1075.6892334366746,
        "truck": 1317.0844368038108
    },
    "fid": 976.9428611620588,
    "wasserstein_distance": null,
    "g_loss": null,
    "g_cost": null,
    "d_loss_real": null,
    "d_loss_fake": null
}