{
    "epoch": 111,
    "avg_current_window": 1437.9075437700092,
    "avg_prior_window": 1467.7015859662563,
    "inception_score_mean": 1.5662156641970832,
    "inception_score_std": 0.09311984723288434,
    "fid_per_class": {
        "airplane": 1171.6542659758022,
        "automobile": 1339.8352773345066,
        "bird": 1569.5818824367302,
        "cat": 1289.5328030415744,
        "deer": 1704.8070320680827,
        "dog": 1339.832152851113,
        "frog": 1799.1990373448166,
        "horse": 1587.3536934636666,
        "ship": 1067.5476740841325,
        "truck": 1355.166305598897
    },
    "fid": 1100.1792510003424,
    "wasserstein_distance": null,
    "g_loss": null,
    "g_cost": null,
    "d_loss_real": null,
    "d_loss_fake": null
}