{
    "epoch": 50,
    "avg_current_window": 1985.841427341846,
    "avg_prior_window": 2112.9554411252584,
    "inception_score_mean": 1.5283171997247371,
    "inception_score_std": 0.1555603583223802,
    "fid_per_class": {
        "airplane": 1267.4585012743046,
        "automobile": 1411.8836604475337,
        "bird": 1488.587940748965,
        "cat": 1428.964280056802,
        "deer": 1568.3091740220116,
        "dog": 1469.4363266746825,
        "frog": 1837.7773142093065,
        "horse": 1522.5858920893445,
        "ship": 1086.8836511842642,
        "truck": 1334.874438505925
    },
    "fid": 1140.4082795867241,
    "wasserstein_distance": null,
    "g_loss": null,
    "g_cost": null,
    "d_loss_real": null,
    "d_loss_fake": null
}