{
    "epoch": 130,
    "avg_current_window": 1373.3717583864177,
    "avg_prior_window": 1397.1955480274319,
    "inception_score_mean": 1.6118455838803019,
    "inception_score_std": 0.14274410518569342,
    "fid_per_class": {
        "airplane": 1166.792396958316,
        "automobile": 1432.5267320529404,
        "bird": 1614.1783405592887,
        "cat": 1460.6862902737207,
        "deer": 1732.527748241991,
        "dog": 1527.010428540807,
        "frog": 1855.802012126916,
        "horse": 1577.559298488954,
        "ship": 1120.6003627099835,
        "truck": 1374.277108808208
    },
    "fid": 1165.8573526403745,
    "wasserstein_distance": null,
    "g_loss": null,
    "g_cost": null,
    "d_loss_real": null,
    "d_loss_fake": null
}