{
    "epoch": 97,
    "avg_current_window": 1496.6610501249147,
    "avg_prior_window": 1539.172403760592,
    "inception_score_mean": 1.5111114242145587,
    "inception_score_std": 0.11291594644214388,
    "fid_per_class": {
        "airplane": 1259.030546267384,
        "automobile": 1450.5205144532874,
        "bird": 1405.4907899239438,
        "cat": 1289.046176892709,
        "deer": 1672.8115218737576,
        "dog": 1367.8138308506398,
        "frog": 1715.8700087452244,
        "horse": 1548.5764507506174,
        "ship": 1162.6737761488334,
        "truck": 1402.3265045073708
    },
    "fid": 1113.3941885737836,
    "wasserstein_distance": null,
    "g_loss": null,
    "g_cost": null,
    "d_loss_real": null,
    "d_loss_fake": null
}