{
    "epoch": 171,
    "avg_current_window": 1267.0339425747231,
    "avg_prior_window": 1284.019540040368,
    "inception_score_mean": 1.6780391398095655,
    "inception_score_std": 0.12204433439698775,
    "fid_per_class": {
        "airplane": 1119.2623866553574,
        "automobile": 1301.5513067180602,
        "bird": 1184.353192843905,
        "cat": 1084.8915873288906,
        "deer": 1458.9832992930533,
        "dog": 1175.504666913108,
        "frog": 1699.6927137745424,
        "horse": 1298.1559258039797,
        "ship": 1035.9832726500026,
        "truck": 1248.6730040991238
    },
    "fid": 869.174921363073,
    "wasserstein_distance": null,
    "g_loss": null,
    "g_cost": null,
    "d_loss_real": null,
    "d_loss_fake": null
}