{
    "epoch": 160,
    "avg_current_window": 1292.1302806928225,
    "avg_prior_window": 1309.4893094746044,
    "inception_score_mean": 1.6734850781288568,
    "inception_score_std": 0.18860028425135625,
    "fid_per_class": {
        "airplane": 1041.1274737514582,
        "automobile": 1235.2764188190747,
        "bird": 1290.730697980841,
        "cat": 1118.386536326451,
        "deer": 1460.7396624899538,
        "dog": 1231.209191423072,
        "frog": 1570.055821864486,
        "horse": 1296.0094613094525,
        "ship": 979.9263789656269,
        "truck": 1199.5162114574703
    },
    "fid": 887.8438592960392,
    "wasserstein_distance": null,
    "g_loss": null,
    "g_cost": null,
    "d_loss_real": null,
    "d_loss_fake": null
}