{
    "epoch": 137,
    "avg_current_window": 1353.8394616802289,
    "avg_prior_window": 1374.1748177000238,
    "inception_score_mean": 1.6364014829682234,
    "inception_score_std": 0.12233528354194467,
    "fid_per_class": {
        "airplane": 1170.5909385351463,
        "automobile": 1357.5623105501545,
        "bird": 1374.910271695678,
        "cat": 1226.2266473900481,
        "deer": 1618.726278692904,
        "dog": 1270.4230889120108,
        "frog": 1679.6068169929101,
        "horse": 1452.5847868671362,
        "ship": 1051.6617279375323,
        "truck": 1296.0360089404353
    },
    "fid": 1007.227142502075,
    "wasserstein_distance": null,
    "g_loss": null,
    "g_cost": null,
    "d_loss_real": null,
    "d_loss_fake": null
}