{
    "epoch": 197,
    "avg_current_window": 1257.6236523236573,
    "avg_prior_window": 1260.156003708668,
    "inception_score_mean": 1.4263157944732707,
    "inception_score_std": 0.04366804694551233,
    "fid_per_class": {
        "airplane": 1888.5764182846638,
        "automobile": 1605.1283986479048,
        "bird": 2048.930522444921,
        "cat": 1940.5729900225629,
        "deer": 2243.6198829357263,
        "dog": 2034.6907797703382,
        "frog": 2533.209044109199,
        "horse": 1958.9035585545125,
        "ship": 1714.8382833408205,
        "truck": 1459.1964456176624
    },
    "fid": 1655.1249484123357,
    "wasserstein_distance": null,
    "g_loss": null,
    "g_cost": null,
    "d_loss_real": null,
    "d_loss_fake": null
}