{
    "epoch": 27,
    "avg_current_window": 2480.250042962303,
    "avg_prior_window": 2636.5850241835597,
    "inception_score_mean": 1.000208088836482,
    "inception_score_std": 0.0005216626327077785,
    "fid_per_class": {
        "airplane": 2101.663140814895,
        "automobile": 2428.760220090913,
        "bird": 2521.539151777666,
        "cat": 2630.227722692588,
        "deer": 2868.3024634508247,
        "dog": 2624.829045573922,
        "frog": 2892.7892721585854,
        "horse": 2688.5668077350974,
        "ship": 2438.1425103740994,
        "truck": 2261.842601319244
    },
    "fid": 2526.2067478557933,
    "wasserstein_distance": null,
    "g_loss": null,
    "g_cost": null,
    "d_loss_real": null,
    "d_loss_fake": null
}