{
    "epoch": 25,
    "avg_current_window": 2533.761626021433,
    "avg_prior_window": 2642.301417828973,
    "inception_score_mean": 1.2781962759043815,
    "inception_score_std": 0.12685782790159641,
    "fid_per_class": {
        "airplane": 1546.4865597013043,
        "automobile": 1867.296347026636,
        "bird": 1574.8086704671264,
        "cat": 1510.04913318249,
        "deer": 1739.8495053279066,
        "dog": 1791.5944533040133,
        "frog": 2021.000392901191,
        "horse": 1761.851268917879,
        "ship": 1723.5721739753967,
        "truck": 1741.5457923354863
    },
    "fid": 1403.585075074359,
    "wasserstein_distance": null,
    "g_loss": null,
    "g_cost": null,
    "d_loss_real": null,
    "d_loss_fake": null
}