{
    "epoch": 108,
    "avg_current_window": 1449.10061077052,
    "avg_prior_window": 1479.6389756388915,
    "inception_score_mean": 1.5826415443656583,
    "inception_score_std": 0.1156072897622324,
    "fid_per_class": {
        "airplane": 1165.9285372294719,
        "automobile": 1392.2872352859144,
        "bird": 1427.3108190822109,
        "cat": 1328.9195765736013,
        "deer": 1597.1356967350282,
        "dog": 1275.4446199627118,
        "frog": 1727.630012703585,
        "horse": 1507.2314343530236,
        "ship": 1063.8360932811124,
        "truck": 1368.0153638208099
    },
    "fid": 1059.4106345493815,
    "wasserstein_distance": null,
    "g_loss": null,
    "g_cost": null,
    "d_loss_real": null,
    "d_loss_fake": null
}