{
    "epoch": 45,
    "avg_current_window": 2081.6309604390303,
    "avg_prior_window": 2221.0696055782882,
    "inception_score_mean": 1.4500872468060706,
    "inception_score_std": 0.05168874886171392,
    "fid_per_class": {
        "airplane": 1371.4565907969618,
        "automobile": 1473.496751232626,
        "bird": 1777.4605936736912,
        "cat": 1784.8670068564147,
        "deer": 1985.5717019849144,
        "dog": 1886.6873943418418,
        "frog": 2291.040502134215,
        "horse": 1760.042144707411,
        "ship": 1162.45994017867,
        "truck": 1413.5586617232814
    },
    "fid": 1409.601630880285,
    "wasserstein_distance": null,
    "g_loss": null,
    "g_cost": null,
    "d_loss_real": null,
    "d_loss_fake": null
}