{
    "epoch": 91,
    "avg_current_window": 1535.1624982453868,
    "avg_prior_window": 1578.588146011698,
    "inception_score_mean": 1.6209809702960982,
    "inception_score_std": 0.14112554552224693,
    "fid_per_class": {
        "airplane": 1151.8273102914584,
        "automobile": 1211.689433725014,
        "bird": 1299.006392871073,
        "cat": 1097.4999393571138,
        "deer": 1369.951829454805,
        "dog": 1170.9295847995904,
        "frog": 1286.749606653258,
        "horse": 1318.4253902733385,
        "ship": 1021.2105947943484,
        "truck": 1218.9290401649926
    },
    "fid": 861.4569459048317,
    "wasserstein_distance": null,
    "g_loss": null,
    "g_cost": null,
    "d_loss_real": null,
    "d_loss_fake": null
}