{
    "epoch": 84,
    "avg_current_window": 1580.757096655883,
    "avg_prior_window": 1632.9738093804604,
    "inception_score_mean": 1.5447401272480086,
    "inception_score_std": 0.1217430849796921,
    "fid_per_class": {
        "airplane": 1209.6566405785657,
        "automobile": 1381.8136022617234,
        "bird": 1481.9460228227617,
        "cat": 1172.613771739523,
        "deer": 1587.7026332276582,
        "dog": 1273.157504470178,
        "frog": 1555.5051715589252,
        "horse": 1518.6413616792563,
        "ship": 1111.1640537628284,
        "truck": 1342.6759091243441
    },
    "fid": 1037.8730279745128,
    "wasserstein_distance": null,
    "g_loss": null,
    "g_cost": null,
    "d_loss_real": null,
    "d_loss_fake": null
}