{
    "epoch": 185,
    "avg_current_window": 1238.767440935097,
    "avg_prior_window": 1253.8854627951255,
    "inception_score_mean": 1.6805205627670188,
    "inception_score_std": 0.08998162292374327,
    "fid_per_class": {
        "airplane": 1033.4635983244566,
        "automobile": 1208.7546637660137,
        "bird": 1146.1455704203688,
        "cat": 1006.526743071907,
        "deer": 1221.5992756596013,
        "dog": 1089.5764196080058,
        "frog": 1427.6252394058592,
        "horse": 1196.8539523386441,
        "ship": 949.9152645742131,
        "truck": 1182.362158482575
    },
    "fid": 776.8408924941923,
    "wasserstein_distance": null,
    "g_loss": null,
    "g_cost": null,
    "d_loss_real": null,
    "d_loss_fake": null
}