{
    "epoch": 102,
    "avg_current_window": 1477.1859988922124,
    "avg_prior_window": 1508.1393407287683,
    "inception_score_mean": 1.6117709352832073,
    "inception_score_std": 0.12902064528666274,
    "fid_per_class": {
        "airplane": 1090.293054832899,
        "automobile": 1243.5475925078272,
        "bird": 1274.525763246915,
        "cat": 1093.1527862024614,
        "deer": 1380.3529548269169,
        "dog": 1293.1390917533972,
        "frog": 1369.7387011246533,
        "horse": 1285.7899983137493,
        "ship": 997.0113261204526,
        "truck": 1216.5451750028583
    },
    "fid": 883.2228182508582,
    "wasserstein_distance": null,
    "g_loss": null,
    "g_cost": null,
    "d_loss_real": null,
    "d_loss_fake": null
}