{
    "epoch": 118,
    "avg_current_window": 1408.4691337567492,
    "avg_prior_window": 1437.969191586609,
    "inception_score_mean": 1.5314193830856828,
    "inception_score_std": 0.12586208653941358,
    "fid_per_class": {
        "airplane": 1201.0980329979557,
        "automobile": 1413.7407192902888,
        "bird": 1529.1348294593572,
        "cat": 1385.6404808148889,
        "deer": 1724.621141410997,
        "dog": 1482.8207623710227,
        "frog": 1879.9945964731698,
        "horse": 1584.0895792371953,
        "ship": 1129.110074452942,
        "truck": 1413.3765560192016
    },
    "fid": 1163.7527363415202,
    "wasserstein_distance": null,
    "g_loss": null,
    "g_cost": null,
    "d_loss_real": null,
    "d_loss_fake": null
}