{
    "epoch": 92,
    "avg_current_window": 1527.8396118069024,
    "avg_prior_window": 1571.8912812532649,
    "inception_score_mean": 1.5070661609526823,
    "inception_score_std": 0.10490224655474459,
    "fid_per_class": {
        "airplane": 1109.8421981037923,
        "automobile": 1301.7676538643,
        "bird": 1498.9629793172526,
        "cat": 1322.225451121251,
        "deer": 1621.6174794538467,
        "dog": 1331.900013276786,
        "frog": 1641.7174962069112,
        "horse": 1502.8787405728842,
        "ship": 1083.6160614958517,
        "truck": 1283.0788946969014
    },
    "fid": 1042.6168597394426,
    "wasserstein_distance": null,
    "g_loss": null,
    "g_cost": null,
    "d_loss_real": null,
    "d_loss_fake": null
}