{
    "epoch": 128,
    "avg_current_window": 1380.5916295412521,
    "avg_prior_window": 1402.2767583509083,
    "inception_score_mean": 1.662388432000363,
    "inception_score_std": 0.1533000445667751,
    "fid_per_class": {
        "airplane": 1160.8603637028243,
        "automobile": 1235.3621916496063,
        "bird": 1128.9603494233256,
        "cat": 1011.6604527996343,
        "deer": 1271.1391014056467,
        "dog": 1015.5173700908531,
        "frog": 1198.8958199927602,
        "horse": 1267.4612106084642,
        "ship": 1063.1488528809384,
        "truck": 1300.4759287717911
    },
    "fid": 812.8242524083748,
    "wasserstein_distance": null,
    "g_loss": null,
    "g_cost": null,
    "d_loss_real": null,
    "d_loss_fake": null
}