{
    "epoch": 162,
    "avg_current_window": 1286.981714591433,
    "avg_prior_window": 1304.0313603806494,
    "inception_score_mean": 1.6633763145195974,
    "inception_score_std": 0.13792609346747828,
    "fid_per_class": {
        "airplane": 1041.5787587748514,
        "automobile": 1243.6443535501012,
        "bird": 1268.6834051306548,
        "cat": 1049.1397652867613,
        "deer": 1476.5259622807582,
        "dog": 1196.2421164661582,
        "frog": 1705.9322919121,
        "horse": 1236.1162671428842,
        "ship": 985.9364101355957,
        "truck": 1213.827874888384
    },
    "fid": 881.3847563613019,
    "wasserstein_distance": null,
    "g_loss": null,
    "g_cost": null,
    "d_loss_real": null,
    "d_loss_fake": null
}