{
    "epoch": 69,
    "avg_current_window": 1711.8445131180745,
    "avg_prior_window": 1781.3596681967258,
    "inception_score_mean": 1.5267305818756196,
    "inception_score_std": 0.11533775432909998,
    "fid_per_class": {
        "airplane": 1199.4421888832203,
        "automobile": 1298.9967716513565,
        "bird": 1361.4300698499997,
        "cat": 1138.3717725840734,
        "deer": 1421.01361076613,
        "dog": 1188.4868920819818,
        "frog": 1616.3002262845216,
        "horse": 1351.7752068714667,
        "ship": 1040.3909253259137,
        "truck": 1289.9831690190135
    },
    "fid": 955.8775408478523,
    "wasserstein_distance": null,
    "g_loss": null,
    "g_cost": null,
    "d_loss_real": null,
    "d_loss_fake": null
}