{
    "epoch": 1,
    "avg_current_window": 3.0,
    "avg_prior_window": 8.0,
    "inception_score_mean": 1.000016291362176,
    "inception_score_std": 4.042096812394742e-06,
    "fid_per_class": {
        "airplane": 2225.7147482778278,
        "automobile": 2590.0748258714593,
        "bird": 2606.2750833448235,
        "cat": 2733.866494275646,
        "deer": 2997.846372339872,
        "dog": 2723.3856719760083,
        "frog": 2964.503451913407,
        "horse": 2804.8305723118283,
        "ship": 2564.1681165468517,
        "truck": 2416.9582778572235
    },
    "fid": 2652.9838726737785,
    "wasserstein_distance": null,
    "g_loss": null,
    "g_cost": null,
    "d_loss_real": null,
    "d_loss_fake": null
}