{
    "epoch": 5,
    "avg_current_window": 2123.933648537356,
    "avg_prior_window": 2656.9838726737785,
    "inception_score_mean": 1.0000000373923632,
    "inception_score_std": 2.9700151376714697e-08,
    "fid_per_class": {
        "airplane": 2226.129170187948,
        "automobile": 2588.568084008866,
        "bird": 2605.4064362206386,
        "cat": 2736.293528747791,
        "deer": 2994.5053053745346,
        "dog": 2728.540856672878,
        "frog": 2965.0018016114254,
        "horse": 2803.4779591962597,
        "ship": 2565.175859118065,
        "truck": 2412.507222814243
    },
    "fid": 2654.8488293667738,
    "wasserstein_distance": null,
    "g_loss": null,
    "g_cost": null,
    "d_loss_real": null,
    "d_loss_fake": null
}