{
    "epoch": 62,
    "avg_current_window": 1790.6239939844788,
    "avg_prior_window": 1877.9777680239881,
    "inception_score_mean": 1.4871040000026823,
    "inception_score_std": 0.10651753914611475,
    "fid_per_class": {
        "airplane": 1247.829365781979,
        "automobile": 1374.957273443381,
        "bird": 1378.137787615692,
        "cat": 1209.7874694506409,
        "deer": 1460.106987640568,
        "dog": 1242.959435318926,
        "frog": 1734.3524860511002,
        "horse": 1519.3550371897522,
        "ship": 1159.1793684690615,
        "truck": 1383.7094443387236
    },
    "fid": 1058.6398816196497,
    "wasserstein_distance": null,
    "g_loss": null,
    "g_cost": null,
    "d_loss_real": null,
    "d_loss_fake": null
}