{
    "epoch": 175,
    "avg_current_window": 1258.771897963768,
    "avg_prior_window": 1274.487083413398,
    "inception_score_mean": 1.6415463095910454,
    "inception_score_std": 0.12619003843692378,
    "fid_per_class": {
        "airplane": 1242.883611441437,
        "automobile": 1490.3302073800778,
        "bird": 1465.0650267195113,
        "cat": 1416.0636689980527,
        "deer": 1775.305008469558,
        "dog": 1398.8519825049623,
        "frog": 1980.9647365039036,
        "horse": 1598.9635473511178,
        "ship": 1192.0866428281793,
        "truck": 1360.4149987415813
    },
    "fid": 1162.851702388909,
    "wasserstein_distance": null,
    "g_loss": null,
    "g_cost": null,
    "d_loss_real": null,
    "d_loss_fake": null
}