{
    "epoch": 87,
    "avg_current_window": 1560.4434546782302,
    "avg_prior_window": 1606.4297930091718,
    "inception_score_mean": 1.5811083060372428,
    "inception_score_std": 0.10931683554473451,
    "fid_per_class": {
        "airplane": 1212.599131011425,
        "automobile": 1306.3817258529652,
        "bird": 1429.2473480292351,
        "cat": 1109.930189863227,
        "deer": 1594.0409019087651,
        "dog": 1181.2881029816022,
        "frog": 1568.1655831424555,
        "horse": 1420.0767054140406,
        "ship": 1097.525045828114,
        "truck": 1293.0288309556115
    },
    "fid": 995.9609120280029,
    "wasserstein_distance": null,
    "g_loss": null,
    "g_cost": null,
    "d_loss_real": null,
    "d_loss_fake": null
}