{
    "epoch": 176,
    "avg_current_window": 1258.2268968525473,
    "avg_prior_window": 1272.1168368517,
    "inception_score_mean": 1.7131232428555123,
    "inception_score_std": 0.12250977271306877,
    "fid_per_class": {
        "airplane": 1139.1160476681005,
        "automobile": 1260.4336686442964,
        "bird": 1178.9892844618623,
        "cat": 1007.1126959508133,
        "deer": 1460.340595598562,
        "dog": 1065.9104353742214,
        "frog": 1488.0548230722318,
        "horse": 1303.4272324434867,
        "ship": 1024.945613981266,
        "truck": 1209.1267094251425
    },
    "fid": 839.1005636911957,
    "wasserstein_distance": null,
    "g_loss": null,
    "g_cost": null,
    "d_loss_real": null,
    "d_loss_fake": null
}