{
    "epoch": 140,
    "avg_current_window": 1344.331613981347,
    "avg_prior_window": 1365.4414637114448,
    "inception_score_mean": 1.7462574425159783,
    "inception_score_std": 0.1518678471367845,
    "fid_per_class": {
        "airplane": 1010.6264397656632,
        "automobile": 1218.6483350312603,
        "bird": 1159.0219053132203,
        "cat": 1014.463412148403,
        "deer": 1269.5973180699611,
        "dog": 1094.6277957530133,
        "frog": 1179.9538016726017,
        "horse": 1175.2340966994184,
        "ship": 1058.6683167527135,
        "truck": 1180.4238369519849
    },
    "fid": 762.3357635521796,
    "wasserstein_distance": null,
    "g_loss": null,
    "g_cost": null,
    "d_loss_real": null,
    "d_loss_fake": null
}