{
    "epoch": 79,
    "avg_current_window": 1619.5222522122228,
    "avg_prior_window": 1676.2181276730316,
    "inception_score_mean": 1.4967584175508073,
    "inception_score_std": 0.07828305398105048,
    "fid_per_class": {
        "airplane": 1254.5883870759822,
        "automobile": 1363.0529835934638,
        "bird": 1502.8505071959887,
        "cat": 1191.8176421372746,
        "deer": 1606.4823797558379,
        "dog": 1242.8550095621913,
        "frog": 1751.1507854352078,
        "horse": 1487.8551489226945,
        "ship": 1113.4733344592123,
        "truck": 1329.5086136227712
    },
    "fid": 1062.6730162907563,
    "wasserstein_distance": null,
    "g_loss": null,
    "g_cost": null,
    "d_loss_real": null,
    "d_loss_fake": null
}