{
    "epoch": 12,
    "avg_current_window": 2461.808221432178,
    "avg_prior_window": 2660.3112398437406,
    "inception_score_mean": 1.0000000001875629,
    "inception_score_std": 3.304726481781434e-10,
    "fid_per_class": {
        "airplane": 2289.2470166900216,
        "automobile": 2663.4587805582023,
        "bird": 2669.9220030752745,
        "cat": 2816.2992402513037,
        "deer": 3086.527061002048,
        "dog": 2793.0830304788838,
        "frog": 3053.799670342778,
        "horse": 2875.898951597779,
        "ship": 2640.0637136917585,
        "truck": 2488.345579316063
    },
    "fid": 2730.0628469912426,
    "wasserstein_distance": null,
    "g_loss": null,
    "g_cost": null,
    "d_loss_real": null,
    "d_loss_fake": null
}