{
    "epoch": 48,
    "avg_current_window": 2025.5299010765991,
    "avg_prior_window": 2148.798190545109,
    "inception_score_mean": 1.5581325169072306,
    "inception_score_std": 0.10977176108236995,
    "fid_per_class": {
        "airplane": 1350.9049288375159,
        "automobile": 1411.0559352730556,
        "bird": 1492.2345975836897,
        "cat": 1356.4202337570623,
        "deer": 1614.1986909771886,
        "dog": 1403.384145526789,
        "frog": 1873.7402655667247,
        "horse": 1516.750750699298,
        "ship": 1142.7720167990162,
        "truck": 1353.7990245521837
    },
    "fid": 1152.8529086207886,
    "wasserstein_distance": null,
    "g_loss": null,
    "g_cost": null,
    "d_loss_real": null,
    "d_loss_fake": null
}