{
    "epoch": 132,
    "avg_current_window": 1368.5258036455534,
    "avg_prior_window": 1391.4624297738603,
    "inception_score_mean": 1.8764007480211649,
    "inception_score_std": 0.1510582396461814,
    "fid_per_class": {
        "airplane": 1091.1884672171825,
        "automobile": 1400.064484385493,
        "bird": 1078.547513162965,
        "cat": 965.843568585409,
        "deer": 1104.4314756674835,
        "dog": 973.1074114768478,
        "frog": 1125.3582946945635,
        "horse": 1225.5005504307007,
        "ship": 1094.1202122039617,
        "truck": 1407.3777761758515
    },
    "fid": 745.669855190089,
    "wasserstein_distance": null,
    "g_loss": null,
    "g_cost": null,
    "d_loss_real": null,
    "d_loss_fake": null
}