{
    "epoch": 36,
    "avg_current_window": 2292.267120858869,
    "avg_prior_window": 2489.8794243158027,
    "inception_score_mean": 1.316688043197322,
    "inception_score_std": 0.034405089126219354,
    "fid_per_class": {
        "airplane": 1445.304699582069,
        "automobile": 1454.112566357643,
        "bird": 1601.3884300976154,
        "cat": 1549.3563952025556,
        "deer": 1580.4202096763038,
        "dog": 1758.100831302766,
        "frog": 2044.5247697521265,
        "horse": 1586.5781739329211,
        "ship": 1251.364548049257,
        "truck": 1336.0800327547545
    },
    "fid": 1328.695642964448,
    "wasserstein_distance": null,
    "g_loss": null,
    "g_cost": null,
    "d_loss_real": null,
    "d_loss_fake": null
}