{
    "epoch": 173,
    "avg_current_window": 1262.3726672625548,
    "avg_prior_window": 1280.0392133775701,
    "inception_score_mean": 1.5841034216708612,
    "inception_score_std": 0.06227470235093375,
    "fid_per_class": {
        "airplane": 1153.095158896739,
        "automobile": 1323.8450359077642,
        "bird": 1376.9783239637056,
        "cat": 1246.5028110864657,
        "deer": 1630.0066931762174,
        "dog": 1287.0942293084454,
        "frog": 2007.817883705222,
        "horse": 1521.543038457416,
        "ship": 1050.7315401969424,
        "truck": 1302.2801488109517
    },
    "fid": 1038.3163002381768,
    "wasserstein_distance": null,
    "g_loss": null,
    "g_cost": null,
    "d_loss_real": null,
    "d_loss_fake": null
}