{
    "epoch": 78,
    "avg_current_window": 1628.1320064060021,
    "avg_prior_window": 1685.1049810636125,
    "inception_score_mean": 1.5615081499514372,
    "inception_score_std": 0.09492435711903503,
    "fid_per_class": {
        "airplane": 1177.94002872724,
        "automobile": 1273.6631332413456,
        "bird": 1394.5474885287813,
        "cat": 1156.5021658293504,
        "deer": 1442.1346015062477,
        "dog": 1207.7750445575116,
        "frog": 1454.3576240937784,
        "horse": 1359.0409942041547,
        "ship": 1087.2189552722475,
        "truck": 1315.9830215734569
    },
    "fid": 947.9614250974395,
    "wasserstein_distance": null,
    "g_loss": null,
    "g_cost": null,
    "d_loss_real": null,
    "d_loss_fake": null
}