{
    "epoch": 40,
    "avg_current_window": 2188.5500739533004,
    "avg_prior_window": 2357.7604671691224,
    "inception_score_mean": 1.3688800299234796,
    "inception_score_std": 0.05319383378711873,
    "fid_per_class": {
        "airplane": 1436.914374514462,
        "automobile": 1396.1271515134306,
        "bird": 1821.8260029364706,
        "cat": 1547.0507760647224,
        "deer": 1758.45644568422,
        "dog": 1610.9504206723323,
        "frog": 1911.4235162202108,
        "horse": 1687.563284533758,
        "ship": 1268.5624604795103,
        "truck": 1317.7564441379773
    },
    "fid": 1300.7812649995144,
    "wasserstein_distance": null,
    "g_loss": null,
    "g_cost": null,
    "d_loss_real": null,
    "d_loss_fake": null
}