{
    "epoch": 114,
    "avg_current_window": 1425.35542674813,
    "avg_prior_window": 1454.4804092910429,
    "inception_score_mean": 1.5663103165901826,
    "inception_score_std": 0.09141972577356093,
    "fid_per_class": {
        "airplane": 1178.3997714092384,
        "automobile": 1274.5307382178084,
        "bird": 1321.748545928071,
        "cat": 1117.2433185248824,
        "deer": 1499.7116334871953,
        "dog": 1173.7072094876169,
        "frog": 1495.0015717725037,
        "horse": 1341.366345511257,
        "ship": 1107.4565129542664,
        "truck": 1238.8189426558974
    },
    "fid": 932.8221914854158,
    "wasserstein_distance": null,
    "g_loss": null,
    "g_cost": null,
    "d_loss_real": null,
    "d_loss_fake": null
}