{
    "epoch": 183,
    "avg_current_window": 1242.193919801367,
    "avg_prior_window": 1258.6464164483928,
    "inception_score_mean": 1.7300589670379274,
    "inception_score_std": 0.108003909063867,
    "fid_per_class": {
        "airplane": 1072.5885333612696,
        "automobile": 1261.6847986587418,
        "bird": 1307.2582210305738,
        "cat": 1103.3611512210264,
        "deer": 1578.8308797438558,
        "dog": 1168.8978381839117,
        "frog": 1641.2349370236834,
        "horse": 1411.8209078859488,
        "ship": 978.395748880951,
        "truck": 1257.556553367088
    },
    "fid": 904.5099741542492,
    "wasserstein_distance": null,
    "g_loss": null,
    "g_cost": null,
    "d_loss_real": null,
    "d_loss_fake": null
}