{
    "epoch": 3,
    "avg_current_window": 886.3113481815229,
    "avg_prior_window": 2658.9838726737785,
    "inception_score_mean": 1.000000425510727,
    "inception_score_std": 1.9434534642409094e-07,
    "fid_per_class": {
        "airplane": 2226.4707684077375,
        "automobile": 2589.1435248433636,
        "bird": 2606.603765961232,
        "cat": 2737.288474235912,
        "deer": 2995.977050281509,
        "dog": 2730.0597032410533,
        "frog": 2965.8603498177076,
        "horse": 2804.6079894473637,
        "ship": 2565.483539525979,
        "truck": 2413.6390143081417
    },
    "fid": 2655.631927028697,
    "wasserstein_distance": null,
    "g_loss": null,
    "g_cost": null,
    "d_loss_real": null,
    "d_loss_fake": null
}