{
    "epoch": 174,
    "avg_current_window": 1261.0849869922997,
    "avg_prior_window": 1276.5373402947057,
    "inception_score_mean": 1.6372228089822898,
    "inception_score_std": 0.12189943121473443,
    "fid_per_class": {
        "airplane": 1032.0209286022584,
        "automobile": 1318.553818110633,
        "bird": 1160.1098942142035,
        "cat": 1119.8157893387993,
        "deer": 1538.8445545975007,
        "dog": 1213.9977030056514,
        "frog": 1599.5572257123813,
        "horse": 1306.3451185181618,
        "ship": 951.6987497082421,
        "truck": 1160.9119958791348
    },
    "fid": 856.2944069992843,
    "wasserstein_distance": null,
    "g_loss": null,
    "g_cost": null,
    "d_loss_real": null,
    "d_loss_fake": null
}