{
    "epoch": 2,
    "avg_current_window": 1328.4919363368892,
    "avg_prior_window": 2659.9838726737785,
    "inception_score_mean": 1.000002224509314,
    "inception_score_std": 1.0274990737032142e-06,
    "fid_per_class": {
        "airplane": 2226.4393599312875,
        "automobile": 2589.645283905286,
        "bird": 2606.346689543242,
        "cat": 2737.636252553012,
        "deer": 2997.378431770475,
        "dog": 2730.0277221984034,
        "frog": 2967.079055411509,
        "horse": 2805.8869643001008,
        "ship": 2565.3792263021724,
        "truck": 2414.96912970663
    },
    "fid": 2655.9340445445687,
    "wasserstein_distance": null,
    "g_loss": null,
    "g_cost": null,
    "d_loss_real": null,
    "d_loss_fake": null
}