{
    "epoch": 134,
    "avg_current_window": 1360.011701136345,
    "avg_prior_window": 1384.0180510870875,
    "inception_score_mean": 1.5434304250109863,
    "inception_score_std": 0.12271713597024299,
    "fid_per_class": {
        "airplane": 1197.5149263654878,
        "automobile": 1441.8757681799414,
        "bird": 1495.1000400003045,
        "cat": 1331.8612067147697,
        "deer": 1763.1069360785118,
        "dog": 1427.0472851015913,
        "frog": 1759.2105414561236,
        "horse": 1618.171698071743,
        "ship": 1113.2586934891983,
        "truck": 1386.1308522148124
    },
    "fid": 1125.4385189370023,
    "wasserstein_distance": null,
    "g_loss": null,
    "g_cost": null,
    "d_loss_real": null,
    "d_loss_fake": null
}