{
    "epoch": 80,
    "avg_current_window": 1612.5616367632047,
    "avg_prior_window": 1666.909232013531,
    "inception_score_mean": 1.522482897844526,
    "inception_score_std": 0.07718585363314885,
    "fid_per_class": {
        "airplane": 1254.0362368250267,
        "automobile": 1327.163352324384,
        "bird": 1380.543762311255,
        "cat": 1230.1990871317673,
        "deer": 1525.1146195727863,
        "dog": 1204.7510579903708,
        "frog": 1470.0013807604887,
        "horse": 1394.572134365059,
        "ship": 1105.8356714261188,
        "truck": 1325.2806884335735
    },
    "fid": 987.374186137446,
    "wasserstein_distance": null,
    "g_loss": null,
    "g_cost": null,
    "d_loss_real": null,
    "d_loss_fake": null
}