{
    "epoch": 61,
    "avg_current_window": 1635.4614676803199,
    "avg_prior_window": 1706.8002347802596,
    "inception_score_mean": 1.5479711179833475,
    "inception_score_std": 0.0982642892890049,
    "fid_per_class": {
        "airplane": 1193.3409662609065,
        "automobile": 1299.1946859326163,
        "bird": 1438.1652708165986,
        "cat": 1081.872334500073,
        "deer": 1500.24249670723,
        "dog": 1296.848579494443,
        "frog": 1837.395978290502,
        "horse": 1476.6775776028485,
        "ship": 1101.9708236669048,
        "truck": 1231.7475109218722
    },
    "fid": 1006.6436001613212,
    "wasserstein_distance": null,
    "g_loss": null,
    "g_cost": null,
    "d_loss_real": null,
    "d_loss_fake": null
}