{
    "epoch": 113,
    "avg_current_window": 1303.6048778707525,
    "avg_prior_window": 1332.2987749830174,
    "inception_score_mean": 1.7978025681855077,
    "inception_score_std": 0.09032498425912061,
    "fid_per_class": {
        "airplane": 1068.0191378077193,
        "automobile": 1230.4980441746306,
        "bird": 1302.3684568736012,
        "cat": 1062.5579426930362,
        "deer": 1384.1484252716543,
        "dog": 1125.656634092285,
        "frog": 1722.1075892840158,
        "horse": 1411.6041968421755,
        "ship": 942.4093552590539,
        "truck": 1116.592622707808
    },
    "fid": 874.6919064269787,
    "wasserstein_distance": null,
    "g_loss": null,
    "g_cost": null,
    "d_loss_real": null,
    "d_loss_fake": null
}