{
    "epoch": 107,
    "avg_current_window": 1329.1022213445183,
    "avg_prior_window": 1359.8790045337719,
    "inception_score_mean": 1.8124487882777327,
    "inception_score_std": 0.1232287402877982,
    "fid_per_class": {
        "airplane": 1060.8276822976502,
        "automobile": 1208.984965525381,
        "bird": 1288.9718801298197,
        "cat": 979.850911209697,
        "deer": 1395.97670054083,
        "dog": 1119.360450802024,
        "frog": 1622.4606975268607,
        "horse": 1321.3925991724075,
        "ship": 947.2267278431789,
        "truck": 1132.0942036750255
    },
    "fid": 847.2800626598687,
    "wasserstein_distance": null,
    "g_loss": null,
    "g_cost": null,
    "d_loss_real": null,
    "d_loss_fake": null
}