{
    "epoch": 47,
    "avg_current_window": 1787.2799449796173,
    "avg_prior_window": 1890.3617377296594,
    "inception_score_mean": 1.3057825141726884,
    "inception_score_std": 0.05942595710970962,
    "fid_per_class": {
        "airplane": 1377.7228456930743,
        "automobile": 1466.8306490688683,
        "bird": 1719.526348343733,
        "cat": 1445.282421536099,
        "deer": 1667.671055804208,
        "dog": 1795.9063055212234,
        "frog": 1982.6481242177447,
        "horse": 1636.3545037164288,
        "ship": 1301.3809672268762,
        "truck": 1350.4823704780883
    },
    "fid": 1317.165003165726,
    "wasserstein_distance": null,
    "g_loss": null,
    "g_cost": null,
    "d_loss_real": null,
    "d_loss_fake": null
}