{
    "epoch": 60,
    "avg_current_window": 1645.2214694553538,
    "avg_prior_window": 1717.7196935107963,
    "inception_score_mean": 1.5370644870320762,
    "inception_score_std": 0.07675723460015929,
    "fid_per_class": {
        "airplane": 1213.0362697966464,
        "automobile": 1315.5596470827277,
        "bird": 1450.9935239423544,
        "cat": 1258.518812267901,
        "deer": 1502.80168537808,
        "dog": 1318.8227287749519,
        "frog": 1843.8867209653436,
        "horse": 1499.7598413912658,
        "ship": 1098.8154095707987,
        "truck": 1212.088778418648
    },
    "fid": 1049.861361178298,
    "wasserstein_distance": null,
    "g_loss": null,
    "g_cost": null,
    "d_loss_real": null,
    "d_loss_fake": null
}