{
    "epoch": 81,
    "avg_current_window": 1470.1325425187495,
    "avg_prior_window": 1516.420841503859,
    "inception_score_mean": 1.7309795299929729,
    "inception_score_std": 0.1544923628191532,
    "fid_per_class": {
        "airplane": 1102.4158721309598,
        "automobile": 1240.1427475065127,
        "bird": 1404.4229941980204,
        "cat": 1083.2426502025376,
        "deer": 1437.1452690227966,
        "dog": 1137.9024545834245,
        "frog": 1636.6772606622292,
        "horse": 1482.9941161792747,
        "ship": 940.8754065147438,
        "truck": 1182.1746358366122
    },
    "fid": 911.1825832539344,
    "wasserstein_distance": null,
    "g_loss": null,
    "g_cost": null,
    "d_loss_real": null,
    "d_loss_fake": null
}