{
    "epoch": 94,
    "avg_current_window": 1391.2803462217585,
    "avg_prior_window": 1429.560115047906,
    "inception_score_mean": 1.7702000107577631,
    "inception_score_std": 0.16642529643061174,
    "fid_per_class": {
        "airplane": 1129.6589440305174,
        "automobile": 1230.3304046655135,
        "bird": 1304.987233096274,
        "cat": 1021.27878159553,
        "deer": 1452.018814298256,
        "dog": 1178.1239741284412,
        "frog": 1618.674404693385,
        "horse": 1314.4422184226344,
        "ship": 1027.1693951689479,
        "truck": 1192.5938310000035
    },
    "fid": 897.3838605673449,
    "wasserstein_distance": null,
    "g_loss": null,
    "g_cost": null,
    "d_loss_real": null,
    "d_loss_fake": null
}