{
    "epoch": 15,
    "avg_current_window": 2105.6620706738227,
    "avg_prior_window": 2250.536282842999,
    "inception_score_mean": 1.0304246758904019,
    "inception_score_std": 0.015938311319836283,
    "fid_per_class": {
        "airplane": 2020.8428253160994,
        "automobile": 2321.2293594536914,
        "bird": 2367.7183993379276,
        "cat": 2541.4652503381058,
        "deer": 2385.7083711191044,
        "dog": 2804.1074987332404,
        "frog": 2784.4645788766493,
        "horse": 2457.7686606037173,
        "ship": 2184.8067224810297,
        "truck": 2303.3850854326956
    },
    "fid": 2272.4169752502744,
    "wasserstein_distance": null,
    "g_loss": null,
    "g_cost": null,
    "d_loss_real": null,
    "d_loss_fake": null
}