{
    "epoch": 34,
    "avg_current_window": 2033.9271784116374,
    "avg_prior_window": 2191.528242534372,
    "inception_score_mean": 1.2134831176247753,
    "inception_score_std": 0.029150049241327164,
    "fid_per_class": {
        "airplane": 1454.213755154618,
        "automobile": 1542.3964958797542,
        "bird": 1212.2359265592993,
        "cat": 1203.4061257637748,
        "deer": 1305.7139243439638,
        "dog": 1502.2228358367888,
        "frog": 1652.5498241237108,
        "horse": 1522.55322135864,
        "ship": 1236.4972454812712,
        "truck": 1380.4573353506357
    },
    "fid": 1083.4356666098324,
    "wasserstein_distance": null,
    "g_loss": null,
    "g_cost": null,
    "d_loss_real": null,
    "d_loss_fake": null
}