{
    "epoch": 104,
    "avg_current_window": 1341.950621747768,
    "avg_prior_window": 1375.2716502707399,
    "inception_score_mean": 1.7520463527964742,
    "inception_score_std": 0.13199721200057735,
    "fid_per_class": {
        "airplane": 1091.8200822979575,
        "automobile": 1259.6248415346545,
        "bird": 1408.8432288986364,
        "cat": 967.8429593735725,
        "deer": 1512.2943913021772,
        "dog": 1085.5831120111195,
        "frog": 1740.1512920657487,
        "horse": 1417.0021433770685,
        "ship": 992.5814831375033,
        "truck": 1127.4725294623208
    },
    "fid": 893.502293973163,
    "wasserstein_distance": null,
    "g_loss": null,
    "g_cost": null,
    "d_loss_real": null,
    "d_loss_fake": null
}