{
    "epoch": 65,
    "avg_current_window": 1598.0614717581684,
    "avg_prior_window": 1662.7191588083253,
    "inception_score_mean": 1.6124058593463626,
    "inception_score_std": 0.08423389292664521,
    "fid_per_class": {
        "airplane": 1165.2206307364859,
        "automobile": 1249.755922265226,
        "bird": 1535.1630932650578,
        "cat": 1130.9908244113453,
        "deer": 1565.1433794407872,
        "dog": 1316.2661635469065,
        "frog": 1930.5100113634144,
        "horse": 1494.3982696195635,
        "ship": 1056.42997996845,
        "truck": 1168.8517329618398
    },
    "fid": 1019.858172778775,
    "wasserstein_distance": null,
    "g_loss": null,
    "g_cost": null,
    "d_loss_real": null,
    "d_loss_fake": null
}