{
    "epoch": 21,
    "avg_current_window": 2153.841277679658,
    "avg_prior_window": 2255.935883977021,
    "inception_score_mean": 1.0395906379394815,
    "inception_score_std": 0.00933029725394349,
    "fid_per_class": {
        "airplane": 1850.8894997016127,
        "automobile": 2028.549560236757,
        "bird": 2567.346772260556,
        "cat": 2317.1589268770786,
        "deer": 2749.7631793956057,
        "dog": 2256.887467830942,
        "frog": 2657.2307455617174,
        "horse": 2067.940074645847,
        "ship": 1856.3632069695025,
        "truck": 1888.6684938202907
    },
    "fid": 2024.0195013622715,
    "wasserstein_distance": null,
    "g_loss": null,
    "g_cost": null,
    "d_loss_real": null,
    "d_loss_fake": null
}