{
    "epoch": 169,
    "avg_current_window": 1143.1428071430316,
    "avg_prior_window": 1158.2712355762058,
    "inception_score_mean": 1.8832892616598733,
    "inception_score_std": 0.19417780920309813,
    "fid_per_class": {
        "airplane": 963.4736205167419,
        "automobile": 1167.7959880599117,
        "bird": 1340.1456087007741,
        "cat": 967.1881938267586,
        "deer": 1354.4986683357001,
        "dog": 1050.9171931103342,
        "frog": 1514.1341010016902,
        "horse": 1203.5008790292254,
        "ship": 938.31194728729,
        "truck": 1118.5351894610885
    },
    "fid": 779.8037331064531,
    "wasserstein_distance": null,
    "g_loss": null,
    "g_cost": null,
    "d_loss_real": null,
    "d_loss_fake": null
}