{
    "epoch": 162,
    "avg_current_window": 1158.0038325418057,
    "avg_prior_window": 1173.8343693602558,
    "inception_score_mean": 1.9025683860079472,
    "inception_score_std": 0.16301070960398906,
    "fid_per_class": {
        "airplane": 977.5680903427606,
        "automobile": 1151.55735051991,
        "bird": 1337.8944264663214,
        "cat": 995.2577499302281,
        "deer": 1448.863121503301,
        "dog": 942.011483210272,
        "frog": 1468.7178228969058,
        "horse": 1212.7270004149627,
        "ship": 950.7800783479403,
        "truck": 1101.0562271927326
    },
    "fid": 758.8066729278348,
    "wasserstein_distance": null,
    "g_loss": null,
    "g_cost": null,
    "d_loss_real": null,
    "d_loss_fake": null
}