{
    "epoch": 112,
    "avg_current_window": 1307.8189589566828,
    "avg_prior_window": 1337.0207266030218,
    "inception_score_mean": 1.7608878231128702,
    "inception_score_std": 0.13442213474541712,
    "fid_per_class": {
        "airplane": 1022.7747985115797,
        "automobile": 1160.1779276500447,
        "bird": 1301.3386902507036,
        "cat": 1010.0971359721071,
        "deer": 1374.7327241326575,
        "dog": 1119.6713495207005,
        "frog": 1642.3168776126704,
        "horse": 1301.9869013026394,
        "ship": 922.6287805629038,
        "truck": 1142.531076053116
    },
    "fid": 831.6277962465601,
    "wasserstein_distance": null,
    "g_loss": null,
    "g_cost": null,
    "d_loss_real": null,
    "d_loss_fake": null
}