{
    "epoch": 156,
    "avg_current_window": 1170.8008790467209,
    "avg_prior_window": 1188.5384399674033,
    "inception_score_mean": 1.8556180363590264,
    "inception_score_std": 0.17024038520948562,
    "fid_per_class": {
        "airplane": 1059.895629209841,
        "automobile": 1198.2946117314386,
        "bird": 1369.8620732226473,
        "cat": 954.4500057800951,
        "deer": 1414.6698685723331,
        "dog": 1028.3071330139176,
        "frog": 1579.1191623669229,
        "horse": 1234.2307251948305,
        "ship": 982.755434476067,
        "truck": 1176.8869469791523
    },
    "fid": 808.7520027026051,
    "wasserstein_distance": null,
    "g_loss": null,
    "g_cost": null,
    "d_loss_real": null,
    "d_loss_fake": null
}