{
    "epoch": 145,
    "avg_current_window": 1198.4627491950052,
    "avg_prior_window": 1219.0516255193593,
    "inception_score_mean": 1.8519148582919702,
    "inception_score_std": 0.12795799583145087,
    "fid_per_class": {
        "airplane": 957.2859842637677,
        "automobile": 1138.002787478353,
        "bird": 1324.8174294170144,
        "cat": 942.1227333874289,
        "deer": 1393.5068106596784,
        "dog": 1004.578847886841,
        "frog": 1563.5467730016987,
        "horse": 1267.5926046329005,
        "ship": 943.4737528790283,
        "truck": 1143.0331686919385
    },
    "fid": 778.011625641969,
    "wasserstein_distance": null,
    "g_loss": null,
    "g_cost": null,
    "d_loss_real": null,
    "d_loss_fake": null
}