{
    "epoch": 49,
    "avg_current_window": 1765.0263288774509,
    "avg_prior_window": 1856.6393840095852,
    "inception_score_mean": 1.387342701416238,
    "inception_score_std": 0.05380465170892933,
    "fid_per_class": {
        "airplane": 1404.5978184099104,
        "automobile": 1401.2765686557864,
        "bird": 1548.4354940449446,
        "cat": 1362.7956849433751,
        "deer": 1610.1715799369822,
        "dog": 1446.1368612222227,
        "frog": 1907.1873665566702,
        "horse": 1556.2354809902513,
        "ship": 1334.746370095092,
        "truck": 1222.2574181930884
    },
    "fid": 1184.9174158230664,
    "wasserstein_distance": null,
    "g_loss": null,
    "g_cost": null,
    "d_loss_real": null,
    "d_loss_fake": null
}