{
    "epoch": 126,
    "avg_current_window": 1257.033376166848,
    "avg_prior_window": 1281.2257250019495,
    "inception_score_mean": 1.8295898131432113,
    "inception_score_std": 0.10807185560561972,
    "fid_per_class": {
        "airplane": 1059.2581067494666,
        "automobile": 1093.4422890660499,
        "bird": 1329.365188848491,
        "cat": 890.9718539650028,
        "deer": 1336.1784782828167,
        "dog": 1017.2162608466763,
        "frog": 1544.013540081708,
        "horse": 1357.4902998873736,
        "ship": 966.5426082146321,
        "truck": 1016.6436891841993
    },
    "fid": 780.7862245619353,
    "wasserstein_distance": null,
    "g_loss": null,
    "g_cost": null,
    "d_loss_real": null,
    "d_loss_fake": null
}