{
    "epoch": 125,
    "avg_current_window": 1260.4417903873914,
    "avg_prior_window": 1284.771291374164,
    "inception_score_mean": 1.7718011361348407,
    "inception_score_std": 0.13194716497502157,
    "fid_per_class": {
        "airplane": 982.4622456337197,
        "automobile": 1165.883743909399,
        "bird": 1369.0252347042833,
        "cat": 943.3342035302081,
        "deer": 1388.052895961295,
        "dog": 1080.6605384559984,
        "frog": 1668.936436558573,
        "horse": 1361.4379629218586,
        "ship": 984.6280078065064,
        "truck": 1086.9827675577762
    },
    "fid": 830.9815985989304,
    "wasserstein_distance": null,
    "g_loss": null,
    "g_cost": null,
    "d_loss_real": null,
    "d_loss_fake": null
}