{
    "epoch": 42,
    "avg_current_window": 1861.1035342308683,
    "avg_prior_window": 1988.2371994556613,
    "inception_score_mean": 1.3627842849427751,
    "inception_score_std": 0.05839096545432297,
    "fid_per_class": {
        "airplane": 1275.183760231357,
        "automobile": 1416.086220362303,
        "bird": 1647.142362601246,
        "cat": 1362.6680114112044,
        "deer": 1591.87609295549,
        "dog": 1477.7867438251133,
        "frog": 1985.4281216118966,
        "horse": 1584.4018818926015,
        "ship": 1322.1980781844043,
        "truck": 1373.2895651537958
    },
    "fid": 1228.8445469492344,
    "wasserstein_distance": null,
    "g_loss": null,
    "g_cost": null,
    "d_loss_real": null,
    "d_loss_fake": null
}