{
    "epoch": 33,
    "avg_current_window": 2059.903458244189,
    "avg_prior_window": 2207.8443449173205,
    "inception_score_mean": 1.2588499104783455,
    "inception_score_std": 0.07722960081615389,
    "fid_per_class": {
        "airplane": 1397.7339524711176,
        "automobile": 1553.234862159238,
        "bird": 1343.8157213305944,
        "cat": 1212.9922571938541,
        "deer": 1469.448846548984,
        "dog": 1403.5246666656312,
        "frog": 1930.7308594334036,
        "horse": 1689.3471748054849,
        "ship": 1440.54705063593,
        "truck": 1361.3118444486531
    },
    "fid": 1176.7099439374367,
    "wasserstein_distance": null,
    "g_loss": null,
    "g_cost": null,
    "d_loss_real": null,
    "d_loss_fake": null
}