{
    "epoch": 88,
    "avg_current_window": 1425.1620412234126,
    "avg_prior_window": 1467.2898659833684,
    "inception_score_mean": 1.6417627491317126,
    "inception_score_std": 0.12555717705060102,
    "fid_per_class": {
        "airplane": 1115.1899963872936,
        "automobile": 1262.9399959663667,
        "bird": 1369.8878748659379,
        "cat": 965.8018946957118,
        "deer": 1394.1099633291583,
        "dog": 1080.5930454431127,
        "frog": 1639.0497396227133,
        "horse": 1437.1222200017157,
        "ship": 1044.5634050515541,
        "truck": 1242.9543777835672
    },
    "fid": 890.4614751018997,
    "wasserstein_distance": null,
    "g_loss": null,
    "g_cost": null,
    "d_loss_real": null,
    "d_loss_fake": null
}