{
    "epoch": 46,
    "avg_current_window": 1799.2691586381611,
    "avg_prior_window": 1906.4963033584504,
    "inception_score_mean": 1.3119657424505948,
    "inception_score_std": 0.05856970749821994,
    "fid_per_class": {
        "airplane": 1337.8836751826498,
        "automobile": 1432.2162431705733,
        "bird": 1567.4418616135126,
        "cat": 1387.4104620348198,
        "deer": 1598.6504786753649,
        "dog": 1576.5835889026569,
        "frog": 1811.5880456321472,
        "horse": 1565.2024077068927,
        "ship": 1290.5684878785391,
        "truck": 1296.9540794939971
    },
    "fid": 1235.7761166865907,
    "wasserstein_distance": null,
    "g_loss": null,
    "g_cost": null,
    "d_loss_real": null,
    "d_loss_fake": null
}