{
    "epoch": 1,
    "avg_current_window": 3.0,
    "avg_prior_window": 8.0,
    "inception_score_mean": 1.0000017968884944,
    "inception_score_std": 3.9648799908500486e-07,
    "fid_per_class": {
        "airplane": 2201.0284772190585,
        "automobile": 2364.2773792701105,
        "bird": 2568.5089869077456,
        "cat": 2547.756199908572,
        "deer": 2809.3333245910057,
        "dog": 2667.7093431247004,
        "frog": 2911.0211473193976,
        "horse": 2650.1997329609158,
        "ship": 2432.281216707521,
        "truck": 2294.100991944022
    },
    "fid": 2536.576653875254,
    "wasserstein_distance": null,
    "g_loss": null,
    "g_cost": null,
    "d_loss_real": null,
    "d_loss_fake": null
}