{
    "epoch": 40,
    "avg_current_window": 1893.0628225032574,
    "avg_prior_window": 2038.1296916292956,
    "inception_score_mean": 1.4168602999205793,
    "inception_score_std": 0.07118085102837582,
    "fid_per_class": {
        "airplane": 1363.1687612899036,
        "automobile": 1499.8082288338246,
        "bird": 1554.8944153115895,
        "cat": 1360.7798178407947,
        "deer": 1582.8409058565396,
        "dog": 1775.452875752773,
        "frog": 1972.5383045401659,
        "horse": 1590.443923404174,
        "ship": 1262.155095510328,
        "truck": 1355.3134168301074
    },
    "fid": 1234.8525346330432,
    "wasserstein_distance": null,
    "g_loss": null,
    "g_cost": null,
    "d_loss_real": null,
    "d_loss_fake": null
}