{
    "epoch": 119,
    "avg_current_window": 1281.491588633381,
    "avg_prior_window": 1307.105869548682,
    "inception_score_mean": 1.759605771508599,
    "inception_score_std": 0.1032658079212709,
    "fid_per_class": {
        "airplane": 1065.6551136372784,
        "automobile": 1166.8868575320241,
        "bird": 1314.1860272911576,
        "cat": 970.9024157257962,
        "deer": 1356.814657058956,
        "dog": 1055.18181272915,
        "frog": 1640.6525664052474,
        "horse": 1314.9547460144981,
        "ship": 924.2428622577138,
        "truck": 1123.352885040965
    },
    "fid": 814.421111884428,
    "wasserstein_distance": null,
    "g_loss": null,
    "g_cost": null,
    "d_loss_real": null,
    "d_loss_fake": null
}