{
    "epoch": 20,
    "avg_current_window": 2144.966123160632,
    "avg_prior_window": 2257.1565356905076,
    "inception_score_mean": 1.0076507605569973,
    "inception_score_std": 0.008303030708335657,
    "fid_per_class": {
        "airplane": 2149.4773271560043,
        "automobile": 2387.412271573066,
        "bird": 2504.001190882638,
        "cat": 2336.0587880871053,
        "deer": 2887.522304925012,
        "dog": 2337.3590711541083,
        "frog": 3010.820620965952,
        "horse": 2521.342888706954,
        "ship": 2419.6288349873075,
        "truck": 2247.165525506218
    },
    "fid": 2331.3443680601818,
    "wasserstein_distance": null,
    "g_loss": null,
    "g_cost": null,
    "d_loss_real": null,
    "d_loss_fake": null
}