{
    "epoch": 67,
    "avg_current_window": 1579.658003348065,
    "avg_prior_window": 1641.504251247627,
    "inception_score_mean": 1.620686742038594,
    "inception_score_std": 0.10906501313841033,
    "fid_per_class": {
        "airplane": 1157.2128728482448,
        "automobile": 1296.8450203448933,
        "bird": 1445.2893866576703,
        "cat": 1110.752114028991,
        "deer": 1441.4321987905344,
        "dog": 1162.1158390572555,
        "frog": 1770.9230189413806,
        "horse": 1467.8307856926394,
        "ship": 1069.743359026781,
        "truck": 1202.2129397278206
    },
    "fid": 992.0418562154051,
    "wasserstein_distance": null,
    "g_loss": null,
    "g_cost": null,
    "d_loss_real": null,
    "d_loss_fake": null
}