{
    "epoch": 197,
    "avg_current_window": 1094.3627047850964,
    "avg_prior_window": 1106.4291882466994,
    "inception_score_mean": 1.9171432604410754,
    "inception_score_std": 0.1561236724794547,
    "fid_per_class": {
        "airplane": 983.8918319738659,
        "automobile": 1177.7825547949856,
        "bird": 1269.437847241202,
        "cat": 911.5740120528002,
        "deer": 1311.720560095492,
        "dog": 1010.5717927579074,
        "frog": 1419.8611047770814,
        "horse": 1270.6355689987317,
        "ship": 971.9212443908723,
        "truck": 1155.5172241451023
    },
    "fid": 771.2435426492709,
    "wasserstein_distance": null,
    "g_loss": null,
    "g_cost": null,
    "d_loss_real": null,
    "d_loss_fake": null
}