{
    "epoch": 27,
    "avg_current_window": 2141.3269850456963,
    "avg_prior_window": 2242.8099555512463,
    "inception_score_mean": 1.117257192038675,
    "inception_score_std": 0.09603566577474894,
    "fid_per_class": {
        "airplane": 2229.569741095157,
        "automobile": 2109.243845963509,
        "bird": 2441.420646087674,
        "cat": 2467.6196347596297,
        "deer": 2562.7567314210273,
        "dog": 2519.258424980826,
        "frog": 2715.4832255711144,
        "horse": 2229.542918552627,
        "ship": 2202.9376688707307,
        "truck": 2105.482806612808
    },
    "fid": 2112.4671362774084,
    "wasserstein_distance": null,
    "g_loss": null,
    "g_cost": null,
    "d_loss_real": null,
    "d_loss_fake": null
}