{
    "epoch": 174,
    "avg_current_window": 1133.217904355134,
    "avg_prior_window": 1147.7570304158507,
    "inception_score_mean": 1.835050528379756,
    "inception_score_std": 0.14603527639666122,
    "fid_per_class": {
        "airplane": 996.2028308568946,
        "automobile": 1173.4279741360774,
        "bird": 1253.844837307338,
        "cat": 952.0502221808898,
        "deer": 1401.1247048949572,
        "dog": 1022.9159985531946,
        "frog": 1534.7152756098328,
        "horse": 1294.3746288042967,
        "ship": 966.3189203923988,
        "truck": 1106.2311478795784
    },
    "fid": 789.8339626635004,
    "wasserstein_distance": null,
    "g_loss": null,
    "g_cost": null,
    "d_loss_real": null,
    "d_loss_fake": null
}