{
    "epoch": 155,
    "avg_current_window": 1173.5441522434462,
    "avg_prior_window": 1191.499911648718,
    "inception_score_mean": 1.96157357816061,
    "inception_score_std": 0.138483915915495,
    "fid_per_class": {
        "airplane": 985.4007207844174,
        "automobile": 1104.953611382541,
        "bird": 1260.9715032111694,
        "cat": 936.8634055041891,
        "deer": 1361.7042373952877,
        "dog": 938.1474528424687,
        "frog": 1420.7565294481942,
        "horse": 1210.575215880876,
        "ship": 958.0334683902104,
        "truck": 1090.6348527541406
    },
    "fid": 745.593533554279,
    "wasserstein_distance": null,
    "g_loss": null,
    "g_cost": null,
    "d_loss_real": null,
    "d_loss_fake": null
}