{
    "epoch": 109,
    "avg_current_window": 1320.0758504418886,
    "avg_prior_window": 1350.5419899590486,
    "inception_score_mean": 1.735788220368013,
    "inception_score_std": 0.11373604829362484,
    "fid_per_class": {
        "airplane": 1069.4837901905348,
        "automobile": 1186.4324447708289,
        "bird": 1311.6495962943234,
        "cat": 994.8451394386598,
        "deer": 1353.7713296853017,
        "dog": 1107.4952614892588,
        "frog": 1661.3951542883142,
        "horse": 1300.3164265216624,
        "ship": 995.6697196610501,
        "truck": 1121.8200834821196
    },
    "fid": 860.5643859564686,
    "wasserstein_distance": null,
    "g_loss": null,
    "g_cost": null,
    "d_loss_real": null,
    "d_loss_fake": null
}