{
    "epoch": 18,
    "avg_current_window": 2129.4860544062767,
    "avg_prior_window": 2254.0396890729926,
    "inception_score_mean": 1.0940759229238224,
    "inception_score_std": 0.023044516615477382,
    "fid_per_class": {
        "airplane": 2221.778385942749,
        "automobile": 2288.154862038521,
        "bird": 2567.0704663074757,
        "cat": 2214.268032916509,
        "deer": 2623.910002376546,
        "dog": 2504.605833362307,
        "frog": 2685.711911713588,
        "horse": 2359.8609125579205,
        "ship": 2081.071378060572,
        "truck": 2374.3888649830415
    },
    "fid": 2139.8411575041628,
    "wasserstein_distance": null,
    "g_loss": null,
    "g_cost": null,
    "d_loss_real": null,
    "d_loss_fake": null
}