{
    "epoch": 39,
    "avg_current_window": 1913.256004565929,
    "avg_prior_window": 2065.792933311927,
    "inception_score_mean": 1.2309254047012588,
    "inception_score_std": 0.044556513080278276,
    "fid_per_class": {
        "airplane": 1406.0471568772518,
        "automobile": 1384.9645594268095,
        "bird": 1381.5149863046772,
        "cat": 1244.1542003313161,
        "deer": 1356.673553511598,
        "dog": 1422.6748821330016,
        "frog": 1644.7669342197864,
        "horse": 1458.946613964561,
        "ship": 1306.7885903684128,
        "truck": 1333.9105532468059
    },
    "fid": 1105.5287220590724,
    "wasserstein_distance": null,
    "g_loss": null,
    "g_cost": null,
    "d_loss_real": null,
    "d_loss_fake": null
}