{
    "epoch": 97,
    "avg_current_window": 1375.9251232904264,
    "avg_prior_window": 1411.8010258306213,
    "inception_score_mean": 1.770182752095791,
    "inception_score_std": 0.07945425983783613,
    "fid_per_class": {
        "airplane": 1144.9154893344316,
        "automobile": 1211.4149465773014,
        "bird": 1348.6689020050976,
        "cat": 940.1082157630839,
        "deer": 1350.0090878346507,
        "dog": 1047.2230338850636,
        "frog": 1594.0113321937351,
        "horse": 1266.4207854862443,
        "ship": 1038.0751006683006,
        "truck": 1208.885271742673
    },
    "fid": 850.0612797825523,
    "wasserstein_distance": null,
    "g_loss": null,
    "g_cost": null,
    "d_loss_real": null,
    "d_loss_fake": null
}