{
    "epoch": 182,
    "avg_current_window": 1118.2671633708899,
    "avg_prior_window": 1132.0777672653253,
    "inception_score_mean": 1.889915144870279,
    "inception_score_std": 0.13622073194179452,
    "fid_per_class": {
        "airplane": 968.5348976075747,
        "automobile": 1165.4856690314236,
        "bird": 1371.9897985945472,
        "cat": 989.5016197955549,
        "deer": 1497.7364499261826,
        "dog": 1106.2421286367762,
        "frog": 1521.4230591294393,
        "horse": 1362.416478953894,
        "ship": 954.6009407622103,
        "truck": 1082.1948303027955
    },
    "fid": 828.5353007583999,
    "wasserstein_distance": null,
    "g_loss": null,
    "g_cost": null,
    "d_loss_real": null,
    "d_loss_fake": null
}