{
    "epoch": 130,
    "avg_current_window": 1242.9953829882304,
    "avg_prior_window": 1267.0896431761828,
    "inception_score_mean": 1.7861323834408604,
    "inception_score_std": 0.13550274130191053,
    "fid_per_class": {
        "airplane": 1003.2014189558143,
        "automobile": 1172.753662103669,
        "bird": 1340.6172880891936,
        "cat": 960.2307699540507,
        "deer": 1390.9115118998382,
        "dog": 1026.0109582485804,
        "frog": 1639.1127443053858,
        "horse": 1355.3883523456661,
        "ship": 984.5210176007788,
        "truck": 1102.7312976380322
    },
    "fid": 835.9904945160806,
    "wasserstein_distance": null,
    "g_loss": null,
    "g_cost": null,
    "d_loss_real": null,
    "d_loss_fake": null
}