{
    "epoch": 13,
    "avg_current_window": 2079.1989758065665,
    "avg_prior_window": 2261.8297647747067,
    "inception_score_mean": 1.0516020471494723,
    "inception_score_std": 0.03714415612032539,
    "fid_per_class": {
        "airplane": 2047.0204442291042,
        "automobile": 2365.080927612088,
        "bird": 2372.3165710822136,
        "cat": 2569.3713356589487,
        "deer": 2467.231626528327,
        "dog": 2639.270627422331,
        "frog": 2687.981382018659,
        "horse": 2465.404919014851,
        "ship": 2275.44443228623,
        "truck": 2374.2116190767115
    },
    "fid": 2272.9292724635366,
    "wasserstein_distance": null,
    "g_loss": null,
    "g_cost": null,
    "d_loss_real": null,
    "d_loss_fake": null
}