{
    "epoch": 200,
    "avg_current_window": 1089.8889806944023,
    "avg_prior_window": 1101.4490914696235,
    "inception_score_mean": 1.8337649053513967,
    "inception_score_std": 0.13998130697699984,
    "fid_per_class": {
        "airplane": 981.4177260285678,
        "automobile": 1168.9391345011586,
        "bird": 1312.6662714738984,
        "cat": 929.1860016466214,
        "deer": 1299.398837784776,
        "dog": 1076.4155436999943,
        "frog": 1431.4061003930497,
        "horse": 1226.185732722663,
        "ship": 934.0473391661194,
        "truck": 1126.6085911051262
    },
    "fid": 766.892929313566,
    "wasserstein_distance": null,
    "g_loss": null,
    "g_cost": null,
    "d_loss_real": null,
    "d_loss_fake": null
}