{
    "epoch": 75,
    "avg_current_window": 1512.3822990243414,
    "avg_prior_window": 1566.3651046612101,
    "inception_score_mean": 1.695692743822497,
    "inception_score_std": 0.15717048617513804,
    "fid_per_class": {
        "airplane": 1106.3378481700404,
        "automobile": 1180.8116523688657,
        "bird": 1371.4031666464848,
        "cat": 1079.4086110632536,
        "deer": 1445.4035528939062,
        "dog": 1143.9150462012085,
        "frog": 1679.334823612669,
        "horse": 1382.3013217657203,
        "ship": 1044.5049181378554,
        "truck": 1156.0917011377746
    },
    "fid": 927.7412600449238,
    "wasserstein_distance": null,
    "g_loss": null,
    "g_cost": null,
    "d_loss_real": null,
    "d_loss_fake": null
}