{
    "epoch": 87,
    "avg_current_window": 1431.1811482636617,
    "avg_prior_window": 1473.7992536741422,
    "inception_score_mean": 1.654386268707364,
    "inception_score_std": 0.11869427080972289,
    "fid_per_class": {
        "airplane": 1098.4577886481338,
        "automobile": 1251.5961004494666,
        "bird": 1344.216828135525,
        "cat": 1026.8344958437426,
        "deer": 1440.4523964958375,
        "dog": 1129.9648615769106,
        "frog": 1624.9891833108081,
        "horse": 1391.318672370846,
        "ship": 1031.2645711527064,
        "truck": 1197.546892468355
    },
    "fid": 901.4997287217377,
    "wasserstein_distance": null,
    "g_loss": null,
    "g_cost": null,
    "d_loss_real": null,
    "d_loss_fake": null
}