{
    "epoch": 91,
    "avg_current_window": 1407.7085722472402,
    "avg_prior_window": 1447.8227895225416,
    "inception_score_mean": 1.715122722614471,
    "inception_score_std": 0.16526806752136725,
    "fid_per_class": {
        "airplane": 1093.6939446660235,
        "automobile": 1261.2100588003054,
        "bird": 1395.4159935571583,
        "cat": 1028.7303118225705,
        "deer": 1482.9082421695798,
        "dog": 1119.0437908046995,
        "frog": 1639.5374680187397,
        "horse": 1357.202362402706,
        "ship": 998.5863870032941,
        "truck": 1219.6581963422968
    },
    "fid": 908.5263095351369,
    "wasserstein_distance": null,
    "g_loss": null,
    "g_cost": null,
    "d_loss_real": null,
    "d_loss_fake": null
}