{
    "epoch": 134,
    "avg_current_window": 1230.6275560601866,
    "avg_prior_window": 1252.63100611217,
    "inception_score_mean": 1.8028864525529424,
    "inception_score_std": 0.12758334315544842,
    "fid_per_class": {
        "airplane": 1026.1664490700862,
        "automobile": 1166.564153260661,
        "bird": 1332.8595643713918,
        "cat": 979.4143472264105,
        "deer": 1416.1112193672511,
        "dog": 1051.926580317789,
        "frog": 1677.3960578603953,
        "horse": 1386.114920194478,
        "ship": 933.738803029652,
        "truck": 1098.4514902863816
    },
    "fid": 841.1427480824344,
    "wasserstein_distance": null,
    "g_loss": null,
    "g_cost": null,
    "d_loss_real": null,
    "d_loss_fake": null
}