{
    "epoch": 100,
    "avg_current_window": 1361.5189337680326,
    "avg_prior_window": 1395.3274774552888,
    "inception_score_mean": 1.797225255769505,
    "inception_score_std": 0.15541709868546258,
    "fid_per_class": {
        "airplane": 1074.7329044323917,
        "automobile": 1196.1337433415795,
        "bird": 1381.381049997619,
        "cat": 973.6751630533146,
        "deer": 1366.9320672642937,
        "dog": 1100.5273022266947,
        "frog": 1608.8682228442904,
        "horse": 1346.4342590001597,
        "ship": 1026.3692419638971,
        "truck": 1169.2564624253591
    },
    "fid": 854.958237190487,
    "wasserstein_distance": null,
    "g_loss": null,
    "g_cost": null,
    "d_loss_real": null,
    "d_loss_fake": null
}