{
    "epoch": 37,
    "avg_current_window": 1959.0759746777767,
    "avg_prior_window": 2124.27544131432,
    "inception_score_mean": 1.187618052185536,
    "inception_score_std": 0.04494505919493076,
    "fid_per_class": {
        "airplane": 1369.4414615204037,
        "automobile": 1512.1571990692378,
        "bird": 1240.7896293272292,
        "cat": 1285.0684000048623,
        "deer": 1174.9996326816408,
        "dog": 1265.7805766620622,
        "frog": 1404.8716572101537,
        "horse": 1366.8380118357336,
        "ship": 1387.5984294675911,
        "truck": 1428.67950329739
    },
    "fid": 1078.9653167817262,
    "wasserstein_distance": null,
    "g_loss": null,
    "g_cost": null,
    "d_loss_real": null,
    "d_loss_fake": null
}