{
    "epoch": 98,
    "avg_current_window": 1370.5591657036114,
    "avg_prior_window": 1406.240349944573,
    "inception_score_mean": 1.6751485001820512,
    "inception_score_std": 0.1355230176288491,
    "fid_per_class": {
        "airplane": 1062.218008533538,
        "automobile": 1269.1815390422842,
        "bird": 1382.9336973150998,
        "cat": 1074.0950231437891,
        "deer": 1461.1631962611345,
        "dog": 1151.1138562348062,
        "frog": 1668.8901247365316,
        "horse": 1321.3615454874312,
        "ship": 977.3775213479457,
        "truck": 1154.2884019181317
    },
    "fid": 899.4853852452345,
    "wasserstein_distance": null,
    "g_loss": null,
    "g_cost": null,
    "d_loss_real": null,
    "d_loss_fake": null
}