{
    "epoch": 147,
    "avg_current_window": 1193.0833514544568,
    "avg_prior_window": 1213.5178844247714,
    "inception_score_mean": 1.836808808053031,
    "inception_score_std": 0.10662209007885366,
    "fid_per_class": {
        "airplane": 1048.9425460834564,
        "automobile": 1149.5239476888,
        "bird": 1407.5491779153817,
        "cat": 1007.6985091798631,
        "deer": 1520.0084804825951,
        "dog": 1026.6266953822837,
        "frog": 1741.4829292941956,
        "horse": 1368.686010383437,
        "ship": 1029.6371200242636,
        "truck": 1147.8858566463302
    },
    "fid": 869.31483094636,
    "wasserstein_distance": null,
    "g_loss": null,
    "g_cost": null,
    "d_loss_real": null,
    "d_loss_fake": null
}