{
    "epoch": 7,
    "avg_current_window": 1994.2098218795934,
    "avg_prior_window": 2.0,
    "inception_score_mean": 1.0293809279019666,
    "inception_score_std": 0.018018497182648738,
    "fid_per_class": {
        "airplane": 1782.3614933127667,
        "automobile": 2023.735970005699,
        "bird": 2048.373639075803,
        "cat": 2333.3154391564194,
        "deer": 2455.6563551258496,
        "dog": 2415.5883982149135,
        "frog": 2613.9057230950657,
        "horse": 2352.533834155929,
        "ship": 2030.9355768425116,
        "truck": 1956.775636611327
    },
    "fid": 2034.751503593137,
    "wasserstein_distance": null,
    "g_loss": null,
    "g_cost": null,
    "d_loss_real": null,
    "d_loss_fake": null
}