{
    "epoch": 168,
    "avg_current_window": 1145.1438919601283,
    "avg_prior_window": 1160.5184383101055,
    "inception_score_mean": 1.9028178248931265,
    "inception_score_std": 0.19591862744176397,
    "fid_per_class": {
        "airplane": 1031.6258286175137,
        "automobile": 1174.182018497889,
        "bird": 1326.4958670986705,
        "cat": 961.6638302928045,
        "deer": 1410.4874180960942,
        "dog": 1049.7930245398447,
        "frog": 1516.1387900771467,
        "horse": 1269.0111244925563,
        "ship": 970.4315544284688,
        "truck": 1089.9034400447815
    },
    "fid": 806.9605578707822,
    "wasserstein_distance": null,
    "g_loss": null,
    "g_cost": null,
    "d_loss_real": null,
    "d_loss_fake": null
}