{
    "epoch": 70,
    "avg_current_window": 1553.027241324122,
    "avg_prior_window": 1613.7515974932264,
    "inception_score_mean": 1.6310402884751145,
    "inception_score_std": 0.10554930619932477,
    "fid_per_class": {
        "airplane": 1094.5758083089945,
        "automobile": 1179.9765990606377,
        "bird": 1465.6471527035505,
        "cat": 1052.6491572939615,
        "deer": 1437.1110851006547,
        "dog": 1212.6299605321765,
        "frog": 1718.7643052563672,
        "horse": 1388.0610717954064,
        "ship": 1054.2180977793168,
        "truck": 1201.6378313583937
    },
    "fid": 933.6504335961455,
    "wasserstein_distance": null,
    "g_loss": null,
    "g_cost": null,
    "d_loss_real": null,
    "d_loss_fake": null
}