{
    "epoch": 77,
    "avg_current_window": 1496.7270643414713,
    "avg_prior_window": 1548.2504846107324,
    "inception_score_mean": 1.6897997468726782,
    "inception_score_std": 0.1777225802615408,
    "fid_per_class": {
        "airplane": 1118.3260572243153,
        "automobile": 1280.1940718735877,
        "bird": 1549.4616397708498,
        "cat": 1124.0846857272415,
        "deer": 1470.0365916694823,
        "dog": 1165.6062568985267,
        "frog": 1701.475764246665,
        "horse": 1441.7393615155534,
        "ship": 1035.392234134269,
        "truck": 1157.287650449673
    },
    "fid": 976.1009514328073,
    "wasserstein_distance": null,
    "g_loss": null,
    "g_cost": null,
    "d_loss_real": null,
    "d_loss_fake": null
}