{
    "epoch": 167,
    "avg_current_window": 1147.4725286334517,
    "avg_prior_window": 1162.6878243500023,
    "inception_score_mean": 1.8224238035063327,
    "inception_score_std": 0.18275379290219132,
    "fid_per_class": {
        "airplane": 972.4196000389106,
        "automobile": 1160.1818954800838,
        "bird": 1336.5132493409192,
        "cat": 975.3754661601706,
        "deer": 1330.1839974372735,
        "dog": 1031.202107573262,
        "frog": 1441.7625751566438,
        "horse": 1237.976869103842,
        "ship": 974.0955711747247,
        "truck": 1054.397806530476
    },
    "fid": 756.2615675151111,
    "wasserstein_distance": null,
    "g_loss": null,
    "g_cost": null,
    "d_loss_real": null,
    "d_loss_fake": null
}