{
    "epoch": 132,
    "avg_current_window": 1236.814968494227,
    "avg_prior_window": 1260.1336226650421,
    "inception_score_mean": 1.794452942576071,
    "inception_score_std": 0.1531627812018255,
    "fid_per_class": {
        "airplane": 1061.9785468520492,
        "automobile": 1071.5700445907141,
        "bird": 1341.6382722924375,
        "cat": 937.3831078807763,
        "deer": 1407.9215325545476,
        "dog": 1030.8775302413173,
        "frog": 1597.5885802235964,
        "horse": 1328.8162926374293,
        "ship": 989.809857196151,
        "truck": 1082.0888233426967
    },
    "fid": 820.1999732733132,
    "wasserstein_distance": null,
    "g_loss": null,
    "g_cost": null,
    "d_loss_real": null,
    "d_loss_fake": null
}