{
    "epoch": 26,
    "avg_current_window": 2142.088894057382,
    "avg_prior_window": 2250.223158696909,
    "inception_score_mean": 1.1200651474468724,
    "inception_score_std": 0.042093221287271505,
    "fid_per_class": {
        "airplane": 2043.4334529852886,
        "automobile": 2119.004623489596,
        "bird": 2599.7755961212542,
        "cat": 2329.765450119156,
        "deer": 2595.4227569514896,
        "dog": 2210.4810656289205,
        "frog": 2919.717660393878,
        "horse": 2335.6505562203556,
        "ship": 2402.3422948835137,
        "truck": 2088.9709954615005
    },
    "fid": 2121.517350741882,
    "wasserstein_distance": null,
    "g_loss": null,
    "g_cost": null,
    "d_loss_real": null,
    "d_loss_fake": null
}