{
    "epoch": 181,
    "avg_current_window": 1120.2971461771435,
    "avg_prior_window": 1133.4261687378964,
    "inception_score_mean": 1.9069576642007966,
    "inception_score_std": 0.15779174858195338,
    "fid_per_class": {
        "airplane": 936.871737304529,
        "automobile": 1154.5368038966956,
        "bird": 1303.9651914679018,
        "cat": 955.2174125960242,
        "deer": 1293.1701547507819,
        "dog": 1053.8836047886796,
        "frog": 1419.3780025070932,
        "horse": 1255.436925389072,
        "ship": 907.0280300574802,
        "truck": 1082.1107547322754
    },
    "fid": 750.8402754389838,
    "wasserstein_distance": null,
    "g_loss": null,
    "g_cost": null,
    "d_loss_real": null,
    "d_loss_fake": null
}