{
    "epoch": 89,
    "avg_current_window": 1419.1541696939573,
    "avg_prior_window": 1460.812181200532,
    "inception_score_mean": 1.6806173196553,
    "inception_score_std": 0.133183008238923,
    "fid_per_class": {
        "airplane": 1109.8888493219592,
        "automobile": 1229.0372006993841,
        "bird": 1421.4761677210054,
        "cat": 1013.806278939353,
        "deer": 1452.6366309017017,
        "dog": 1188.8986862737843,
        "frog": 1683.609448222884,
        "horse": 1413.658821324883,
        "ship": 1070.680986774507,
        "truck": 1139.6465287563587
    },
    "fid": 926.1291365014247,
    "wasserstein_distance": null,
    "g_loss": null,
    "g_cost": null,
    "d_loss_real": null,
    "d_loss_fake": null
}