{
    "epoch": 128,
    "avg_current_window": 1250.2888287379715,
    "avg_prior_window": 1274.3131023669782,
    "inception_score_mean": 1.8272158571953212,
    "inception_score_std": 0.2300594306927254,
    "fid_per_class": {
        "airplane": 981.153632840749,
        "automobile": 1162.0875268310979,
        "bird": 1347.071894566146,
        "cat": 974.3315245399208,
        "deer": 1371.755042353762,
        "dog": 1061.684843822478,
        "frog": 1618.4083039745612,
        "horse": 1313.3769705955851,
        "ship": 961.7293004629394,
        "truck": 1095.6033359938945
    },
    "fid": 812.9673559238538,
    "wasserstein_distance": null,
    "g_loss": null,
    "g_cost": null,
    "d_loss_real": null,
    "d_loss_fake": null
}