{
    "epoch": 43,
    "avg_current_window": 1846.3998368522255,
    "avg_prior_window": 1963.604846791348,
    "inception_score_mean": 1.3148422098448762,
    "inception_score_std": 0.05225535895812618,
    "fid_per_class": {
        "airplane": 1383.6792509853985,
        "automobile": 1432.3674813807816,
        "bird": 1542.283874951897,
        "cat": 1300.9924521267214,
        "deer": 1552.2985601626585,
        "dog": 1483.4872387047637,
        "frog": 1912.9098511129914,
        "horse": 1567.851071211347,
        "ship": 1337.7483690850916,
        "truck": 1311.5695201099009
    },
    "fid": 1211.9225929854242,
    "wasserstein_distance": null,
    "g_loss": null,
    "g_cost": null,
    "d_loss_real": null,
    "d_loss_fake": null
}