{
    "epoch": 83,
    "avg_current_window": 1456.042636159996,
    "avg_prior_window": 1502.742575926798,
    "inception_score_mean": 1.7041161297464573,
    "inception_score_std": 0.1423254737204094,
    "fid_per_class": {
        "airplane": 1156.1225939197639,
        "automobile": 1218.0992335314797,
        "bird": 1439.0753680309144,
        "cat": 1054.7402082341796,
        "deer": 1416.2130562542443,
        "dog": 1151.6280837862178,
        "frog": 1613.5725014188963,
        "horse": 1457.1739508372218,
        "ship": 1055.983347365724,
        "truck": 1188.9277173302762
    },
    "fid": 933.520075339907,
    "wasserstein_distance": null,
    "g_loss": null,
    "g_cost": null,
    "d_loss_real": null,
    "d_loss_fake": null
}