{
    "epoch": 115,
    "avg_current_window": 1295.7397315526064,
    "avg_prior_window": 1323.887932589815,
    "inception_score_mean": 1.6759597036787928,
    "inception_score_std": 0.1057213846703659,
    "fid_per_class": {
        "airplane": 1103.184253415127,
        "automobile": 1244.546296171793,
        "bird": 1361.2245275025189,
        "cat": 995.0054331526836,
        "deer": 1483.9501946688706,
        "dog": 1105.9232883161062,
        "frog": 1723.3710937871745,
        "horse": 1432.946723255848,
        "ship": 1014.4386440055655,
        "truck": 1165.7989832893536
    },
    "fid": 907.9307582865031,
    "wasserstein_distance": null,
    "g_loss": null,
    "g_cost": null,
    "d_loss_real": null,
    "d_loss_fake": null
}