{
    "epoch": 190,
    "avg_current_window": 1105.4054753312134,
    "avg_prior_window": 1117.547993364053,
    "inception_score_mean": 1.8159041218143623,
    "inception_score_std": 0.109939502245068,
    "fid_per_class": {
        "airplane": 988.3352172620478,
        "automobile": 1181.2520534212313,
        "bird": 1358.7391640675887,
        "cat": 1018.9474933598951,
        "deer": 1449.1746735788256,
        "dog": 1044.097324556911,
        "frog": 1623.2578252760898,
        "horse": 1289.110164255114,
        "ship": 986.5962574408944,
        "truck": 1138.3944636733381
    },
    "fid": 844.5330299833793,
    "wasserstein_distance": null,
    "g_loss": null,
    "g_cost": null,
    "d_loss_real": null,
    "d_loss_fake": null
}