{
    "epoch": 135,
    "avg_current_window": 1227.7424834084998,
    "avg_prior_window": 1249.4260790998924,
    "inception_score_mean": 1.812026753086029,
    "inception_score_std": 0.12194745753552452,
    "fid_per_class": {
        "airplane": 1040.4307893948949,
        "automobile": 1106.6206313925634,
        "bird": 1347.8864759132366,
        "cat": 915.1212757544913,
        "deer": 1494.2217431955667,
        "dog": 1145.2109177111656,
        "frog": 1658.7957706467998,
        "horse": 1324.4914039198738,
        "ship": 956.3045832995764,
        "truck": 1058.431264139712
    },
    "fid": 831.3837408092941,
    "wasserstein_distance": null,
    "g_loss": null,
    "g_cost": null,
    "d_loss_real": null,
    "d_loss_fake": null
}