{
    "epoch": 188,
    "avg_current_window": 1108.1824289048948,
    "avg_prior_window": 1120.9389841072268,
    "inception_score_mean": 1.7548613999264884,
    "inception_score_std": 0.19452144339597108,
    "fid_per_class": {
        "airplane": 985.8916752566557,
        "automobile": 1190.0094850605742,
        "bird": 1421.047245061959,
        "cat": 1037.2346534095752,
        "deer": 1458.6651895352868,
        "dog": 1136.347063924192,
        "frog": 1630.9809884451988,
        "horse": 1387.9945738290876,
        "ship": 980.0153284266513,
        "truck": 1156.6779435184844
    },
    "fid": 875.3526940661221,
    "wasserstein_distance": null,
    "g_loss": null,
    "g_cost": null,
    "d_loss_real": null,
    "d_loss_fake": null
}