{
    "epoch": 52,
    "avg_current_window": 1733.037192134449,
    "avg_prior_window": 1815.3047322810155,
    "inception_score_mean": 1.5218585799647628,
    "inception_score_std": 0.09744584277893154,
    "fid_per_class": {
        "airplane": 1314.1371893825972,
        "automobile": 1136.8366316769784,
        "bird": 1495.1188294209192,
        "cat": 1159.5412647174162,
        "deer": 1474.2539278332238,
        "dog": 1493.8634653631723,
        "frog": 1811.0517054877682,
        "horse": 1565.9165123482505,
        "ship": 1171.8582755024197,
        "truck": 1050.0454438272955
    },
    "fid": 1048.4956472120211,
    "wasserstein_distance": null,
    "g_loss": null,
    "g_cost": null,
    "d_loss_real": null,
    "d_loss_fake": null
}