{
    "epoch": 192,
    "avg_current_window": 1102.2106168997361,
    "avg_prior_window": 1114.1085381503754,
    "inception_score_mean": 1.8626574244757101,
    "inception_score_std": 0.1372912974288106,
    "fid_per_class": {
        "airplane": 970.994013347672,
        "automobile": 1124.1529539913547,
        "bird": 1309.9953695273562,
        "cat": 1029.4869243845944,
        "deer": 1370.235121445011,
        "dog": 1076.9793745132874,
        "frog": 1501.6475173778795,
        "horse": 1311.8625103369318,
        "ship": 1016.975541747014,
        "truck": 1119.7745724395372
    },
    "fid": 809.9656986169227,
    "wasserstein_distance": null,
    "g_loss": null,
    "g_cost": null,
    "d_loss_real": null,
    "d_loss_fake": null
}