{
    "epoch": 88,
    "avg_current_window": 800.7545405235124,
    "avg_prior_window": 815.7320104401563,
    "inception_score_mean": 1.842353886409383,
    "inception_score_std": 0.14378962042613458,
    "fid_per_class": {
        "airplane": 989.2800732366976,
        "automobile": 1233.4199556188366,
        "bird": 1308.3596015159103,
        "cat": 1085.2985692401014,
        "deer": 1347.434447033178,
        "dog": 956.7796104867712,
        "frog": 1430.6998373046865,
        "horse": 1199.5085394857224,
        "ship": 831.1706728517745,
        "truck": 1152.714084844919
    },
    "fid": 775.3721209276936,
    "wasserstein_distance": null,
    "g_loss": null,
    "g_cost": null,
    "d_loss_real": null,
    "d_loss_fake": null
}