{
    "epoch": 24,
    "avg_current_window": 946.4045380338134,
    "avg_prior_window": 1013.1707903392285,
    "inception_score_mean": 1.7385863550236071,
    "inception_score_std": 0.09345605138071704,
    "fid_per_class": {
        "airplane": 1150.4723731019653,
        "automobile": 1270.4890964506167,
        "bird": 1325.5898657898074,
        "cat": 1031.1794113951273,
        "deer": 1300.555907566709,
        "dog": 939.9013890613451,
        "frog": 1358.9538244492937,
        "horse": 1324.841186538902,
        "ship": 1003.5243121865072,
        "truck": 1181.754084896404
    },
    "fid": 821.3260877908442,
    "wasserstein_distance": null,
    "g_loss": null,
    "g_cost": null,
    "d_loss_real": null,
    "d_loss_fake": null
}