{
    "epoch": 78,
    "avg_current_window": 813.597789292916,
    "avg_prior_window": 829.3344299118842,
    "inception_score_mean": 1.8855860847187624,
    "inception_score_std": 0.10717084284911324,
    "fid_per_class": {
        "airplane": 973.8408486383137,
        "automobile": 1131.6033678618364,
        "bird": 1365.511114985851,
        "cat": 970.7698762306711,
        "deer": 1294.3950843059627,
        "dog": 950.4202822150532,
        "frog": 1395.0188495696148,
        "horse": 1153.255906112009,
        "ship": 797.6100275077952,
        "truck": 1039.2991342061791
    },
    "fid": 720.3695431281191,
    "wasserstein_distance": null,
    "g_loss": null,
    "g_cost": null,
    "d_loss_real": null,
    "d_loss_fake": null
}