{
    "epoch": 64,
    "avg_current_window": 833.4461765453078,
    "avg_prior_window": 855.2155404798907,
    "inception_score_mean": 1.8450569379830952,
    "inception_score_std": 0.13147114344578967,
    "fid_per_class": {
        "airplane": 981.149086317788,
        "automobile": 1182.8548186458697,
        "bird": 1283.5388585579626,
        "cat": 970.8702021230522,
        "deer": 1285.6101561364833,
        "dog": 907.1967321576458,
        "frog": 1348.9287642757104,
        "horse": 1193.234433906315,
        "ship": 835.6871164418411,
        "truck": 1096.5650684444474
    },
    "fid": 720.6496187872439,
    "wasserstein_distance": null,
    "g_loss": null,
    "g_cost": null,
    "d_loss_real": null,
    "d_loss_fake": null
}