{
    "epoch": 176,
    "avg_current_window": 752.6432775090561,
    "avg_prior_window": 758.249721698279,
    "inception_score_mean": 1.8867837494374526,
    "inception_score_std": 0.10104024238818002,
    "fid_per_class": {
        "airplane": 942.8993414612473,
        "automobile": 1208.4571652218333,
        "bird": 1236.2933599392734,
        "cat": 1003.1764007769123,
        "deer": 1296.231562561238,
        "dog": 926.3903406482357,
        "frog": 1332.0624004077783,
        "horse": 1157.394353452438,
        "ship": 810.4171454885523,
        "truck": 1078.24631786141
    },
    "fid": 712.1196578510403,
    "wasserstein_distance": null,
    "g_loss": null,
    "g_cost": null,
    "d_loss_real": null,
    "d_loss_fake": null
}