{
    "epoch": 109,
    "avg_current_window": 783.4005204925044,
    "avg_prior_window": 793.4941494109227,
    "inception_score_mean": 1.8941759493577692,
    "inception_score_std": 0.11664632724081522,
    "fid_per_class": {
        "airplane": 985.0283611520125,
        "automobile": 1196.1895501061795,
        "bird": 1241.776783783684,
        "cat": 982.1426214257813,
        "deer": 1233.9389042114467,
        "dog": 942.3282721430987,
        "frog": 1397.8622653136658,
        "horse": 1103.6658953321264,
        "ship": 829.7026377779956,
        "truck": 1079.3734781843727
    },
    "fid": 696.3749139223129,
    "wasserstein_distance": null,
    "g_loss": null,
    "g_cost": null,
    "d_loss_real": null,
    "d_loss_fake": null
}