{
    "epoch": 186,
    "avg_current_window": 749.4060293234861,
    "avg_prior_window": 754.7088682004826,
    "inception_score_mean": 1.8974725898425215,
    "inception_score_std": 0.1365462659816756,
    "fid_per_class": {
        "airplane": 944.0412607767723,
        "automobile": 1113.0283177068027,
        "bird": 1242.788782479196,
        "cat": 918.2299952529271,
        "deer": 1325.8223861519243,
        "dog": 957.3632387817543,
        "frog": 1310.0878522090256,
        "horse": 1181.1802022094698,
        "ship": 856.3423529448606,
        "truck": 1050.6835074172277
    },
    "fid": 690.6514396301922,
    "wasserstein_distance": null,
    "g_loss": null,
    "g_cost": null,
    "d_loss_real": null,
    "d_loss_fake": null
}