{
    "epoch": 65,
    "avg_current_window": 831.7108448874915,
    "avg_prior_window": 853.4733570201072,
    "inception_score_mean": 1.7922973404024147,
    "inception_score_std": 0.09179604848384668,
    "fid_per_class": {
        "airplane": 977.9750963321146,
        "automobile": 1185.5742958293613,
        "bird": 1177.6467782765114,
        "cat": 959.9871284039298,
        "deer": 1212.1524729806874,
        "dog": 905.1396130140186,
        "frog": 1325.2423533311664,
        "horse": 1106.975671366576,
        "ship": 822.8621565495162,
        "truck": 1139.8448899760917
    },
    "fid": 692.716357808858,
    "wasserstein_distance": null,
    "g_loss": null,
    "g_cost": null,
    "d_loss_real": null,
    "d_loss_fake": null
}