{
    "epoch": 170,
    "avg_current_window": 754.3639546706295,
    "avg_prior_window": 760.2874455965073,
    "inception_score_mean": 1.9242306406268512,
    "inception_score_std": 0.1172760529854205,
    "fid_per_class": {
        "airplane": 958.5051056812887,
        "automobile": 1171.8399501374781,
        "bird": 1217.304788517621,
        "cat": 994.4964781083218,
        "deer": 1311.2820890521214,
        "dog": 979.5749716226569,
        "frog": 1361.7306521464802,
        "horse": 1207.6358093001043,
        "ship": 836.3196475167013,
        "truck": 1107.977213820236
    },
    "fid": 728.3730622489818,
    "wasserstein_distance": null,
    "g_loss": null,
    "g_cost": null,
    "d_loss_real": null,
    "d_loss_fake": null
}