{
    "epoch": 157,
    "avg_current_window": 758.7746141633622,
    "avg_prior_window": 765.7813431731238,
    "inception_score_mean": 1.9402535910817449,
    "inception_score_std": 0.14542562016753716,
    "fid_per_class": {
        "airplane": 956.2885405761303,
        "automobile": 1154.0155970293667,
        "bird": 1193.313590711657,
        "cat": 954.9202349325158,
        "deer": 1209.9180856145865,
        "dog": 901.0572925291112,
        "frog": 1358.0635727747006,
        "horse": 1069.790791264013,
        "ship": 795.2080446606607,
        "truck": 1045.0555308602466
    },
    "fid": 668.7708726757965,
    "wasserstein_distance": null,
    "g_loss": null,
    "g_cost": null,
    "d_loss_real": null,
    "d_loss_fake": null
}