{
    "epoch": 146,
    "avg_current_window": 763.631548415832,
    "avg_prior_window": 771.1580617216373,
    "inception_score_mean": 1.8643118875154105,
    "inception_score_std": 0.07738965336122257,
    "fid_per_class": {
        "airplane": 966.5918395859013,
        "automobile": 1080.1440391981162,
        "bird": 1184.145392065009,
        "cat": 948.7900060057048,
        "deer": 1251.103058647635,
        "dog": 915.5863268274198,
        "frog": 1270.378535054343,
        "horse": 1114.6247070896989,
        "ship": 831.40066750321,
        "truck": 1020.6389883603706
    },
    "fid": 674.0626460644787,
    "wasserstein_distance": null,
    "g_loss": null,
    "g_cost": null,
    "d_loss_real": null,
    "d_loss_fake": null
}