{
    "epoch": 121,
    "avg_current_window": 774.5126778936595,
    "avg_prior_window": 784.0022122133706,
    "inception_score_mean": 1.942199268247012,
    "inception_score_std": 0.08474682148872079,
    "fid_per_class": {
        "airplane": 974.986754413283,
        "automobile": 1142.4772887719946,
        "bird": 1235.2590006258636,
        "cat": 942.4811542366672,
        "deer": 1278.7969056224622,
        "dog": 912.8808305500218,
        "frog": 1304.4518846349256,
        "horse": 1065.3387042871364,
        "ship": 837.7952971941461,
        "truck": 1003.1161700493612
    },
    "fid": 667.4417201817499,
    "wasserstein_distance": null,
    "g_loss": null,
    "g_cost": null,
    "d_loss_real": null,
    "d_loss_fake": null
}