{
    "epoch": 193,
    "avg_current_window": 747.1242114944368,
    "avg_prior_window": 752.1892593890632,
    "inception_score_mean": 1.908110430585078,
    "inception_score_std": 0.13119550813572614,
    "fid_per_class": {
        "airplane": 980.5714264108016,
        "automobile": 1103.4406237818596,
        "bird": 1241.1958568367777,
        "cat": 1009.1518421154474,
        "deer": 1285.106507799665,
        "dog": 918.2119475536165,
        "frog": 1389.3982600453037,
        "horse": 1190.959395721039,
        "ship": 851.984025033928,
        "truck": 1101.6759029285408
    },
    "fid": 727.660262084943,
    "wasserstein_distance": null,
    "g_loss": null,
    "g_cost": null,
    "d_loss_real": null,
    "d_loss_fake": null
}