{
    "epoch": 173,
    "avg_current_window": 753.7252170921009,
    "avg_prior_window": 759.2492052365067,
    "inception_score_mean": 1.8666220883868765,
    "inception_score_std": 0.05581600088976562,
    "fid_per_class": {
        "airplane": 951.2951996638254,
        "automobile": 1061.4349238651141,
        "bird": 1266.1840340450012,
        "cat": 961.246195526223,
        "deer": 1270.3509666730497,
        "dog": 938.0796618046301,
        "frog": 1322.2086922694316,
        "horse": 1128.5894445453896,
        "ship": 788.3113495284557,
        "truck": 995.4575091790462
    },
    "fid": 682.4150014517016,
    "wasserstein_distance": null,
    "g_loss": null,
    "g_cost": null,
    "d_loss_real": null,
    "d_loss_fake": null
}