{
    "epoch": 43,
    "avg_current_window": 881.7295655295458,
    "avg_prior_window": 914.4896553013201,
    "inception_score_mean": 1.7426268421981324,
    "inception_score_std": 0.09278151247665856,
    "fid_per_class": {
        "airplane": 1003.2883071196994,
        "automobile": 1228.8149324219073,
        "bird": 1221.312626099166,
        "cat": 972.0911975279264,
        "deer": 1222.3235592346764,
        "dog": 1028.8008096220283,
        "frog": 1414.9492320947747,
        "horse": 1214.034758405904,
        "ship": 839.5028038206681,
        "truck": 1156.4189689004604
    },
    "fid": 764.4984755118479,
    "wasserstein_distance": null,
    "g_loss": null,
    "g_cost": null,
    "d_loss_real": null,
    "d_loss_fake": null
}