{
    "epoch": 117,
    "avg_current_window": 777.3013386047094,
    "avg_prior_window": 787.1513586447165,
    "inception_score_mean": 1.9021959845159457,
    "inception_score_std": 0.1284061806023015,
    "fid_per_class": {
        "airplane": 993.1532309025098,
        "automobile": 1123.8740312888594,
        "bird": 1213.1784047394754,
        "cat": 972.7317344985493,
        "deer": 1267.3703749859942,
        "dog": 1006.8334265110916,
        "frog": 1286.8105655547358,
        "horse": 1124.1609505395759,
        "ship": 789.0820163452232,
        "truck": 1054.431502277157
    },
    "fid": 687.2567950129296,
    "wasserstein_distance": null,
    "g_loss": null,
    "g_cost": null,
    "d_loss_real": null,
    "d_loss_fake": null
}