{
    "epoch": 177,
    "avg_current_window": 752.4143305053385,
    "avg_prior_window": 758.1073404472876,
    "inception_score_mean": 1.9450461708797082,
    "inception_score_std": 0.12759811299712687,
    "fid_per_class": {
        "airplane": 915.476191139496,
        "automobile": 1102.1710736966843,
        "bird": 1221.5669190726744,
        "cat": 927.0882458165479,
        "deer": 1251.4990607666027,
        "dog": 918.3209332066699,
        "frog": 1358.8692099545824,
        "horse": 1117.056505150476,
        "ship": 732.1654976785139,
        "truck": 1077.250624058887
    },
    "fid": 674.9981498383569,
    "wasserstein_distance": null,
    "g_loss": null,
    "g_cost": null,
    "d_loss_real": null,
    "d_loss_fake": null
}