{
    "epoch": 42,
    "avg_current_window": 883.8205357272673,
    "avg_prior_window": 918.4621790540198,
    "inception_score_mean": 1.7018570963250568,
    "inception_score_std": 0.06935221584714783,
    "fid_per_class": {
        "airplane": 1022.614478650581,
        "automobile": 1302.73811650748,
        "bird": 1302.892214423552,
        "cat": 1047.7037029664311,
        "deer": 1319.7169110414952,
        "dog": 1017.5972362068742,
        "frog": 1369.3688491918533,
        "horse": 1246.3763308619336,
        "ship": 863.1484956405956,
        "truck": 1152.476178419714
    },
    "fid": 793.9088172252455,
    "wasserstein_distance": null,
    "g_loss": null,
    "g_cost": null,
    "d_loss_real": null,
    "d_loss_fake": null
}