{
    "epoch": 84,
    "avg_current_window": 806.0209150777735,
    "avg_prior_window": 821.7660591256978,
    "inception_score_mean": 1.829511549764477,
    "inception_score_std": 0.09729618162931748,
    "fid_per_class": {
        "airplane": 949.4668005569728,
        "automobile": 1121.4414877271681,
        "bird": 1279.9629285119477,
        "cat": 997.1551142736673,
        "deer": 1214.041551085652,
        "dog": 865.4680064976649,
        "frog": 1270.5984905824166,
        "horse": 1132.512899843726,
        "ship": 803.2525457533948,
        "truck": 1071.228473440888
    },
    "fid": 679.2421167319196,
    "wasserstein_distance": null,
    "g_loss": null,
    "g_cost": null,
    "d_loss_real": null,
    "d_loss_fake": null
}