{
    "epoch": 81,
    "avg_current_window": 810.3194899088099,
    "avg_prior_window": 825.3230055907139,
    "inception_score_mean": 1.9212321487960229,
    "inception_score_std": 0.09663751850287738,
    "fid_per_class": {
        "airplane": 929.6442519530198,
        "automobile": 1118.95258117253,
        "bird": 1223.0397371468205,
        "cat": 959.8011836710382,
        "deer": 1186.4839285308167,
        "dog": 904.9182486798768,
        "frog": 1276.2493670934255,
        "horse": 1122.2999819411648,
        "ship": 774.204170871961,
        "truck": 1099.9905179960188
    },
    "fid": 652.8587685325324,
    "wasserstein_distance": null,
    "g_loss": null,
    "g_cost": null,
    "d_loss_real": null,
    "d_loss_fake": null
}