{
    "epoch": 122,
    "avg_current_window": 773.6350470927423,
    "avg_prior_window": 783.1753283056746,
    "inception_score_mean": 1.9381767959588956,
    "inception_score_std": 0.10239548055840582,
    "fid_per_class": {
        "airplane": 993.2066180090436,
        "automobile": 1093.8187153182494,
        "bird": 1141.7681986476161,
        "cat": 936.8298344102784,
        "deer": 1204.2732570308256,
        "dog": 962.8860325236838,
        "frog": 1303.8031780161712,
        "horse": 1079.6824197386668,
        "ship": 795.4447264883811,
        "truck": 1002.9696190188679
    },
    "fid": 655.2290842676551,
    "wasserstein_distance": null,
    "g_loss": null,
    "g_cost": null,
    "d_loss_real": null,
    "d_loss_fake": null
}