{
    "epoch": 152,
    "avg_current_window": 760.9279898236352,
    "avg_prior_window": 768.0059643431646,
    "inception_score_mean": 1.8683215157869921,
    "inception_score_std": 0.10232220609323302,
    "fid_per_class": {
        "airplane": 1015.0654647624441,
        "automobile": 1183.5588148775232,
        "bird": 1275.4711262126827,
        "cat": 997.8628817338619,
        "deer": 1361.3560186420468,
        "dog": 991.0281779729141,
        "frog": 1361.435314692772,
        "horse": 1159.8278429205398,
        "ship": 819.3573772751045,
        "truck": 1046.5539132862787
    },
    "fid": 737.7097091222515,
    "wasserstein_distance": null,
    "g_loss": null,
    "g_cost": null,
    "d_loss_real": null,
    "d_loss_fake": null
}