{
    "epoch": 168,
    "avg_current_window": 754.9779894419994,
    "avg_prior_window": 760.7145239415403,
    "inception_score_mean": 1.8855305871463546,
    "inception_score_std": 0.15443608033292133,
    "fid_per_class": {
        "airplane": 1067.556925879868,
        "automobile": 1137.5640308880938,
        "bird": 1227.015356371276,
        "cat": 975.8293760010466,
        "deer": 1297.5515166956168,
        "dog": 937.1043363881661,
        "frog": 1401.1258172436187,
        "horse": 1173.8841571260668,
        "ship": 812.9063258414897,
        "truck": 1065.7586512535486
    },
    "fid": 717.5642534772197,
    "wasserstein_distance": null,
    "g_loss": null,
    "g_cost": null,
    "d_loss_real": null,
    "d_loss_fake": null
}