{
    "epoch": 147,
    "avg_current_window": 763.0222361549385,
    "avg_prior_window": 770.6062711297208,
    "inception_score_mean": 1.9290054038741833,
    "inception_score_std": 0.11506491839018802,
    "fid_per_class": {
        "airplane": 1018.1386876837792,
        "automobile": 1183.4439646914097,
        "bird": 1278.6232149175075,
        "cat": 985.1616042461842,
        "deer": 1367.4346925745626,
        "dog": 950.2487425590339,
        "frog": 1397.4850665768747,
        "horse": 1189.8387054937164,
        "ship": 841.8175267814399,
        "truck": 1050.5755541680992
    },
    "fid": 732.6080436692476,
    "wasserstein_distance": null,
    "g_loss": null,
    "g_cost": null,
    "d_loss_real": null,
    "d_loss_fake": null
}