{
    "epoch": 21,
    "avg_current_window": 955.1734639302463,
    "avg_prior_window": 1035.0428244219174,
    "inception_score_mean": 1.6014908168380249,
    "inception_score_std": 0.048500718918531055,
    "fid_per_class": {
        "airplane": 1149.884950097707,
        "automobile": 1367.4675419468408,
        "bird": 1426.4551745131907,
        "cat": 1051.7491994073648,
        "deer": 1372.1913522866616,
        "dog": 1133.8213083349067,
        "frog": 1393.611265181552,
        "horse": 1306.3404231021402,
        "ship": 963.4141149188615,
        "truck": 1232.012488101403
    },
    "fid": 872.0711845041153,
    "wasserstein_distance": null,
    "g_loss": null,
    "g_cost": null,
    "d_loss_real": null,
    "d_loss_fake": null
}