{
    "epoch": 12,
    "avg_current_window": 1019.3463718946491,
    "avg_prior_window": 1235.8317975980806,
    "inception_score_mean": 1.4974321075960706,
    "inception_score_std": 0.08051505965690804,
    "fid_per_class": {
        "airplane": 1082.8487440743415,
        "automobile": 1217.336142702325,
        "bird": 1273.5253576569633,
        "cat": 1197.805382493856,
        "deer": 1252.066421319257,
        "dog": 1160.3493923964616,
        "frog": 1410.9041826241528,
        "horse": 1271.5008528775932,
        "ship": 955.35598513345,
        "truck": 1080.2216212942808
    },
    "fid": 870.0212244198152,
    "wasserstein_distance": null,
    "g_loss": null,
    "g_cost": null,
    "d_loss_real": null,
    "d_loss_fake": null
}