{
    "epoch": 154,
    "avg_current_window": 760.3774657155141,
    "avg_prior_window": 767.112112243281,
    "inception_score_mean": 2.0391782454653997,
    "inception_score_std": 0.13467629151299979,
    "fid_per_class": {
        "airplane": 955.8293895985552,
        "automobile": 1086.864439500875,
        "bird": 1209.830017484866,
        "cat": 922.7147972430582,
        "deer": 1263.948424618978,
        "dog": 897.3831132964174,
        "frog": 1310.927089406845,
        "horse": 1053.2267280556725,
        "ship": 788.4564853221794,
        "truck": 1026.851712459163
    },
    "fid": 650.2792131097115,
    "wasserstein_distance": null,
    "g_loss": null,
    "g_cost": null,
    "d_loss_real": null,
    "d_loss_fake": null
}