{
    "epoch": 94,
    "avg_current_window": 796.0468775037576,
    "avg_prior_window": 808.874017860359,
    "inception_score_mean": 1.8752165230477218,
    "inception_score_std": 0.12028983567752616,
    "fid_per_class": {
        "airplane": 902.9708695794393,
        "automobile": 1168.916099949482,
        "bird": 1240.8166286064445,
        "cat": 957.4579970042585,
        "deer": 1228.515236214574,
        "dog": 927.4362146835906,
        "frog": 1384.5777539946216,
        "horse": 1104.7360101508796,
        "ship": 764.9239617539931,
        "truck": 1126.8166074560304
    },
    "fid": 682.2978694990875,
    "wasserstein_distance": null,
    "g_loss": null,
    "g_cost": null,
    "d_loss_real": null,
    "d_loss_fake": null
}