{
    "epoch": 20,
    "avg_current_window": 962.512250822267,
    "avg_prior_window": 1047.193370446945,
    "inception_score_mean": 1.6722992737855589,
    "inception_score_std": 0.06604228045379935,
    "fid_per_class": {
        "airplane": 1120.6020726068737,
        "automobile": 1344.3335874471602,
        "bird": 1241.931556087248,
        "cat": 1034.2319193550884,
        "deer": 1239.0529127365085,
        "dog": 990.978472556103,
        "frog": 1208.8801061700099,
        "horse": 1270.2605275555484,
        "ship": 1010.381734210754,
        "truck": 1288.3938222307102
    },
    "fid": 808.3977260898318,
    "wasserstein_distance": null,
    "g_loss": null,
    "g_cost": null,
    "d_loss_real": null,
    "d_loss_fake": null
}