{
    "epoch": 89,
    "avg_current_window": 800.4693447977169,
    "avg_prior_window": 814.1071307531536,
    "inception_score_mean": 1.8461690188184576,
    "inception_score_std": 0.07597302850409494,
    "fid_per_class": {
        "airplane": 1007.0205007752008,
        "automobile": 1221.8891899056875,
        "bird": 1249.7940386485934,
        "cat": 1062.6863736526764,
        "deer": 1300.982071374961,
        "dog": 941.2406536776816,
        "frog": 1397.1319530062437,
        "horse": 1183.2304399633708,
        "ship": 836.6160946237112,
        "truck": 1120.4720000768243
    },
    "fid": 748.0159025751441,
    "wasserstein_distance": null,
    "g_loss": null,
    "g_cost": null,
    "d_loss_real": null,
    "d_loss_fake": null
}