{
    "epoch": 111,
    "avg_current_window": 781.6050381282552,
    "avg_prior_window": 791.9086899881713,
    "inception_score_mean": 1.8674446640717466,
    "inception_score_std": 0.10751534881804113,
    "fid_per_class": {
        "airplane": 1000.0390228105214,
        "automobile": 1207.6737828033235,
        "bird": 1265.3124909346277,
        "cat": 1010.1516432323856,
        "deer": 1293.8910287742215,
        "dog": 906.1018668590071,
        "frog": 1396.4412234602153,
        "horse": 1117.024919846547,
        "ship": 845.5496686910406,
        "truck": 1088.4436159034567
    },
    "fid": 720.9630086704818,
    "wasserstein_distance": null,
    "g_loss": null,
    "g_cost": null,
    "d_loss_real": null,
    "d_loss_fake": null
}