{
    "epoch": 106,
    "avg_current_window": 785.0676873732345,
    "avg_prior_window": 796.3291430079558,
    "inception_score_mean": 1.88669598972145,
    "inception_score_std": 0.1379546513996078,
    "fid_per_class": {
        "airplane": 1003.1101507059434,
        "automobile": 1234.009360160925,
        "bird": 1254.9031750143579,
        "cat": 1009.7021118533977,
        "deer": 1314.0276433619797,
        "dog": 918.7291066109144,
        "frog": 1397.232672256915,
        "horse": 1172.5909660730592,
        "ship": 824.8095037416188,
        "truck": 1070.8639889658716
    },
    "fid": 725.1462771833069,
    "wasserstein_distance": null,
    "g_loss": null,
    "g_cost": null,
    "d_loss_real": null,
    "d_loss_fake": null
}