{
    "epoch": 120,
    "avg_current_window": 775.2482894799707,
    "avg_prior_window": 784.5775470616824,
    "inception_score_mean": 1.85994273025964,
    "inception_score_std": 0.13644464650376517,
    "fid_per_class": {
        "airplane": 979.3252683519776,
        "automobile": 1141.2117060870933,
        "bird": 1239.3581022635944,
        "cat": 951.9650922195848,
        "deer": 1270.240043617363,
        "dog": 898.6182975063025,
        "frog": 1302.8977950122812,
        "horse": 1122.2201598307404,
        "ship": 839.7880333554042,
        "truck": 1049.2461846994845
    },
    "fid": 686.2392875363086,
    "wasserstein_distance": null,
    "g_loss": null,
    "g_cost": null,
    "d_loss_real": null,
    "d_loss_fake": null
}