{
    "epoch": 96,
    "avg_current_window": 793.8907071340694,
    "avg_prior_window": 806.8703311061934,
    "inception_score_mean": 1.8733600959370396,
    "inception_score_std": 0.10807583760773751,
    "fid_per_class": {
        "airplane": 976.6610559145613,
        "automobile": 1176.3212204898966,
        "bird": 1291.888253386206,
        "cat": 1075.6516932681845,
        "deer": 1278.5332058379672,
        "dog": 955.6459000589587,
        "frog": 1319.4905010671082,
        "horse": 1182.7094138263574,
        "ship": 841.2355276587366,
        "truck": 1082.5505666720446
    },
    "fid": 730.3117937761763,
    "wasserstein_distance": null,
    "g_loss": null,
    "g_cost": null,
    "d_loss_real": null,
    "d_loss_fake": null
}