{
    "epoch": 3,
    "avg_current_window": 488.52830942072615,
    "avg_prior_window": 1734.436019306471,
    "inception_score_mean": 1.3011503846887735,
    "inception_score_std": 0.03992966989596016,
    "fid_per_class": {
        "airplane": 1335.919677486331,
        "automobile": 1486.1168375807988,
        "bird": 1251.677474424476,
        "cat": 1447.1565102912373,
        "deer": 1412.8904790183526,
        "dog": 1537.7054595896,
        "frog": 1623.6386117808966,
        "horse": 1504.335795916571,
        "ship": 1308.286293537164,
        "truck": 1397.0533783913884
    },
    "fid": 1185.4000028499338,
    "wasserstein_distance": null,
    "g_loss": null,
    "g_cost": null,
    "d_loss_real": null,
    "d_loss_fake": null
}