{
    "epoch": 126,
    "avg_current_window": 771.548764083906,
    "avg_prior_window": 780.0287251678889,
    "inception_score_mean": 1.8529170541608426,
    "inception_score_std": 0.09727863021430624,
    "fid_per_class": {
        "airplane": 999.55647818925,
        "automobile": 1182.649998581641,
        "bird": 1260.208907451261,
        "cat": 969.60770217978,
        "deer": 1302.9258283304234,
        "dog": 895.0657998404845,
        "frog": 1315.8412940546377,
        "horse": 1129.6682650884231,
        "ship": 917.2007426137808,
        "truck": 1094.2598750202194
    },
    "fid": 715.592577087278,
    "wasserstein_distance": null,
    "g_loss": null,
    "g_cost": null,
    "d_loss_real": null,
    "d_loss_fake": null
}