{
    "epoch": 155,
    "avg_current_window": 759.6671544083798,
    "avg_prior_window": 766.4980810690386,
    "inception_score_mean": 1.9344459828213743,
    "inception_score_std": 0.09468156585041304,
    "fid_per_class": {
        "airplane": 981.9246619308499,
        "automobile": 1184.8560117065117,
        "bird": 1222.051275699021,
        "cat": 1016.3140415056296,
        "deer": 1239.295979767082,
        "dog": 948.5224049313804,
        "frog": 1287.5527010853405,
        "horse": 1096.6198876598573,
        "ship": 820.9073152321469,
        "truck": 1032.5876447525388
    },
    "fid": 689.6705987183077,
    "wasserstein_distance": null,
    "g_loss": null,
    "g_cost": null,
    "d_loss_real": null,
    "d_loss_fake": null
}