{
    "epoch": 162,
    "avg_current_window": 756.4419208644782,
    "avg_prior_window": 763.0343012504693,
    "inception_score_mean": 1.8895935225749583,
    "inception_score_std": 0.14025883499497996,
    "fid_per_class": {
        "airplane": 977.4575329913624,
        "automobile": 1148.7896189963026,
        "bird": 1233.7310946242123,
        "cat": 987.2336055718874,
        "deer": 1255.0772384481736,
        "dog": 952.9623237289518,
        "frog": 1407.1886899077092,
        "horse": 1105.9330588026685,
        "ship": 818.065271252909,
        "truck": 1105.4359978562106
    },
    "fid": 717.8862649653322,
    "wasserstein_distance": null,
    "g_loss": null,
    "g_cost": null,
    "d_loss_real": null,
    "d_loss_fake": null
}