{
    "epoch": 34,
    "avg_current_window": 909.5502246536776,
    "avg_prior_window": 958.4730008212574,
    "inception_score_mean": 1.667258436116737,
    "inception_score_std": 0.09775810205232084,
    "fid_per_class": {
        "airplane": 1080.548109803894,
        "automobile": 1254.16115007218,
        "bird": 1337.6791519176916,
        "cat": 1073.827322361967,
        "deer": 1335.1789415126761,
        "dog": 1023.3684085012134,
        "frog": 1468.4002714339683,
        "horse": 1234.8411345041711,
        "ship": 816.4629479741127,
        "truck": 1195.5270128026068
    },
    "fid": 794.4589553871663,
    "wasserstein_distance": null,
    "g_loss": null,
    "g_cost": null,
    "d_loss_real": null,
    "d_loss_fake": null
}