{
    "epoch": 30,
    "avg_current_window": 926.5239007938821,
    "avg_prior_window": 975.907349019533,
    "inception_score_mean": 1.7127760511092855,
    "inception_score_std": 0.09345087063610674,
    "fid_per_class": {
        "airplane": 1074.1464334542875,
        "automobile": 1258.889808934438,
        "bird": 1365.0195984115683,
        "cat": 1095.597621419016,
        "deer": 1402.510346408825,
        "dog": 1010.4078623779785,
        "frog": 1434.0701371514133,
        "horse": 1295.5355783017835,
        "ship": 905.818503947325,
        "truck": 1190.2251647059995
    },
    "fid": 837.8740718244889,
    "wasserstein_distance": null,
    "g_loss": null,
    "g_cost": null,
    "d_loss_real": null,
    "d_loss_fake": null
}