{
    "epoch": 197,
    "avg_current_window": 746.1744227616518,
    "avg_prior_window": 751.0154834293038,
    "inception_score_mean": 1.8181154852748875,
    "inception_score_std": 0.06919291181418281,
    "fid_per_class": {
        "airplane": 988.8624816980084,
        "automobile": 1133.2495129443341,
        "bird": 1269.9106996385283,
        "cat": 1028.0783805223873,
        "deer": 1283.317984969834,
        "dog": 988.4946220192234,
        "frog": 1377.7408653992488,
        "horse": 1170.595555880594,
        "ship": 830.719315176969,
        "truck": 1056.9554485427102
    },
    "fid": 739.3592090564207,
    "wasserstein_distance": null,
    "g_loss": null,
    "g_cost": null,
    "d_loss_real": null,
    "d_loss_fake": null
}