{
    "epoch": 13,
    "avg_current_window": 1007.8598220888927,
    "avg_prior_window": 1204.2620574409207,
    "inception_score_mean": 1.491879792167604,
    "inception_score_std": 0.10393915670489405,
    "fid_per_class": {
        "airplane": 1132.6282822474989,
        "automobile": 1334.9561319971567,
        "bird": 1293.4205675464223,
        "cat": 1238.9920495204938,
        "deer": 1382.0171662740697,
        "dog": 1158.6769797701827,
        "frog": 1492.8447469531025,
        "horse": 1361.2273964303322,
        "ship": 942.9646574798917,
        "truck": 1149.0837441024642
    },
    "fid": 912.0050567689025,
    "wasserstein_distance": null,
    "g_loss": null,
    "g_cost": null,
    "d_loss_real": null,
    "d_loss_fake": null
}