{
    "epoch": 51,
    "avg_current_window": 860.6018619350768,
    "avg_prior_window": 889.7515990025535,
    "inception_score_mean": 1.830163502312225,
    "inception_score_std": 0.1301140612956334,
    "fid_per_class": {
        "airplane": 958.8313883982004,
        "automobile": 1203.2977954349976,
        "bird": 1260.6090600877933,
        "cat": 995.7691152615259,
        "deer": 1289.4278671913341,
        "dog": 943.795252581439,
        "frog": 1392.4667479144277,
        "horse": 1213.5130742554431,
        "ship": 819.8095038647369,
        "truck": 1134.2335932863152
    },
    "fid": 751.3203967823655,
    "wasserstein_distance": null,
    "g_loss": null,
    "g_cost": null,
    "d_loss_real": null,
    "d_loss_fake": null
}