{
    "epoch": 163,
    "avg_current_window": 756.2053830982259,
    "avg_prior_window": 762.4079936021151,
    "inception_score_mean": 1.882937915882426,
    "inception_score_std": 0.11869964919652352,
    "fid_per_class": {
        "airplane": 934.769801800915,
        "automobile": 1183.026370598056,
        "bird": 1254.3459473377197,
        "cat": 1091.7273660815185,
        "deer": 1349.4104738108067,
        "dog": 973.0478467209015,
        "frog": 1393.6148173409888,
        "horse": 1200.9728004188958,
        "ship": 809.8634024310556,
        "truck": 1102.7125115090146
    },
    "fid": 734.989957460254,
    "wasserstein_distance": null,
    "g_loss": null,
    "g_cost": null,
    "d_loss_real": null,
    "d_loss_fake": null
}