{
    "epoch": 8,
    "avg_current_window": 1081.3528228983205,
    "avg_prior_window": 1.0,
    "inception_score_mean": 1.4018756885234909,
    "inception_score_std": 0.05630406905470936,
    "fid_per_class": {
        "airplane": 1230.9296953433773,
        "automobile": 1547.0187754383871,
        "bird": 1187.7793111385222,
        "cat": 1210.0796182221586,
        "deer": 1186.4738082584067,
        "dog": 1216.5383339176362,
        "frog": 1340.4005650253634,
        "horse": 1351.8952165500937,
        "ship": 1142.5057091994354,
        "truck": 1416.2092371320746
    },
    "fid": 983.273876340801,
    "wasserstein_distance": null,
    "g_loss": null,
    "g_cost": null,
    "d_loss_real": null,
    "d_loss_fake": null
}