{
    "epoch": 174,
    "avg_current_window": 753.3153882665814,
    "avg_prior_window": 758.8276467101007,
    "inception_score_mean": 1.9035707575551122,
    "inception_score_std": 0.08495230551387058,
    "fid_per_class": {
        "airplane": 972.568550581601,
        "automobile": 1047.276827738212,
        "bird": 1252.2390549351999,
        "cat": 1002.4469384271117,
        "deer": 1226.5100273394135,
        "dog": 927.7780276604527,
        "frog": 1354.2980410182286,
        "horse": 1134.9191635136997,
        "ship": 786.9417610979606,
        "truck": 1022.1958195702512
    },
    "fid": 690.1424998258939,
    "wasserstein_distance": null,
    "g_loss": null,
    "g_cost": null,
    "d_loss_real": null,
    "d_loss_fake": null
}