{
    "epoch": 97,
    "avg_current_window": 793.2352544190395,
    "avg_prior_window": 805.5919646055537,
    "inception_score_mean": 1.9013558757294597,
    "inception_score_std": 0.09795663607582786,
    "fid_per_class": {
        "airplane": 987.9033541477768,
        "automobile": 1215.2264347581117,
        "bird": 1224.2722621268463,
        "cat": 1007.5283392369067,
        "deer": 1294.2536984264304,
        "dog": 871.7516260087369,
        "frog": 1366.4826864580327,
        "horse": 1163.72712498123,
        "ship": 847.0923675768651,
        "truck": 1135.2902379072066
    },
    "fid": 705.076397341068,
    "wasserstein_distance": null,
    "g_loss": null,
    "g_cost": null,
    "d_loss_real": null,
    "d_loss_fake": null
}