{
    "epoch": 28,
    "avg_current_window": 931.4698570287907,
    "avg_prior_window": 987.5525614265879,
    "inception_score_mean": 1.6389188087326532,
    "inception_score_std": 0.08687261616830529,
    "fid_per_class": {
        "airplane": 1132.917338432214,
        "automobile": 1345.626050276744,
        "bird": 1333.7224003558092,
        "cat": 1027.0198529592049,
        "deer": 1359.5600089813129,
        "dog": 956.5523413780794,
        "frog": 1332.6819080099046,
        "horse": 1320.886718305671,
        "ship": 969.0387044507517,
        "truck": 1247.745439109765
    },
    "fid": 834.234420472793,
    "wasserstein_distance": null,
    "g_loss": null,
    "g_cost": null,
    "d_loss_real": null,
    "d_loss_fake": null
}