{
    "epoch": 148,
    "avg_current_window": 762.8167348543594,
    "avg_prior_window": 769.8595091911474,
    "inception_score_mean": 1.8650729125701044,
    "inception_score_std": 0.11178259340457884,
    "fid_per_class": {
        "airplane": 964.6441128261336,
        "automobile": 1207.3845169781257,
        "bird": 1231.142809697014,
        "cat": 1004.6156868873595,
        "deer": 1241.4204286523081,
        "dog": 945.1907026482038,
        "frog": 1381.7327952730689,
        "horse": 1119.4307637068828,
        "ship": 828.5834266776222,
        "truck": 1114.471134621728
    },
    "fid": 715.4026850413651,
    "wasserstein_distance": null,
    "g_loss": null,
    "g_cost": null,
    "d_loss_real": null,
    "d_loss_fake": null
}