{
    "epoch": 6,
    "avg_current_window": 1106.1923870877138,
    "avg_prior_window": 3.0,
    "inception_score_mean": 1.3448398266808683,
    "inception_score_std": 0.04020141310422771,
    "fid_per_class": {
        "airplane": 1187.0995601568568,
        "automobile": 1368.1216822648698,
        "bird": 1256.3644748506704,
        "cat": 1299.0590042177164,
        "deer": 1314.063019979471,
        "dog": 1373.9211994580148,
        "frog": 1466.7972545896685,
        "horse": 1334.693467565267,
        "ship": 1128.6889199211334,
        "truck": 1294.7636639590328
    },
    "fid": 1010.3142419951188,
    "wasserstein_distance": null,
    "g_loss": null,
    "g_cost": null,
    "d_loss_real": null,
    "d_loss_fake": null
}