{
    "epoch": 55,
    "avg_current_window": 850.565247839163,
    "avg_prior_window": 877.8138991737783,
    "inception_score_mean": 1.8212555601088138,
    "inception_score_std": 0.08214414384649364,
    "fid_per_class": {
        "airplane": 967.4950264721934,
        "automobile": 1249.869997048749,
        "bird": 1235.5250616804328,
        "cat": 974.8392564478755,
        "deer": 1258.66592094741,
        "dog": 936.509486205067,
        "frog": 1297.8533701910562,
        "horse": 1139.8276818183992,
        "ship": 788.3267248534889,
        "truck": 1156.0674416726263
    },
    "fid": 719.7863604292291,
    "wasserstein_distance": null,
    "g_loss": null,
    "g_cost": null,
    "d_loss_real": null,
    "d_loss_fake": null
}