{
    "epoch": 103,
    "avg_current_window": 787.4596656433529,
    "avg_prior_window": 799.6042881882042,
    "inception_score_mean": 1.9363837174028382,
    "inception_score_std": 0.11514441709027871,
    "fid_per_class": {
        "airplane": 930.6224518623817,
        "automobile": 1243.3199642069906,
        "bird": 1218.117985360428,
        "cat": 953.2762230196244,
        "deer": 1255.0039716535746,
        "dog": 884.9493180138005,
        "frog": 1303.1723526813144,
        "horse": 1114.6564988263676,
        "ship": 820.8470954245315,
        "truck": 1079.3805954928425
    },
    "fid": 676.5194446661184,
    "wasserstein_distance": null,
    "g_loss": null,
    "g_cost": null,
    "d_loss_real": null,
    "d_loss_fake": null
}