{
    "epoch": 196,
    "avg_current_window": 746.412125329479,
    "avg_prior_window": 751.3478852353694,
    "inception_score_mean": 1.8879231124015639,
    "inception_score_std": 0.11788683429322068,
    "fid_per_class": {
        "airplane": 925.2705958863173,
        "automobile": 1137.4361153557006,
        "bird": 1226.5733495661311,
        "cat": 981.2226574126936,
        "deer": 1280.4626042775628,
        "dog": 933.3614422926137,
        "frog": 1321.9748463714234,
        "horse": 1140.755103544306,
        "ship": 881.1375331366386,
        "truck": 1116.5987235250896
    },
    "fid": 699.5847194675405,
    "wasserstein_distance": null,
    "g_loss": null,
    "g_cost": null,
    "d_loss_real": null,
    "d_loss_fake": null
}