{
    "epoch": 37,
    "avg_current_window": 898.7810459491078,
    "avg_prior_window": 943.1208343120376,
    "inception_score_mean": 1.7266102187261978,
    "inception_score_std": 0.10460722384985975,
    "fid_per_class": {
        "airplane": 949.6530869174999,
        "automobile": 1192.760625048342,
        "bird": 1271.9330666873655,
        "cat": 1009.1276392549312,
        "deer": 1164.0844408146088,
        "dog": 974.982929235266,
        "frog": 1340.658841387385,
        "horse": 1229.1834694029412,
        "ship": 829.3706745312227,
        "truck": 1104.5238918909727
    },
    "fid": 728.2019248817455,
    "wasserstein_distance": null,
    "g_loss": null,
    "g_cost": null,
    "d_loss_real": null,
    "d_loss_fake": null
}