{
    "epoch": 171,
    "avg_current_window": 754.2119611476959,
    "avg_prior_window": 759.7753555384941,
    "inception_score_mean": 1.918075380547683,
    "inception_score_std": 0.13640298691228991,
    "fid_per_class": {
        "airplane": 913.6770310327533,
        "automobile": 1068.2254831243727,
        "bird": 1223.3671577353587,
        "cat": 957.4006153461398,
        "deer": 1228.188133414597,
        "dog": 972.5924781854364,
        "frog": 1356.9082238885305,
        "horse": 1170.2941253248991,
        "ship": 842.711258678454,
        "truck": 1018.4657116746777
    },
    "fid": 690.457054149711,
    "wasserstein_distance": null,
    "g_loss": null,
    "g_cost": null,
    "d_loss_real": null,
    "d_loss_fake": null
}