{
    "epoch": 40,
    "avg_current_window": 889.45818901103,
    "avg_prior_window": 928.8261985576419,
    "inception_score_mean": 1.7775269112222822,
    "inception_score_std": 0.09298967374823001,
    "fid_per_class": {
        "airplane": 942.8894259403156,
        "automobile": 1161.5563139538572,
        "bird": 1291.4155783578385,
        "cat": 981.5299045496234,
        "deer": 1334.0376425567738,
        "dog": 1015.554568180495,
        "frog": 1353.4834643660638,
        "horse": 1245.4875799985778,
        "ship": 841.2666701396411,
        "truck": 1095.152583308177
    },
    "fid": 757.7407591993299,
    "wasserstein_distance": null,
    "g_loss": null,
    "g_cost": null,
    "d_loss_real": null,
    "d_loss_fake": null
}