{
    "epoch": 159,
    "avg_current_window": 757.6129747744287,
    "avg_prior_window": 764.6000580084342,
    "inception_score_mean": 1.8832581740186185,
    "inception_score_std": 0.14738333086119204,
    "fid_per_class": {
        "airplane": 943.533857954863,
        "automobile": 1171.0992775537784,
        "bird": 1174.7406725892956,
        "cat": 986.2466911231006,
        "deer": 1311.0928685257345,
        "dog": 922.9558158186771,
        "frog": 1291.4297757553436,
        "horse": 1174.6891157689702,
        "ship": 814.9517130895385,
        "truck": 1119.1491828609614
    },
    "fid": 696.7095731136004,
    "wasserstein_distance": null,
    "g_loss": null,
    "g_cost": null,
    "d_loss_real": null,
    "d_loss_fake": null
}