{
    "epoch": 191,
    "avg_current_window": 747.4949083598992,
    "avg_prior_window": 753.1192091064441,
    "inception_score_mean": 1.8582868097264273,
    "inception_score_std": 0.10035482446551187,
    "fid_per_class": {
        "airplane": 1018.4352456113602,
        "automobile": 1160.063615369495,
        "bird": 1241.3204301675441,
        "cat": 998.8957206824448,
        "deer": 1308.581865889997,
        "dog": 975.7810650089657,
        "frog": 1432.9619402666408,
        "horse": 1184.4504780172538,
        "ship": 822.4731954651984,
        "truck": 1058.3896500288079
    },
    "fid": 735.9185832147987,
    "wasserstein_distance": null,
    "g_loss": null,
    "g_cost": null,
    "d_loss_real": null,
    "d_loss_fake": null
}