{
    "epoch": 107,
    "avg_current_window": 784.5076741938893,
    "avg_prior_window": 795.1798584437779,
    "inception_score_mean": 1.9308113927972048,
    "inception_score_std": 0.16315805696999747,
    "fid_per_class": {
        "airplane": 984.8524085175868,
        "automobile": 1266.4674094756783,
        "bird": 1248.9325274207883,
        "cat": 978.861123372746,
        "deer": 1290.9060424189163,
        "dog": 984.5584088485622,
        "frog": 1390.0022371776663,
        "horse": 1088.7484067506048,
        "ship": 835.2990903649045,
        "truck": 1115.809222720588
    },
    "fid": 724.2308913004588,
    "wasserstein_distance": null,
    "g_loss": null,
    "g_cost": null,
    "d_loss_real": null,
    "d_loss_fake": null
}