{
    "epoch": 93,
    "avg_current_window": 796.9296854162467,
    "avg_prior_window": 809.5655873522363,
    "inception_score_mean": 1.8325990242957992,
    "inception_score_std": 0.09923017744879477,
    "fid_per_class": {
        "airplane": 968.4453990566581,
        "automobile": 1252.0237180755073,
        "bird": 1249.4308058741192,
        "cat": 989.7926496841287,
        "deer": 1312.503608576088,
        "dog": 933.429191111041,
        "frog": 1390.2642396778238,
        "horse": 1126.735308896335,
        "ship": 816.3919749386515,
        "truck": 1101.6380071426204
    },
    "fid": 713.9457416422767,
    "wasserstein_distance": null,
    "g_loss": null,
    "g_cost": null,
    "d_loss_real": null,
    "d_loss_fake": null
}