{
    "epoch": 144,
    "avg_current_window": 764.5132625995423,
    "avg_prior_window": 772.0833236811395,
    "inception_score_mean": 1.8869884392700924,
    "inception_score_std": 0.11137425617049923,
    "fid_per_class": {
        "airplane": 924.2235583623842,
        "automobile": 1136.1796401896936,
        "bird": 1213.5095277173214,
        "cat": 987.267275090273,
        "deer": 1268.059173779311,
        "dog": 940.8055153862947,
        "frog": 1315.8604310402327,
        "horse": 1147.1874781773872,
        "ship": 800.9892867908815,
        "truck": 1085.266882379362
    },
    "fid": 688.1154662977649,
    "wasserstein_distance": null,
    "g_loss": null,
    "g_cost": null,
    "d_loss_real": null,
    "d_loss_fake": null
}