{
    "epoch": 98,
    "avg_current_window": 792.3356742447745,
    "avg_prior_window": 804.606521347884,
    "inception_score_mean": 1.863773950367841,
    "inception_score_std": 0.09855330864007,
    "fid_per_class": {
        "airplane": 978.9851545738946,
        "automobile": 1229.2339256195191,
        "bird": 1272.930637624098,
        "cat": 980.135442973046,
        "deer": 1235.4207914583071,
        "dog": 970.1629433077834,
        "frog": 1315.217802429636,
        "horse": 1128.076527991715,
        "ship": 770.0592314939025,
        "truck": 1034.404720720091
    },
    "fid": 712.3241664561283,
    "wasserstein_distance": null,
    "g_loss": null,
    "g_cost": null,
    "d_loss_real": null,
    "d_loss_fake": null
}