{
    "epoch": 142,
    "avg_current_window": 765.7273711461328,
    "avg_prior_window": 773.3964670287393,
    "inception_score_mean": 1.87987817791136,
    "inception_score_std": 0.14659833319696772,
    "fid_per_class": {
        "airplane": 986.5842082716969,
        "automobile": 1114.5855806553177,
        "bird": 1247.1599355922722,
        "cat": 976.7169239644991,
        "deer": 1284.0647133949317,
        "dog": 918.8836541705016,
        "frog": 1332.0887163405873,
        "horse": 1140.1313656808843,
        "ship": 843.5019679840802,
        "truck": 1034.1281610960793
    },
    "fid": 692.8037976694852,
    "wasserstein_distance": null,
    "g_loss": null,
    "g_cost": null,
    "d_loss_real": null,
    "d_loss_fake": null
}