{
    "epoch": 110,
    "avg_current_window": 904.087449880371,
    "avg_prior_window": 923.8524656545874,
    "inception_score_mean": 2.0037162440383964,
    "inception_score_std": 0.2097422524349535,
    "fid_per_class": {
        "airplane": 893.1442398540149,
        "automobile": 1035.2853313719518,
        "bird": 1234.1493759014052,
        "cat": 924.5766008434352,
        "deer": 1324.0322648268416,
        "dog": 979.0856149411645,
        "frog": 1258.1723773739877,
        "horse": 1011.3649997185742,
        "ship": 753.1032319732406,
        "truck": 983.5233470254373
    },
    "fid": 634.7362207212084,
    "wasserstein_distance": null,
    "g_loss": null,
    "g_cost": null,
    "d_loss_real": null,
    "d_loss_fake": null
}