{
    "epoch": 168,
    "avg_current_window": 798.4988730462683,
    "avg_prior_window": 807.968881907343,
    "inception_score_mean": 2.019982249281534,
    "inception_score_std": 0.2040414863466253,
    "fid_per_class": {
        "airplane": 904.9867161715904,
        "automobile": 963.2864329828212,
        "bird": 1076.399977862549,
        "cat": 858.6658462069017,
        "deer": 1165.7267080670517,
        "dog": 916.3225411687802,
        "frog": 1181.3955177024995,
        "horse": 948.9233691163994,
        "ship": 720.7684436278915,
        "truck": 902.3410869965377
    },
    "fid": 545.4507602914803,
    "wasserstein_distance": null,
    "g_loss": null,
    "g_cost": null,
    "d_loss_real": null,
    "d_loss_fake": null
}