{
    "epoch": 61,
    "avg_current_window": 1122.1464053616496,
    "avg_prior_window": 1176.0008937127877,
    "inception_score_mean": 2.0389759512596766,
    "inception_score_std": 0.18269309824478994,
    "fid_per_class": {
        "airplane": 973.6636001592301,
        "automobile": 1068.9611536401158,
        "bird": 1288.1117335624938,
        "cat": 940.2710246159984,
        "deer": 1240.7709236310345,
        "dog": 958.7094115269626,
        "frog": 1329.0008983918663,
        "horse": 1061.2970329725363,
        "ship": 843.4119463876125,
        "truck": 1043.611564508505
    },
    "fid": 660.5547899020788,
    "wasserstein_distance": null,
    "g_loss": null,
    "g_cost": null,
    "d_loss_real": null,
    "d_loss_fake": null
}