{
    "epoch": 143,
    "avg_current_window": 833.9070256010517,
    "avg_prior_window": 846.9934146988777,
    "inception_score_mean": 2.032518869477443,
    "inception_score_std": 0.15432354132844342,
    "fid_per_class": {
        "airplane": 956.751779627011,
        "automobile": 959.9447326504746,
        "bird": 1100.6193169997366,
        "cat": 907.7184314042418,
        "deer": 1165.5729764946857,
        "dog": 900.7607568209758,
        "frog": 1253.626034316681,
        "horse": 930.5857907457237,
        "ship": 711.952627504609,
        "truck": 847.217937875391
    },
    "fid": 559.8280296360685,
    "wasserstein_distance": null,
    "g_loss": null,
    "g_cost": null,
    "d_loss_real": null,
    "d_loss_fake": null
}