{
    "epoch": 49,
    "avg_current_window": 1236.9128037395437,
    "avg_prior_window": 1317.2456848491495,
    "inception_score_mean": 2.0166948002751193,
    "inception_score_std": 0.17813678395547808,
    "fid_per_class": {
        "airplane": 965.5635189259849,
        "automobile": 1055.3140021856038,
        "bird": 1249.4669715844325,
        "cat": 993.105476434443,
        "deer": 1281.3866392042487,
        "dog": 1028.1649637373775,
        "frog": 1281.4353018095817,
        "horse": 1089.0062708607716,
        "ship": 820.7844017932231,
        "truck": 1092.7938835269886
    },
    "fid": 669.0286457101986,
    "wasserstein_distance": null,
    "g_loss": null,
    "g_cost": null,
    "d_loss_real": null,
    "d_loss_fake": null
}