{
    "epoch": 4,
    "avg_current_window": 1679.9458095191994,
    "avg_prior_window": 1997.7047301002658,
    "inception_score_mean": 1.0001967249730848,
    "inception_score_std": 3.851325721149015e-05,
    "fid_per_class": {
        "airplane": 1936.3686909190003,
        "automobile": 2213.690479546186,
        "bird": 2418.235881456905,
        "cat": 2443.6964527229666,
        "deer": 2879.873997280822,
        "dog": 2536.548036146247,
        "frog": 2703.1982735174693,
        "horse": 2575.9492484454904,
        "ship": 2055.9571836495334,
        "truck": 2104.3162934393586
    },
    "fid": 2361.6091930523644,
    "wasserstein_distance": null,
    "g_loss": null,
    "g_cost": null,
    "d_loss_real": null,
    "d_loss_fake": null
}