{
    "epoch": 35,
    "avg_current_window": 1444.9359808080765,
    "avg_prior_window": 1573.169609419213,
    "inception_score_mean": 1.8776213487559512,
    "inception_score_std": 0.13008823379185974,
    "fid_per_class": {
        "airplane": 1033.195378178875,
        "automobile": 1127.2925699328916,
        "bird": 1404.0886769681933,
        "cat": 1156.4442442172026,
        "deer": 1466.7852008524258,
        "dog": 1200.0401493774698,
        "frog": 1530.4109945243324,
        "horse": 1277.0335248768865,
        "ship": 846.9898891003699,
        "truck": 1079.10469802112
    },
    "fid": 816.2737353615407,
    "wasserstein_distance": null,
    "g_loss": null,
    "g_cost": null,
    "d_loss_real": null,
    "d_loss_fake": null
}