{
    "epoch": 22,
    "avg_current_window": 1757.8757347712983,
    "avg_prior_window": 2024.0074629032363,
    "inception_score_mean": 1.451341446465055,
    "inception_score_std": 0.08160032771198636,
    "fid_per_class": {
        "airplane": 1277.8018570594281,
        "automobile": 1301.3508206225515,
        "bird": 1223.0032391834825,
        "cat": 1335.3912912790934,
        "deer": 1299.2021387918833,
        "dog": 1449.0811185865437,
        "frog": 1406.8523049677008,
        "horse": 1240.4635672716017,
        "ship": 1084.4292897508021,
        "truck": 1262.4604939778196
    },
    "fid": 935.0858556752892,
    "wasserstein_distance": null,
    "g_loss": null,
    "g_cost": null,
    "d_loss_real": null,
    "d_loss_fake": null
}