{
    "epoch": 92,
    "avg_current_window": 960.0062328728172,
    "avg_prior_window": 985.5390383322466,
    "inception_score_mean": 2.0063728475293026,
    "inception_score_std": 0.18273617584568483,
    "fid_per_class": {
        "airplane": 946.3925663531002,
        "automobile": 1012.6902492378118,
        "bird": 1196.5440967692202,
        "cat": 923.5540824191326,
        "deer": 1222.6168006252647,
        "dog": 922.8976304364007,
        "frog": 1213.0981132319205,
        "horse": 976.8477444632734,
        "ship": 828.26701363094,
        "truck": 947.0743134483109
    },
    "fid": 609.3321364117907,
    "wasserstein_distance": null,
    "g_loss": null,
    "g_cost": null,
    "d_loss_real": null,
    "d_loss_fake": null
}