{
    "epoch": 15,
    "avg_current_window": 2017.6703516501289,
    "avg_prior_window": 2277.1375950058855,
    "inception_score_mean": 1.2598715988450082,
    "inception_score_std": 0.05764861440633995,
    "fid_per_class": {
        "airplane": 1510.7989107892017,
        "automobile": 1514.9751959442847,
        "bird": 1552.7832846099109,
        "cat": 1912.4984292212066,
        "deer": 1837.1169953899857,
        "dog": 1999.4258782904033,
        "frog": 1847.4530917899895,
        "horse": 1811.60150529689,
        "ship": 1273.4472003830226,
        "truck": 1455.0375370637096
    },
    "fid": 1451.6874078791022,
    "wasserstein_distance": null,
    "g_loss": null,
    "g_cost": null,
    "d_loss_real": null,
    "d_loss_fake": null
}