{
    "epoch": 72,
    "avg_current_window": 1049.0095955896513,
    "avg_prior_window": 1088.7576536528402,
    "inception_score_mean": 1.8449775876862642,
    "inception_score_std": 0.14979355833722538,
    "fid_per_class": {
        "airplane": 1059.4447354775587,
        "automobile": 1076.0470271294707,
        "bird": 1301.37727932532,
        "cat": 982.1494486670513,
        "deer": 1301.0333255553344,
        "dog": 1005.7626265963939,
        "frog": 1451.046172225862,
        "horse": 1057.0841851704176,
        "ship": 844.789849170651,
        "truck": 974.7938079844029
    },
    "fid": 704.1065357958387,
    "wasserstein_distance": null,
    "g_loss": null,
    "g_cost": null,
    "d_loss_real": null,
    "d_loss_fake": null
}