{
    "epoch": 139,
    "avg_current_window": 840.8999368952886,
    "avg_prior_window": 854.6158811206778,
    "inception_score_mean": 1.9847471244920054,
    "inception_score_std": 0.21793111835466178,
    "fid_per_class": {
        "airplane": 907.5412351401042,
        "automobile": 978.8045858823131,
        "bird": 1130.7787295314834,
        "cat": 879.5822329125681,
        "deer": 1171.0893116598627,
        "dog": 960.7652005219946,
        "frog": 1284.4735013489521,
        "horse": 1027.393359412042,
        "ship": 726.0015888822471,
        "truck": 869.3487464260631
    },
    "fid": 580.0972491368948,
    "wasserstein_distance": null,
    "g_loss": null,
    "g_cost": null,
    "d_loss_real": null,
    "d_loss_fake": null
}