{
    "epoch": 127,
    "avg_current_window": 864.0812959080677,
    "avg_prior_window": 880.0596612920273,
    "inception_score_mean": 2.0263699674782343,
    "inception_score_std": 0.24858056620925442,
    "fid_per_class": {
        "airplane": 970.7401537266009,
        "automobile": 1060.6812649125266,
        "bird": 1171.431783322267,
        "cat": 901.5275928834228,
        "deer": 1228.6707272160343,
        "dog": 925.6164416800781,
        "frog": 1199.3877809015394,
        "horse": 997.1627117306884,
        "ship": 735.2812339983903,
        "truck": 918.5782365781648
    },
    "fid": 612.4397731312561,
    "wasserstein_distance": null,
    "g_loss": null,
    "g_cost": null,
    "d_loss_real": null,
    "d_loss_fake": null
}