{
    "epoch": 53,
    "avg_current_window": 1193.3002713259941,
    "avg_prior_window": 1262.6818204841175,
    "inception_score_mean": 1.958326944504644,
    "inception_score_std": 0.14549842587909254,
    "fid_per_class": {
        "airplane": 889.3014192897801,
        "automobile": 1067.2124525140425,
        "bird": 1250.3218359386683,
        "cat": 893.8769508940344,
        "deer": 1219.3995787942995,
        "dog": 891.6387464441452,
        "frog": 1381.1009637873876,
        "horse": 1063.155626686546,
        "ship": 733.9496331071489,
        "truck": 907.556341421342
    },
    "fid": 592.1698078357723,
    "wasserstein_distance": null,
    "g_loss": null,
    "g_cost": null,
    "d_loss_real": null,
    "d_loss_fake": null
}