{
    "epoch": 25,
    "avg_current_window": 1665.104305095753,
    "avg_prior_window": 1885.7220163356747,
    "inception_score_mean": 1.8474143840796668,
    "inception_score_std": 0.18763813877476263,
    "fid_per_class": {
        "airplane": 1029.7465361238628,
        "automobile": 1320.4057489925817,
        "bird": 1552.7202312092509,
        "cat": 1459.081795474164,
        "deer": 1694.4332578498002,
        "dog": 1564.1711956858974,
        "frog": 1798.034499752061,
        "horse": 1601.8843019982844,
        "ship": 934.1429785847185,
        "truck": 1194.204541892076
    },
    "fid": 1038.8971023366603,
    "wasserstein_distance": null,
    "g_loss": null,
    "g_cost": null,
    "d_loss_real": null,
    "d_loss_fake": null
}