{
    "epoch": 93,
    "avg_current_window": 956.2355436635589,
    "avg_prior_window": 981.3665132946236,
    "inception_score_mean": 1.9672212878525257,
    "inception_score_std": 0.18861848219681143,
    "fid_per_class": {
        "airplane": 954.3716537953961,
        "automobile": 1048.4262561803243,
        "bird": 1248.4520257788922,
        "cat": 1006.3426807779749,
        "deer": 1196.9135216723726,
        "dog": 940.828226837787,
        "frog": 1226.0632584784971,
        "horse": 999.8022931638066,
        "ship": 803.205865520373,
        "truck": 1013.9604314552038
    },
    "fid": 622.5390535346253,
    "wasserstein_distance": null,
    "g_loss": null,
    "g_cost": null,
    "d_loss_real": null,
    "d_loss_fake": null
}