{
    "epoch": 41,
    "avg_current_window": 1344.5015668449448,
    "avg_prior_window": 1452.2463885555476,
    "inception_score_mean": 1.8934981865697644,
    "inception_score_std": 0.11498119966222924,
    "fid_per_class": {
        "airplane": 967.7353788505472,
        "automobile": 1106.5697986584878,
        "bird": 1379.6435105576354,
        "cat": 1009.280048145769,
        "deer": 1407.0657469624307,
        "dog": 1117.5585558837208,
        "frog": 1482.68727650236,
        "horse": 1218.8465478552569,
        "ship": 836.9264285602922,
        "truck": 1091.982765963402
    },
    "fid": 749.3355281681163,
    "wasserstein_distance": null,
    "g_loss": null,
    "g_cost": null,
    "d_loss_real": null,
    "d_loss_fake": null
}