{
    "epoch": 199,
    "avg_current_window": 765.1619150511821,
    "avg_prior_window": 773.0500720552044,
    "inception_score_mean": 1.9894908543245602,
    "inception_score_std": 0.16131910750317163,
    "fid_per_class": {
        "airplane": 881.5744505932205,
        "automobile": 1057.7272807505165,
        "bird": 1143.1015719981483,
        "cat": 898.6430973992738,
        "deer": 1291.5714647276627,
        "dog": 927.5974751229357,
        "frog": 1312.9465241904059,
        "horse": 987.6161695705118,
        "ship": 799.0856616360903,
        "truck": 866.0275882627025
    },
    "fid": 605.4350031976136,
    "wasserstein_distance": null,
    "g_loss": null,
    "g_cost": null,
    "d_loss_real": null,
    "d_loss_fake": null
}