{
    "epoch": 83,
    "avg_current_window": 994.2406722774814,
    "avg_prior_window": 1025.8551407714867,
    "inception_score_mean": 1.897375828063224,
    "inception_score_std": 0.1681068992075676,
    "fid_per_class": {
        "airplane": 967.5623913695259,
        "automobile": 1075.3875382815502,
        "bird": 1236.5186384665235,
        "cat": 973.3453504644583,
        "deer": 1302.6128959642701,
        "dog": 939.350485739173,
        "frog": 1253.679767925729,
        "horse": 1024.3745792923205,
        "ship": 749.3480319811324,
        "truck": 1017.449854467563
    },
    "fid": 647.8310510776942,
    "wasserstein_distance": null,
    "g_loss": null,
    "g_cost": null,
    "d_loss_real": null,
    "d_loss_fake": null
}