{
    "epoch": 79,
    "avg_current_window": 1012.8696326604553,
    "avg_prior_window": 1047.7001400369304,
    "inception_score_mean": 2.01230685362844,
    "inception_score_std": 0.17874444521602825,
    "fid_per_class": {
        "airplane": 943.4912280118058,
        "automobile": 1147.3757985429947,
        "bird": 1188.4199768760502,
        "cat": 990.9117894385134,
        "deer": 1185.2861964816386,
        "dog": 949.5390053970281,
        "frog": 1304.7155451945557,
        "horse": 977.6767537526255,
        "ship": 831.3921316934902,
        "truck": 986.7284987108206
    },
    "fid": 632.7305040173671,
    "wasserstein_distance": null,
    "g_loss": null,
    "g_cost": null,
    "d_loss_real": null,
    "d_loss_fake": null
}