{
    "epoch": 171,
    "avg_current_window": 794.6387827517656,
    "avg_prior_window": 804.3416353279189,
    "inception_score_mean": 1.965193201268573,
    "inception_score_std": 0.14329239983245842,
    "fid_per_class": {
        "airplane": 898.6926617330544,
        "automobile": 987.0244479270771,
        "bird": 1140.8186377004151,
        "cat": 910.7855618040544,
        "deer": 1231.0379570268428,
        "dog": 939.5985780084193,
        "frog": 1201.9936786823223,
        "horse": 997.3131487217747,
        "ship": 777.5285300704176,
        "truck": 940.9370542409134
    },
    "fid": 596.462792682798,
    "wasserstein_distance": null,
    "g_loss": null,
    "g_cost": null,
    "d_loss_real": null,
    "d_loss_fake": null
}