{
    "epoch": 133,
    "avg_current_window": 852.2350377384168,
    "avg_prior_window": 866.7893489688962,
    "inception_score_mean": 2.0873987353269254,
    "inception_score_std": 0.19978439245135746,
    "fid_per_class": {
        "airplane": 880.6746304325129,
        "automobile": 972.8258108384908,
        "bird": 1151.2351640023464,
        "cat": 928.9348875498886,
        "deer": 1230.6254006439412,
        "dog": 1003.5439806623435,
        "frog": 1305.2929730159888,
        "horse": 972.5985229094073,
        "ship": 698.6050852032806,
        "truck": 877.4593150529568
    },
    "fid": 581.5988851738975,
    "wasserstein_distance": null,
    "g_loss": null,
    "g_cost": null,
    "d_loss_real": null,
    "d_loss_fake": null
}