{
    "epoch": 109,
    "avg_current_window": 906.6415043837607,
    "avg_prior_window": 926.760623020349,
    "inception_score_mean": 1.9621071426081476,
    "inception_score_std": 0.16692445981877962,
    "fid_per_class": {
        "airplane": 930.4064343982593,
        "automobile": 1060.7788991146049,
        "bird": 1237.0937890053983,
        "cat": 939.8486385226902,
        "deer": 1245.6992631082985,
        "dog": 880.8529128408516,
        "frog": 1204.7776911981746,
        "horse": 979.2657478349579,
        "ship": 821.8124180200439,
        "truck": 937.4861464983339
    },
    "fid": 625.6955090108943,
    "wasserstein_distance": null,
    "g_loss": null,
    "g_cost": null,
    "d_loss_real": null,
    "d_loss_fake": null
}