{
    "epoch": 48,
    "avg_current_window": 1247.9199102832079,
    "avg_prior_window": 1331.4451783442119,
    "inception_score_mean": 1.847742832551453,
    "inception_score_std": 0.09990904895361377,
    "fid_per_class": {
        "airplane": 1031.338489996605,
        "automobile": 1128.6799394252248,
        "bird": 1280.7284092212003,
        "cat": 927.4156481106052,
        "deer": 1375.9562852388954,
        "dog": 1001.4029399445317,
        "frog": 1427.5232457540187,
        "horse": 1135.2544773004413,
        "ship": 837.2125562409522,
        "truck": 1024.6172759878016
    },
    "fid": 708.5716896436631,
    "wasserstein_distance": null,
    "g_loss": null,
    "g_cost": null,
    "d_loss_real": null,
    "d_loss_fake": null
}