{
    "epoch": 118,
    "avg_current_window": 884.9533488143343,
    "avg_prior_window": 902.0211674872235,
    "inception_score_mean": 1.9860996369712194,
    "inception_score_std": 0.1513390083576856,
    "fid_per_class": {
        "airplane": 897.6692711147982,
        "automobile": 1078.7002338742664,
        "bird": 1176.6980828380806,
        "cat": 894.6668573710984,
        "deer": 1173.9700804264646,
        "dog": 924.4910600282194,
        "frog": 1189.495506275213,
        "horse": 913.9007247163172,
        "ship": 812.0763348623445,
        "truck": 960.5921209777953
    },
    "fid": 582.3014413854269,
    "wasserstein_distance": null,
    "g_loss": null,
    "g_cost": null,
    "d_loss_real": null,
    "d_loss_fake": null
}