{
    "epoch": 129,
    "avg_current_window": 860.0700516900675,
    "avg_prior_window": 875.4235702296666,
    "inception_score_mean": 2.012360863276874,
    "inception_score_std": 0.20211339638990494,
    "fid_per_class": {
        "airplane": 907.1307574109676,
        "automobile": 1012.1156504732526,
        "bird": 1103.208521695114,
        "cat": 942.3310869130223,
        "deer": 1198.6617252903368,
        "dog": 940.137480763284,
        "frog": 1181.469512550211,
        "horse": 943.7085730529266,
        "ship": 772.1705091196876,
        "truck": 909.298048321317
    },
    "fid": 579.4272622983226,
    "wasserstein_distance": null,
    "g_loss": null,
    "g_cost": null,
    "d_loss_real": null,
    "d_loss_fake": null
}