{
    "epoch": 45,
    "avg_current_window": 1287.9735585191684,
    "avg_prior_window": 1378.1141060160685,
    "inception_score_mean": 1.9208314818787753,
    "inception_score_std": 0.09881283330557974,
    "fid_per_class": {
        "airplane": 892.5577024162881,
        "automobile": 1080.7798732637034,
        "bird": 1323.7473841298724,
        "cat": 981.5748594122217,
        "deer": 1412.7300953616802,
        "dog": 1069.7526246462962,
        "frog": 1367.141463334089,
        "horse": 1163.3112374743032,
        "ship": 718.977200628559,
        "truck": 1054.7939386792702
    },
    "fid": 694.3977435227598,
    "wasserstein_distance": null,
    "g_loss": null,
    "g_cost": null,
    "d_loss_real": null,
    "d_loss_fake": null
}