{
    "epoch": 125,
    "avg_current_window": 868.4201816678292,
    "avg_prior_window": 884.9184756262899,
    "inception_score_mean": 2.019744798568028,
    "inception_score_std": 0.2061381863361998,
    "fid_per_class": {
        "airplane": 929.7662140788855,
        "automobile": 1010.5490211884037,
        "bird": 1161.7862460426416,
        "cat": 902.1789689844471,
        "deer": 1202.383348918918,
        "dog": 964.51816285726,
        "frog": 1174.159830307904,
        "horse": 952.6575021764788,
        "ship": 792.32469916863,
        "truck": 919.4173516855179
    },
    "fid": 599.3721241592253,
    "wasserstein_distance": null,
    "g_loss": null,
    "g_cost": null,
    "d_loss_real": null,
    "d_loss_fake": null
}