{
    "epoch": 23,
    "avg_current_window": 1722.1022617671238,
    "avg_prior_window": 1980.1274130932543,
    "inception_score_mean": 1.4013746315398907,
    "inception_score_std": 0.048678244807820605,
    "fid_per_class": {
        "airplane": 1287.8704351010858,
        "automobile": 1382.534699266815,
        "bird": 1354.247749172872,
        "cat": 1289.5548166044782,
        "deer": 1623.7329521893607,
        "dog": 1436.6879094229098,
        "frog": 1502.652729765096,
        "horse": 1468.7220261422099,
        "ship": 1176.00741428823,
        "truck": 1296.933062081456
    },
    "fid": 1043.3344872153825,
    "wasserstein_distance": null,
    "g_loss": null,
    "g_cost": null,
    "d_loss_real": null,
    "d_loss_fake": null
}