{
    "epoch": 134,
    "avg_current_window": 850.2153649580846,
    "avg_prior_window": 864.5617358939305,
    "inception_score_mean": 1.9496408776691296,
    "inception_score_std": 0.1411554214539838,
    "fid_per_class": {
        "airplane": 883.3501170349117,
        "automobile": 1039.8925972429658,
        "bird": 1208.8382035738302,
        "cat": 973.4289881773714,
        "deer": 1171.9647259601425,
        "dog": 942.9581461258484,
        "frog": 1119.3314248124884,
        "horse": 1007.5252062225393,
        "ship": 729.1013210234235,
        "truck": 937.3022502988342
    },
    "fid": 589.6691657874925,
    "wasserstein_distance": null,
    "g_loss": null,
    "g_cost": null,
    "d_loss_real": null,
    "d_loss_fake": null
}