{
    "epoch": 147,
    "avg_current_window": 827.3030485703255,
    "avg_prior_window": 839.779610288383,
    "inception_score_mean": 2.0654723596794464,
    "inception_score_std": 0.18106813513240896,
    "fid_per_class": {
        "airplane": 903.4953944475596,
        "automobile": 991.5907603677995,
        "bird": 1146.688699891974,
        "cat": 888.8793317257417,
        "deer": 1149.9815391888524,
        "dog": 915.2541808717388,
        "frog": 1167.89117410182,
        "horse": 1020.6434810491377,
        "ship": 763.0588730621266,
        "truck": 939.3091671025386
    },
    "fid": 578.2252460852707,
    "wasserstein_distance": null,
    "g_loss": null,
    "g_cost": null,
    "d_loss_real": null,
    "d_loss_fake": null
}