{
    "epoch": 57,
    "avg_current_window": 1155.3692990862476,
    "avg_prior_window": 1216.2483534668786,
    "inception_score_mean": 1.9454935385554646,
    "inception_score_std": 0.14354097236057778,
    "fid_per_class": {
        "airplane": 933.1931537956855,
        "automobile": 1046.3947523251618,
        "bird": 1269.3891564348808,
        "cat": 940.5726789771277,
        "deer": 1091.209652014914,
        "dog": 932.6434814521976,
        "frog": 1237.4608850995708,
        "horse": 1031.5497394788724,
        "ship": 829.2818355079498,
        "truck": 1006.0525118391895
    },
    "fid": 616.2227822056618,
    "wasserstein_distance": null,
    "g_loss": null,
    "g_cost": null,
    "d_loss_real": null,
    "d_loss_fake": null
}