{
    "epoch": 175,
    "avg_current_window": 789.7829542043239,
    "avg_prior_window": 799.3131285326583,
    "inception_score_mean": 2.0200656689887664,
    "inception_score_std": 0.18608467624122071,
    "fid_per_class": {
        "airplane": 873.5443610799477,
        "automobile": 943.8082092774055,
        "bird": 1141.3815919101696,
        "cat": 917.5243052123532,
        "deer": 1241.2263726397873,
        "dog": 1021.3971133322282,
        "frog": 1255.1489456360378,
        "horse": 1037.9755165827821,
        "ship": 765.1525489968955,
        "truck": 845.7882490996528
    },
    "fid": 600.6122709233014,
    "wasserstein_distance": null,
    "g_loss": null,
    "g_cost": null,
    "d_loss_real": null,
    "d_loss_fake": null
}