{
    "epoch": 142,
    "avg_current_window": 835.5824137783673,
    "avg_prior_window": 849.2963315481948,
    "inception_score_mean": 2.0657901075051193,
    "inception_score_std": 0.12726734154410754,
    "fid_per_class": {
        "airplane": 965.9295282474491,
        "automobile": 1032.8649124942804,
        "bird": 1160.8200624797344,
        "cat": 920.6077239185365,
        "deer": 1155.6758717838568,
        "dog": 915.0583161534908,
        "frog": 1249.2281361100768,
        "horse": 959.4745614527445,
        "ship": 759.0837549573226,
        "truck": 958.2635485986887
    },
    "fid": 596.0019044222463,
    "wasserstein_distance": null,
    "g_loss": null,
    "g_cost": null,
    "d_loss_real": null,
    "d_loss_fake": null
}