{
    "epoch": 131,
    "avg_current_window": 856.028012939214,
    "avg_prior_window": 870.9390839708301,
    "inception_score_mean": 2.013214515356811,
    "inception_score_std": 0.2072331240321517,
    "fid_per_class": {
        "airplane": 867.137374485353,
        "automobile": 1047.725908497432,
        "bird": 1129.2248794689817,
        "cat": 911.123243145382,
        "deer": 1248.9474184667736,
        "dog": 976.083760568265,
        "frog": 1244.4054848618407,
        "horse": 964.8615491726143,
        "ship": 721.7101405267156,
        "truck": 909.1441197371194
    },
    "fid": 595.0851162613569,
    "wasserstein_distance": null,
    "g_loss": null,
    "g_cost": null,
    "d_loss_real": null,
    "d_loss_fake": null
}