{
    "epoch": 66,
    "avg_current_window": 1085.6250811700265,
    "avg_prior_window": 1132.9751724092246,
    "inception_score_mean": 1.9944337945449881,
    "inception_score_std": 0.13927694112498484,
    "fid_per_class": {
        "airplane": 936.5298960833945,
        "automobile": 983.5555205966323,
        "bird": 1228.7426245239205,
        "cat": 929.0312161410843,
        "deer": 1207.800127949156,
        "dog": 930.5428124595185,
        "frog": 1311.3524863992466,
        "horse": 1022.1443595486144,
        "ship": 738.6216804037838,
        "truck": 961.6018581885521
    },
    "fid": 590.1059852089248,
    "wasserstein_distance": null,
    "g_loss": null,
    "g_cost": null,
    "d_loss_real": null,
    "d_loss_fake": null
}