{
    "epoch": 89,
    "avg_current_window": 970.3399232576053,
    "avg_prior_window": 998.134983541731,
    "inception_score_mean": 1.9391945622793472,
    "inception_score_std": 0.1314865921979091,
    "fid_per_class": {
        "airplane": 955.1641114847583,
        "automobile": 1090.4551031806222,
        "bird": 1210.4435910098239,
        "cat": 962.8131301263538,
        "deer": 1257.9378765454821,
        "dog": 899.6067493844564,
        "frog": 1305.8691587185965,
        "horse": 1059.6666746860226,
        "ship": 712.675826230218,
        "truck": 1023.2802964739079
    },
    "fid": 652.5187651505811,
    "wasserstein_distance": null,
    "g_loss": null,
    "g_cost": null,
    "d_loss_real": null,
    "d_loss_fake": null
}