{
    "epoch": 179,
    "avg_current_window": 785.1809561759924,
    "avg_prior_window": 794.3219366997511,
    "inception_score_mean": 2.1081546093475434,
    "inception_score_std": 0.23320558079179143,
    "fid_per_class": {
        "airplane": 880.3150078117858,
        "automobile": 957.2518001353939,
        "bird": 1128.1707666189136,
        "cat": 871.0846196956813,
        "deer": 1184.8261627724569,
        "dog": 869.824618755565,
        "frog": 1271.9883504484035,
        "horse": 969.8705868676435,
        "ship": 761.2732005800839,
        "truck": 861.8265903768512
    },
    "fid": 553.235538681273,
    "wasserstein_distance": null,
    "g_loss": null,
    "g_cost": null,
    "d_loss_real": null,
    "d_loss_fake": null
}