{
    "epoch": 19,
    "avg_current_window": 1875.9101808251883,
    "avg_prior_window": 2161.789662482281,
    "inception_score_mean": 1.3294664499678912,
    "inception_score_std": 0.044668170722752955,
    "fid_per_class": {
        "airplane": 1267.6449548114283,
        "automobile": 1487.7304659604824,
        "bird": 1376.8946836057794,
        "cat": 1505.1106375145114,
        "deer": 1424.0435501020004,
        "dog": 1590.5674760591128,
        "frog": 1627.601777908821,
        "horse": 1403.3802730238071,
        "ship": 1235.5960754295902,
        "truck": 1437.6836467802
    },
    "fid": 1075.3187675277923,
    "wasserstein_distance": null,
    "g_loss": null,
    "g_cost": null,
    "d_loss_real": null,
    "d_loss_fake": null
}