{
    "epoch": 144,
    "avg_current_window": 832.0036992401838,
    "avg_prior_window": 845.0732983998705,
    "inception_score_mean": 2.0756068519054556,
    "inception_score_std": 0.203076853231125,
    "fid_per_class": {
        "airplane": 986.9410816627752,
        "automobile": 1032.4442385682235,
        "bird": 1277.3041944480426,
        "cat": 915.4369254494013,
        "deer": 1318.95200677661,
        "dog": 883.1415520421417,
        "frog": 1302.1432213916748,
        "horse": 954.9001213249866,
        "ship": 775.6452982456436,
        "truck": 886.8872120836157
    },
    "fid": 622.4003684000538,
    "wasserstein_distance": null,
    "g_loss": null,
    "g_cost": null,
    "d_loss_real": null,
    "d_loss_fake": null
}