{
    "epoch": 85,
    "avg_current_window": 986.3922190294753,
    "avg_prior_window": 1015.8675196345552,
    "inception_score_mean": 1.925471873970946,
    "inception_score_std": 0.125293661209132,
    "fid_per_class": {
        "airplane": 971.8925217489602,
        "automobile": 1083.4430411625622,
        "bird": 1186.6651145570704,
        "cat": 955.4070842491806,
        "deer": 1149.9726632362162,
        "dog": 886.8096065286454,
        "frog": 1261.5998095180446,
        "horse": 993.0225642683963,
        "ship": 757.5808370336845,
        "truck": 968.2480235550233
    },
    "fid": 608.1291412688695,
    "wasserstein_distance": null,
    "g_loss": null,
    "g_cost": null,
    "d_loss_real": null,
    "d_loss_fake": null
}