{
    "epoch": 194,
    "avg_current_window": 770.1158337063704,
    "avg_prior_window": 778.0556630240709,
    "inception_score_mean": 1.9625369109899982,
    "inception_score_std": 0.15784134843150702,
    "fid_per_class": {
        "airplane": 848.7869782954704,
        "automobile": 1030.335296261492,
        "bird": 1114.626800914115,
        "cat": 878.6179509031015,
        "deer": 1102.083072687225,
        "dog": 888.9299834960898,
        "frog": 1305.9255569055667,
        "horse": 983.0070997552696,
        "ship": 681.5908832487831,
        "truck": 1014.0434818250344
    },
    "fid": 569.2422396738092,
    "wasserstein_distance": null,
    "g_loss": null,
    "g_cost": null,
    "d_loss_real": null,
    "d_loss_fake": null
}