{
    "epoch": 24,
    "avg_current_window": 1693.8202711608012,
    "avg_prior_window": 1932.5059054319142,
    "inception_score_mean": 1.656180591657224,
    "inception_score_std": 0.1067315038299691,
    "fid_per_class": {
        "airplane": 1125.113076043774,
        "automobile": 1218.9988559556318,
        "bird": 1485.2010600652618,
        "cat": 1178.090962466379,
        "deer": 1734.3233056095441,
        "dog": 1383.4997189643072,
        "frog": 1609.3034573578057,
        "horse": 1453.7260200565352,
        "ship": 1053.753512411664,
        "truck": 1154.524606811416
    },
    "fid": 975.9211195345908,
    "wasserstein_distance": null,
    "g_loss": null,
    "g_cost": null,
    "d_loss_real": null,
    "d_loss_fake": null
}