{
    "epoch": 132,
    "avg_current_window": 854.0511728128666,
    "avg_prior_window": 868.903656326424,
    "inception_score_mean": 2.072217494721679,
    "inception_score_std": 0.1441569944675717,
    "fid_per_class": {
        "airplane": 938.5336954053367,
        "automobile": 1022.9912692051694,
        "bird": 1190.3229021644163,
        "cat": 944.6932999687558,
        "deer": 1307.1873124939748,
        "dog": 1006.0964425445134,
        "frog": 1167.0013720004945,
        "horse": 948.183386003527,
        "ship": 739.0689129633663,
        "truck": 945.1537354442086
    },
    "fid": 612.5052079110487,
    "wasserstein_distance": null,
    "g_loss": null,
    "g_cost": null,
    "d_loss_real": null,
    "d_loss_fake": null
}