{
    "epoch": 28,
    "avg_current_window": 1591.4117329420526,
    "avg_prior_window": 1767.4646307764883,
    "inception_score_mean": 1.7028507619439366,
    "inception_score_std": 0.13306244531058045,
    "fid_per_class": {
        "airplane": 963.8427737335348,
        "automobile": 1282.8915943708994,
        "bird": 1324.120432087742,
        "cat": 1388.666596538166,
        "deer": 1676.3281137807003,
        "dog": 1485.8242276585354,
        "frog": 1752.180797386252,
        "horse": 1500.8518581738733,
        "ship": 819.3234727803949,
        "truck": 1197.751827241077
    },
    "fid": 955.5629548119955,
    "wasserstein_distance": null,
    "g_loss": null,
    "g_cost": null,
    "d_loss_real": null,
    "d_loss_fake": null
}