{
    "epoch": 138,
    "avg_current_window": 843.142010305092,
    "avg_prior_window": 856.6079616870927,
    "inception_score_mean": 2.1038980351675685,
    "inception_score_std": 0.17031029574973972,
    "fid_per_class": {
        "airplane": 934.9981445265009,
        "automobile": 1002.3718118374416,
        "bird": 1137.6856981544738,
        "cat": 905.5205620290864,
        "deer": 1199.9361884673267,
        "dog": 872.2130250448395,
        "frog": 1083.6821841744118,
        "horse": 931.8400175146019,
        "ship": 723.2465274272829,
        "truck": 804.2795874090596
    },
    "fid": 531.4938063424372,
    "wasserstein_distance": null,
    "g_loss": null,
    "g_cost": null,
    "d_loss_real": null,
    "d_loss_fake": null
}