{
    "epoch": 42,
    "avg_current_window": 1330.3309468764487,
    "avg_prior_window": 1432.298619753997,
    "inception_score_mean": 1.948438134332082,
    "inception_score_std": 0.15581955991592444,
    "fid_per_class": {
        "airplane": 955.2271425259885,
        "automobile": 993.5168966013442,
        "bird": 1319.3932286471857,
        "cat": 954.1580392627274,
        "deer": 1442.0415786469741,
        "dog": 1097.515723459497,
        "frog": 1422.9696698377534,
        "horse": 1183.1490318812675,
        "ship": 852.3788044076407,
        "truck": 1021.9131525039061
    },
    "fid": 694.200443840986,
    "wasserstein_distance": null,
    "g_loss": null,
    "g_cost": null,
    "d_loss_real": null,
    "d_loss_fake": null
}