{
    "epoch": 90,
    "avg_current_window": 966.8085770564162,
    "avg_prior_window": 993.5466795149915,
    "inception_score_mean": 2.047048045574083,
    "inception_score_std": 0.12492721067358879,
    "fid_per_class": {
        "airplane": 937.0303400784792,
        "automobile": 1102.2854948654044,
        "bird": 1233.216518487432,
        "cat": 974.7010065902227,
        "deer": 1332.12685868337,
        "dog": 967.9719277392282,
        "frog": 1308.198649576375,
        "horse": 1127.649236790743,
        "ship": 794.378653520504,
        "truck": 996.5058346105362
    },
    "fid": 678.5117275452252,
    "wasserstein_distance": null,
    "g_loss": null,
    "g_cost": null,
    "d_loss_real": null,
    "d_loss_fake": null
}