{
    "epoch": 157,
    "avg_current_window": 812.4271157779962,
    "avg_prior_window": 822.9283169141879,
    "inception_score_mean": 2.0204906866263634,
    "inception_score_std": 0.1540908598218941,
    "fid_per_class": {
        "airplane": 934.2019667899692,
        "automobile": 1015.918037799204,
        "bird": 1040.0996587766308,
        "cat": 902.8744645340876,
        "deer": 1216.4592534757057,
        "dog": 926.2423592267571,
        "frog": 1184.5101666698358,
        "horse": 997.9660083475638,
        "ship": 779.4888245958902,
        "truck": 872.0840589700272
    },
    "fid": 578.1932280108163,
    "wasserstein_distance": null,
    "g_loss": null,
    "g_cost": null,
    "d_loss_real": null,
    "d_loss_fake": null
}