{
    "epoch": 111,
    "avg_current_window": 901.6608622302884,
    "avg_prior_window": 920.8854866461783,
    "inception_score_mean": 2.121016608566779,
    "inception_score_std": 0.20814060780563612,
    "fid_per_class": {
        "airplane": 946.973695286201,
        "automobile": 1027.6187464131897,
        "bird": 1134.1464226184196,
        "cat": 939.5685185934954,
        "deer": 1230.3588924308215,
        "dog": 923.5516960427847,
        "frog": 1228.2565783804048,
        "horse": 986.5652946325793,
        "ship": 765.3964107766476,
        "truck": 993.8137487151895
    },
    "fid": 595.2970410921077,
    "wasserstein_distance": null,
    "g_loss": null,
    "g_cost": null,
    "d_loss_real": null,
    "d_loss_fake": null
}