{
    "epoch": 1,
    "avg_current_window": 3.0,
    "avg_prior_window": 8.0,
    "inception_score_mean": 1.0139513361537067,
    "inception_score_std": 0.002347001989872933,
    "fid_per_class": {
        "airplane": 1718.256947666803,
        "automobile": 1789.6503373117139,
        "bird": 2234.2708797694586,
        "cat": 2116.3380942039103,
        "deer": 2561.9003605968333,
        "dog": 2187.457253186942,
        "frog": 2569.0563752008843,
        "horse": 2180.6668468065805,
        "ship": 1761.4011753886145,
        "truck": 1677.3097399012559
    },
    "fid": 1992.7047301002658,
    "wasserstein_distance": null,
    "g_loss": null,
    "g_cost": null,
    "d_loss_real": null,
    "d_loss_fake": null
}