{
    "epoch": 163,
    "avg_current_window": 804.3043636720887,
    "avg_prior_window": 814.8284585064646,
    "inception_score_mean": 1.9855894011512814,
    "inception_score_std": 0.17287394255774718,
    "fid_per_class": {
        "airplane": 968.4179037004931,
        "automobile": 995.7751826770644,
        "bird": 1146.6260133704968,
        "cat": 901.8057495484086,
        "deer": 1184.1467735677872,
        "dog": 937.6408233746708,
        "frog": 1302.654668981173,
        "horse": 983.6443348025898,
        "ship": 744.8102511316762,
        "truck": 897.3390156383774
    },
    "fid": 597.3164723464147,
    "wasserstein_distance": null,
    "g_loss": null,
    "g_cost": null,
    "d_loss_real": null,
    "d_loss_fake": null
}