{
    "epoch": 62,
    "avg_current_window": 1114.70137930585,
    "avg_prior_window": 1166.1802250898556,
    "inception_score_mean": 1.9609292548735902,
    "inception_score_std": 0.1799562224658132,
    "fid_per_class": {
        "airplane": 933.3421518075475,
        "automobile": 1088.5749429830503,
        "bird": 1206.6775639845637,
        "cat": 946.4808974045964,
        "deer": 1149.3522644277675,
        "dog": 968.5629915944713,
        "frog": 1236.8328258507258,
        "horse": 1012.5702473151568,
        "ship": 832.1618358366246,
        "truck": 1031.284520934943
    },
    "fid": 631.8685962247207,
    "wasserstein_distance": null,
    "g_loss": null,
    "g_cost": null,
    "d_loss_real": null,
    "d_loss_fake": null
}