{
    "epoch": 102,
    "avg_current_window": 926.0595799751658,
    "avg_prior_window": 948.5423964141696,
    "inception_score_mean": 1.9135861688550222,
    "inception_score_std": 0.15173333773170603,
    "fid_per_class": {
        "airplane": 932.7411262495453,
        "automobile": 1048.2423002036292,
        "bird": 1152.0757637857719,
        "cat": 947.5890961216487,
        "deer": 1154.6162914967622,
        "dog": 911.1303530206328,
        "frog": 1175.3265273164902,
        "horse": 960.0688481305381,
        "ship": 772.6210931876167,
        "truck": 981.3961418120552
    },
    "fid": 598.0578856937883,
    "wasserstein_distance": null,
    "g_loss": null,
    "g_cost": null,
    "d_loss_real": null,
    "d_loss_fake": null
}