{
    "epoch": 154,
    "avg_current_window": 815.9072754022777,
    "avg_prior_window": 828.0086349350289,
    "inception_score_mean": 1.9179683921118376,
    "inception_score_std": 0.19105044294856013,
    "fid_per_class": {
        "airplane": 1030.4269363599428,
        "automobile": 1056.7122330230004,
        "bird": 1211.4120762451482,
        "cat": 966.339287796703,
        "deer": 1352.1422375078628,
        "dog": 921.7126451722236,
        "frog": 1413.384890623469,
        "horse": 1079.584116320521,
        "ship": 782.0719670045686,
        "truck": 957.1470184512125
    },
    "fid": 676.0339496126874,
    "wasserstein_distance": null,
    "g_loss": null,
    "g_cost": null,
    "d_loss_real": null,
    "d_loss_fake": null
}