{
    "epoch": 50,
    "avg_current_window": 1225.5551205789568,
    "avg_prior_window": 1303.4046194863406,
    "inception_score_mean": 1.9356593856521243,
    "inception_score_std": 0.10209389315791065,
    "fid_per_class": {
        "airplane": 917.526629385738,
        "automobile": 1112.2178155997503,
        "bird": 1312.4000219731374,
        "cat": 1036.878531416351,
        "deer": 1363.0921588701308,
        "dog": 1080.632464600147,
        "frog": 1355.4447525170467,
        "horse": 1121.4876569696953,
        "ship": 807.3940847436412,
        "truck": 1021.9741627031439
    },
    "fid": 696.8621206736805,
    "wasserstein_distance": null,
    "g_loss": null,
    "g_cost": null,
    "d_loss_real": null,
    "d_loss_fake": null
}