{
    "epoch": 76,
    "avg_current_window": 1028.2482439697797,
    "avg_prior_window": 1063.784378626125,
    "inception_score_mean": 1.8941230069126938,
    "inception_score_std": 0.15147024795157335,
    "fid_per_class": {
        "airplane": 919.5105573130468,
        "automobile": 1142.8437743109373,
        "bird": 1270.2276489522492,
        "cat": 962.5431917172887,
        "deer": 1290.876846834268,
        "dog": 953.7507001789756,
        "frog": 1237.4527967262093,
        "horse": 1067.9398848733463,
        "ship": 788.2276547396053,
        "truck": 1066.111052772365
    },
    "fid": 641.27506888801,
    "wasserstein_distance": null,
    "g_loss": null,
    "g_cost": null,
    "d_loss_real": null,
    "d_loss_fake": null
}