{
    "epoch": 13,
    "avg_current_window": 2076.395105352872,
    "avg_prior_window": 2330.47291623338,
    "inception_score_mean": 1.1220990521030507,
    "inception_score_std": 0.02699205688958492,
    "fid_per_class": {
        "airplane": 1730.4130773134796,
        "automobile": 1779.866939808889,
        "bird": 1746.4685522295665,
        "cat": 1964.4098280127985,
        "deer": 2155.9517230527836,
        "dog": 2135.5028763037008,
        "frog": 2286.6373790525695,
        "horse": 1971.8267116041088,
        "ship": 1718.0726435964361,
        "truck": 1682.6183416814158
    },
    "fid": 1711.4872282747488,
    "wasserstein_distance": null,
    "g_loss": null,
    "g_cost": null,
    "d_loss_real": null,
    "d_loss_fake": null
}