{
    "epoch": 110,
    "avg_current_window": 861.8329546020951,
    "avg_prior_window": 878.9783786604618,
    "inception_score_mean": 2.0400589118126646,
    "inception_score_std": 0.10430815074792402,
    "fid_per_class": {
        "airplane": 894.8811302819275,
        "automobile": 1045.416554453212,
        "bird": 1178.847453058551,
        "cat": 927.1851737929644,
        "deer": 1251.9808633151922,
        "dog": 908.4346112841247,
        "frog": 1173.6678180534082,
        "horse": 1118.8601267576016,
        "ship": 819.583000794999,
        "truck": 967.5217663540785
    },
    "fid": 613.2967514462803
}