{
    "epoch": 17,
    "avg_current_window": 1788.3336816763322,
    "avg_prior_window": 2075.8277064004533,
    "inception_score_mean": 1.5016988877507331,
    "inception_score_std": 0.0743036695498894,
    "fid_per_class": {
        "airplane": 1250.993927772223,
        "automobile": 1412.5536668625764,
        "bird": 1539.4502470888897,
        "cat": 1479.058806833898,
        "deer": 1713.5175829767577,
        "dog": 1487.6680939196044,
        "frog": 1824.0021408182724,
        "horse": 1603.71915724993,
        "ship": 1032.9424443970213,
        "truck": 1162.5465732674347
    },
    "fid": 1097.7152696463156
}