{
    "epoch": 93,
    "avg_current_window": 902.1160517563819,
    "avg_prior_window": 923.9448051336033,
    "inception_score_mean": 2.0017089551804106,
    "inception_score_std": 0.1510736671259092,
    "fid_per_class": {
        "airplane": 875.5176649512698,
        "automobile": 1083.1967155589568,
        "bird": 1206.2603955147456,
        "cat": 1013.7361652843797,
        "deer": 1214.1050651806454,
        "dog": 948.2476408244167,
        "frog": 1209.6791991142823,
        "horse": 1160.3021371433629,
        "ship": 867.6638271594627,
        "truck": 1038.2233542482472
    },
    "fid": 655.1847346380712
}