{
    "epoch": 147,
    "avg_current_window": 799.6278909177162,
    "avg_prior_window": 810.5690253632677,
    "inception_score_mean": 2.031852969640588,
    "inception_score_std": 0.12878980280647528,
    "fid_per_class": {
        "airplane": 868.4295826674708,
        "automobile": 1003.6941851975814,
        "bird": 1155.6041408174653,
        "cat": 911.4340470887455,
        "deer": 1193.945765182899,
        "dog": 913.326974517834,
        "frog": 1159.2530868723475,
        "horse": 1123.1972638303237,
        "ship": 772.772743053104,
        "truck": 991.9098522416108
    },
    "fid": 593.4261775667617
}