{
    "epoch": 165,
    "avg_current_window": 778.5633369234465,
    "avg_prior_window": 787.9857051116229,
    "inception_score_mean": 2.0658969723167244,
    "inception_score_std": 0.1605559853935075,
    "fid_per_class": {
        "airplane": 836.8230357360769,
        "automobile": 1051.7028410821958,
        "bird": 1192.683652547642,
        "cat": 965.1949580634682,
        "deer": 1241.4357122605159,
        "dog": 977.4551638110933,
        "frog": 1300.0721664730613,
        "horse": 1131.9269702375493,
        "ship": 848.6620358599343,
        "truck": 956.6504206278895
    },
    "fid": 632.2927891006686
}