{
    "epoch": 77,
    "avg_current_window": 954.4102151521756,
    "avg_prior_window": 985.5546758131097,
    "inception_score_mean": 2.0048794306041158,
    "inception_score_std": 0.18783831312493146,
    "fid_per_class": {
        "airplane": 846.5543452068907,
        "automobile": 1005.8781610355104,
        "bird": 1227.6284521952098,
        "cat": 1034.7598992199719,
        "deer": 1195.7670234574416,
        "dog": 992.9080874018223,
        "frog": 1250.967458612867,
        "horse": 1065.0252184698015,
        "ship": 761.0116852639658,
        "truck": 1024.0137970234407
    },
    "fid": 621.8321860153183
}