{
    "epoch": 72,
    "avg_current_window": 976.5898303814237,
    "avg_prior_window": 1008.1358584303823,
    "inception_score_mean": 2.028428132264665,
    "inception_score_std": 0.1293524816023148,
    "fid_per_class": {
        "airplane": 830.0645429259123,
        "automobile": 1037.1833240067474,
        "bird": 1255.3992358825203,
        "cat": 1003.2054233845498,
        "deer": 1296.101272677799,
        "dog": 987.215622190452,
        "frog": 1240.5021698765315,
        "horse": 1139.9530567438396,
        "ship": 764.5034586465606,
        "truck": 1056.9828277222196
    },
    "fid": 645.4688710813939
}