{
    "epoch": 143,
    "avg_current_window": 804.9007105005875,
    "avg_prior_window": 816.6285181284802,
    "inception_score_mean": 2.0371128323692966,
    "inception_score_std": 0.14185345610958447,
    "fid_per_class": {
        "airplane": 894.8519531252084,
        "automobile": 1036.0704791569462,
        "bird": 1133.3504985161312,
        "cat": 944.5898934319271,
        "deer": 1124.0741627335592,
        "dog": 943.2045084191836,
        "frog": 1220.5465823906393,
        "horse": 1096.2589898114522,
        "ship": 734.1750038122452,
        "truck": 970.8292016655894
    },
    "fid": 599.7923889454883
}