{
    "epoch": 43,
    "avg_current_window": 1181.9933021570964,
    "avg_prior_window": 1265.0662093207459,
    "inception_score_mean": 2.113532405143632,
    "inception_score_std": 0.15812746359500288,
    "fid_per_class": {
        "airplane": 965.3215104635658,
        "automobile": 1088.422520490016,
        "bird": 1270.5335886793862,
        "cat": 961.4067972376687,
        "deer": 1251.516073134891,
        "dog": 978.8279606719916,
        "frog": 1199.8928154265814,
        "horse": 1237.5550622971741,
        "ship": 854.0949674529231,
        "truck": 1104.4570245570064
    },
    "fid": 648.4787441435287
}