{
    "epoch": 183,
    "avg_current_window": 760.3785285817778,
    "avg_prior_window": 768.2878174403618,
    "inception_score_mean": 2.0041478835258912,
    "inception_score_std": 0.12390000933948347,
    "fid_per_class": {
        "airplane": 894.2201264810282,
        "automobile": 1088.366489583339,
        "bird": 1145.9587856306105,
        "cat": 970.9135784059383,
        "deer": 1209.873335528307,
        "dog": 942.0563062802071,
        "frog": 1271.004167892549,
        "horse": 1048.204531437834,
        "ship": 822.9969329029881,
        "truck": 1042.5661748706875
    },
    "fid": 629.1590742350627
}