{
    "epoch": 194,
    "avg_current_window": 751.2210975569706,
    "avg_prior_window": 759.1468191586382,
    "inception_score_mean": 1.978259859339845,
    "inception_score_std": 0.18095855121612534,
    "fid_per_class": {
        "airplane": 894.2073127840447,
        "automobile": 1063.8446688771796,
        "bird": 1172.3727026199354,
        "cat": 890.3072572016819,
        "deer": 1245.230108755676,
        "dog": 1033.973417910127,
        "frog": 1282.3830521872435,
        "horse": 1215.8386046425994,
        "ship": 845.042301312409,
        "truck": 985.1395569405706
    },
    "fid": 653.9297511359613
}