{
    "epoch": 108,
    "avg_current_window": 866.0988696520427,
    "avg_prior_window": 882.8768414014188,
    "inception_score_mean": 2.040313736162342,
    "inception_score_std": 0.11832811213130624,
    "fid_per_class": {
        "airplane": 879.8753978986796,
        "automobile": 1037.8023964478084,
        "bird": 1187.2239323593938,
        "cat": 966.312318091105,
        "deer": 1192.649796338994,
        "dog": 923.5136834141915,
        "frog": 1202.6293222771337,
        "horse": 1151.5792065980204,
        "ship": 873.6428649097451,
        "truck": 1045.2189733774107
    },
    "fid": 630.3967479836115
}