{
    "epoch": 60,
    "avg_current_window": 1039.5949365282754,
    "avg_prior_window": 1085.3839492746956,
    "inception_score_mean": 1.969302165752186,
    "inception_score_std": 0.1710773519240729,
    "fid_per_class": {
        "airplane": 889.6640990420431,
        "automobile": 1062.5235384973387,
        "bird": 1205.7442817683454,
        "cat": 973.8284834632948,
        "deer": 1248.8911803074593,
        "dog": 989.1347463419659,
        "frog": 1252.2012799241145,
        "horse": 1207.5717739500726,
        "ship": 822.9093848487223,
        "truck": 1033.3445395325284
    },
    "fid": 654.2748953224791
}