{
    "epoch": 4,
    "avg_current_window": 1990.2454564781215,
    "avg_prior_window": 2516.235337323242,
    "inception_score_mean": 1.0000098780107918,
    "inception_score_std": 6.950264772630762e-06,
    "fid_per_class": {
        "airplane": 2214.7515539261767,
        "automobile": 2430.8910597828644,
        "bird": 2506.0655596363663,
        "cat": 2601.7436382922997,
        "deer": 2825.429424837212,
        "dog": 2550.756791533546,
        "frog": 2859.8863884701946,
        "horse": 2752.9351514229957,
        "ship": 2376.1288335409404,
        "truck": 2344.4958605604343
    },
    "fid": 2538.103600936603
}