{
    "epoch": 115,
    "avg_current_window": 851.6006374319277,
    "avg_prior_window": 867.4083796152431,
    "inception_score_mean": 2.016904369496066,
    "inception_score_std": 0.15990988315368107,
    "fid_per_class": {
        "airplane": 908.0835694837967,
        "automobile": 1115.105458664737,
        "bird": 1184.3965864384136,
        "cat": 902.7868395595412,
        "deer": 1199.191394208816,
        "dog": 899.1109245985645,
        "frog": 1233.080989652687,
        "horse": 1222.0789799265133,
        "ship": 834.0464404694562,
        "truck": 996.5092058678882
    },
    "fid": 633.8617703759996
}