{
    "epoch": 51,
    "avg_current_window": 1103.1652924787506,
    "avg_prior_window": 1164.666537572232,
    "inception_score_mean": 2.0105286048536444,
    "inception_score_std": 0.12998172313853695,
    "fid_per_class": {
        "airplane": 918.2930544916085,
        "automobile": 1125.7283070038511,
        "bird": 1193.5499845519926,
        "cat": 974.4784001812999,
        "deer": 1341.779413432737,
        "dog": 963.7435897729704,
        "frog": 1229.551407711016,
        "horse": 1321.368374042213,
        "ship": 869.2665955600892,
        "truck": 1185.8525168780566
    },
    "fid": 708.892412548869
}