{
    "epoch": 15,
    "avg_current_window": 1860.3111898662194,
    "avg_prior_window": 2251.139324730122,
    "inception_score_mean": 1.4570295405357068,
    "inception_score_std": 0.07078707940827658,
    "fid_per_class": {
        "airplane": 1291.234691769179,
        "automobile": 1422.7192722153727,
        "bird": 1554.760376293494,
        "cat": 1585.0001828401225,
        "deer": 1615.2312804673168,
        "dog": 1632.7370338123865,
        "frog": 1833.6547280851787,
        "horse": 1595.3681866642332,
        "ship": 1170.8253560033488,
        "truck": 1318.1153885166134
    },
    "fid": 1233.33959662838
}