{
    "epoch": 3,
    "avg_current_window": 920.6320021415022,
    "avg_prior_window": 2517.235337323242,
    "inception_score_mean": 1.0000001729329504,
    "inception_score_std": 1.360662499121191e-07,
    "fid_per_class": {
        "airplane": 2300.129303514421,
        "automobile": 2538.663504067882,
        "bird": 2637.9600661174736,
        "cat": 2699.8783083002477,
        "deer": 3068.333443674582,
        "dog": 2641.5461308428403,
        "frog": 3054.462542694539,
        "horse": 2985.7068559581176,
        "ship": 2541.885428223748,
        "truck": 2521.5684422542554
    },
    "fid": 2690.850482164737
}