{
    "epoch": 34,
    "avg_current_window": 1308.5951567563302,
    "avg_prior_window": 1437.0364616325992,
    "inception_score_mean": 2.092925110413056,
    "inception_score_std": 0.18474230367055247,
    "fid_per_class": {
        "airplane": 957.3762090990731,
        "automobile": 1159.2152104027825,
        "bird": 1263.2662719558577,
        "cat": 1020.7665428872698,
        "deer": 1356.7102885930906,
        "dog": 955.5733906257537,
        "frog": 1285.8969179608325,
        "horse": 1357.2012950998637,
        "ship": 871.0783269997503,
        "truck": 1164.6476245382526
    },
    "fid": 708.4148954274059
}