{
    "epoch": 192,
    "avg_current_window": 752.8553119767788,
    "avg_prior_window": 760.7186484184033,
    "inception_score_mean": 2.1745492789081533,
    "inception_score_std": 0.19876866867812265,
    "fid_per_class": {
        "airplane": 886.2069209286457,
        "automobile": 1013.8177614430385,
        "bird": 1161.970619831135,
        "cat": 917.3769119399367,
        "deer": 1153.40594795445,
        "dog": 953.8905185318506,
        "frog": 1083.3452552732008,
        "horse": 1034.0916093157566,
        "ship": 814.242888778443,
        "truck": 989.8717609896772
    },
    "fid": 573.3630874060563
}