{
    "epoch": 126,
    "avg_current_window": 831.1802215330322,
    "avg_prior_window": 845.0606474127939,
    "inception_score_mean": 2.0894564464913263,
    "inception_score_std": 0.13216376222156537,
    "fid_per_class": {
        "airplane": 857.2888729773533,
        "automobile": 952.690802914799,
        "bird": 1113.2189566146249,
        "cat": 932.5965588163793,
        "deer": 1109.8558334515928,
        "dog": 890.0691253751851,
        "frog": 1099.756918169056,
        "horse": 1095.7632454172435,
        "ship": 808.2342145242611,
        "truck": 1035.5013531975474
    },
    "fid": 572.0770489125255
}