{
    "epoch": 25,
    "avg_current_window": 1518.8239713697021,
    "avg_prior_window": 1720.6398726862597,
    "inception_score_mean": 2.001204364214741,
    "inception_score_std": 0.12588544600262455,
    "fid_per_class": {
        "airplane": 1033.3328016006758,
        "automobile": 1310.2532203889302,
        "bird": 1182.4057572391707,
        "cat": 1009.2579937841233,
        "deer": 1222.1031256768074,
        "dog": 1035.6702032200878,
        "frog": 1239.2975416815689,
        "horse": 1383.1947078065482,
        "ship": 892.5244314412884,
        "truck": 1291.7475023381803
    },
    "fid": 781.1007898987642
}