{
    "epoch": 54,
    "avg_current_window": 1080.5537813381607,
    "avg_prior_window": 1134.8097488789592,
    "inception_score_mean": 2.003404345477792,
    "inception_score_std": 0.2100542797165165,
    "fid_per_class": {
        "airplane": 912.6962867116025,
        "automobile": 1180.2360992192544,
        "bird": 1186.5656739912197,
        "cat": 985.0105268464345,
        "deer": 1256.2877138672293,
        "dog": 1005.8248919564514,
        "frog": 1330.8200327857053,
        "horse": 1283.037219911983,
        "ship": 875.6571458232359,
        "truck": 1115.3536335153394
    },
    "fid": 685.2553340809744
}