{
    "epoch": 85,
    "avg_current_window": 925.573956904006,
    "avg_prior_window": 951.0726332526713,
    "inception_score_mean": 1.958836565270389,
    "inception_score_std": 0.13057363482963638,
    "fid_per_class": {
        "airplane": 876.0106434951219,
        "automobile": 1057.5137680975547,
        "bird": 1197.787290950909,
        "cat": 1018.83662719039,
        "deer": 1297.9239829468288,
        "dog": 992.9586593897435,
        "frog": 1262.3401616837152,
        "horse": 1177.4662597310073,
        "ship": 777.9674328698086,
        "truck": 1056.8114797165085
    },
    "fid": 674.5451583073766
}