{
    "epoch": 129,
    "avg_current_window": 825.4089588719193,
    "avg_prior_window": 839.7220349195564,
    "inception_score_mean": 1.9434874141785912,
    "inception_score_std": 0.12858754571120234,
    "fid_per_class": {
        "airplane": 885.5210578377832,
        "automobile": 1056.7673197338354,
        "bird": 1159.3681816616167,
        "cat": 949.4508328144819,
        "deer": 1270.7611586277085,
        "dog": 902.4215508394109,
        "frog": 1338.3545725299784,
        "horse": 1177.3473476005538,
        "ship": 796.8265029167445,
        "truck": 1041.6122438969524
    },
    "fid": 647.0408883926488
}