{
    "epoch": 186,
    "avg_current_window": 758.2264505668187,
    "avg_prior_window": 765.4295907960783,
    "inception_score_mean": 1.9521925745899638,
    "inception_score_std": 0.10549343206245969,
    "fid_per_class": {
        "airplane": 923.9309179984464,
        "automobile": 1002.7351652856297,
        "bird": 1158.2068964733235,
        "cat": 890.5569448588218,
        "deer": 1260.8507875432233,
        "dog": 919.1753813259002,
        "frog": 1094.214717716379,
        "horse": 1092.169368574363,
        "ship": 812.762590614878,
        "truck": 943.2992199763112
    },
    "fid": 585.2293171999985
}