{
    "epoch": 112,
    "avg_current_window": 857.1468421677556,
    "avg_prior_window": 874.1932516114076,
    "inception_score_mean": 1.94444570015742,
    "inception_score_std": 0.08668647119472407,
    "fid_per_class": {
        "airplane": 912.3914920087102,
        "automobile": 1106.1100682170568,
        "bird": 1219.7919819549468,
        "cat": 973.913145617581,
        "deer": 1190.419109745741,
        "dog": 984.7629062869012,
        "frog": 1228.1810012746369,
        "horse": 1245.0908995095988,
        "ship": 811.6920253107282,
        "truck": 1115.3150001290094
    },
    "fid": 674.846263318953
}