{
    "epoch": 13,
    "avg_current_window": 1916.148652061957,
    "avg_prior_window": 2442.266848673387,
    "inception_score_mean": 1.3361543732540788,
    "inception_score_std": 0.08261982428124001,
    "fid_per_class": {
        "airplane": 1332.2835710407965,
        "automobile": 1527.0754309439985,
        "bird": 1900.914330232888,
        "cat": 1892.1774040530372,
        "deer": 2103.068620392389,
        "dog": 1709.7239984252149,
        "frog": 2351.024758376845,
        "horse": 2070.281424926011,
        "ship": 1316.4569830730045,
        "truck": 1506.0256856655292
    },
    "fid": 1485.251572779508
}