{
    "epoch": 89,
    "avg_current_window": 913.5634028287313,
    "avg_prior_window": 936.5926944861965,
    "inception_score_mean": 2.0092358989126606,
    "inception_score_std": 0.1622918713023581,
    "fid_per_class": {
        "airplane": 901.6379578381295,
        "automobile": 1122.0864777182621,
        "bird": 1211.1502794763574,
        "cat": 984.8019110186335,
        "deer": 1307.4201756292043,
        "dog": 923.2292548154186,
        "frog": 1248.8878383947715,
        "horse": 1199.5920824280586,
        "ship": 792.2571140843338,
        "truck": 1082.0088059131194
    },
    "fid": 666.3504906802252
}