{
    "epoch": 107,
    "avg_current_window": 868.1881568969409,
    "avg_prior_window": 885.2069294171517,
    "inception_score_mean": 1.9737098581881825,
    "inception_score_std": 0.13330625961258058,
    "fid_per_class": {
        "airplane": 840.9920324350874,
        "automobile": 1067.2764461178701,
        "bird": 1154.6288539683233,
        "cat": 968.3685184432163,
        "deer": 1196.1605667966396,
        "dog": 974.6554433002598,
        "frog": 1238.312115905758,
        "horse": 1193.4792433661057,
        "ship": 852.4049058950776,
        "truck": 1011.0769936778978
    },
    "fid": 642.5451344479312
}