{
    "epoch": 88,
    "avg_current_window": 916.1707575079356,
    "avg_prior_window": 939.8965980384312,
    "inception_score_mean": 1.9923864388911787,
    "inception_score_std": 0.14344995770888014,
    "fid_per_class": {
        "airplane": 904.7322817266181,
        "automobile": 1087.0895581432267,
        "bird": 1230.0157305821126,
        "cat": 961.8656180358805,
        "deer": 1280.9690125762472,
        "dog": 940.3047970045245,
        "frog": 1278.996270147236,
        "horse": 1242.2203652595233,
        "ship": 852.9553457365013,
        "truck": 1113.761046816218
    },
    "fid": 684.1161910587498
}