{
    "epoch": 200,
    "avg_current_window": 746.076153599541,
    "avg_prior_window": 753.7058831553242,
    "inception_score_mean": 2.0267194072700385,
    "inception_score_std": 0.21528802828199595,
    "fid_per_class": {
        "airplane": 873.8696437357838,
        "automobile": 1051.465642027643,
        "bird": 1127.1197587483734,
        "cat": 918.3945119264203,
        "deer": 1111.8976482115788,
        "dog": 969.8953254497499,
        "frog": 1170.8637560462525,
        "horse": 1117.6751125249016,
        "ship": 835.8306911088038,
        "truck": 998.2486456321999
    },
    "fid": 607.7528183141116
}