{
    "epoch": 149,
    "avg_current_window": 796.7965442530143,
    "avg_prior_window": 807.9914865230845,
    "inception_score_mean": 2.0694119706081975,
    "inception_score_std": 0.15467541206294078,
    "fid_per_class": {
        "airplane": 822.7105358214844,
        "automobile": 1063.8368352145058,
        "bird": 1197.6494196597055,
        "cat": 891.8481196372288,
        "deer": 1101.9098791786848,
        "dog": 872.347483638865,
        "frog": 1215.3220384188555,
        "horse": 1117.2625310996787,
        "ship": 852.4934270638488,
        "truck": 999.7828221198299
    },
    "fid": 590.1565242961873
}