{
    "epoch": 73,
    "avg_current_window": 972.0539268293685,
    "avg_prior_window": 1003.8192360933989,
    "inception_score_mean": 1.94075989882031,
    "inception_score_std": 0.13357565490801976,
    "fid_per_class": {
        "airplane": 880.6707602064052,
        "automobile": 1011.7004116230607,
        "bird": 1297.010322788902,
        "cat": 1001.9249324801403,
        "deer": 1331.0862557281728,
        "dog": 1045.3924945219992,
        "frog": 1225.159076257649,
        "horse": 1195.9739521380434,
        "ship": 802.0031369646127,
        "truck": 1073.521477423592
    },
    "fid": 677.6192180891728
}