{
    "epoch": 68,
    "avg_current_window": 993.3103311005237,
    "avg_prior_window": 1031.2301711082257,
    "inception_score_mean": 1.9123762326624056,
    "inception_score_std": 0.15210581599027292,
    "fid_per_class": {
        "airplane": 944.5353165069694,
        "automobile": 1138.3052142635772,
        "bird": 1276.732108006994,
        "cat": 1047.7681273455214,
        "deer": 1369.1628822304647,
        "dog": 1010.271246911571,
        "frog": 1364.6876368222345,
        "horse": 1169.9355681495113,
        "ship": 840.0047748000917,
        "truck": 1035.3996114953625
    },
    "fid": 714.6055395155188
}