{
    "epoch": 180,
    "avg_current_window": 763.0704889816767,
    "avg_prior_window": 771.2490533416225,
    "inception_score_mean": 2.096912334088125,
    "inception_score_std": 0.09753285772420515,
    "fid_per_class": {
        "airplane": 900.355995785008,
        "automobile": 1020.3099465226021,
        "bird": 1143.3301034338554,
        "cat": 906.0857248628806,
        "deer": 1165.164165599207,
        "dog": 934.4415284555519,
        "frog": 1134.6471655783523,
        "horse": 1049.7765663214918,
        "ship": 852.2493207235323,
        "truck": 995.1322125426392
    },
    "fid": 573.7273473719955
}