{
    "epoch": 117,
    "avg_current_window": 847.8125165665754,
    "avg_prior_window": 863.1722552331033,
    "inception_score_mean": 2.0188001415642196,
    "inception_score_std": 0.1857055139731504,
    "fid_per_class": {
        "airplane": 873.8114774013759,
        "automobile": 1064.0026484319594,
        "bird": 1227.077525085469,
        "cat": 941.1762350598226,
        "deer": 1308.3394537896386,
        "dog": 945.124073570555,
        "frog": 1314.5353240432096,
        "horse": 1208.6965838912054,
        "ship": 814.0858731057804,
        "truck": 1035.0897194893807
    },
    "fid": 659.308635013691
}