{
    "epoch": 47,
    "avg_current_window": 1139.8863984749505,
    "avg_prior_window": 1210.1359998275034,
    "inception_score_mean": 1.9585729523813398,
    "inception_score_std": 0.1803048388859366,
    "fid_per_class": {
        "airplane": 924.2458115943525,
        "automobile": 1009.7830772354486,
        "bird": 1156.0872923127026,
        "cat": 1000.9451477820342,
        "deer": 1310.9427845789296,
        "dog": 986.5373048427989,
        "frog": 1183.6420794050914,
        "horse": 1319.585794914873,
        "ship": 910.4059286686917,
        "truck": 1121.279569650844
    },
    "fid": 665.2291193732656
}