{
    "epoch": 9,
    "avg_current_window": 2170.903865487455,
    "avg_prior_window": 2624.7713567122723,
    "inception_score_mean": 1.3466589559245468,
    "inception_score_std": 0.0382922028760958,
    "fid_per_class": {
        "airplane": 1784.6320425751633,
        "automobile": 1623.6197800576986,
        "bird": 1894.468850706635,
        "cat": 2177.3226856109764,
        "deer": 2105.556222868365,
        "dog": 2023.3780542130062,
        "frog": 2433.8883390939104,
        "horse": 2183.7074618896027,
        "ship": 1730.0192308593093,
        "truck": 1859.1462093983173
    },
    "fid": 1729.8064240165415
}