{
    "epoch": 169,
    "avg_current_window": 774.626309407597,
    "avg_prior_window": 783.3106743437114,
    "inception_score_mean": 2.021505327249101,
    "inception_score_std": 0.18653143576693723,
    "fid_per_class": {
        "airplane": 861.3838165699278,
        "automobile": 1002.413864766817,
        "bird": 1118.231347754795,
        "cat": 934.7098952356297,
        "deer": 1173.3515959464276,
        "dog": 925.5010679131577,
        "frog": 1227.2755934093097,
        "horse": 1057.5980450713894,
        "ship": 831.0526068184174,
        "truck": 1035.405236456997
    },
    "fid": 596.9087718585359
}