{
    "epoch": 146,
    "avg_current_window": 801.1281176459235,
    "avg_prior_window": 812.0266852440941,
    "inception_score_mean": 1.9991266417742117,
    "inception_score_std": 0.15150336758558747,
    "fid_per_class": {
        "airplane": 821.3023815530822,
        "automobile": 1007.768933998058,
        "bird": 1105.3887456372101,
        "cat": 932.2258003060549,
        "deer": 1123.145933907093,
        "dog": 909.3825970648014,
        "frog": 1186.191415818988,
        "horse": 1128.629462960824,
        "ship": 807.5951141598412,
        "truck": 956.8637918240189
    },
    "fid": 580.5947885994584
}