{
    "epoch": 116,
    "avg_current_window": 849.7235782331696,
    "avg_prior_window": 864.8688857908886,
    "inception_score_mean": 2.030819938024561,
    "inception_score_std": 0.14204368353283187,
    "fid_per_class": {
        "airplane": 917.6770547099433,
        "automobile": 1034.3505253123408,
        "bird": 1189.0558437434852,
        "cat": 917.6407539958673,
        "deer": 1216.2112227503062,
        "dog": 954.059110086002,
        "frog": 1241.5119885734302,
        "horse": 1221.2580705892847,
        "ship": 797.0231560887166,
        "truck": 1005.8550574415166
    },
    "fid": 626.1293632416425
}