{
    "epoch": 189,
    "avg_current_window": 755.7381534040205,
    "avg_prior_window": 762.8686584876514,
    "inception_score_mean": 1.9613493924518377,
    "inception_score_std": 0.16321056520275842,
    "fid_per_class": {
        "airplane": 906.5974477635316,
        "automobile": 1086.185795171627,
        "bird": 1184.7012577697897,
        "cat": 980.480835682466,
        "deer": 1289.3475643136553,
        "dog": 956.2915420975488,
        "frog": 1251.2295087118193,
        "horse": 1119.8407439229782,
        "ship": 871.4297721371871,
        "truck": 1010.1670615863468
    },
    "fid": 644.237827622727
}