{
    "epoch": 45,
    "avg_current_window": 1159.1385362347062,
    "avg_prior_window": 1235.2408474532838,
    "inception_score_mean": 1.9562959832500444,
    "inception_score_std": 0.15965384091287033,
    "fid_per_class": {
        "airplane": 918.6642142758523,
        "automobile": 1112.0764358089104,
        "bird": 1298.0564364587406,
        "cat": 1137.376763486334,
        "deer": 1391.936694205631,
        "dog": 1197.8932198462942,
        "frog": 1576.278828721576,
        "horse": 1472.976613714896,
        "ship": 839.932550314983,
        "truck": 1002.9495648330628
    },
    "fid": 779.3408496490829
}