{
    "epoch": 160,
    "avg_current_window": 784.016476137253,
    "avg_prior_window": 793.358919455257,
    "inception_score_mean": 2.0477008784802764,
    "inception_score_std": 0.2010049613827305,
    "fid_per_class": {
        "airplane": 913.4069552752705,
        "automobile": 1081.8096648714422,
        "bird": 1142.2904723708439,
        "cat": 931.9276394471195,
        "deer": 1207.4332056418339,
        "dog": 973.711041929565,
        "frog": 1268.9754660172282,
        "horse": 1205.1553934945894,
        "ship": 828.8599561912758,
        "truck": 998.5229150805518
    },
    "fid": 635.0766358991814
}