{
    "epoch": 65,
    "avg_current_window": 1009.3737329226088,
    "avg_prior_window": 1050.4995181169836,
    "inception_score_mean": 1.9494201949854286,
    "inception_score_std": 0.1830675460970753,
    "fid_per_class": {
        "airplane": 907.8664363419773,
        "automobile": 1032.488244631146,
        "bird": 1186.7207934010992,
        "cat": 970.1670595925855,
        "deer": 1261.6135019952671,
        "dog": 1037.8640530177083,
        "frog": 1234.6559370218918,
        "horse": 1240.643247730459,
        "ship": 821.0855500853128,
        "truck": 975.7925952260816
    },
    "fid": 648.8947824508281
}