{
    "epoch": 131,
    "avg_current_window": 822.5525729786831,
    "avg_prior_window": 835.7205155720205,
    "inception_score_mean": 1.9973393473124417,
    "inception_score_std": 0.12540065029399222,
    "fid_per_class": {
        "airplane": 970.331876112392,
        "automobile": 1080.5180983316714,
        "bird": 1189.6936239503502,
        "cat": 929.014187229717,
        "deer": 1185.4541848057793,
        "dog": 937.5863373198234,
        "frog": 1331.2425653361024,
        "horse": 1163.9400025046857,
        "ship": 821.2368936427706,
        "truck": 1037.8935400357564
    },
    "fid": 647.6991685222587
}