{
    "epoch": 138,
    "avg_current_window": 812.2075244381898,
    "avg_prior_window": 824.3956195662144,
    "inception_score_mean": 1.9782809464713456,
    "inception_score_std": 0.12587255212180756,
    "fid_per_class": {
        "airplane": 894.6321481641544,
        "automobile": 1060.5758615225807,
        "bird": 1128.4604015447296,
        "cat": 934.6606160748398,
        "deer": 1199.9911704792853,
        "dog": 920.0151700321849,
        "frog": 1213.2716204983649,
        "horse": 1122.849326131783,
        "ship": 803.1854583866509,
        "truck": 1005.0098586402762
    },
    "fid": 610.0971292600939
}