{
    "epoch": 81,
    "avg_current_window": 939.3309958051074,
    "avg_prior_window": 966.9682442989148,
    "inception_score_mean": 1.9495903072121679,
    "inception_score_std": 0.16025363013506555,
    "fid_per_class": {
        "airplane": 870.5242033976024,
        "automobile": 1070.1209665483425,
        "bird": 1237.9354768565827,
        "cat": 997.8073076637909,
        "deer": 1159.4926409124157,
        "dog": 997.1471538298247,
        "frog": 1252.5647468739057,
        "horse": 1176.4432523765158,
        "ship": 747.9245869965615,
        "truck": 1057.335314642813
    },
    "fid": 652.6538945864039
}