{
    "epoch": 69,
    "avg_current_window": 989.2711312224801,
    "avg_prior_window": 1025.1451974995246,
    "inception_score_mean": 1.9195095717411483,
    "inception_score_std": 0.1275037919874572,
    "fid_per_class": {
        "airplane": 906.7184356992029,
        "automobile": 1014.2371022199338,
        "bird": 1179.0822400358516,
        "cat": 940.9883694335995,
        "deer": 1208.2411710725662,
        "dog": 965.311677991692,
        "frog": 1217.618265155194,
        "horse": 1177.4343262333455,
        "ship": 798.4352182398975,
        "truck": 1062.786511461812
    },
    "fid": 647.8250571327851
}