{
    "epoch": 49,
    "avg_current_window": 1120.631340805983,
    "avg_prior_window": 1185.482593876404,
    "inception_score_mean": 1.8840742740629612,
    "inception_score_std": 0.12690633928264458,
    "fid_per_class": {
        "airplane": 973.417183494015,
        "automobile": 1082.416554300931,
        "bird": 1255.3154655556343,
        "cat": 1016.1374921508022,
        "deer": 1256.9324680766601,
        "dog": 1044.1401224130498,
        "frog": 1179.8550942852562,
        "horse": 1330.7532229469953,
        "ship": 837.3892307190249,
        "truck": 1108.007446365005
    },
    "fid": 694.7419955758407
}