{
    "epoch": 1,
    "avg_current_window": 3.0,
    "avg_prior_window": 8.0,
    "inception_score_mean": 1.0016882158695,
    "inception_score_std": 0.00011903305164546102,
    "fid_per_class": {
        "airplane": 2423.927356271241,
        "automobile": 2460.2250565077165,
        "bird": 2569.7372348922027,
        "cat": 2553.195249132709,
        "deer": 2661.491211874111,
        "dog": 2467.6790030717866,
        "frog": 2738.0899139969724,
        "horse": 2695.031087341219,
        "ship": 2424.7830452739063,
        "truck": 2426.0136205870176
    },
    "fid": 2511.235337323242
}