{
    "epoch": 185,
    "avg_current_window": 758.7450441174478,
    "avg_prior_window": 766.2578631337433,
    "inception_score_mean": 2.011891838551401,
    "inception_score_std": 0.10271943152873683,
    "fid_per_class": {
        "airplane": 894.972853518924,
        "automobile": 1101.298108226615,
        "bird": 1191.2948694516945,
        "cat": 966.511714283628,
        "deer": 1282.9108706418162,
        "dog": 962.182042541523,
        "frog": 1315.6876814094198,
        "horse": 1130.523524078436,
        "ship": 848.7113824257077,
        "truck": 1062.884848337635
    },
    "fid": 662.2866437004307
}