{
    "epoch": 166,
    "avg_current_window": 777.682189044996,
    "avg_prior_window": 786.7327432716071,
    "inception_score_mean": 2.0701478185325786,
    "inception_score_std": 0.1734756384995226,
    "fid_per_class": {
        "airplane": 795.1555490881597,
        "automobile": 1067.3413029818962,
        "bird": 1140.6452159103133,
        "cat": 891.1285723410217,
        "deer": 1200.0525624144796,
        "dog": 949.9896591571022,
        "frog": 1162.080674317792,
        "horse": 1083.9246456043375,
        "ship": 792.458220646047,
        "truck": 951.4551523948464
    },
    "fid": 587.687013749344
}