{
    "epoch": 95,
    "avg_current_window": 896.2258758417537,
    "avg_prior_window": 917.7784558851314,
    "inception_score_mean": 2.0018078994621824,
    "inception_score_std": 0.1269973132400483,
    "fid_per_class": {
        "airplane": 864.8665934291587,
        "automobile": 1076.0742969548046,
        "bird": 1162.5675205673313,
        "cat": 966.3818472441974,
        "deer": 1226.0988120742331,
        "dog": 939.1870951526054,
        "frog": 1123.1683261966186,
        "horse": 1186.0195348449374,
        "ship": 815.0371625489007,
        "truck": 1092.4302927266208
    },
    "fid": 633.763998883146
}