{
    "epoch": 170,
    "avg_current_window": 773.5809121278966,
    "avg_prior_window": 782.3954144331475,
    "inception_score_mean": 2.129966429093256,
    "inception_score_std": 0.1919920496432789,
    "fid_per_class": {
        "airplane": 875.9220574950753,
        "automobile": 1001.0234892735941,
        "bird": 1093.8778765334432,
        "cat": 850.8591524493245,
        "deer": 1115.8042919828672,
        "dog": 890.4068186181617,
        "frog": 1101.6727574714828,
        "horse": 1051.4172635748323,
        "ship": 829.3659982299479,
        "truck": 951.378516502981
    },
    "fid": 552.9866450142292
}