{
    "epoch": 176,
    "avg_current_window": 766.866956447636,
    "avg_prior_window": 775.6637059161732,
    "inception_score_mean": 2.0659953923414403,
    "inception_score_std": 0.19467725891685445,
    "fid_per_class": {
        "airplane": 887.8147908075688,
        "automobile": 1006.3468592197759,
        "bird": 1110.1290549384853,
        "cat": 926.5454213938111,
        "deer": 1110.5369595496084,
        "dog": 933.0019231508111,
        "frog": 1170.5152656928963,
        "horse": 1053.5990591599898,
        "ship": 783.8421806201304,
        "truck": 986.1888187205666
    },
    "fid": 586.3267831244043
}