{
    "epoch": 8,
    "avg_current_window": 2191.1165331545685,
    "avg_prior_window": 1.0,
    "inception_score_mean": 1.2211182686003625,
    "inception_score_std": 0.03625823601779362,
    "fid_per_class": {
        "airplane": 1935.3136635796568,
        "automobile": 2090.9505612553758,
        "bird": 2273.5930917965366,
        "cat": 2291.514559651613,
        "deer": 2508.858911294219,
        "dog": 2255.1398701446806,
        "frog": 2646.1639904199806,
        "horse": 2510.6563892707213,
        "ship": 1887.1824788500548,
        "truck": 1871.8278586293495
    },
    "fid": 2009.2025241505467
}