{
    "epoch": 78,
    "avg_current_window": 950.1463942658057,
    "avg_prior_window": 981.3363818716858,
    "inception_score_mean": 2.008656294741328,
    "inception_score_std": 0.1563147903648159,
    "fid_per_class": {
        "airplane": 872.1379930600489,
        "automobile": 1057.5386714958986,
        "bird": 1224.515738986031,
        "cat": 956.6097146167828,
        "deer": 1125.7258749671291,
        "dog": 935.9643565628878,
        "frog": 1144.7116800668646,
        "horse": 1103.274813311923,
        "ship": 809.9498954796759,
        "truck": 1010.7402607279955
    },
    "fid": 604.5118847896654
}