{
    "epoch": 64,
    "avg_current_window": 1015.1171996846596,
    "avg_prior_window": 1057.2151896897717,
    "inception_score_mean": 1.975122356410403,
    "inception_score_std": 0.15558836253583494,
    "fid_per_class": {
        "airplane": 837.7896822265844,
        "automobile": 1017.1464103560377,
        "bird": 1203.8670807734857,
        "cat": 984.3075479046327,
        "deer": 1211.3380938967116,
        "dog": 974.6125653700278,
        "frog": 1167.3874035041829,
        "horse": 1216.1184531046283,
        "ship": 749.4575270647188,
        "truck": 1023.7136399072085
    },
    "fid": 641.7918601513611
}