{
    "epoch": 188,
    "avg_current_window": 756.6722726289437,
    "avg_prior_window": 763.8165563098382,
    "inception_score_mean": 2.0771390311811038,
    "inception_score_std": 0.1615927742911489,
    "fid_per_class": {
        "airplane": 862.4027398366059,
        "automobile": 1022.8398244130417,
        "bird": 1160.3222650673608,
        "cat": 939.5308292892341,
        "deer": 1104.9333979094658,
        "dog": 938.1474232287733,
        "frog": 1153.21593721721,
        "horse": 1007.6466439450405,
        "ship": 819.858273556695,
        "truck": 1016.6659826553453
    },
    "fid": 580.1237391184586
}