{
    "epoch": 157,
    "avg_current_window": 787.5167096077982,
    "avg_prior_window": 796.909102869447,
    "inception_score_mean": 2.0708261161460886,
    "inception_score_std": 0.1827500017440461,
    "fid_per_class": {
        "airplane": 846.8715647056132,
        "automobile": 1015.3603663883973,
        "bird": 1104.743950998607,
        "cat": 858.4424999069222,
        "deer": 1171.4849945680396,
        "dog": 912.5876564729341,
        "frog": 1086.9564763668302,
        "horse": 1053.228973414659,
        "ship": 817.1140526270324,
        "truck": 1053.4012625258042
    },
    "fid": 559.6071599481832
}