{
    "epoch": 179,
    "avg_current_window": 763.9957067284045,
    "avg_prior_window": 772.4004275052611,
    "inception_score_mean": 1.9889834146561811,
    "inception_score_std": 0.17416767093472718,
    "fid_per_class": {
        "airplane": 841.331967775502,
        "automobile": 1087.6508910619516,
        "bird": 1114.6844035575148,
        "cat": 926.9450047060644,
        "deer": 1118.3132092218589,
        "dog": 973.2617856090628,
        "frog": 1149.2499397077008,
        "horse": 1127.8217354028134,
        "ship": 841.056349774743,
        "truck": 979.2554742204678
    },
    "fid": 597.456512317412
}