{
    "epoch": 86,
    "avg_current_window": 922.6550173854405,
    "avg_prior_window": 947.3884512938284,
    "inception_score_mean": 2.002500895817483,
    "inception_score_std": 0.1337099748042037,
    "fid_per_class": {
        "airplane": 885.5018486287479,
        "automobile": 1044.6029643515672,
        "bird": 1152.9626965867171,
        "cat": 968.8594972411141,
        "deer": 1180.8113159566562,
        "dog": 978.350206497638,
        "frog": 1170.840726968942,
        "horse": 1137.2877659851013,
        "ship": 790.1426485331497,
        "truck": 992.2133697464894
    },
    "fid": 622.18268205303
}