{
    "epoch": 62,
    "avg_current_window": 1027.5494741695563,
    "avg_prior_window": 1070.7543026181909,
    "inception_score_mean": 1.9919274741183806,
    "inception_score_std": 0.14196357357957093,
    "fid_per_class": {
        "airplane": 909.3398222210599,
        "automobile": 1090.1119999488944,
        "bird": 1114.0040300080211,
        "cat": 1016.9497089190414,
        "deer": 1256.4229041204185,
        "dog": 1049.2367941399086,
        "frog": 1160.9711210855758,
        "horse": 1212.094329869801,
        "ship": 768.6902754025325,
        "truck": 1081.7147693717702
    },
    "fid": 659.5294479257418
}