{
    "epoch": 197,
    "avg_current_window": 749.01760405865,
    "avg_prior_window": 755.8415780570186,
    "inception_score_mean": 2.017635653817328,
    "inception_score_std": 0.11429956438062941,
    "fid_per_class": {
        "airplane": 808.6298723672287,
        "automobile": 1030.1212776503771,
        "bird": 1119.2657950376097,
        "cat": 863.519593160235,
        "deer": 1120.5687032318247,
        "dog": 916.3875002494487,
        "frog": 1087.2860252250384,
        "horse": 1073.4874979088208,
        "ship": 830.441743205281,
        "truck": 929.8716833662572
    },
    "fid": 552.1447595949551
}