{
    "epoch": 164,
    "avg_current_window": 779.68908809094,
    "avg_prior_window": 788.9473973708206,
    "inception_score_mean": 2.1018121185637217,
    "inception_score_std": 0.097024117568206,
    "fid_per_class": {
        "airplane": 878.2819558466501,
        "automobile": 1086.2999766349967,
        "bird": 1112.5994442150002,
        "cat": 890.6772871240213,
        "deer": 1059.7221556073512,
        "dog": 924.3906894441224,
        "frog": 1173.5467150188456,
        "horse": 1109.985752854807,
        "ship": 887.2826964790926,
        "truck": 1054.8186266037587
    },
    "fid": 593.9401454545148
}