{
    "epoch": 162,
    "avg_current_window": 781.8763683131403,
    "avg_prior_window": 791.0810864227549,
    "inception_score_mean": 2.0164132341143888,
    "inception_score_std": 0.0868137534441213,
    "fid_per_class": {
        "airplane": 875.5951798455362,
        "automobile": 1046.5384104678517,
        "bird": 1155.6469558445579,
        "cat": 916.4698609887018,
        "deer": 1210.153597711077,
        "dog": 958.3226921355929,
        "frog": 1233.4163349951696,
        "horse": 1119.0295688720635,
        "ship": 866.2698041328572,
        "truck": 1030.1414701726528
    },
    "fid": 622.0738566222369
}