{
    "epoch": 2,
    "avg_current_window": 1257.617668661621,
    "avg_prior_window": 2518.235337323242,
    "inception_score_mean": 1.0000005757336778,
    "inception_score_std": 2.513268254383483e-07,
    "fid_per_class": {
        "airplane": 2316.1018612287157,
        "automobile": 2568.5052674351255,
        "bird": 2711.996939606423,
        "cat": 2813.195414494233,
        "deer": 3148.3375407897047,
        "dog": 2759.376822993623,
        "frog": 3180.629349590233,
        "horse": 3041.5661303020206,
        "ship": 2574.677456480675,
        "truck": 2552.855297462772
    },
    "fid": 2758.8960064245066
}