{
    "epoch": 33,
    "avg_current_window": 1326.1417635442874,
    "avg_prior_window": 1465.012258122839,
    "inception_score_mean": 2.1730724746090817,
    "inception_score_std": 0.188894805211904,
    "fid_per_class": {
        "airplane": 1039.449674789907,
        "automobile": 1121.4502202629835,
        "bird": 1252.8289919040765,
        "cat": 1059.7001821967804,
        "deer": 1302.5151883217031,
        "dog": 1064.6912582646735,
        "frog": 1377.8845726128145,
        "horse": 1344.8476941791482,
        "ship": 807.2378553325254,
        "truck": 1214.3304387577605
    },
    "fid": 729.557132753745
}