{
    "epoch": 122,
    "avg_current_window": 838.1339207946562,
    "avg_prior_window": 853.447633105154,
    "inception_score_mean": 2.0750143867323407,
    "inception_score_std": 0.1488932420724738,
    "fid_per_class": {
        "airplane": 912.6230970387777,
        "automobile": 1041.3632330515015,
        "bird": 1116.4070390620318,
        "cat": 957.6419395569983,
        "deer": 1217.7100160187645,
        "dog": 949.6542325837067,
        "frog": 1249.6288458420954,
        "horse": 1146.5045154737445,
        "ship": 812.1748906330952,
        "truck": 1033.795926477787
    },
    "fid": 628.434859370895
}