{
    "epoch": 87,
    "avg_current_window": 919.2013123816197,
    "avg_prior_window": 943.6914333585332,
    "inception_score_mean": 1.9456520833115387,
    "inception_score_std": 0.1503299357590523,
    "fid_per_class": {
        "airplane": 897.4467938940885,
        "automobile": 1031.1203818824665,
        "bird": 1209.9846152794746,
        "cat": 976.4517077847374,
        "deer": 1276.3737571956785,
        "dog": 976.5948047140289,
        "frog": 1150.3948293858136,
        "horse": 1200.6009334875635,
        "ship": 809.8164541408782,
        "truck": 1045.8989468590792
    },
    "fid": 652.5124834974328
}