{
    "epoch": 71,
    "avg_current_window": 980.2512597809676,
    "avg_prior_window": 1013.5601041640083,
    "inception_score_mean": 1.9021376481078147,
    "inception_score_std": 0.17755106507561683,
    "fid_per_class": {
        "airplane": 843.5108632958886,
        "automobile": 1063.049676626013,
        "bird": 1299.155165720821,
        "cat": 1074.443350467442,
        "deer": 1299.557936260072,
        "dog": 1005.438740629811,
        "frog": 1366.4695304597956,
        "horse": 1169.980534859888,
        "ship": 852.1133138447292,
        "truck": 1110.2570221078108
    },
    "fid": 716.6283430137988
}