{
    "epoch": 184,
    "avg_current_window": 759.6653793733717,
    "avg_prior_window": 767.3334526072726,
    "inception_score_mean": 2.061613098283647,
    "inception_score_std": 0.11726685840808572,
    "fid_per_class": {
        "airplane": 831.2631907498364,
        "automobile": 1047.2330494613439,
        "bird": 1143.901980034507,
        "cat": 947.8527986273639,
        "deer": 1128.5932352154127,
        "dog": 899.5335673117808,
        "frog": 1123.5939643897452,
        "horse": 1088.9681668768942,
        "ship": 829.1271457559219,
        "truck": 940.624628206513
    },
    "fid": 589.4033570274407
}