{
    "epoch": 7,
    "avg_current_window": 2204.7460917564517,
    "avg_prior_window": 2.0,
    "inception_score_mean": 1.0001987351128834,
    "inception_score_std": 0.00022912000203352648,
    "fid_per_class": {
        "airplane": 2242.6449292432335,
        "automobile": 2671.666578103371,
        "bird": 2483.6583297299217,
        "cat": 2566.466034686069,
        "deer": 2976.3661262613773,
        "dog": 2677.6401315417484,
        "frog": 2723.4794492879037,
        "horse": 2910.151552785469,
        "ship": 2666.811409227665,
        "truck": 2575.0497345396243
    },
    "fid": 2615.259134918998
}