{
    "epoch": 65,
    "avg_current_window": 1586.2539518445865,
    "avg_prior_window": 1652.3410592783816,
    "inception_score_mean": 1.844646220045314,
    "inception_score_std": 0.09344726293293633,
    "fid_per_class": {
        "airplane": 1039.4850389432681,
        "automobile": 1202.662483636086,
        "bird": 1537.4288745188862,
        "cat": 1165.7226479480614,
        "deer": 1675.010024093784,
        "dog": 1378.3703254194502,
        "frog": 1915.150075913833,
        "horse": 1465.4912094163333,
        "ship": 1064.028258838513,
        "truck": 1233.1317642274337
    },
    "fid": 982.7047430996747
}