{
    "epoch": 183,
    "avg_current_window": 1129.6910826331932,
    "avg_prior_window": 1143.613942267608,
    "inception_score_mean": 2.117462290426152,
    "inception_score_std": 0.12597985636435657,
    "fid_per_class": {
        "airplane": 934.5183745330668,
        "automobile": 1118.254148493105,
        "bird": 1254.8119529396013,
        "cat": 1051.9993919446638,
        "deer": 1334.443598760991,
        "dog": 1163.9808133165484,
        "frog": 1465.7267018156454,
        "horse": 1255.9145452796931,
        "ship": 963.7560487514415,
        "truck": 1054.836889855576
    },
    "fid": 752.0328391648935
}