{
    "epoch": 78,
    "avg_current_window": 1487.681401678484,
    "avg_prior_window": 1535.2498442777608,
    "inception_score_mean": 1.8716311400664813,
    "inception_score_std": 0.11737087399014585,
    "fid_per_class": {
        "airplane": 1050.8839663319359,
        "automobile": 1202.6607888106655,
        "bird": 1508.8723127715016,
        "cat": 1216.3752573211068,
        "deer": 1720.3432127532813,
        "dog": 1327.4293081399005,
        "frog": 2007.9474629231913,
        "horse": 1514.6952954228782,
        "ship": 1076.256106802387,
        "truck": 1164.1513144122407
    },
    "fid": 1006.5441881146769
}