{
    "epoch": 92,
    "avg_current_window": 1406.238372194276,
    "avg_prior_window": 1444.6572656851429,
    "inception_score_mean": 2.059620578180136,
    "inception_score_std": 0.19538351900083992,
    "fid_per_class": {
        "airplane": 1053.8075219435505,
        "automobile": 1176.0643160486832,
        "bird": 1351.4607678154832,
        "cat": 1110.704522422396,
        "deer": 1555.3350267169603,
        "dog": 1300.6632709471296,
        "frog": 1638.1049375851508,
        "horse": 1385.0038906573895,
        "ship": 1005.7123593571689,
        "truck": 1172.4186275155719
    },
    "fid": 880.8377909298447
}