{
    "epoch": 27,
    "avg_current_window": 2088.231081046319,
    "avg_prior_window": 2249.8941120952113,
    "inception_score_mean": 1.2971616579836849,
    "inception_score_std": 0.09830766590190101,
    "fid_per_class": {
        "airplane": 1717.0852377444198,
        "automobile": 1721.503468965538,
        "bird": 2066.291958755342,
        "cat": 1739.8843600644823,
        "deer": 2170.601241547215,
        "dog": 2016.0696036894117,
        "frog": 2256.1746687037403,
        "horse": 2119.2772036470583,
        "ship": 1559.4429043660534,
        "truck": 1606.0623552739887
    },
    "fid": 1676.5568306571527
}