{
    "epoch": 91,
    "avg_current_window": 1411.2548403362898,
    "avg_prior_window": 1449.9252450628194,
    "inception_score_mean": 1.907313994980586,
    "inception_score_std": 0.18635446151327964,
    "fid_per_class": {
        "airplane": 1014.5052038331464,
        "automobile": 1175.6638716840735,
        "bird": 1437.044331666488,
        "cat": 1183.2514699410526,
        "deer": 1576.0878210071378,
        "dog": 1501.1466286361033,
        "frog": 1713.8728479545982,
        "horse": 1461.1919825472764,
        "ship": 1070.6219537736433,
        "truck": 1174.8702004510578
    },
    "fid": 949.7397712710251
}