{
    "epoch": 156,
    "avg_current_window": 1186.0029515172134,
    "avg_prior_window": 1203.0576699312164,
    "inception_score_mean": 2.043816456449951,
    "inception_score_std": 0.10409244959768967,
    "fid_per_class": {
        "airplane": 983.7280688530396,
        "automobile": 1137.3044614319906,
        "bird": 1346.0148082882688,
        "cat": 1147.680890945468,
        "deer": 1513.3550920282391,
        "dog": 1320.3509118390975,
        "frog": 1686.5692781923362,
        "horse": 1403.4153678535076,
        "ship": 1044.7601403716762,
        "truck": 1144.878151464943
    },
    "fid": 879.4777385367624
}