{
    "epoch": 82,
    "avg_current_window": 1463.0763335293598,
    "avg_prior_window": 1507.00193936262,
    "inception_score_mean": 1.9022998812820386,
    "inception_score_std": 0.14805319014486693,
    "fid_per_class": {
        "airplane": 1055.546033846679,
        "automobile": 1132.1198352540512,
        "bird": 1388.8620865589226,
        "cat": 1246.691955172183,
        "deer": 1729.3772815254101,
        "dog": 1439.4021614455455,
        "frog": 1789.4787987537914,
        "horse": 1411.4072325655693,
        "ship": 1081.7417587835034,
        "truck": 1146.3462437588105
    },
    "fid": 958.9021013824118
}