{
    "epoch": 180,
    "avg_current_window": 1135.4475255913255,
    "avg_prior_window": 1149.5206562490857,
    "inception_score_mean": 2.0935458347776774,
    "inception_score_std": 0.1183129541795222,
    "fid_per_class": {
        "airplane": 951.1293876780203,
        "automobile": 1087.1760881880896,
        "bird": 1289.34054797418,
        "cat": 1023.2099192377649,
        "deer": 1427.0327184854996,
        "dog": 1159.8961907474877,
        "frog": 1483.493876613688,
        "horse": 1296.8183681422774,
        "ship": 962.3662450675831,
        "truck": 1124.2947687990281
    },
    "fid": 785.3084096682676
}