{
    "epoch": 111,
    "avg_current_window": 1320.0212269710903,
    "avg_prior_window": 1348.6724588239213,
    "inception_score_mean": 2.0011534763226253,
    "inception_score_std": 0.1464165245324757,
    "fid_per_class": {
        "airplane": 1017.165432404084,
        "automobile": 1211.273730794889,
        "bird": 1444.8195198145413,
        "cat": 1170.6198073297955,
        "deer": 1559.7944111223437,
        "dog": 1322.5920626208813,
        "frog": 1654.6878577376856,
        "horse": 1369.6538260012662,
        "ship": 1034.2189886203655,
        "truck": 1131.0205207199185
    },
    "fid": 900.6478831206638
}