{
    "epoch": 96,
    "avg_current_window": 1385.6112603585227,
    "avg_prior_window": 1421.691541119488,
    "inception_score_mean": 2.0533198338556105,
    "inception_score_std": 0.16909625777196496,
    "fid_per_class": {
        "airplane": 995.462859654995,
        "automobile": 1208.337967651796,
        "bird": 1438.8635968194417,
        "cat": 1150.8793374697773,
        "deer": 1567.700336479958,
        "dog": 1366.2937267761142,
        "frog": 1725.0741308753795,
        "horse": 1365.1757986903351,
        "ship": 1052.7885000916244,
        "truck": 1188.9357079608487
    },
    "fid": 910.9412351422616
}