{
    "epoch": 137,
    "avg_current_window": 1234.2074537597573,
    "avg_prior_window": 1255.6891668551496,
    "inception_score_mean": 2.1371069935551104,
    "inception_score_std": 0.13830458287078254,
    "fid_per_class": {
        "airplane": 975.9188406204572,
        "automobile": 1126.356961173922,
        "bird": 1347.2206913118061,
        "cat": 1056.1678576104823,
        "deer": 1470.3215325243748,
        "dog": 1186.115308669604,
        "frog": 1607.923135202127,
        "horse": 1293.0355601636388,
        "ship": 1014.9755188151014,
        "truck": 1145.797527745946
    },
    "fid": 813.7690381076965
}