{
    "epoch": 109,
    "avg_current_window": 1327.8139215718238,
    "avg_prior_window": 1357.7320029411692,
    "inception_score_mean": 1.973078365579362,
    "inception_score_std": 0.16561957271094202,
    "fid_per_class": {
        "airplane": 983.1260579285876,
        "automobile": 1141.8789745669728,
        "bird": 1367.2507902335642,
        "cat": 1109.926114681317,
        "deer": 1532.2586892710465,
        "dog": 1313.7026469044777,
        "frog": 1700.9322151091799,
        "horse": 1309.0036188040299,
        "ship": 1040.94091490498,
        "truck": 1137.8798713360202
    },
    "fid": 873.8041016674839
}