{
    "epoch": 29,
    "avg_current_window": 2057.604138979562,
    "avg_prior_window": 2207.5118415203046,
    "inception_score_mean": 1.4079901570649063,
    "inception_score_std": 0.13160094075538992,
    "fid_per_class": {
        "airplane": 1546.9166866106798,
        "automobile": 1534.0680655612034,
        "bird": 2099.3710106445587,
        "cat": 1686.8352248862675,
        "deer": 2265.581047071415,
        "dog": 1954.0906491915773,
        "frog": 2256.4113019208025,
        "horse": 1953.6129175671401,
        "ship": 1495.5873067990826,
        "truck": 1526.3026223213114
    },
    "fid": 1563.9229830566915
}