{
    "epoch": 112,
    "avg_current_window": 1316.276822115283,
    "avg_prior_window": 1344.2290515428206,
    "inception_score_mean": 2.009839488669931,
    "inception_score_std": 0.16487333583070835,
    "fid_per_class": {
        "airplane": 1038.4955423055253,
        "automobile": 1238.7695022693895,
        "bird": 1468.6235383297062,
        "cat": 1163.8315991428803,
        "deer": 1600.8909113825962,
        "dog": 1409.1076531901417,
        "frog": 1796.5195429090002,
        "horse": 1395.7081119718164,
        "ship": 1068.2735632294628,
        "truck": 1193.4044255283586
    },
    "fid": 942.6582057809561
}