{
    "epoch": 197,
    "avg_current_window": 1106.48789504829,
    "avg_prior_window": 1118.2128785818547,
    "inception_score_mean": 2.0351341386949997,
    "inception_score_std": 0.13604001507471528,
    "fid_per_class": {
        "airplane": 982.7734461086271,
        "automobile": 1135.9418891484934,
        "bird": 1287.221330985948,
        "cat": 1133.527848408354,
        "deer": 1469.667803742765,
        "dog": 1277.3409547544834,
        "frog": 1371.5920892622003,
        "horse": 1282.0360616909122,
        "ship": 1006.2502935205891,
        "truck": 1136.7634308580732
    },
    "fid": 799.2066518985303
}