{
    "epoch": 4,
    "avg_current_window": 1928.316182945346,
    "avg_prior_window": 2581.8430114192715,
    "inception_score_mean": 1.0000000000474638,
    "inception_score_std": 1.4206414858189482e-11,
    "fid_per_class": {
        "airplane": 2202.532108485422,
        "automobile": 2449.6497617950135,
        "bird": 2501.8515438598106,
        "cat": 2478.0586712840977,
        "deer": 2904.1412021175915,
        "dog": 2653.561093432595,
        "frog": 2746.935473429018,
        "horse": 2759.2949632946047,
        "ship": 2576.3900788360606,
        "truck": 2400.87053702645
    },
    "fid": 2559.5842148281536
}