{
    "epoch": 35,
    "avg_current_window": 1962.954549967469,
    "avg_prior_window": 2092.8710564795388,
    "inception_score_mean": 1.683668849884572,
    "inception_score_std": 0.13232358735908087,
    "fid_per_class": {
        "airplane": 1232.6871125098298,
        "automobile": 1330.5862933198487,
        "bird": 1521.7344544059374,
        "cat": 1322.1939901303763,
        "deer": 1882.635974668376,
        "dog": 1615.15368265888,
        "frog": 2086.618140222526,
        "horse": 1616.9823192862814,
        "ship": 1207.603357108474,
        "truck": 1343.1686565113796
    },
    "fid": 1153.558327374843
}