{
    "epoch": 134,
    "avg_current_window": 1243.035626514492,
    "avg_prior_window": 1264.8708025996311,
    "inception_score_mean": 2.1049490719660695,
    "inception_score_std": 0.15968222216105857,
    "fid_per_class": {
        "airplane": 1024.543092306529,
        "automobile": 1173.6626210369973,
        "bird": 1278.6198232710015,
        "cat": 1153.0764184795833,
        "deer": 1419.7506124586002,
        "dog": 1284.2223539311954,
        "frog": 1722.120446938742,
        "horse": 1267.7681746439687,
        "ship": 1054.7018436557175,
        "truck": 1168.211942459935
    },
    "fid": 859.7335394145535
}