{
    "epoch": 38,
    "avg_current_window": 1914.1665970613242,
    "avg_prior_window": 2036.338660183946,
    "inception_score_mean": 1.4832529928258047,
    "inception_score_std": 0.07644453721327996,
    "fid_per_class": {
        "airplane": 1455.442861612768,
        "automobile": 1445.4414211048306,
        "bird": 1803.694454486861,
        "cat": 1568.4152594673942,
        "deer": 2069.1220210444394,
        "dog": 1888.437159420858,
        "frog": 2357.129408370182,
        "horse": 1903.1734130462428,
        "ship": 1348.1248458528876,
        "truck": 1391.4784323861743
    },
    "fid": 1412.4067656788375
}