{
    "epoch": 48,
    "avg_current_window": 1775.9508189436008,
    "avg_prior_window": 1871.6050351420383,
    "inception_score_mean": 1.7880675261247603,
    "inception_score_std": 0.18848592406714412,
    "fid_per_class": {
        "airplane": 1203.2554359947871,
        "automobile": 1352.0512073940765,
        "bird": 1553.1942924188975,
        "cat": 1322.5614208382685,
        "deer": 1583.798450659699,
        "dog": 1570.1617220269727,
        "frog": 2133.184253695248,
        "horse": 1544.1295967571855,
        "ship": 1195.2097403041298,
        "truck": 1324.0556962209698
    },
    "fid": 1105.6860780368665
}