{
    "epoch": 150,
    "avg_current_window": 1199.9925499453823,
    "avg_prior_window": 1218.5263248117296,
    "inception_score_mean": 2.057594445350619,
    "inception_score_std": 0.2091206456312912,
    "fid_per_class": {
        "airplane": 939.9016473116917,
        "automobile": 1180.4370183642634,
        "bird": 1331.9241628076375,
        "cat": 1147.219887605107,
        "deer": 1459.905668497271,
        "dog": 1247.326393011236,
        "frog": 1656.5639937833193,
        "horse": 1346.2328571939117,
        "ship": 1003.933729040311,
        "truck": 1169.2360044451177
    },
    "fid": 844.7710578230531
}