{
    "epoch": 200,
    "avg_current_window": 1101.95064113477,
    "avg_prior_window": 1113.696759399451,
    "inception_score_mean": 2.093699285552792,
    "inception_score_std": 0.15864733820355978,
    "fid_per_class": {
        "airplane": 977.1383212965484,
        "automobile": 1151.6183660115976,
        "bird": 1331.7971758232607,
        "cat": 1108.4528246061534,
        "deer": 1478.3825616900883,
        "dog": 1248.3363609226417,
        "frog": 1495.9674842407278,
        "horse": 1252.067550128067,
        "ship": 1030.9353868745754,
        "truck": 1043.9842322227662
    },
    "fid": 804.7103663042053
}