{
    "epoch": 129,
    "avg_current_window": 1258.1644163546575,
    "avg_prior_window": 1281.2053009650265,
    "inception_score_mean": 1.9106994276856248,
    "inception_score_std": 0.15114989274363305,
    "fid_per_class": {
        "airplane": 1005.0954746902926,
        "automobile": 1191.7796213947345,
        "bird": 1316.7217802260623,
        "cat": 1120.8516727926026,
        "deer": 1454.0850594286017,
        "dog": 1288.0503318136784,
        "frog": 1744.9594216871565,
        "horse": 1285.2182922140812,
        "ship": 1037.8525743953553,
        "truck": 1124.1335852133602
    },
    "fid": 865.1238256016236
}