{
    "epoch": 186,
    "avg_current_window": 1124.0392821556093,
    "avg_prior_window": 1137.855360669183,
    "inception_score_mean": 2.1387104772019554,
    "inception_score_std": 0.15473580761219322,
    "fid_per_class": {
        "airplane": 979.6306314397656,
        "automobile": 1122.7628185273688,
        "bird": 1290.2576951010037,
        "cat": 1089.7535580205576,
        "deer": 1446.8179439185599,
        "dog": 1307.6243986838056,
        "frog": 1469.915090142557,
        "horse": 1303.1371760435445,
        "ship": 1036.6273817167244,
        "truck": 1099.2489772097651
    },
    "fid": 801.7692314873664
}