{
    "epoch": 10,
    "avg_current_window": 2304.7352999448367,
    "avg_prior_window": 2568.8546784034993,
    "inception_score_mean": 1.0000001823409674,
    "inception_score_std": 9.888017458662981e-08,
    "fid_per_class": {
        "airplane": 2179.1605340355577,
        "automobile": 2402.501286130907,
        "bird": 2573.9524784708683,
        "cat": 2553.2449867244572,
        "deer": 2930.8300829439286,
        "dog": 2783.985396785254,
        "frog": 2928.3484033413856,
        "horse": 2758.021919664212,
        "ship": 2516.4935243260716,
        "truck": 2328.39584048741
    },
    "fid": 2587.6504919955005
}