{
    "epoch": 106,
    "avg_current_window": 1340.5601803131872,
    "avg_prior_window": 1371.904012427235,
    "inception_score_mean": 2.0617695906242983,
    "inception_score_std": 0.198864544081363,
    "fid_per_class": {
        "airplane": 1000.489029662863,
        "automobile": 1168.4061252806707,
        "bird": 1401.2458762180595,
        "cat": 1136.3782730034136,
        "deer": 1408.564993140248,
        "dog": 1289.2510038135706,
        "frog": 1614.0136847215495,
        "horse": 1331.6460613962429,
        "ship": 1061.6225235967534,
        "truck": 1116.773679105343
    },
    "fid": 859.9015221377938
}