{
    "epoch": 54,
    "avg_current_window": 1700.3272916083695,
    "avg_prior_window": 1785.6632063789689,
    "inception_score_mean": 1.7758794539025196,
    "inception_score_std": 0.17776854765007755,
    "fid_per_class": {
        "airplane": 1115.3745966472707,
        "automobile": 1190.851968051748,
        "bird": 1473.0429504818499,
        "cat": 1188.5010163463703,
        "deer": 1544.3924665403906,
        "dog": 1341.7076768988927,
        "frog": 1894.8483293039553,
        "horse": 1441.4788564871228,
        "ship": 1071.576446564437,
        "truck": 1236.8876587195
    },
    "fid": 997.8980679455018
}