{
    "epoch": 90,
    "avg_current_window": 1417.0805067773222,
    "avg_prior_window": 1456.3560654264666,
    "inception_score_mean": 2.134077823636253,
    "inception_score_std": 0.15318492023812777,
    "fid_per_class": {
        "airplane": 1057.860665566738,
        "automobile": 1132.8180630955085,
        "bird": 1371.0949955168658,
        "cat": 1158.8807356544369,
        "deer": 1472.5451462553347,
        "dog": 1345.7014584053907,
        "frog": 1654.5789760632097,
        "horse": 1350.6381827935095,
        "ship": 1033.2544373434987,
        "truck": 1134.9252322756674
    },
    "fid": 886.9448606433663
}