{
    "epoch": 66,
    "avg_current_window": 1577.109266863603,
    "avg_prior_window": 1642.0452856246739,
    "inception_score_mean": 1.8214731343542225,
    "inception_score_std": 0.10739147814313385,
    "fid_per_class": {
        "airplane": 1086.2366032102677,
        "automobile": 1233.3602142894078,
        "bird": 1488.0529200695923,
        "cat": 1208.3076602790034,
        "deer": 1626.5399053634424,
        "dog": 1505.3387876478832,
        "frog": 1875.3299841728665,
        "horse": 1541.9932266422047,
        "ship": 1116.504686574285,
        "truck": 1311.8762475353624
    },
    "fid": 1024.9789569379604
}