{
    "epoch": 165,
    "avg_current_window": 1166.0735941271726,
    "avg_prior_window": 1182.004225062535,
    "inception_score_mean": 2.056438283906831,
    "inception_score_std": 0.11662655924435487,
    "fid_per_class": {
        "airplane": 950.95242781034,
        "automobile": 1123.0286515296991,
        "bird": 1346.6324951905497,
        "cat": 1106.253773396357,
        "deer": 1416.711004451448,
        "dog": 1201.4784958019725,
        "frog": 1542.4031658231193,
        "horse": 1394.7393841718037,
        "ship": 1043.0783300989167,
        "truck": 1105.2492548744237
    },
    "fid": 823.2047432473262
}