{
    "epoch": 187,
    "avg_current_window": 1122.315912900699,
    "avg_prior_window": 1135.8981764938153,
    "inception_score_mean": 2.142068636391963,
    "inception_score_std": 0.16434573318352996,
    "fid_per_class": {
        "airplane": 930.6135769310865,
        "automobile": 1162.2432763700758,
        "bird": 1316.3180231411816,
        "cat": 1124.4458550190889,
        "deer": 1484.1514317193369,
        "dog": 1227.9751524244125,
        "frog": 1550.492655117828,
        "horse": 1336.1068214961122,
        "ship": 1004.0307106279569,
        "truck": 1133.7521044042003
    },
    "fid": 816.2633815987093
}