{
    "epoch": 185,
    "avg_current_window": 1125.887999428083,
    "avg_prior_window": 1139.8103500894827,
    "inception_score_mean": 2.1212803708347185,
    "inception_score_std": 0.12391840087258496,
    "fid_per_class": {
        "airplane": 955.3243474226547,
        "automobile": 1136.2051615770697,
        "bird": 1278.3426059960389,
        "cat": 1083.6066171326647,
        "deer": 1418.8717327137645,
        "dog": 1173.4041277222243,
        "frog": 1444.9647941113649,
        "horse": 1236.199351116471,
        "ship": 982.165899221968,
        "truck": 1083.1288810368862
    },
    "fid": 782.0265867479986
}