{
    "epoch": 84,
    "avg_current_window": 1450.9411378037998,
    "avg_prior_window": 1494.1308554698446,
    "inception_score_mean": 1.8552931600769764,
    "inception_score_std": 0.06601093495576149,
    "fid_per_class": {
        "airplane": 1074.6165338586588,
        "automobile": 1202.3183742431868,
        "bird": 1417.3242817220585,
        "cat": 1211.2122740267741,
        "deer": 1700.818273542934,
        "dog": 1358.9277254159995,
        "frog": 1728.9859463960881,
        "horse": 1468.184488053766,
        "ship": 1100.9347808600924,
        "truck": 1196.7184427716356
    },
    "fid": 976.155964250271
}