{
    "epoch": 121,
    "avg_current_window": 1283.9774922364513,
    "avg_prior_window": 1309.650010787002,
    "inception_score_mean": 1.9992343283057887,
    "inception_score_std": 0.1665658866937587,
    "fid_per_class": {
        "airplane": 981.0202644196877,
        "automobile": 1196.1297552470623,
        "bird": 1358.2477863590336,
        "cat": 1151.559164133805,
        "deer": 1516.9221197137788,
        "dog": 1243.1636478719113,
        "frog": 1661.8495146063149,
        "horse": 1321.1724766064165,
        "ship": 1083.4005896055894,
        "truck": 1194.9197576431166
    },
    "fid": 871.6928304191142
}