{
    "epoch": 86,
    "avg_current_window": 1439.4216925726705,
    "avg_prior_window": 1481.1390043136728,
    "inception_score_mean": 2.0354347194172666,
    "inception_score_std": 0.13176954906128321,
    "fid_per_class": {
        "airplane": 1042.8164235806694,
        "automobile": 1157.6870293083998,
        "bird": 1402.1867509238514,
        "cat": 1145.461995055187,
        "deer": 1544.5985731695666,
        "dog": 1287.5631572848981,
        "frog": 1753.8817721418957,
        "horse": 1401.8175979289244,
        "ship": 1054.371139641692,
        "truck": 1102.294580932964
    },
    "fid": 903.3055141528057
}