{
    "epoch": 17,
    "avg_current_window": 2273.0319912959194,
    "avg_prior_window": 2574.040717517462,
    "inception_score_mean": 1.0999464005342663,
    "inception_score_std": 0.01871027859116289,
    "fid_per_class": {
        "airplane": 1811.9173504380344,
        "automobile": 1923.3769988925724,
        "bird": 2032.3571618327942,
        "cat": 2091.4694547425947,
        "deer": 2680.0391462005537,
        "dog": 2512.022556335832,
        "frog": 2867.687448636567,
        "horse": 2210.7613934090496,
        "ship": 1863.2917325169933,
        "truck": 1773.417975434138
    },
    "fid": 1929.7563164431156
}