{
    "epoch": 83,
    "avg_current_window": 1457.00194519024,
    "avg_prior_window": 1500.585814346621,
    "inception_score_mean": 1.8856696448167534,
    "inception_score_std": 0.1511445972379933,
    "fid_per_class": {
        "airplane": 1097.9443235663616,
        "automobile": 1128.096947673872,
        "bird": 1467.2963270090245,
        "cat": 1149.3652917383688,
        "deer": 1666.3957166833247,
        "dog": 1287.2892952844654,
        "frog": 1793.6226702288384,
        "horse": 1438.6665300524328,
        "ship": 1068.1849514301334,
        "truck": 1139.8478912416622
    },
    "fid": 947.894124729285
}