{
    "epoch": 44,
    "avg_current_window": 1829.0685570706285,
    "avg_prior_window": 1935.3014164164958,
    "inception_score_mean": 1.6099219467136916,
    "inception_score_std": 0.12398315866700625,
    "fid_per_class": {
        "airplane": 1260.958396506751,
        "automobile": 1359.1451000512047,
        "bird": 1754.6262553532251,
        "cat": 1550.8716568002544,
        "deer": 1874.6558108834338,
        "dog": 1783.139399372616,
        "frog": 2193.6596577012083,
        "horse": 1717.0697207603619,
        "ship": 1207.8963820713377,
        "truck": 1327.6217621053331
    },
    "fid": 1255.6175844449917
}