{
    "epoch": 123,
    "avg_current_window": 1277.3264659326271,
    "avg_prior_window": 1302.1581882027745,
    "inception_score_mean": 2.0208851209511964,
    "inception_score_std": 0.1889542811719983,
    "fid_per_class": {
        "airplane": 1003.5082554487099,
        "automobile": 1189.6842783378584,
        "bird": 1369.1047555063203,
        "cat": 1154.553158657042,
        "deer": 1580.0298089397609,
        "dog": 1357.3295078745095,
        "frog": 1662.872931133607,
        "horse": 1344.987486422715,
        "ship": 1080.009021544565,
        "truck": 1187.9201744849952
    },
    "fid": 895.9820508669193
}