{
    "epoch": 94,
    "avg_current_window": 1395.2248080739362,
    "avg_prior_window": 1433.0027596624607,
    "inception_score_mean": 1.983666729205357,
    "inception_score_std": 0.21404359965424039,
    "fid_per_class": {
        "airplane": 1015.7417400929749,
        "automobile": 1173.5906631787693,
        "bird": 1360.1696876685783,
        "cat": 1145.752510645315,
        "deer": 1609.4513480365124,
        "dog": 1323.8015603357605,
        "frog": 1738.4428274477052,
        "horse": 1427.0268722402304,
        "ship": 1075.7125769438894,
        "truck": 1186.1452986530617
    },
    "fid": 914.389608414719
}