{
    "epoch": 69,
    "avg_current_window": 1551.6786903099423,
    "avg_prior_window": 1611.0391698421581,
    "inception_score_mean": 1.9017582081784077,
    "inception_score_std": 0.10014035377833348,
    "fid_per_class": {
        "airplane": 1079.2661828735845,
        "automobile": 1192.1536178285492,
        "bird": 1452.694216702934,
        "cat": 1229.1306362232824,
        "deer": 1703.2306736268474,
        "dog": 1445.0532906432586,
        "frog": 1993.283862447103,
        "horse": 1550.2905963617907,
        "ship": 1059.3570175731797,
        "truck": 1181.303173805148
    },
    "fid": 1016.6009021227948
}