{
    "epoch": 119,
    "avg_current_window": 1291.2156824195579,
    "avg_prior_window": 1316.7303808856889,
    "inception_score_mean": 2.046317319502383,
    "inception_score_std": 0.16725320169788319,
    "fid_per_class": {
        "airplane": 1009.7859409532005,
        "automobile": 1198.3777108649815,
        "bird": 1232.8896743267203,
        "cat": 1128.3673614691072,
        "deer": 1460.0926178283028,
        "dog": 1232.9412988070546,
        "frog": 1718.2200963359196,
        "horse": 1313.4193871691973,
        "ship": 1042.1720053141848,
        "truck": 1229.8267128628845
    },
    "fid": 849.3472227025494
}