{
    "epoch": 172,
    "avg_current_window": 1151.1249830587287,
    "avg_prior_window": 1166.522610488311,
    "inception_score_mean": 2.0946154970703077,
    "inception_score_std": 0.12474311550941079,
    "fid_per_class": {
        "airplane": 937.3243559859325,
        "automobile": 1143.7774810451085,
        "bird": 1310.0974968164362,
        "cat": 1050.976985462708,
        "deer": 1480.642054912601,
        "dog": 1191.9776263380352,
        "frog": 1583.1745080955282,
        "horse": 1306.7519566569242,
        "ship": 1036.906079919081,
        "truck": 1135.8839997039902
    },
    "fid": 795.6045972515653
}