{
    "epoch": 22,
    "avg_current_window": 2171.2929373052334,
    "avg_prior_window": 2386.5470687337493,
    "inception_score_mean": 1.3218629126594454,
    "inception_score_std": 0.10061401340464612,
    "fid_per_class": {
        "airplane": 1792.6181925623441,
        "automobile": 1783.198879632098,
        "bird": 1949.5816947710666,
        "cat": 1801.948124878052,
        "deer": 2088.853786041496,
        "dog": 2119.0316241611445,
        "frog": 2289.509265167466,
        "horse": 2158.3939837622165,
        "ship": 1717.7007800588249,
        "truck": 1603.6825841000793
    },
    "fid": 1729.225845379516
}