{
    "epoch": 193,
    "avg_current_window": 1112.4190294700315,
    "avg_prior_window": 1124.9163555196687,
    "inception_score_mean": 2.077180833733598,
    "inception_score_std": 0.13652498300418778,
    "fid_per_class": {
        "airplane": 986.7242795435532,
        "automobile": 1176.670757700698,
        "bird": 1350.1764040876155,
        "cat": 1113.3983378975813,
        "deer": 1428.5756057874864,
        "dog": 1295.6325805905865,
        "frog": 1573.1739370666924,
        "horse": 1406.0107797443911,
        "ship": 998.5030449003519,
        "truck": 1134.521875553396
    },
    "fid": 847.1900924934733
}