{
    "epoch": 80,
    "avg_current_window": 1475.4542197764715,
    "avg_prior_window": 1521.1365691955418,
    "inception_score_mean": 1.9628641498070398,
    "inception_score_std": 0.13220232907853008,
    "fid_per_class": {
        "airplane": 1075.9201855466476,
        "automobile": 1168.7868682677677,
        "bird": 1381.3185591892634,
        "cat": 1185.0320355874248,
        "deer": 1632.4155851326318,
        "dog": 1295.1555256146817,
        "frog": 1718.6957310379246,
        "horse": 1421.8584293625984,
        "ship": 1081.3851463139647,
        "truck": 1161.945878895145
    },
    "fid": 929.293801862792
}