{
    "epoch": 32,
    "avg_current_window": 2005.3907248284593,
    "avg_prior_window": 2150.325778478066,
    "inception_score_mean": 1.3884865518053024,
    "inception_score_std": 0.10573499482740965,
    "fid_per_class": {
        "airplane": 1523.4635680483593,
        "automobile": 1669.541379244788,
        "bird": 2004.5794665678427,
        "cat": 1751.4839267498533,
        "deer": 2121.715830667339,
        "dog": 2072.124186366017,
        "frog": 2317.7238723938867,
        "horse": 1953.5582860031486,
        "ship": 1415.13028012201,
        "truck": 1639.0992462008578
    },
    "fid": 1580.1463809729828
}