{
    "epoch": 110,
    "avg_current_window": 1323.6865595726933,
    "avg_prior_window": 1353.3274201256938,
    "inception_score_mean": 1.9669541152925618,
    "inception_score_std": 0.1330015898654295,
    "fid_per_class": {
        "airplane": 976.2225941592035,
        "automobile": 1174.6135788733354,
        "bird": 1407.9787545287827,
        "cat": 1179.5150136204932,
        "deer": 1598.6029482423635,
        "dog": 1432.8964232806952,
        "frog": 1714.324076372723,
        "horse": 1334.0964267120244,
        "ship": 1085.6143980122577,
        "truck": 1173.138462809378
    },
    "fid": 916.8346407947398
}