{
    "epoch": 88,
    "avg_current_window": 1428.2407058478118,
    "avg_prior_window": 1468.4223563315566,
    "inception_score_mean": 1.9371620324750736,
    "inception_score_std": 0.1135463584726106,
    "fid_per_class": {
        "airplane": 1028.5701096954833,
        "automobile": 1191.1366130398433,
        "bird": 1410.1486162324995,
        "cat": 1204.5333759761597,
        "deer": 1594.4354331584118,
        "dog": 1397.458014170165,
        "frog": 1872.7054818087029,
        "horse": 1357.2417013744528,
        "ship": 1039.0017889127093,
        "truck": 1192.6692941916485
    },
    "fid": 940.3807196600087
}