{
    "epoch": 164,
    "avg_current_window": 1168.2490317332613,
    "avg_prior_window": 1183.9795503455891,
    "inception_score_mean": 2.140097642192873,
    "inception_score_std": 0.13144599297364346,
    "fid_per_class": {
        "airplane": 964.4926101355288,
        "automobile": 1163.177571385426,
        "bird": 1308.1603591272574,
        "cat": 1084.1718612713958,
        "deer": 1422.7895581922191,
        "dog": 1295.649830656836,
        "frog": 1517.8268487664757,
        "horse": 1315.6988828174888,
        "ship": 991.0090863532007,
        "truck": 1182.3360093411743
    },
    "fid": 809.3018267285959
}