{
    "epoch": 8,
    "avg_current_window": 2256.0602221517697,
    "avg_prior_window": 1.0,
    "inception_score_mean": 1.0000000000047076,
    "inception_score_std": 1.82378324264688e-12,
    "fid_per_class": {
        "airplane": 2226.121731840742,
        "automobile": 2460.373622082602,
        "bird": 2591.992932118018,
        "cat": 2606.642614800354,
        "deer": 3021.0479908235397,
        "dog": 2826.4228969758565,
        "frog": 2911.376778743051,
        "horse": 2866.5281597253797,
        "ship": 2596.636065330993,
        "truck": 2422.493570365557
    },
    "fid": 2645.2223862202504
}