{
    "epoch": 12,
    "avg_current_window": 2351.987134128427,
    "avg_prior_window": 2578.3545396020227,
    "inception_score_mean": 1.000000264163997,
    "inception_score_std": 1.6383683533461292e-07,
    "fid_per_class": {
        "airplane": 2251.2145430396204,
        "automobile": 2465.743207712838,
        "bird": 2666.357298551471,
        "cat": 2618.378639250282,
        "deer": 3018.958770618411,
        "dog": 2868.1116266767804,
        "frog": 3025.872481806559,
        "horse": 2837.896517392728,
        "ship": 2585.8047874939334,
        "truck": 2385.812404181655
    },
    "fid": 2664.6430006684213
}