{
    "epoch": 160,
    "avg_current_window": 1176.579678155929,
    "avg_prior_window": 1193.6545834624858,
    "inception_score_mean": 2.0864459751952427,
    "inception_score_std": 0.10497615508841115,
    "fid_per_class": {
        "airplane": 981.1864453678959,
        "automobile": 1159.2315592594587,
        "bird": 1336.3502496808896,
        "cat": 1127.5404059091793,
        "deer": 1561.5136712448118,
        "dog": 1273.5085980248336,
        "frog": 1690.6930063881114,
        "horse": 1408.516498895509,
        "ship": 1047.8021188652765,
        "truck": 1144.9443596817305
    },
    "fid": 867.9275050569344
}