{
    "epoch": 146,
    "avg_current_window": 1210.180254093841,
    "avg_prior_window": 1228.8536227321501,
    "inception_score_mean": 2.1292463342851473,
    "inception_score_std": 0.15594095924388002,
    "fid_per_class": {
        "airplane": 953.0793781546639,
        "automobile": 1149.80567284475,
        "bird": 1311.472876946869,
        "cat": 1074.621406287406,
        "deer": 1412.783851336023,
        "dog": 1178.747827676932,
        "frog": 1605.6219770622938,
        "horse": 1302.7412109177283,
        "ship": 1036.4228373405524,
        "truck": 1098.4637568491946
    },
    "fid": 805.8052692042866
}