{
    "epoch": 49,
    "avg_current_window": 1762.2719466801982,
    "avg_prior_window": 1857.605320353469,
    "inception_score_mean": 1.82269258200609,
    "inception_score_std": 0.12516233801715293,
    "fid_per_class": {
        "airplane": 1170.8922061877938,
        "automobile": 1333.9793913598883,
        "bird": 1526.1138385728275,
        "cat": 1523.2796875244496,
        "deer": 1712.0320843504387,
        "dog": 1766.1008865463214,
        "frog": 2139.997812334933,
        "horse": 1553.8485752128304,
        "ship": 1126.1196504731847,
        "truck": 1300.0462008087154
    },
    "fid": 1146.1717252397643
}