{
    "epoch": 46,
    "avg_current_window": 1803.8419647491876,
    "avg_prior_window": 1902.7247149779153,
    "inception_score_mean": 1.7859142857126806,
    "inception_score_std": 0.24566212990976743,
    "fid_per_class": {
        "airplane": 1265.2843446999018,
        "automobile": 1375.8657008372275,
        "bird": 1654.4899583003817,
        "cat": 1437.1088336902353,
        "deer": 1784.3569822061534,
        "dog": 1627.78131642988,
        "frog": 2112.3202575553078,
        "horse": 1470.065816811986,
        "ship": 1208.660791924774,
        "truck": 1267.435151940529
    },
    "fid": 1145.078706727317
}