{
    "epoch": 100,
    "avg_current_window": 1366.9082014974763,
    "avg_prior_window": 1400.1966420465073,
    "inception_score_mean": 1.9949236421495224,
    "inception_score_std": 0.1559148021906988,
    "fid_per_class": {
        "airplane": 1024.3368208119132,
        "automobile": 1178.10023099115,
        "bird": 1447.7708866368218,
        "cat": 1148.6557498875943,
        "deer": 1498.7059416738014,
        "dog": 1352.7021474535154,
        "frog": 1690.3071402510632,
        "horse": 1492.6473865034768,
        "ship": 1016.238355814787,
        "truck": 1145.459301502648
    },
    "fid": 919.6609110219857
}