{
    "epoch": 63,
    "avg_current_window": 1606.6443455095823,
    "avg_prior_window": 1673.753330525163,
    "inception_score_mean": 1.796640859195728,
    "inception_score_std": 0.12403131558110927,
    "fid_per_class": {
        "airplane": 1093.0415569793433,
        "automobile": 1192.8640044269087,
        "bird": 1443.900087930327,
        "cat": 1195.2495787427315,
        "deer": 1520.5443195960459,
        "dog": 1386.3259171562,
        "frog": 1854.380123650098,
        "horse": 1386.0637820173226,
        "ship": 1135.1500015211022,
        "truck": 1190.835301378382
    },
    "fid": 975.6361824981834
}