{
    "epoch": 95,
    "avg_current_window": 1390.1633849196287,
    "avg_prior_window": 1426.9354496733597,
    "inception_score_mean": 1.9865661274140258,
    "inception_score_std": 0.21424346868837843,
    "fid_per_class": {
        "airplane": 1051.5095030681791,
        "automobile": 1235.0001172093919,
        "bird": 1483.7493190413284,
        "cat": 1250.3606557352427,
        "deer": 1637.7141813803387,
        "dog": 1367.1086108097902,
        "frog": 1877.92506570976,
        "horse": 1405.2278018249015,
        "ship": 1053.749619004634,
        "truck": 1173.283834324368
    },
    "fid": 953.1594270534706
}