{
    "epoch": 191,
    "avg_current_window": 1115.6872357034347,
    "avg_prior_window": 1128.3498694216705,
    "inception_score_mean": 2.11197829067999,
    "inception_score_std": 0.18835775442413344,
    "fid_per_class": {
        "airplane": 958.4575755687836,
        "automobile": 1162.4700489177947,
        "bird": 1273.2398715000393,
        "cat": 1066.4681654604904,
        "deer": 1443.5203180250608,
        "dog": 1221.715845816803,
        "frog": 1462.284856286757,
        "horse": 1216.2476255575768,
        "ship": 979.4554831264506,
        "truck": 1106.0060313241772
    },
    "fid": 776.5646648088552
}