{
    "epoch": 28,
    "avg_current_window": 2073.5284292467063,
    "avg_prior_window": 2231.4352758248288,
    "inception_score_mean": 1.3893733793759786,
    "inception_score_std": 0.07548521194682269,
    "fid_per_class": {
        "airplane": 1718.6778336978,
        "automobile": 1464.027561441448,
        "bird": 2054.6284394521417,
        "cat": 1752.1425578659553,
        "deer": 2111.980598769218,
        "dog": 1960.2797937228725,
        "frog": 2469.2079833821795,
        "horse": 2064.8947777527014,
        "ship": 1508.8791391236382,
        "truck": 1455.6395895164005
    },
    "fid": 1611.7240114995254
}