{
    "epoch": 153,
    "avg_current_window": 1192.8109501064207,
    "avg_prior_window": 1210.4809862902305,
    "inception_score_mean": 2.0519444592336002,
    "inception_score_std": 0.16950493754095783,
    "fid_per_class": {
        "airplane": 924.6885154683947,
        "automobile": 1130.2478065779742,
        "bird": 1228.831221424046,
        "cat": 1098.4457257604254,
        "deer": 1431.7871396183311,
        "dog": 1185.6876640947773,
        "frog": 1584.2233992602191,
        "horse": 1327.0046181558037,
        "ship": 1002.3478981099008,
        "truck": 1136.994059746207
    },
    "fid": 788.8929374420588
}