{
    "epoch": 39,
    "avg_current_window": 1901.300960359209,
    "avg_prior_window": 2020.6885073194533,
    "inception_score_mean": 1.7075318558043935,
    "inception_score_std": 0.1351166633997301,
    "fid_per_class": {
        "airplane": 1375.3355576469419,
        "automobile": 1421.4032501860665,
        "bird": 1732.3323205377892,
        "cat": 1482.219234698522,
        "deer": 1907.3976366554434,
        "dog": 1851.8102727864996,
        "frog": 2144.357598196857,
        "horse": 1809.6038098777472,
        "ship": 1254.8065929965928,
        "truck": 1392.4875609060032
    },
    "fid": 1326.0177862341857
}