{
    "epoch": 101,
    "avg_current_window": 1362.4800105026695,
    "avg_prior_window": 1395.1002315579215,
    "inception_score_mean": 1.960656751356338,
    "inception_score_std": 0.1563989651360891,
    "fid_per_class": {
        "airplane": 1022.9541036467092,
        "automobile": 1226.00014151201,
        "bird": 1524.4682665730454,
        "cat": 1188.7771127907265,
        "deer": 1565.444225742654,
        "dog": 1361.016314311595,
        "frog": 1762.853153904232,
        "horse": 1387.6248890016986,
        "ship": 1059.0804008594266,
        "truck": 1228.1632560865137
    },
    "fid": 951.8241943811337
}