{
    "epoch": 6,
    "avg_current_window": 2140.712232002916,
    "avg_prior_window": 3.0,
    "inception_score_mean": 1.0000020322573158,
    "inception_score_std": 2.9083234660860826e-07,
    "fid_per_class": {
        "airplane": 2206.6161241854147,
        "automobile": 2558.4460516165072,
        "bird": 2435.7487328484153,
        "cat": 2540.2649788817607,
        "deer": 2928.541797455002,
        "dog": 2672.4849218018708,
        "frog": 2705.646293401873,
        "horse": 2828.4791477752256,
        "ship": 2615.0965552246616,
        "truck": 2477.1288815937305
    },
    "fid": 2588.949250277664
}