{
    "epoch": 43,
    "avg_current_window": 1844.1002813958942,
    "avg_prior_window": 1951.3351961581357,
    "inception_score_mean": 1.8568289891082774,
    "inception_score_std": 0.17855809546331702,
    "fid_per_class": {
        "airplane": 1270.4060912827642,
        "automobile": 1316.1066256520096,
        "bird": 1664.2809927135272,
        "cat": 1336.1598809373095,
        "deer": 1903.9699780789501,
        "dog": 1607.3251400759298,
        "frog": 2150.3616559537186,
        "horse": 1653.5647713306232,
        "ship": 1163.9736916210331,
        "truck": 1270.5476517862155
    },
    "fid": 1182.7044110841987
}