{
    "epoch": 71,
    "avg_current_window": 1536.7152363910916,
    "avg_prior_window": 1592.6392510596327,
    "inception_score_mean": 1.8908248914760122,
    "inception_score_std": 0.15758967570039092,
    "fid_per_class": {
        "airplane": 1093.7328426879635,
        "automobile": 1181.0317701561594,
        "bird": 1469.4280316700972,
        "cat": 1161.5183551903497,
        "deer": 1612.7845519421826,
        "dog": 1366.6781307270535,
        "frog": 1853.3127904306898,
        "horse": 1452.169191825807,
        "ship": 1103.4205716426827,
        "truck": 1166.5710745167096
    },
    "fid": 969.827476614325
}