{
    "epoch": 62,
    "avg_current_window": 1615.5606842436307,
    "avg_prior_window": 1684.6098851865327,
    "inception_score_mean": 1.807087990984222,
    "inception_score_std": 0.16500121571990856,
    "fid_per_class": {
        "airplane": 1214.5394540752802,
        "automobile": 1268.4810244346943,
        "bird": 1525.687651697618,
        "cat": 1269.564473505143,
        "deer": 1680.4011086361293,
        "dog": 1477.0537380492583,
        "frog": 1898.687830439621,
        "horse": 1521.3171995182026,
        "ship": 1156.7019708911278,
        "truck": 1265.3179967530896
    },
    "fid": 1053.8313439985868
}