{
    "epoch": 162,
    "avg_current_window": 1172.5722598138327,
    "avg_prior_window": 1189.1457301956377,
    "inception_score_mean": 2.090981503607092,
    "inception_score_std": 0.10055157035229374,
    "fid_per_class": {
        "airplane": 955.9340851210833,
        "automobile": 1101.0971432212884,
        "bird": 1344.4312957219136,
        "cat": 1108.8398266566264,
        "deer": 1478.8851277671063,
        "dog": 1197.5389232224584,
        "frog": 1519.148911814502,
        "horse": 1251.7341119480025,
        "ship": 997.7558018798859,
        "truck": 1109.012370549591
    },
    "fid": 797.9966069045809
}