{
    "epoch": 126,
    "avg_current_window": 1267.8877131576492,
    "avg_prior_window": 1291.1815652151215,
    "inception_score_mean": 2.121912337686571,
    "inception_score_std": 0.12192526491073724,
    "fid_per_class": {
        "airplane": 979.2318992856196,
        "automobile": 1182.9796103288304,
        "bird": 1296.0713462135873,
        "cat": 1142.4469713052288,
        "deer": 1479.3257699712162,
        "dog": 1253.1186723736835,
        "frog": 1633.302109955823,
        "horse": 1354.2538670470522,
        "ship": 1019.3390689204409,
        "truck": 1208.3121063632648
    },
    "fid": 859.3119342227618
}