{
    "epoch": 74,
    "avg_current_window": 814.0460598103292,
    "avg_prior_window": 833.4727404237334,
    "inception_score_mean": 1.92005297435201,
    "inception_score_std": 0.1486463872317076,
    "fid_per_class": {
        "airplane": 889.5773210041607,
        "automobile": 1145.6273651400456,
        "bird": 1240.8177523209138,
        "cat": 912.8699671638556,
        "deer": 1324.3691448992263,
        "dog": 950.6091290600968,
        "frog": 1385.9994519304191,
        "horse": 1126.630294003391,
        "ship": 759.1375526184378,
        "truck": 1032.4572792391382
    },
    "fid": 692.6401053624605,
    "wasserstein_distance": null,
    "g_loss": null,
    "g_cost": null,
    "d_loss_real": null,
    "d_loss_fake": null
}