{
    "epoch": 200,
    "avg_current_window": 720.7718102129769,
    "avg_prior_window": 726.0522636110544,
    "inception_score_mean": 2.0477148882146543,
    "inception_score_std": 0.11010619279289585,
    "fid_per_class": {
        "airplane": 892.0483244498866,
        "automobile": 1080.201778579586,
        "bird": 1171.1886794421457,
        "cat": 947.4174859367508,
        "deer": 1435.4593450549617,
        "dog": 929.699764172317,
        "frog": 1373.5233990901443,
        "horse": 1061.0680964886992,
        "ship": 810.1973720182442,
        "truck": 1003.7290935237929
    },
    "fid": 671.8949129482178,
    "wasserstein_distance": null,
    "g_loss": null,
    "g_cost": null,
    "d_loss_real": null,
    "d_loss_fake": null
}