{
    "epoch": 190,
    "avg_current_window": 723.8474789024255,
    "avg_prior_window": 730.0875589570073,
    "inception_score_mean": 1.9980481106310974,
    "inception_score_std": 0.1644720711317063,
    "fid_per_class": {
        "airplane": 823.6994765481418,
        "automobile": 1064.006606825131,
        "bird": 1174.6370424755014,
        "cat": 982.5159761027016,
        "deer": 1356.2952617394858,
        "dog": 918.4422570928697,
        "frog": 1354.694261833147,
        "horse": 1022.0059636035978,
        "ship": 802.2207276338693,
        "truck": 1067.61914279324
    },
    "fid": 660.5110229614995,
    "wasserstein_distance": null,
    "g_loss": null,
    "g_cost": null,
    "d_loss_real": null,
    "d_loss_fake": null
}