{
    "epoch": 121,
    "avg_current_window": 758.5611340952585,
    "avg_prior_window": 768.7532496487786,
    "inception_score_mean": 1.9688071991918317,
    "inception_score_std": 0.10913158532548672,
    "fid_per_class": {
        "airplane": 904.464546514952,
        "automobile": 1109.9821816685412,
        "bird": 1246.3820058151334,
        "cat": 1040.057464626333,
        "deer": 1421.9673670947818,
        "dog": 1089.750461085906,
        "frog": 1523.4880868129173,
        "horse": 1266.745325932317,
        "ship": 697.3771615692461,
        "truck": 1093.0896213264414
    },
    "fid": 743.1813733641795,
    "wasserstein_distance": null,
    "g_loss": null,
    "g_cost": null,
    "d_loss_real": null,
    "d_loss_fake": null
}