{
    "epoch": 141,
    "avg_current_window": 745.7329775850637,
    "avg_prior_window": 753.6449989076998,
    "inception_score_mean": 2.0391802828743555,
    "inception_score_std": 0.12330937951241529,
    "fid_per_class": {
        "airplane": 905.5284395638089,
        "automobile": 1094.8118285080645,
        "bird": 1198.3650985082127,
        "cat": 951.9902478643567,
        "deer": 1294.8326827813444,
        "dog": 1004.8034068610125,
        "frog": 1282.2376321171541,
        "horse": 1141.588396813002,
        "ship": 778.1482900805768,
        "truck": 1011.7812012305673
    },
    "fid": 677.6276033510196,
    "wasserstein_distance": null,
    "g_loss": null,
    "g_cost": null,
    "d_loss_real": null,
    "d_loss_fake": null
}