{
    "epoch": 134,
    "avg_current_window": 750.1615255828377,
    "avg_prior_window": 758.563457933546,
    "inception_score_mean": 2.100897702189765,
    "inception_score_std": 0.20471172003468066,
    "fid_per_class": {
        "airplane": 868.4217197970634,
        "automobile": 1081.7903604519438,
        "bird": 1148.3138256178286,
        "cat": 921.2493296341206,
        "deer": 1254.317894390749,
        "dog": 1029.0280081442263,
        "frog": 1346.579707552737,
        "horse": 1064.5921651067042,
        "ship": 698.8159504818003,
        "truck": 975.8115190208879
    },
    "fid": 631.7376318778063,
    "wasserstein_distance": null,
    "g_loss": null,
    "g_cost": null,
    "d_loss_real": null,
    "d_loss_fake": null
}