{
    "epoch": 120,
    "avg_current_window": 759.5004421498153,
    "avg_prior_window": 769.3119791885496,
    "inception_score_mean": 2.0406323688493044,
    "inception_score_std": 0.10521398278018089,
    "fid_per_class": {
        "airplane": 830.7981710257925,
        "automobile": 1125.4558591868138,
        "bird": 1197.497077768047,
        "cat": 906.7526236713811,
        "deer": 1268.1075038944384,
        "dog": 953.8184820885832,
        "frog": 1259.4387267502086,
        "horse": 1067.0174631860104,
        "ship": 694.8016210844249,
        "truck": 1068.8647024415263
    },
    "fid": 645.8441675484462,
    "wasserstein_distance": null,
    "g_loss": null,
    "g_cost": null,
    "d_loss_real": null,
    "d_loss_fake": null
}