{
    "epoch": 45,
    "avg_current_window": 892.3209541198652,
    "avg_prior_window": 935.1991386492257,
    "inception_score_mean": 1.7561386396590861,
    "inception_score_std": 0.09911086164508763,
    "fid_per_class": {
        "airplane": 890.0472296789856,
        "automobile": 1220.7735168376607,
        "bird": 1216.9094113253004,
        "cat": 1010.1577421199361,
        "deer": 1302.533361435636,
        "dog": 1028.8747550295068,
        "frog": 1305.9099629730754,
        "horse": 1172.147274314997,
        "ship": 817.8461610023652,
        "truck": 1111.6056628465922
    },
    "fid": 720.3300271578657,
    "wasserstein_distance": null,
    "g_loss": null,
    "g_cost": null,
    "d_loss_real": null,
    "d_loss_fake": null
}