{
    "epoch": 96,
    "avg_current_window": 783.0192182331647,
    "avg_prior_window": 796.1592080712342,
    "inception_score_mean": 1.8975882718701016,
    "inception_score_std": 0.12619230185004976,
    "fid_per_class": {
        "airplane": 972.2353892807987,
        "automobile": 1222.0815412758056,
        "bird": 1128.3844932235768,
        "cat": 878.4193060672778,
        "deer": 1305.5496289658122,
        "dog": 934.8345522529708,
        "frog": 1266.7836632909061,
        "horse": 1194.4932274238095,
        "ship": 804.0940255114322,
        "truck": 1140.869036154341
    },
    "fid": 675.1112269149822,
    "wasserstein_distance": null,
    "g_loss": null,
    "g_cost": null,
    "d_loss_real": null,
    "d_loss_fake": null
}