{
    "epoch": 22,
    "avg_current_window": 1058.7190367741055,
    "avg_prior_window": 1176.151899356033,
    "inception_score_mean": 1.7290593494684778,
    "inception_score_std": 0.12507617978264307,
    "fid_per_class": {
        "airplane": 947.495620333183,
        "automobile": 1240.0993028974126,
        "bird": 1268.956966230256,
        "cat": 1051.9027450444378,
        "deer": 1431.7391103452724,
        "dog": 1122.6748871837397,
        "frog": 1406.1453789589627,
        "horse": 1264.652200850545,
        "ship": 864.2757233485164,
        "truck": 1145.3097916856132
    },
    "fid": 800.6521936871677,
    "wasserstein_distance": null,
    "g_loss": null,
    "g_cost": null,
    "d_loss_real": null,
    "d_loss_fake": null
}