{
    "epoch": 109,
    "avg_current_window": 768.7897103312005,
    "avg_prior_window": 779.7311271172226,
    "inception_score_mean": 1.9304277451957552,
    "inception_score_std": 0.1400016765365859,
    "fid_per_class": {
        "airplane": 899.4083232059331,
        "automobile": 1098.922033557035,
        "bird": 1190.730214883478,
        "cat": 982.362041131744,
        "deer": 1392.2451954758797,
        "dog": 957.1561724447148,
        "frog": 1368.645436643672,
        "horse": 1087.0232702430274,
        "ship": 734.3060300029842,
        "truck": 1047.2180296555753
    },
    "fid": 680.2988402148732,
    "wasserstein_distance": null,
    "g_loss": null,
    "g_cost": null,
    "d_loss_real": null,
    "d_loss_fake": null
}