{
    "epoch": 14,
    "avg_current_window": 1168.505566542188,
    "avg_prior_window": 1345.6129695998225,
    "inception_score_mean": 1.554820910166611,
    "inception_score_std": 0.06477358957000073,
    "fid_per_class": {
        "airplane": 1107.3883579899662,
        "automobile": 1208.837127652741,
        "bird": 1323.7570715679503,
        "cat": 1109.764167526139,
        "deer": 1496.194512861493,
        "dog": 1213.193398278243,
        "frog": 1472.6996499822505,
        "horse": 1351.6107682936442,
        "ship": 918.9402839547068,
        "truck": 1061.5637276592852
    },
    "fid": 887.6792079988033,
    "wasserstein_distance": null,
    "g_loss": null,
    "g_cost": null,
    "d_loss_real": null,
    "d_loss_fake": null
}