{
    "epoch": 50,
    "avg_current_window": 872.7782851477655,
    "avg_prior_window": 908.3282880567066,
    "inception_score_mean": 1.8818615462745452,
    "inception_score_std": 0.13989816768753474,
    "fid_per_class": {
        "airplane": 920.5403496309272,
        "automobile": 1097.0095142490472,
        "bird": 1258.7625671711276,
        "cat": 916.9219808035054,
        "deer": 1333.915531084893,
        "dog": 969.2726358461891,
        "frog": 1459.4012872252647,
        "horse": 1139.0773164538855,
        "ship": 732.3146880212108,
        "truck": 1004.1412091793363
    },
    "fid": 680.4132193873836,
    "wasserstein_distance": null,
    "g_loss": null,
    "g_cost": null,
    "d_loss_real": null,
    "d_loss_fake": null
}