{
    "epoch": 178,
    "avg_current_window": 729.2262569210138,
    "avg_prior_window": 735.2491532289654,
    "inception_score_mean": 2.068242959451161,
    "inception_score_std": 0.11881686820039696,
    "fid_per_class": {
        "airplane": 795.6450958445965,
        "automobile": 1082.088439346203,
        "bird": 1166.9578918086695,
        "cat": 954.0582871726532,
        "deer": 1265.1060596788611,
        "dog": 941.5663647509969,
        "frog": 1357.1040856474528,
        "horse": 1069.20642939031,
        "ship": 738.0808116838275,
        "truck": 938.8790918414877
    },
    "fid": 633.4135111658723,
    "wasserstein_distance": null,
    "g_loss": null,
    "g_cost": null,
    "d_loss_real": null,
    "d_loss_fake": null
}