{
    "epoch": 92,
    "avg_current_window": 787.5053036356774,
    "avg_prior_window": 801.9095351284955,
    "inception_score_mean": 1.9680555585221107,
    "inception_score_std": 0.14196683438275065,
    "fid_per_class": {
        "airplane": 945.7891833576741,
        "automobile": 1142.81566659542,
        "bird": 1256.8481110340522,
        "cat": 930.2363615361718,
        "deer": 1236.0326740497499,
        "dog": 920.5500571248992,
        "frog": 1380.816304084592,
        "horse": 1130.8016819091008,
        "ship": 800.2224957314029,
        "truck": 1135.7905238520557
    },
    "fid": 680.7669397674865,
    "wasserstein_distance": null,
    "g_loss": null,
    "g_cost": null,
    "d_loss_real": null,
    "d_loss_fake": null
}