{
    "epoch": 195,
    "avg_current_window": 722.6266838000417,
    "avg_prior_window": 727.3238527074859,
    "inception_score_mean": 2.058719729989844,
    "inception_score_std": 0.19564225476866653,
    "fid_per_class": {
        "airplane": 908.2728743317689,
        "automobile": 1032.6693437386543,
        "bird": 1138.9845866247847,
        "cat": 937.2705345007414,
        "deer": 1285.6981784800992,
        "dog": 1004.2520753047593,
        "frog": 1351.235067315161,
        "horse": 1122.3252636327402,
        "ship": 820.5762886775155,
        "truck": 1048.8262361583463
    },
    "fid": 667.988063147459,
    "wasserstein_distance": null,
    "g_loss": null,
    "g_cost": null,
    "d_loss_real": null,
    "d_loss_fake": null
}