{
    "epoch": 150,
    "avg_current_window": 741.5797218953782,
    "avg_prior_window": 748.9594921719669,
    "inception_score_mean": 2.122603655582413,
    "inception_score_std": 0.21028430466910586,
    "fid_per_class": {
        "airplane": 904.8170374595976,
        "automobile": 1061.6086606512342,
        "bird": 1216.394944893744,
        "cat": 948.3128146340626,
        "deer": 1329.7296809665954,
        "dog": 1026.19162907608,
        "frog": 1338.982770361152,
        "horse": 1101.0099638073575,
        "ship": 761.0848467744088,
        "truck": 1005.1920416204285
    },
    "fid": 661.5996560518554,
    "wasserstein_distance": null,
    "g_loss": null,
    "g_cost": null,
    "d_loss_real": null,
    "d_loss_fake": null
}