{
    "epoch": 112,
    "avg_current_window": 765.8460076766022,
    "avg_prior_window": 776.9678392636622,
    "inception_score_mean": 1.948273006542101,
    "inception_score_std": 0.10928803514236657,
    "fid_per_class": {
        "airplane": 876.8501269689971,
        "automobile": 1176.6788772419538,
        "bird": 1183.4657732411524,
        "cat": 904.8930558933484,
        "deer": 1296.871381335919,
        "dog": 926.7933850006862,
        "frog": 1313.1933055723066,
        "horse": 1129.9069357189117,
        "ship": 806.3835220160742,
        "truck": 1058.232754505424
    },
    "fid": 666.0840704073912,
    "wasserstein_distance": null,
    "g_loss": null,
    "g_cost": null,
    "d_loss_real": null,
    "d_loss_fake": null
}