{
    "epoch": 56,
    "avg_current_window": 851.6358946483277,
    "avg_prior_window": 882.6374065728681,
    "inception_score_mean": 1.8718658767522764,
    "inception_score_std": 0.09436257006728986,
    "fid_per_class": {
        "airplane": 878.3253205081708,
        "automobile": 1128.963187128915,
        "bird": 1230.4346215681196,
        "cat": 865.4788120500511,
        "deer": 1326.6138664342852,
        "dog": 960.9576975790729,
        "frog": 1318.556363833422,
        "horse": 1101.9547841671351,
        "ship": 809.0826693341323,
        "truck": 1085.176152505462
    },
    "fid": 664.9740369354778,
    "wasserstein_distance": null,
    "g_loss": null,
    "g_cost": null,
    "d_loss_real": null,
    "d_loss_fake": null
}