{
    "epoch": 153,
    "avg_current_window": 740.0948708963715,
    "avg_prior_window": 747.1817345883505,
    "inception_score_mean": 2.0767867853750506,
    "inception_score_std": 0.11859004219397624,
    "fid_per_class": {
        "airplane": 857.7723716681012,
        "automobile": 1051.3178753207656,
        "bird": 1235.0688926613434,
        "cat": 922.9226169969248,
        "deer": 1330.616226665158,
        "dog": 1001.1916090338491,
        "frog": 1329.9660718402654,
        "horse": 1127.8529573371718,
        "ship": 717.8724764121978,
        "truck": 1041.7104163938097
    },
    "fid": 651.1469487908743,
    "wasserstein_distance": null,
    "g_loss": null,
    "g_cost": null,
    "d_loss_real": null,
    "d_loss_fake": null
}