{
    "epoch": 133,
    "avg_current_window": 750.8453139123928,
    "avg_prior_window": 759.1084711795878,
    "inception_score_mean": 1.9693708167225357,
    "inception_score_std": 0.1288711369531711,
    "fid_per_class": {
        "airplane": 874.368078459738,
        "automobile": 1084.049432697706,
        "bird": 1135.3571305844166,
        "cat": 956.1986563008968,
        "deer": 1244.9847606493013,
        "dog": 993.4215810650139,
        "frog": 1309.9696058646114,
        "horse": 1105.4916223409145,
        "ship": 779.7780178960359,
        "truck": 1005.175273415374
    },
    "fid": 659.2176777520141,
    "wasserstein_distance": null,
    "g_loss": null,
    "g_cost": null,
    "d_loss_real": null,
    "d_loss_fake": null
}