{
    "epoch": 104,
    "avg_current_window": 773.6070832837376,
    "avg_prior_window": 786.5686490649385,
    "inception_score_mean": 1.977214772944207,
    "inception_score_std": 0.0842688981175396,
    "fid_per_class": {
        "airplane": 895.4105020561681,
        "automobile": 1038.6741715380035,
        "bird": 1140.5566648164915,
        "cat": 922.6093516186224,
        "deer": 1293.221199747125,
        "dog": 1028.6876191010354,
        "frog": 1236.241875665001,
        "horse": 1112.189314196477,
        "ship": 710.0918195048424,
        "truck": 941.8283370129683
    },
    "fid": 636.9005586824499,
    "wasserstein_distance": null,
    "g_loss": null,
    "g_cost": null,
    "d_loss_real": null,
    "d_loss_fake": null
}