{
    "epoch": 85,
    "avg_current_window": 795.5985832665804,
    "avg_prior_window": 812.5026551776659,
    "inception_score_mean": 1.9507162830603992,
    "inception_score_std": 0.1565127934368823,
    "fid_per_class": {
        "airplane": 850.9518680607232,
        "automobile": 1073.9947529876822,
        "bird": 1308.009866742512,
        "cat": 965.3744502185774,
        "deer": 1323.943445388438,
        "dog": 1003.7978319232392,
        "frog": 1373.1410609127456,
        "horse": 1163.5259445044646,
        "ship": 729.8175247843664,
        "truck": 1049.250462329625
    },
    "fid": 697.6538823611487,
    "wasserstein_distance": null,
    "g_loss": null,
    "g_cost": null,
    "d_loss_real": null,
    "d_loss_fake": null
}