{
    "epoch": 58,
    "avg_current_window": 845.1821920771134,
    "avg_prior_window": 875.2872985270146,
    "inception_score_mean": 1.7990539059067099,
    "inception_score_std": 0.08865187424163923,
    "fid_per_class": {
        "airplane": 924.3520341138908,
        "automobile": 1183.0152937648404,
        "bird": 1258.8707879356555,
        "cat": 988.6723991783554,
        "deer": 1273.8178164146698,
        "dog": 973.3057668384315,
        "frog": 1447.155646965826,
        "horse": 1126.9611676094212,
        "ship": 817.1363471814818,
        "truck": 1088.4338000751566
    },
    "fid": 728.9362929719746,
    "wasserstein_distance": null,
    "g_loss": null,
    "g_cost": null,
    "d_loss_real": null,
    "d_loss_fake": null
}