{
    "epoch": 131,
    "avg_current_window": 752.3286793069942,
    "avg_prior_window": 760.8734235071802,
    "inception_score_mean": 2.0435225626826634,
    "inception_score_std": 0.1648291684551096,
    "fid_per_class": {
        "airplane": 869.0915930039974,
        "automobile": 1117.9394698674562,
        "bird": 1147.308491522534,
        "cat": 1009.70016529968,
        "deer": 1349.5126046091682,
        "dog": 1045.1533800144591,
        "frog": 1347.7829260203566,
        "horse": 1145.3935949608658,
        "ship": 755.4422860409925,
        "truck": 1025.929296125712
    },
    "fid": 689.5534817161765,
    "wasserstein_distance": null,
    "g_loss": null,
    "g_cost": null,
    "d_loss_real": null,
    "d_loss_fake": null
}