{
    "epoch": 156,
    "avg_current_window": 738.4362849876255,
    "avg_prior_window": 745.614338474685,
    "inception_score_mean": 2.0749548258816928,
    "inception_score_std": 0.13591767065482335,
    "fid_per_class": {
        "airplane": 877.3049180619714,
        "automobile": 1110.9251305391463,
        "bird": 1264.303199599612,
        "cat": 983.8715302321459,
        "deer": 1254.785254019438,
        "dog": 1008.3325212202218,
        "frog": 1277.553193487165,
        "horse": 1099.7305131146018,
        "ship": 755.9755131288841,
        "truck": 1013.1376486875017
    },
    "fid": 674.8603319693534,
    "wasserstein_distance": null,
    "g_loss": null,
    "g_cost": null,
    "d_loss_real": null,
    "d_loss_fake": null
}