{
    "epoch": 102,
    "avg_current_window": 776.3605975885444,
    "avg_prior_window": 788.9915256463997,
    "inception_score_mean": 1.9966603897607058,
    "inception_score_std": 0.11169514385720575,
    "fid_per_class": {
        "airplane": 903.2380480249095,
        "automobile": 1082.5829237465875,
        "bird": 1222.4361686467805,
        "cat": 923.9377502456531,
        "deer": 1320.8835841997306,
        "dog": 924.5222988859055,
        "frog": 1263.044680136821,
        "horse": 1169.7646827848002,
        "ship": 741.5246865289624,
        "truck": 1077.4813938859254
    },
    "fid": 662.1797578950501,
    "wasserstein_distance": null,
    "g_loss": null,
    "g_cost": null,
    "d_loss_real": null,
    "d_loss_fake": null
}