{
    "epoch": 30,
    "avg_current_window": 990.7455136607573,
    "avg_prior_window": 1061.4939329189267,
    "inception_score_mean": 1.828890124479488,
    "inception_score_std": 0.12119153583783034,
    "fid_per_class": {
        "airplane": 965.0918456174024,
        "automobile": 1341.6078422584762,
        "bird": 1221.2879929847522,
        "cat": 927.1878056779263,
        "deer": 1299.8508637428959,
        "dog": 918.0180131719932,
        "frog": 1256.9940837139766,
        "horse": 1202.1196959489619,
        "ship": 912.1383042539697,
        "truck": 1223.2834314071376
    },
    "fid": 700.3873981302756,
    "wasserstein_distance": null,
    "g_loss": null,
    "g_cost": null,
    "d_loss_real": null,
    "d_loss_fake": null
}