{
    "epoch": 148,
    "avg_current_window": 742.8430406098303,
    "avg_prior_window": 749.682849774338,
    "inception_score_mean": 2.127582753530569,
    "inception_score_std": 0.12668147316303943,
    "fid_per_class": {
        "airplane": 858.5218438199611,
        "automobile": 1072.3947309764364,
        "bird": 1209.3871032183486,
        "cat": 969.5107908322846,
        "deer": 1220.5917827931162,
        "dog": 930.2119134214455,
        "frog": 1330.3432875668764,
        "horse": 1109.8368337951015,
        "ship": 825.8588977166835,
        "truck": 952.5045455595418
    },
    "fid": 642.126708821002,
    "wasserstein_distance": null,
    "g_loss": null,
    "g_cost": null,
    "d_loss_real": null,
    "d_loss_fake": null
}