{
    "epoch": 114,
    "avg_current_window": 764.0526207662549,
    "avg_prior_window": 775.0309840946397,
    "inception_score_mean": 2.0456491544276703,
    "inception_score_std": 0.1614602721770377,
    "fid_per_class": {
        "airplane": 794.2211999946853,
        "automobile": 1089.6989952127642,
        "bird": 1221.246285769557,
        "cat": 988.1921199831611,
        "deer": 1436.1014747352215,
        "dog": 997.0317388858119,
        "frog": 1358.2815971383875,
        "horse": 1153.6354339025165,
        "ship": 719.9302798960932,
        "truck": 949.5515807932713
    },
    "fid": 681.0571560697454,
    "wasserstein_distance": null,
    "g_loss": null,
    "g_cost": null,
    "d_loss_real": null,
    "d_loss_fake": null
}