{
    "epoch": 182,
    "avg_current_window": 727.3619868447752,
    "avg_prior_window": 733.3461792764998,
    "inception_score_mean": 1.9655724378317103,
    "inception_score_std": 0.11893585828989785,
    "fid_per_class": {
        "airplane": 890.3507234086615,
        "automobile": 1109.136966963331,
        "bird": 1209.8698438158833,
        "cat": 1019.4961043969695,
        "deer": 1333.8631139516747,
        "dog": 950.9753214567878,
        "frog": 1404.0389044117915,
        "horse": 1131.5483117015992,
        "ship": 827.9026024211302,
        "truck": 1051.8092404330039
    },
    "fid": 701.4222928204863,
    "wasserstein_distance": null,
    "g_loss": null,
    "g_cost": null,
    "d_loss_real": null,
    "d_loss_fake": null
}