{
    "epoch": 38,
    "avg_current_window": 928.4778989263175,
    "avg_prior_window": 985.6013424994035,
    "inception_score_mean": 1.8100246705067158,
    "inception_score_std": 0.13500518198522177,
    "fid_per_class": {
        "airplane": 879.255547034661,
        "automobile": 1147.2552667127563,
        "bird": 1195.6136082247244,
        "cat": 981.7805074657765,
        "deer": 1253.7611606679284,
        "dog": 1021.1888311928647,
        "frog": 1273.042423941975,
        "horse": 1126.29227760096,
        "ship": 774.6080871987325,
        "truck": 1017.0134012818178
    },
    "fid": 676.3762566601015,
    "wasserstein_distance": null,
    "g_loss": null,
    "g_cost": null,
    "d_loss_real": null,
    "d_loss_fake": null
}