{
    "epoch": 29,
    "avg_current_window": 998.2473352101481,
    "avg_prior_window": 1071.986535065088,
    "inception_score_mean": 1.9155531449139171,
    "inception_score_std": 0.13772930073682976,
    "fid_per_class": {
        "airplane": 1045.4784872571433,
        "automobile": 1288.4662286317566,
        "bird": 1310.2497531348426,
        "cat": 990.9913345647462,
        "deer": 1395.1161965516537,
        "dog": 1010.7522537665703,
        "frog": 1359.5926252363,
        "horse": 1284.3699249835063,
        "ship": 865.890375505609,
        "truck": 1216.1099330058753
    },
    "fid": 773.1926887284242,
    "wasserstein_distance": null,
    "g_loss": null,
    "g_cost": null,
    "d_loss_real": null,
    "d_loss_fake": null
}