{
    "epoch": 186,
    "avg_current_window": 726.162357027131,
    "avg_prior_window": 731.3805613577297,
    "inception_score_mean": 2.0142873938912818,
    "inception_score_std": 0.14176754204157316,
    "fid_per_class": {
        "airplane": 823.0265890459622,
        "automobile": 1054.4263478707649,
        "bird": 1148.16451831681,
        "cat": 946.7867235291426,
        "deer": 1151.9989585158514,
        "dog": 957.8469996620582,
        "frog": 1234.9923506618388,
        "horse": 929.5899345813531,
        "ship": 771.0525703432386,
        "truck": 975.5069591567822
    },
    "fid": 602.6401581445109,
    "wasserstein_distance": null,
    "g_loss": null,
    "g_cost": null,
    "d_loss_real": null,
    "d_loss_fake": null
}