{
    "epoch": 165,
    "avg_current_window": 734.3496950329121,
    "avg_prior_window": 741.0296385585214,
    "inception_score_mean": 2.057681433654495,
    "inception_score_std": 0.1412641074053458,
    "fid_per_class": {
        "airplane": 891.2469644497326,
        "automobile": 1140.3115353690187,
        "bird": 1170.2637861426604,
        "cat": 972.437986888822,
        "deer": 1307.5481619968878,
        "dog": 1018.8616304853588,
        "frog": 1349.361065755255,
        "horse": 1142.7408211181835,
        "ship": 783.7982390731411,
        "truck": 1079.6793493284238
    },
    "fid": 686.2494820540409,
    "wasserstein_distance": null,
    "g_loss": null,
    "g_cost": null,
    "d_loss_real": null,
    "d_loss_fake": null
}