{
    "epoch": 158,
    "avg_current_window": 737.8729561015488,
    "avg_prior_window": 744.3507333067694,
    "inception_score_mean": 2.019235724668772,
    "inception_score_std": 0.16054879215768905,
    "fid_per_class": {
        "airplane": 898.152208460381,
        "automobile": 1134.4030061019578,
        "bird": 1239.1540524472198,
        "cat": 920.9346512100528,
        "deer": 1339.650648456455,
        "dog": 922.4054401230535,
        "frog": 1353.5171942257127,
        "horse": 1123.5286412955113,
        "ship": 770.172473918913,
        "truck": 1031.121634788109
    },
    "fid": 683.9254373404368,
    "wasserstein_distance": null,
    "g_loss": null,
    "g_cost": null,
    "d_loss_real": null,
    "d_loss_fake": null
}