{
    "epoch": 76,
    "avg_current_window": 810.5126473481413,
    "avg_prior_window": 829.4897574037457,
    "inception_score_mean": 1.9098275223024257,
    "inception_score_std": 0.16450623363805397,
    "fid_per_class": {
        "airplane": 894.5800487970282,
        "automobile": 1136.821397024564,
        "bird": 1275.9165594836709,
        "cat": 876.8562051357637,
        "deer": 1283.4581538756884,
        "dog": 866.8594272192347,
        "frog": 1239.4164776092957,
        "horse": 1147.7575018950401,
        "ship": 727.3621166280378,
        "truck": 1116.3966079336396
    },
    "fid": 651.247258428871,
    "wasserstein_distance": null,
    "g_loss": null,
    "g_cost": null,
    "d_loss_real": null,
    "d_loss_fake": null
}