{
    "epoch": 173,
    "avg_current_window": 731.2216355110754,
    "avg_prior_window": 737.5459787544754,
    "inception_score_mean": 1.9802015211671946,
    "inception_score_std": 0.1086444007500756,
    "fid_per_class": {
        "airplane": 898.6614740398527,
        "automobile": 1138.1960054834087,
        "bird": 1213.0232598346822,
        "cat": 1001.5074857578734,
        "deer": 1377.5731816330872,
        "dog": 988.5838712507873,
        "frog": 1427.7430158643501,
        "horse": 1091.2855293211092,
        "ship": 801.635835967968,
        "truck": 1022.7455723386719
    },
    "fid": 696.7605651949565,
    "wasserstein_distance": null,
    "g_loss": null,
    "g_cost": null,
    "d_loss_real": null,
    "d_loss_fake": null
}