{
    "epoch": 39,
    "avg_current_window": 922.0137542528248,
    "avg_prior_window": 977.6605710274671,
    "inception_score_mean": 1.8066367443101563,
    "inception_score_std": 0.14014239561123945,
    "fid_per_class": {
        "airplane": 833.992012361954,
        "automobile": 1189.0963949829234,
        "bird": 1270.1158957170428,
        "cat": 966.8205781465756,
        "deer": 1396.3005865129896,
        "dog": 1003.7235643390934,
        "frog": 1308.8413177588918,
        "horse": 1179.1667002000781,
        "ship": 800.4934397389057,
        "truck": 1038.727334588002
    },
    "fid": 709.3462546210574,
    "wasserstein_distance": null,
    "g_loss": null,
    "g_cost": null,
    "d_loss_real": null,
    "d_loss_fake": null
}