{
    "epoch": 167,
    "avg_current_window": 733.9404840191286,
    "avg_prior_window": 739.9262615124666,
    "inception_score_mean": 2.066169911530685,
    "inception_score_std": 0.07662976378271777,
    "fid_per_class": {
        "airplane": 832.6137767069704,
        "automobile": 1089.254165405739,
        "bird": 1147.4287487970819,
        "cat": 945.6788869363284,
        "deer": 1298.7449809159314,
        "dog": 959.492853738967,
        "frog": 1316.5105644130294,
        "horse": 1083.6874050943802,
        "ship": 757.6089798156836,
        "truck": 1024.443777932519
    },
    "fid": 642.229837156218,
    "wasserstein_distance": null,
    "g_loss": null,
    "g_cost": null,
    "d_loss_real": null,
    "d_loss_fake": null
}