{
    "epoch": 31,
    "avg_current_window": 981.3791228371933,
    "avg_prior_window": 1052.4393301620933,
    "inception_score_mean": 1.9648058962046497,
    "inception_score_std": 0.13205884075341268,
    "fid_per_class": {
        "airplane": 939.3194856677325,
        "automobile": 1156.6398714175305,
        "bird": 1230.3872763600734,
        "cat": 960.8718558212098,
        "deer": 1316.4052170982384,
        "dog": 986.5416945368196,
        "frog": 1368.074389921003,
        "horse": 1207.966155600007,
        "ship": 838.2216824550785,
        "truck": 1075.8961143901784
    },
    "fid": 698.772238748651,
    "wasserstein_distance": null,
    "g_loss": null,
    "g_cost": null,
    "d_loss_real": null,
    "d_loss_fake": null
}