{
    "epoch": 32,
    "avg_current_window": 972.5476577094264,
    "avg_prior_window": 1044.5444885358806,
    "inception_score_mean": 1.9206326141229382,
    "inception_score_std": 0.15520828996727937,
    "fid_per_class": {
        "airplane": 890.3334719328551,
        "automobile": 1207.8423524561656,
        "bird": 1216.4422670171784,
        "cat": 909.7911955713855,
        "deer": 1240.8112746024326,
        "dog": 961.6263944387218,
        "frog": 1239.7386777630716,
        "horse": 1210.170548233718,
        "ship": 789.5555376436796,
        "truck": 1048.1758313979242
    },
    "fid": 673.3536767992781,
    "wasserstein_distance": null,
    "g_loss": null,
    "g_cost": null,
    "d_loss_real": null,
    "d_loss_fake": null
}