{
    "epoch": 8,
    "avg_current_window": 1220.543043836736,
    "avg_prior_window": 1.0,
    "inception_score_mean": 1.516121634191106,
    "inception_score_std": 0.043856068294349834,
    "fid_per_class": {
        "airplane": 1177.380841646017,
        "automobile": 1282.040657348471,
        "bird": 1512.36284396395,
        "cat": 1486.4566134329218,
        "deer": 1621.0831703764848,
        "dog": 1610.4645038633796,
        "frog": 1699.5596687937702,
        "horse": 1565.391460984615,
        "ship": 1031.5020867889014,
        "truck": 1185.688206760259
    },
    "fid": 1111.0848085680668,
    "wasserstein_distance": null,
    "g_loss": null,
    "g_cost": null,
    "d_loss_real": null,
    "d_loss_fake": null
}