{
    "epoch": 91,
    "avg_current_window": 788.8566984430722,
    "avg_prior_window": 802.9905533796015,
    "inception_score_mean": 1.908363029304184,
    "inception_score_std": 0.14885911918469186,
    "fid_per_class": {
        "airplane": 908.3583356336309,
        "automobile": 1141.504778801421,
        "bird": 1243.4229580181982,
        "cat": 932.010791648496,
        "deer": 1283.1996433203662,
        "dog": 948.9277790265128,
        "frog": 1252.3070395244458,
        "horse": 1122.7374035982828,
        "ship": 762.6274236217289,
        "truck": 1125.574192568536
    },
    "fid": 664.5283761627371,
    "wasserstein_distance": null,
    "g_loss": null,
    "g_cost": null,
    "d_loss_real": null,
    "d_loss_fake": null
}