{
    "epoch": 143,
    "avg_current_window": 744.9820556164321,
    "avg_prior_window": 752.3480426586867,
    "inception_score_mean": 2.0667957253122777,
    "inception_score_std": 0.14385653088359926,
    "fid_per_class": {
        "airplane": 876.3405336520143,
        "automobile": 1078.9806078250308,
        "bird": 1198.2261964803724,
        "cat": 969.1283327221323,
        "deer": 1304.2148959480328,
        "dog": 1037.2176325746689,
        "frog": 1365.0910229453843,
        "horse": 1130.2159920340375,
        "ship": 779.7669721706058,
        "truck": 1059.9396587085764
    },
    "fid": 672.2135645805461,
    "wasserstein_distance": null,
    "g_loss": null,
    "g_cost": null,
    "d_loss_real": null,
    "d_loss_fake": null
}