{
    "epoch": 66,
    "avg_current_window": 828.660159720516,
    "avg_prior_window": 849.9173226298049,
    "inception_score_mean": 1.8226709510982264,
    "inception_score_std": 0.09758931422037934,
    "fid_per_class": {
        "airplane": 924.390654991683,
        "automobile": 1143.4079715142536,
        "bird": 1242.9485930510155,
        "cat": 933.0325379627725,
        "deer": 1342.1943674634495,
        "dog": 930.7552715128284,
        "frog": 1264.4200324817318,
        "horse": 1134.6885309085662,
        "ship": 801.5435614360711,
        "truck": 1046.5753258948287
    },
    "fid": 700.0980167449047,
    "wasserstein_distance": null,
    "g_loss": null,
    "g_cost": null,
    "d_loss_real": null,
    "d_loss_fake": null
}