{
    "epoch": 17,
    "avg_current_window": 1121.2673001870246,
    "avg_prior_window": 1289.3706981021678,
    "inception_score_mean": 1.6328809550839611,
    "inception_score_std": 0.07069239799257607,
    "fid_per_class": {
        "airplane": 1083.851509925493,
        "automobile": 1216.3621426281763,
        "bird": 1414.80685583788,
        "cat": 1165.7151719713963,
        "deer": 1563.224739647549,
        "dog": 1310.5989617210669,
        "frog": 1609.1872898541094,
        "horse": 1447.6599334719806,
        "ship": 915.0787042861049,
        "truck": 1061.8486392037075
    },
    "fid": 933.0381858731445,
    "wasserstein_distance": null,
    "g_loss": null,
    "g_cost": null,
    "d_loss_real": null,
    "d_loss_fake": null
}