{
    "epoch": 197,
    "avg_current_window": 722.0221914553977,
    "avg_prior_window": 726.7809687023296,
    "inception_score_mean": 1.978470184723448,
    "inception_score_std": 0.12782382026720915,
    "fid_per_class": {
        "airplane": 901.232537431345,
        "automobile": 1073.5313357675432,
        "bird": 1201.2121683748892,
        "cat": 975.6450449699352,
        "deer": 1301.9557552237484,
        "dog": 949.9607390162671,
        "frog": 1330.8961275887486,
        "horse": 1074.2104474199245,
        "ship": 756.7328334426265,
        "truck": 1071.709550295236
    },
    "fid": 663.6392916572681,
    "wasserstein_distance": null,
    "g_loss": null,
    "g_cost": null,
    "d_loss_real": null,
    "d_loss_fake": null
}