{
    "epoch": 84,
    "avg_current_window": 797.4142567220019,
    "avg_prior_window": 814.8725367439803,
    "inception_score_mean": 1.9815445743663254,
    "inception_score_std": 0.11739478888366388,
    "fid_per_class": {
        "airplane": 849.648451426251,
        "automobile": 1169.9721863094746,
        "bird": 1201.8232663979145,
        "cat": 943.9804046296542,
        "deer": 1289.4352395744809,
        "dog": 974.6291679896896,
        "frog": 1263.083985809686,
        "horse": 1108.7708848611333,
        "ship": 744.9226782675992,
        "truck": 998.0642568089941
    },
    "fid": 643.0820130111679,
    "wasserstein_distance": null,
    "g_loss": null,
    "g_cost": null,
    "d_loss_real": null,
    "d_loss_fake": null
}