{
    "epoch": 61,
    "avg_current_window": 838.4101609558921,
    "avg_prior_window": 863.5104310221756,
    "inception_score_mean": 1.8003968127630787,
    "inception_score_std": 0.11826089612518785,
    "fid_per_class": {
        "airplane": 923.4222162862156,
        "automobile": 1186.1488852001962,
        "bird": 1230.696618083885,
        "cat": 930.9178015396317,
        "deer": 1310.8561542244936,
        "dog": 984.1706461887223,
        "frog": 1361.045729635929,
        "horse": 1114.148944174992,
        "ship": 782.293493195833,
        "truck": 1075.490544526122
    },
    "fid": 701.9368621086738,
    "wasserstein_distance": null,
    "g_loss": null,
    "g_cost": null,
    "d_loss_real": null,
    "d_loss_fake": null
}