{
    "epoch": 81,
    "avg_current_window": 802.4717582001639,
    "avg_prior_window": 819.0816902222053,
    "inception_score_mean": 1.8707293466860744,
    "inception_score_std": 0.11349019891911293,
    "fid_per_class": {
        "airplane": 865.336391593693,
        "automobile": 1090.655465538795,
        "bird": 1220.1879746858463,
        "cat": 937.0241119563191,
        "deer": 1349.176173937703,
        "dog": 950.4300528557876,
        "frog": 1200.7455941540443,
        "horse": 1083.1125419630157,
        "ship": 729.9972622767382,
        "truck": 1101.6317961084364
    },
    "fid": 676.1951906428731,
    "wasserstein_distance": null,
    "g_loss": null,
    "g_cost": null,
    "d_loss_real": null,
    "d_loss_fake": null
}