{
    "epoch": 106,
    "avg_current_window": 724.5920668147166,
    "avg_prior_window": 736.3873374732935,
    "inception_score_mean": 2.1373363068484825,
    "inception_score_std": 0.23164406861278466,
    "fid_per_class": {
        "airplane": 922.5230073734083,
        "automobile": 1012.2266600371586,
        "bird": 1095.3426370770208,
        "cat": 949.4850208223744,
        "deer": 1202.373275154373,
        "dog": 962.5843373458176,
        "frog": 1372.379338700713,
        "horse": 1089.6118359561165,
        "ship": 692.1980487502224,
        "truck": 904.8889492273527
    },
    "fid": 591.7332319377986,
    "wasserstein_distance": null,
    "g_loss": null,
    "g_cost": null,
    "d_loss_real": null,
    "d_loss_fake": null
}