{
    "epoch": 153,
    "avg_current_window": 696.2071652256283,
    "avg_prior_window": 702.6058767796656,
    "inception_score_mean": 2.077990784686036,
    "inception_score_std": 0.21779366625744898,
    "fid_per_class": {
        "airplane": 937.3127848863438,
        "automobile": 1048.477704704028,
        "bird": 1150.225471460267,
        "cat": 977.0623189176936,
        "deer": 1197.486413197053,
        "dog": 928.1994835358223,
        "frog": 1310.042108986093,
        "horse": 1036.7465875137489,
        "ship": 807.0822835531746,
        "truck": 961.4147666995234
    },
    "fid": 616.3942957792985,
    "wasserstein_distance": null,
    "g_loss": null,
    "g_cost": null,
    "d_loss_real": null,
    "d_loss_fake": null
}