{
    "epoch": 69,
    "avg_current_window": 775.859673511102,
    "avg_prior_window": 795.8031300165197,
    "inception_score_mean": 2.052629250709523,
    "inception_score_std": 0.161038823783953,
    "fid_per_class": {
        "airplane": 850.1988458795122,
        "automobile": 1062.8239504596804,
        "bird": 1110.452191869995,
        "cat": 907.481070972091,
        "deer": 1119.5316524574523,
        "dog": 940.2841932211732,
        "frog": 1165.3065851536674,
        "horse": 1088.51133866691,
        "ship": 708.2618894601409,
        "truck": 991.7329447358265
    },
    "fid": 560.3000495955412,
    "wasserstein_distance": null,
    "g_loss": null,
    "g_cost": null,
    "d_loss_real": null,
    "d_loss_fake": null
}