{
    "epoch": 151,
    "avg_current_window": 697.0262435924415,
    "avg_prior_window": 703.5311066691895,
    "inception_score_mean": 2.0764765628529274,
    "inception_score_std": 0.16390654643010627,
    "fid_per_class": {
        "airplane": 900.3386808275909,
        "automobile": 1064.1942911991393,
        "bird": 1130.7004777911284,
        "cat": 994.4088840403921,
        "deer": 1233.303216980555,
        "dog": 968.906056983756,
        "frog": 1307.6516860013835,
        "horse": 1075.9072627575483,
        "ship": 790.0702285814147,
        "truck": 983.1466666249437
    },
    "fid": 624.9482401696175,
    "wasserstein_distance": null,
    "g_loss": null,
    "g_cost": null,
    "d_loss_real": null,
    "d_loss_fake": null
}