{
    "epoch": 63,
    "avg_current_window": 787.7964482934965,
    "avg_prior_window": 810.5526319069381,
    "inception_score_mean": 2.0299121651013667,
    "inception_score_std": 0.1443153935477684,
    "fid_per_class": {
        "airplane": 939.5279761161833,
        "automobile": 1042.0526805466523,
        "bird": 1138.3809582463502,
        "cat": 921.98789337921,
        "deer": 1289.2565478445492,
        "dog": 932.6734170859118,
        "frog": 1305.4143308389075,
        "horse": 1133.4201925934412,
        "ship": 723.9390919398757,
        "truck": 988.478081814311
    },
    "fid": 628.8798865614998,
    "wasserstein_distance": null,
    "g_loss": null,
    "g_cost": null,
    "d_loss_real": null,
    "d_loss_fake": null
}