{
    "epoch": 87,
    "avg_current_window": 747.136271544621,
    "avg_prior_window": 760.9029960645704,
    "inception_score_mean": 2.07585441655418,
    "inception_score_std": 0.1423340019950552,
    "fid_per_class": {
        "airplane": 849.5414155216461,
        "automobile": 1047.3114953559016,
        "bird": 1083.8561936303447,
        "cat": 950.9319390805053,
        "deer": 1213.731126293129,
        "dog": 924.0300386012142,
        "frog": 1241.1668399801285,
        "horse": 1109.8333674965452,
        "ship": 751.4935098423991,
        "truck": 933.5069554718586
    },
    "fid": 589.8148643067283,
    "wasserstein_distance": null,
    "g_loss": null,
    "g_cost": null,
    "d_loss_real": null,
    "d_loss_fake": null
}