{
    "epoch": 179,
    "avg_current_window": 684.7470693043364,
    "avg_prior_window": 690.4035591980457,
    "inception_score_mean": 2.1698415813352865,
    "inception_score_std": 0.14997880690516774,
    "fid_per_class": {
        "airplane": 936.4881256889637,
        "automobile": 1055.35465812676,
        "bird": 1106.95951760052,
        "cat": 932.3265834056572,
        "deer": 1162.5534133816782,
        "dog": 920.5852465114933,
        "frog": 1248.1530216537567,
        "horse": 1056.6008406396195,
        "ship": 777.6870258857148,
        "truck": 910.2082101045783
    },
    "fid": 586.2182534922008,
    "wasserstein_distance": null,
    "g_loss": null,
    "g_cost": null,
    "d_loss_real": null,
    "d_loss_fake": null
}