{
    "epoch": 142,
    "avg_current_window": 701.1456479646275,
    "avg_prior_window": 708.2889119137145,
    "inception_score_mean": 2.0349846491252377,
    "inception_score_std": 0.158704291350021,
    "fid_per_class": {
        "airplane": 889.4512939785171,
        "automobile": 1024.4461962208297,
        "bird": 1127.0336837599327,
        "cat": 989.3021981597485,
        "deer": 1193.0310272055535,
        "dog": 950.0140305241505,
        "frog": 1451.6328858034185,
        "horse": 1127.9109215324702,
        "ship": 842.6959255400986,
        "truck": 1009.5093675199955
    },
    "fid": 639.106087381399,
    "wasserstein_distance": null,
    "g_loss": null,
    "g_cost": null,
    "d_loss_real": null,
    "d_loss_fake": null
}