{
    "epoch": 19,
    "avg_current_window": 987.7940713550279,
    "avg_prior_window": 1099.8134149125142,
    "inception_score_mean": 1.9287067725506066,
    "inception_score_std": 0.07148230291825838,
    "fid_per_class": {
        "airplane": 1031.612452440679,
        "automobile": 1275.6619033863321,
        "bird": 1408.297720938667,
        "cat": 1154.6302335439877,
        "deer": 1560.992433464352,
        "dog": 1196.335531166179,
        "frog": 1651.061544417604,
        "horse": 1351.3998195083213,
        "ship": 924.7115080217205,
        "truck": 1186.472271622897
    },
    "fid": 855.0911316601585,
    "wasserstein_distance": null,
    "g_loss": null,
    "g_cost": null,
    "d_loss_real": null,
    "d_loss_fake": null
}