{
    "epoch": 91,
    "avg_current_window": 741.0338701012082,
    "avg_prior_window": 755.8239026090932,
    "inception_score_mean": 2.0343116813496365,
    "inception_score_std": 0.1823404220477849,
    "fid_per_class": {
        "airplane": 854.518075532246,
        "automobile": 1068.6691872247734,
        "bird": 1218.3633641891772,
        "cat": 1038.668819651459,
        "deer": 1319.348059370336,
        "dog": 990.6468261226462,
        "frog": 1417.4846892813976,
        "horse": 1087.03640935528,
        "ship": 765.9452713050421,
        "truck": 1002.0972539009728
    },
    "fid": 670.6969801052412,
    "wasserstein_distance": null,
    "g_loss": null,
    "g_cost": null,
    "d_loss_real": null,
    "d_loss_fake": null
}