{
    "epoch": 21,
    "avg_current_window": 974.2426986440005,
    "avg_prior_window": 1067.9797918350196,
    "inception_score_mean": 2.0942528800281823,
    "inception_score_std": 0.13754243777030936,
    "fid_per_class": {
        "airplane": 971.0450270476418,
        "automobile": 1178.279146392518,
        "bird": 1281.8286537146623,
        "cat": 1067.0402378894132,
        "deer": 1433.3332657399653,
        "dog": 1024.715460206144,
        "frog": 1479.7154167040305,
        "horse": 1272.581819476099,
        "ship": 806.7670570210969,
        "truck": 1116.7195136988075
    },
    "fid": 734.9055925722515,
    "wasserstein_distance": null,
    "g_loss": null,
    "g_cost": null,
    "d_loss_real": null,
    "d_loss_fake": null
}