{
    "epoch": 146,
    "avg_current_window": 699.2411532345099,
    "avg_prior_window": 706.1183121345894,
    "inception_score_mean": 2.109429336088229,
    "inception_score_std": 0.20673532816907642,
    "fid_per_class": {
        "airplane": 896.6014720527937,
        "automobile": 1006.8960630078212,
        "bird": 1097.1125660458101,
        "cat": 1027.479069027267,
        "deer": 1207.6292591391696,
        "dog": 967.6227052389229,
        "frog": 1339.8031020208743,
        "horse": 1104.9182597053546,
        "ship": 808.4592631386222,
        "truck": 931.015503352836
    },
    "fid": 626.3332014632366,
    "wasserstein_distance": null,
    "g_loss": null,
    "g_cost": null,
    "d_loss_real": null,
    "d_loss_fake": null
}