{
    "epoch": 23,
    "avg_current_window": 952.4091236945948,
    "avg_prior_window": 1042.6715197636406,
    "inception_score_mean": 1.9849507519019158,
    "inception_score_std": 0.14770691967618876,
    "fid_per_class": {
        "airplane": 953.8419620506202,
        "automobile": 1198.8893471880192,
        "bird": 1304.9727630624022,
        "cat": 1080.1602459662035,
        "deer": 1555.9955372617524,
        "dog": 1075.1077397560111,
        "frog": 1436.391024508232,
        "horse": 1343.113559037893,
        "ship": 815.9843939246102,
        "truck": 1166.8572701172457
    },
    "fid": 790.8395087740487,
    "wasserstein_distance": null,
    "g_loss": null,
    "g_cost": null,
    "d_loss_real": null,
    "d_loss_fake": null
}