{
    "epoch": 47,
    "avg_current_window": 824.948749469606,
    "avg_prior_window": 855.8541693731876,
    "inception_score_mean": 2.0330789948733092,
    "inception_score_std": 0.15468906917834357,
    "fid_per_class": {
        "airplane": 967.224235452511,
        "automobile": 1043.5578431064314,
        "bird": 1204.2001461264006,
        "cat": 969.5705529416978,
        "deer": 1275.4375142033346,
        "dog": 1012.0395835144573,
        "frog": 1390.572739079538,
        "horse": 1177.5552200033567,
        "ship": 769.9348297995415,
        "truck": 1048.0865549272462
    },
    "fid": 672.868768430098,
    "wasserstein_distance": null,
    "g_loss": null,
    "g_cost": null,
    "d_loss_real": null,
    "d_loss_fake": null
}