{
    "epoch": 136,
    "avg_current_window": 704.1741573085754,
    "avg_prior_window": 711.8275286248214,
    "inception_score_mean": 2.041038804111881,
    "inception_score_std": 0.15100322722092824,
    "fid_per_class": {
        "airplane": 958.4238846151857,
        "automobile": 1053.3960773216063,
        "bird": 1141.224381963704,
        "cat": 1026.145400792324,
        "deer": 1235.7769207684405,
        "dog": 981.0284959781811,
        "frog": 1376.2942777344329,
        "horse": 1084.8831546979545,
        "ship": 792.7080671538484,
        "truck": 1002.2158216933076
    },
    "fid": 651.6589602396137,
    "wasserstein_distance": null,
    "g_loss": null,
    "g_cost": null,
    "d_loss_real": null,
    "d_loss_fake": null
}