{
    "epoch": 32,
    "avg_current_window": 884.0497464785502,
    "avg_prior_window": 945.7450397188045,
    "inception_score_mean": 2.0278147038351917,
    "inception_score_std": 0.12490799454417661,
    "fid_per_class": {
        "airplane": 932.2012949943886,
        "automobile": 1088.480921777369,
        "bird": 1250.8181832457135,
        "cat": 1013.7359723916769,
        "deer": 1293.6974672019494,
        "dog": 1084.107779899879,
        "frog": 1390.0090197897857,
        "horse": 1228.7164000827142,
        "ship": 814.2710337447787,
        "truck": 1036.233302375315
    },
    "fid": 705.3883495327121,
    "wasserstein_distance": null,
    "g_loss": null,
    "g_cost": null,
    "d_loss_real": null,
    "d_loss_fake": null
}