{
    "epoch": 5,
    "avg_current_window": 1202.3114870314414,
    "avg_prior_window": 1869.3189642027403,
    "inception_score_mean": 1.560159591235451,
    "inception_score_std": 0.06927190678052997,
    "fid_per_class": {
        "airplane": 1401.5636374290011,
        "automobile": 1435.432700760909,
        "bird": 1758.806541207523,
        "cat": 1719.0555903190318,
        "deer": 1870.2329045228573,
        "dog": 1813.820043582308,
        "frog": 2046.9320105615811,
        "horse": 1766.6321728939,
        "ship": 1251.15414124463,
        "truck": 1294.5896004241454
    },
    "fid": 1336.7773397206822,
    "wasserstein_distance": null,
    "g_loss": null,
    "g_cost": null,
    "d_loss_real": null,
    "d_loss_fake": null
}