{
    "epoch": 108,
    "avg_current_window": 722.5540640486813,
    "avg_prior_window": 733.3126266487787,
    "inception_score_mean": 2.024806263946294,
    "inception_score_std": 0.1575968964545865,
    "fid_per_class": {
        "airplane": 862.1567490945961,
        "automobile": 1075.989538571353,
        "bird": 1147.2339186997074,
        "cat": 971.202814606639,
        "deer": 1214.0834232304255,
        "dog": 965.7061788852673,
        "frog": 1340.7805029647288,
        "horse": 1072.3927619774527,
        "ship": 702.7629812551546,
        "truck": 916.0623337634254
    },
    "fid": 612.0675663817294,
    "wasserstein_distance": null,
    "g_loss": null,
    "g_cost": null,
    "d_loss_real": null,
    "d_loss_fake": null
}