{
    "epoch": 176,
    "avg_current_window": 686.0242090350813,
    "avg_prior_window": 691.8816641172942,
    "inception_score_mean": 2.1214332812670778,
    "inception_score_std": 0.12428167185734933,
    "fid_per_class": {
        "airplane": 924.096684733491,
        "automobile": 1049.5683218701417,
        "bird": 1122.7581812320295,
        "cat": 950.6795253174619,
        "deer": 1280.6967743069513,
        "dog": 894.1890406628153,
        "frog": 1286.6697579499744,
        "horse": 1049.7699666140873,
        "ship": 755.1151356705236,
        "truck": 939.185477826394
    },
    "fid": 613.8179042071786,
    "wasserstein_distance": null,
    "g_loss": null,
    "g_cost": null,
    "d_loss_real": null,
    "d_loss_fake": null
}