{
    "epoch": 15,
    "avg_current_window": 1026.4925205850134,
    "avg_prior_window": 1214.8221422437086,
    "inception_score_mean": 1.849944296394606,
    "inception_score_std": 0.11083187027090217,
    "fid_per_class": {
        "airplane": 1135.09448200141,
        "automobile": 1290.0621839718397,
        "bird": 1365.5224908068349,
        "cat": 1150.9539085064166,
        "deer": 1518.1015978086505,
        "dog": 1314.9667304700858,
        "frog": 1599.252412740544,
        "horse": 1325.6797897948131,
        "ship": 950.8280770851558,
        "truck": 1077.895844613914
    },
    "fid": 879.1033834420606,
    "wasserstein_distance": null,
    "g_loss": null,
    "g_cost": null,
    "d_loss_real": null,
    "d_loss_fake": null
}