{
    "epoch": 58,
    "avg_current_window": 798.5341771001011,
    "avg_prior_window": 822.4121981154864,
    "inception_score_mean": 1.9733529775375729,
    "inception_score_std": 0.17373056677624646,
    "fid_per_class": {
        "airplane": 952.5553836303202,
        "automobile": 1115.9599254944123,
        "bird": 1233.0781638980623,
        "cat": 1030.15624565813,
        "deer": 1253.99318210163,
        "dog": 998.634398135008,
        "frog": 1500.3006111250509,
        "horse": 1111.6627241098342,
        "ship": 810.7705836401449,
        "truck": 1057.747621317152
    },
    "fid": 697.0703787965474,
    "wasserstein_distance": null,
    "g_loss": null,
    "g_cost": null,
    "d_loss_real": null,
    "d_loss_fake": null
}