{
    "epoch": 110,
    "avg_current_window": 721.3776786125453,
    "avg_prior_window": 731.4929436415234,
    "inception_score_mean": 2.0706972513252726,
    "inception_score_std": 0.1794760304019491,
    "fid_per_class": {
        "airplane": 879.0664643927696,
        "automobile": 1134.7893852173902,
        "bird": 1159.9942147638071,
        "cat": 1013.3662432207951,
        "deer": 1314.2641782502424,
        "dog": 867.6266162322707,
        "frog": 1354.1542273696505,
        "horse": 1062.8967422855817,
        "ship": 753.2175382292241,
        "truck": 981.4668994038478
    },
    "fid": 634.2989390065775,
    "wasserstein_distance": null,
    "g_loss": null,
    "g_cost": null,
    "d_loss_real": null,
    "d_loss_fake": null
}