{
    "epoch": 22,
    "avg_current_window": 963.3637392771029,
    "avg_prior_window": 1057.5960950904196,
    "inception_score_mean": 2.0718055447225274,
    "inception_score_std": 0.1696269985291992,
    "fid_per_class": {
        "airplane": 952.4971649810254,
        "automobile": 1164.3585188881611,
        "bird": 1255.7388840685367,
        "cat": 1005.860685037654,
        "deer": 1332.3684798080603,
        "dog": 995.5505135407919,
        "frog": 1457.633739437368,
        "horse": 1280.8250915632516,
        "ship": 796.084539781073,
        "truck": 1037.1448037187001
    },
    "fid": 711.4075808794134,
    "wasserstein_distance": null,
    "g_loss": null,
    "g_cost": null,
    "d_loss_real": null,
    "d_loss_fake": null
}