{
    "epoch": 130,
    "avg_current_window": 707.6828558565579,
    "avg_prior_window": 715.6470275103305,
    "inception_score_mean": 2.077862674948941,
    "inception_score_std": 0.12960373665980474,
    "fid_per_class": {
        "airplane": 852.2868431014444,
        "automobile": 1032.1357429283155,
        "bird": 1123.6263421678111,
        "cat": 974.115932792299,
        "deer": 1215.7583699448396,
        "dog": 984.0264707044323,
        "frog": 1347.7044771113744,
        "horse": 1074.818824615824,
        "ship": 788.8747906650567,
        "truck": 962.2976894963749
    },
    "fid": 615.3456834852343,
    "wasserstein_distance": null,
    "g_loss": null,
    "g_cost": null,
    "d_loss_real": null,
    "d_loss_fake": null
}