{
    "epoch": 166,
    "avg_current_window": 689.7221060389528,
    "avg_prior_window": 695.7894889614186,
    "inception_score_mean": 2.0774529698727533,
    "inception_score_std": 0.17253144656003294,
    "fid_per_class": {
        "airplane": 896.8957520433441,
        "automobile": 1085.964976476931,
        "bird": 1167.9971951367852,
        "cat": 992.6897146282836,
        "deer": 1251.3154392583838,
        "dog": 975.3891565495906,
        "frog": 1395.5032899125586,
        "horse": 1035.339398311045,
        "ship": 760.7834713533518,
        "truck": 991.8106392708393
    },
    "fid": 640.6855284363094,
    "wasserstein_distance": null,
    "g_loss": null,
    "g_cost": null,
    "d_loss_real": null,
    "d_loss_fake": null
}