{
    "epoch": 139,
    "avg_current_window": 702.360402108221,
    "avg_prior_window": 710.0885010852678,
    "inception_score_mean": 2.05092021792873,
    "inception_score_std": 0.15089025470805095,
    "fid_per_class": {
        "airplane": 869.2195159638444,
        "automobile": 1099.7671028330155,
        "bird": 1137.4920595219273,
        "cat": 1010.6804012499615,
        "deer": 1216.567907587587,
        "dog": 956.4397306605198,
        "frog": 1452.0389443248366,
        "horse": 1077.8337951910764,
        "ship": 809.5640906832696,
        "truck": 1049.8440060131966
    },
    "fid": 646.1331109048983,
    "wasserstein_distance": null,
    "g_loss": null,
    "g_cost": null,
    "d_loss_real": null,
    "d_loss_fake": null
}