{
    "epoch": 25,
    "avg_current_window": 934.7890124643783,
    "avg_prior_window": 1022.9548335762005,
    "inception_score_mean": 2.052581404579364,
    "inception_score_std": 0.20587650954266945,
    "fid_per_class": {
        "airplane": 978.9245143246145,
        "automobile": 1138.6078285522362,
        "bird": 1323.8674314949565,
        "cat": 1039.7928652164162,
        "deer": 1466.3703045921902,
        "dog": 1031.6704707202202,
        "frog": 1517.5618923985169,
        "horse": 1310.1754329872483,
        "ship": 777.5796150547624,
        "truck": 1085.792185678602
    },
    "fid": 750.3874019912089,
    "wasserstein_distance": null,
    "g_loss": null,
    "g_cost": null,
    "d_loss_real": null,
    "d_loss_fake": null
}