{
    "epoch": 24,
    "avg_current_window": 945.6770564062386,
    "avg_prior_window": 1032.7988677581943,
    "inception_score_mean": 2.118792929257636,
    "inception_score_std": 0.2147913054939413,
    "fid_per_class": {
        "airplane": 965.2300260262225,
        "automobile": 1112.8367777956148,
        "bird": 1254.043411945831,
        "cat": 959.601165206747,
        "deer": 1296.5977733651364,
        "dog": 1009.4075891064248,
        "frog": 1277.2585362053717,
        "horse": 1218.0118807742756,
        "ship": 799.9058835022915,
        "truck": 1112.596073525961
    },
    "fid": 673.475957859731,
    "wasserstein_distance": null,
    "g_loss": null,
    "g_cost": null,
    "d_loss_real": null,
    "d_loss_fake": null
}