{
    "epoch": 148,
    "avg_current_window": 698.2662829583581,
    "avg_prior_window": 705.1718350960701,
    "inception_score_mean": 2.068430433391418,
    "inception_score_std": 0.2108147569414368,
    "fid_per_class": {
        "airplane": 929.7594848071794,
        "automobile": 1083.9753574207284,
        "bird": 1165.7593461195443,
        "cat": 975.4263784930508,
        "deer": 1297.1886128738072,
        "dog": 930.2781457722631,
        "frog": 1402.5643127621472,
        "horse": 1069.6698119918956,
        "ship": 743.4230611078178,
        "truck": 918.4035444397321
    },
    "fid": 642.2598855534904,
    "wasserstein_distance": null,
    "g_loss": null,
    "g_cost": null,
    "d_loss_real": null,
    "d_loss_fake": null
}