{
    "epoch": 41,
    "avg_current_window": 841.6945411121619,
    "avg_prior_window": 881.9711137060929,
    "inception_score_mean": 1.9957073766443536,
    "inception_score_std": 0.18073752827830683,
    "fid_per_class": {
        "airplane": 903.3774128575938,
        "automobile": 1058.22584985123,
        "bird": 1287.2883190275236,
        "cat": 938.0576081002177,
        "deer": 1340.0351070969798,
        "dog": 890.2621395236819,
        "frog": 1545.1419125948216,
        "horse": 1189.1082947088735,
        "ship": 704.073867458906,
        "truck": 1081.4076668196756
    },
    "fid": 673.2415651494828,
    "wasserstein_distance": null,
    "g_loss": null,
    "g_cost": null,
    "d_loss_real": null,
    "d_loss_fake": null
}