{
    "epoch": 101,
    "avg_current_window": 730.6234590086872,
    "avg_prior_window": 741.7457330290745,
    "inception_score_mean": 2.060201920688602,
    "inception_score_std": 0.12221191757677477,
    "fid_per_class": {
        "airplane": 878.5244318692891,
        "automobile": 1053.6465219310735,
        "bird": 1130.5012942708997,
        "cat": 956.8170436554893,
        "deer": 1157.600075995584,
        "dog": 924.443198821088,
        "frog": 1240.1346924730226,
        "horse": 1054.7401750939202,
        "ship": 699.700237500783,
        "truck": 924.2920373448871
    },
    "fid": 582.1517249252563,
    "wasserstein_distance": null,
    "g_loss": null,
    "g_cost": null,
    "d_loss_real": null,
    "d_loss_fake": null
}