{
    "epoch": 51,
    "avg_current_window": 814.0006755866438,
    "avg_prior_window": 842.8824179363365,
    "inception_score_mean": 1.9554647315439353,
    "inception_score_std": 0.13955145576162697,
    "fid_per_class": {
        "airplane": 961.2943159383759,
        "automobile": 1075.5029021979249,
        "bird": 1188.4599854981138,
        "cat": 988.4688319457528,
        "deer": 1261.7797076183922,
        "dog": 984.9571844558709,
        "frog": 1368.3655014407952,
        "horse": 1194.5538569998153,
        "ship": 817.2512671881608,
        "truck": 1063.5373206238933
    },
    "fid": 691.6885343752523,
    "wasserstein_distance": null,
    "g_loss": null,
    "g_cost": null,
    "d_loss_real": null,
    "d_loss_fake": null
}