{
    "epoch": 127,
    "avg_current_window": 709.5181970893312,
    "avg_prior_window": 718.1887160732899,
    "inception_score_mean": 2.131429165569037,
    "inception_score_std": 0.17861432689960485,
    "fid_per_class": {
        "airplane": 868.8368280822162,
        "automobile": 1129.1273286710455,
        "bird": 1156.0225928141626,
        "cat": 956.661469928895,
        "deer": 1219.1300416604602,
        "dog": 964.1005244064042,
        "frog": 1226.7264179910144,
        "horse": 1104.141857313959,
        "ship": 781.5587125194452,
        "truck": 978.8426803624527
    },
    "fid": 611.9260285813184,
    "wasserstein_distance": null,
    "g_loss": null,
    "g_cost": null,
    "d_loss_real": null,
    "d_loss_fake": null
}