{
    "epoch": 40,
    "avg_current_window": 845.5853385575377,
    "avg_prior_window": 887.0756280420965,
    "inception_score_mean": 2.0255105679647096,
    "inception_score_std": 0.1947976732523893,
    "fid_per_class": {
        "airplane": 884.2811248798447,
        "automobile": 1071.347710904633,
        "bird": 1238.7775297908327,
        "cat": 996.2513994492831,
        "deer": 1267.3325301603272,
        "dog": 1023.0538113156065,
        "frog": 1510.1478204482455,
        "horse": 1158.5870857471962,
        "ship": 738.357032462935,
        "truck": 1028.240323378771
    },
    "fid": 686.062643297126,
    "wasserstein_distance": null,
    "g_loss": null,
    "g_cost": null,
    "d_loss_real": null,
    "d_loss_fake": null
}