{
    "epoch": 183,
    "avg_current_window": 682.8973249565091,
    "avg_prior_window": 688.5939629521135,
    "inception_score_mean": 2.1139619413532342,
    "inception_score_std": 0.23246740149600484,
    "fid_per_class": {
        "airplane": 925.4485755063843,
        "automobile": 1044.168756997884,
        "bird": 1095.8233838526849,
        "cat": 954.0070344247799,
        "deer": 1100.0737162934736,
        "dog": 901.9103966916314,
        "frog": 1186.6766796435693,
        "horse": 1058.8574336219476,
        "ship": 757.021665871906,
        "truck": 929.5127127465254
    },
    "fid": 571.9612607394229,
    "wasserstein_distance": null,
    "g_loss": null,
    "g_cost": null,
    "d_loss_real": null,
    "d_loss_fake": null
}