{
    "epoch": 78,
    "avg_current_window": 759.337543304314,
    "avg_prior_window": 776.3735511292447,
    "inception_score_mean": 2.098620887734378,
    "inception_score_std": 0.18569148543159103,
    "fid_per_class": {
        "airplane": 923.9129144524422,
        "automobile": 1087.1602562009648,
        "bird": 1158.8521212893102,
        "cat": 951.0943119006004,
        "deer": 1158.2973699397758,
        "dog": 965.009494967002,
        "frog": 1289.0980692000794,
        "horse": 1105.6910421489342,
        "ship": 790.9590242084253,
        "truck": 1067.8149381601588
    },
    "fid": 634.1365520269776,
    "wasserstein_distance": null,
    "g_loss": null,
    "g_cost": null,
    "d_loss_real": null,
    "d_loss_fake": null
}