{
    "epoch": 181,
    "avg_current_window": 683.6028625584496,
    "avg_prior_window": 689.5118107635312,
    "inception_score_mean": 2.1398168720962314,
    "inception_score_std": 0.18914450282134965,
    "fid_per_class": {
        "airplane": 905.996785814131,
        "automobile": 1165.6080367362206,
        "bird": 1103.5523463595632,
        "cat": 972.431532429221,
        "deer": 1170.896744064685,
        "dog": 961.1250440645723,
        "frog": 1319.851251792058,
        "horse": 1120.315356183457,
        "ship": 787.9791890863394,
        "truck": 997.2752621322818
    },
    "fid": 639.3691341919657,
    "wasserstein_distance": null,
    "g_loss": null,
    "g_cost": null,
    "d_loss_real": null,
    "d_loss_fake": null
}