{
    "epoch": 155,
    "avg_current_window": 695.0564981320814,
    "avg_prior_window": 701.6730852163911,
    "inception_score_mean": 2.0867848513074025,
    "inception_score_std": 0.16589384540842847,
    "fid_per_class": {
        "airplane": 877.5380570907837,
        "automobile": 1054.3769969784307,
        "bird": 1140.3236245699782,
        "cat": 966.8314845621351,
        "deer": 1217.5112879280557,
        "dog": 966.4348470311699,
        "frog": 1303.5603952197416,
        "horse": 1073.2241070713198,
        "ship": 752.6620386243795,
        "truck": 913.8042180030172
    },
    "fid": 615.2450512910846,
    "wasserstein_distance": null,
    "g_loss": null,
    "g_cost": null,
    "d_loss_real": null,
    "d_loss_fake": null
}