{
    "epoch": 98,
    "avg_current_window": 733.1754075376313,
    "avg_prior_window": 746.347436299726,
    "inception_score_mean": 2.0525050715717246,
    "inception_score_std": 0.11199379254505418,
    "fid_per_class": {
        "airplane": 885.8388399659276,
        "automobile": 1078.753553779271,
        "bird": 1132.0574348124642,
        "cat": 973.2651003458122,
        "deer": 1169.5701841893888,
        "dog": 968.5919265860159,
        "frog": 1304.277021284324,
        "horse": 1043.7470309617338,
        "ship": 795.3389794888901,
        "truck": 954.6804357972836
    },
    "fid": 618.5348898519547,
    "wasserstein_distance": null,
    "g_loss": null,
    "g_cost": null,
    "d_loss_real": null,
    "d_loss_fake": null
}