{
    "epoch": 174,
    "avg_current_window": 686.8753837752657,
    "avg_prior_window": 692.3828907714345,
    "inception_score_mean": 2.0984898244255,
    "inception_score_std": 0.10133142481524213,
    "fid_per_class": {
        "airplane": 917.1012301549587,
        "automobile": 1109.1951370484971,
        "bird": 1143.2648228641829,
        "cat": 934.1722174224283,
        "deer": 1169.7456686741189,
        "dog": 937.6755031402975,
        "frog": 1230.7848085564847,
        "horse": 1051.170900317679,
        "ship": 796.1613104429598,
        "truck": 1021.6036284810469
    },
    "fid": 613.902523563729,
    "wasserstein_distance": null,
    "g_loss": null,
    "g_cost": null,
    "d_loss_real": null,
    "d_loss_fake": null
}