{
    "epoch": 18,
    "avg_current_window": 998.8407564742852,
    "avg_prior_window": 1114.9671437547195,
    "inception_score_mean": 2.055824147105176,
    "inception_score_std": 0.12376966281988362,
    "fid_per_class": {
        "airplane": 973.7019975695049,
        "automobile": 1209.6648842560776,
        "bird": 1323.3272333732639,
        "cat": 1066.1061725676848,
        "deer": 1480.9595189401105,
        "dog": 1064.4151543819783,
        "frog": 1549.9173779109833,
        "horse": 1308.921125239252,
        "ship": 894.6728812741766,
        "truck": 1109.6478019084313
    },
    "fid": 788.9537392083978,
    "wasserstein_distance": null,
    "g_loss": null,
    "g_cost": null,
    "d_loss_real": null,
    "d_loss_fake": null
}