{
    "epoch": 160,
    "avg_current_window": 692.3074946001398,
    "avg_prior_window": 699.0258210436368,
    "inception_score_mean": 2.1131600692467982,
    "inception_score_std": 0.1394388923100857,
    "fid_per_class": {
        "airplane": 930.3891763504769,
        "automobile": 1050.3970438657648,
        "bird": 1138.1499915097022,
        "cat": 993.5158084795951,
        "deer": 1277.2525880236626,
        "dog": 914.3835937468746,
        "frog": 1356.2447235998047,
        "horse": 1094.736439696359,
        "ship": 828.985752424315,
        "truck": 941.5219953771017
    },
    "fid": 631.6343119937324,
    "wasserstein_distance": null,
    "g_loss": null,
    "g_cost": null,
    "d_loss_real": null,
    "d_loss_fake": null
}