{
    "epoch": 145,
    "avg_current_window": 699.9788225707825,
    "avg_prior_window": 706.630824700887,
    "inception_score_mean": 2.0995177786722095,
    "inception_score_std": 0.16711261504757144,
    "fid_per_class": {
        "airplane": 907.6310340415663,
        "automobile": 1089.2071934705314,
        "bird": 1080.760556599889,
        "cat": 935.8628901477617,
        "deer": 1207.2852792069657,
        "dog": 919.4069960386447,
        "frog": 1233.0243540766348,
        "horse": 1093.6296519837251,
        "ship": 775.774874099686,
        "truck": 899.401569390539
    },
    "fid": 592.2790994749763,
    "wasserstein_distance": null,
    "g_loss": null,
    "g_cost": null,
    "d_loss_real": null,
    "d_loss_fake": null
}