{
    "epoch": 45,
    "avg_current_window": 830.597423813901,
    "avg_prior_window": 862.7369046399659,
    "inception_score_mean": 1.994071735742781,
    "inception_score_std": 0.1509029437668064,
    "fid_per_class": {
        "airplane": 928.1659999828294,
        "automobile": 1046.5042476368483,
        "bird": 1211.9252153915447,
        "cat": 966.3480940864465,
        "deer": 1322.1644229920253,
        "dog": 1026.712480162297,
        "frog": 1365.9055851291637,
        "horse": 1214.3452976925084,
        "ship": 833.0316494930526,
        "truck": 1085.4273534934991
    },
    "fid": 674.1395598328686,
    "wasserstein_distance": null,
    "g_loss": null,
    "g_cost": null,
    "d_loss_real": null,
    "d_loss_fake": null
}