{
    "epoch": 154,
    "avg_current_window": 695.6888998396132,
    "avg_prior_window": 702.2436363687667,
    "inception_score_mean": 2.0695073730796834,
    "inception_score_std": 0.15807136049315737,
    "fid_per_class": {
        "airplane": 906.7396473957094,
        "automobile": 993.4298540915524,
        "bird": 1127.2462189169341,
        "cat": 966.1935515532089,
        "deer": 1142.3427686873874,
        "dog": 950.596639567106,
        "frog": 1281.450629062836,
        "horse": 1046.7788844752074,
        "ship": 804.4847636378852,
        "truck": 976.4694517482591
    },
    "fid": 597.6666351721778,
    "wasserstein_distance": null,
    "g_loss": null,
    "g_cost": null,
    "d_loss_real": null,
    "d_loss_fake": null
}