{
    "epoch": 84,
    "avg_current_window": 751.2179771568829,
    "avg_prior_window": 765.9578466099825,
    "inception_score_mean": 2.0547747954956637,
    "inception_score_std": 0.1210793139323229,
    "fid_per_class": {
        "airplane": 945.4126290780475,
        "automobile": 1060.9093222154079,
        "bird": 1131.926422389202,
        "cat": 923.7708719025472,
        "deer": 1247.3682995160448,
        "dog": 940.0926832653811,
        "frog": 1337.5759305085974,
        "horse": 1125.2088337447076,
        "ship": 765.2043564578311,
        "truck": 1014.3561619005848
    },
    "fid": 621.9920978313694,
    "wasserstein_distance": null,
    "g_loss": null,
    "g_cost": null,
    "d_loss_real": null,
    "d_loss_fake": null
}