{
    "epoch": 172,
    "avg_current_window": 687.8590963026588,
    "avg_prior_window": 693.0462186366314,
    "inception_score_mean": 2.1113001523620425,
    "inception_score_std": 0.093774726220232,
    "fid_per_class": {
        "airplane": 975.3353909813727,
        "automobile": 1034.8021704925527,
        "bird": 1129.419748997523,
        "cat": 960.5693970464595,
        "deer": 1172.764096186942,
        "dog": 917.2512540187552,
        "frog": 1253.7632556969593,
        "horse": 1108.6116619771808,
        "ship": 754.5851255943371,
        "truck": 969.3705930704396
    },
    "fid": 601.5045657248137,
    "wasserstein_distance": null,
    "g_loss": null,
    "g_cost": null,
    "d_loss_real": null,
    "d_loss_fake": null
}