{
    "epoch": 31,
    "avg_current_window": 889.6644733286406,
    "avg_prior_window": 955.3315036234673,
    "inception_score_mean": 2.026204829149374,
    "inception_score_std": 0.13636886405516999,
    "fid_per_class": {
        "airplane": 956.6763893688587,
        "automobile": 1120.9332686758419,
        "bird": 1269.210850989747,
        "cat": 1009.4835076364209,
        "deer": 1302.6023989097766,
        "dog": 1028.0548140006117,
        "frog": 1443.1079830219046,
        "horse": 1225.2101907494857,
        "ship": 821.6361461726472,
        "truck": 1130.1736426590794
    },
    "fid": 709.9932141257484,
    "wasserstein_distance": null,
    "g_loss": null,
    "g_cost": null,
    "d_loss_real": null,
    "d_loss_fake": null
}