{
    "epoch": 11,
    "avg_current_window": 1104.3837656760986,
    "avg_prior_window": 1419.4726651513581,
    "inception_score_mean": 1.8298471170053368,
    "inception_score_std": 0.13567142358049414,
    "fid_per_class": {
        "airplane": 1038.063279978994,
        "automobile": 1304.8157537696059,
        "bird": 1176.1750719610463,
        "cat": 1006.1058006464714,
        "deer": 1339.0288332473954,
        "dog": 1099.1239100837988,
        "frog": 1369.0437821859994,
        "horse": 1353.360022843301,
        "ship": 918.641132074064,
        "truck": 1169.3929053718334
    },
    "fid": 788.2449021553381,
    "wasserstein_distance": null,
    "g_loss": null,
    "g_cost": null,
    "d_loss_real": null,
    "d_loss_fake": null
}