{
    "epoch": 20,
    "avg_current_window": 981.1589243702845,
    "avg_prior_window": 1085.0994128144841,
    "inception_score_mean": 2.0631296968464223,
    "inception_score_std": 0.1608224018482846,
    "fid_per_class": {
        "airplane": 989.1680279585909,
        "automobile": 1169.1460027127396,
        "bird": 1456.3795373559801,
        "cat": 1161.987961287018,
        "deer": 1605.576623572932,
        "dog": 1178.0068759822634,
        "frog": 1698.4083882146517,
        "horse": 1330.8734090463533,
        "ship": 817.7841282814416,
        "truck": 1095.2811375166755
    },
    "fid": 835.9181841183213,
    "wasserstein_distance": null,
    "g_loss": null,
    "g_cost": null,
    "d_loss_real": null,
    "d_loss_fake": null
}