{
    "epoch": 173,
    "avg_current_window": 687.3599371663707,
    "avg_prior_window": 692.8647996726951,
    "inception_score_mean": 2.091466086795603,
    "inception_score_std": 0.1705289788898687,
    "fid_per_class": {
        "airplane": 892.3792197826899,
        "automobile": 1059.8483895660202,
        "bird": 1095.1626947999557,
        "cat": 952.5921902545788,
        "deer": 1209.4698227480117,
        "dog": 959.7322598706139,
        "frog": 1312.9609041853473,
        "horse": 1029.21978003796,
        "ship": 764.2867682472096,
        "truck": 901.4973723221447
    },
    "fid": 603.0476471141045,
    "wasserstein_distance": null,
    "g_loss": null,
    "g_cost": null,
    "d_loss_real": null,
    "d_loss_fake": null
}