{
    "epoch": 180,
    "avg_current_window": 684.1996869942689,
    "avg_prior_window": 689.9443473724247,
    "inception_score_mean": 2.129646085057508,
    "inception_score_std": 0.17751456930174872,
    "fid_per_class": {
        "airplane": 915.5567059602201,
        "automobile": 1025.5131130813259,
        "bird": 1142.7313769614746,
        "cat": 903.8513185575923,
        "deer": 1115.1788158184957,
        "dog": 919.6392788640039,
        "frog": 1233.7050046055456,
        "horse": 1023.1299105281605,
        "ship": 702.0077843223888,
        "truck": 919.3635741147608
    },
    "fid": 576.174464110969,
    "wasserstein_distance": null,
    "g_loss": null,
    "g_cost": null,
    "d_loss_real": null,
    "d_loss_fake": null
}