{
    "epoch": 158,
    "avg_current_window": 693.5527988918128,
    "avg_prior_window": 700.2358861130747,
    "inception_score_mean": 2.11853463755625,
    "inception_score_std": 0.13135132196132743,
    "fid_per_class": {
        "airplane": 999.5718282275923,
        "automobile": 1008.9211075115404,
        "bird": 1095.7872448783185,
        "cat": 901.2041307554956,
        "deer": 1073.9528269689695,
        "dog": 903.3718448055799,
        "frog": 1215.408193496056,
        "horse": 1011.4203686800666,
        "ship": 772.9833272885999,
        "truck": 962.9389359577674
    },
    "fid": 568.2362407155938,
    "wasserstein_distance": null,
    "g_loss": null,
    "g_cost": null,
    "d_loss_real": null,
    "d_loss_fake": null
}