{
    "epoch": 89,
    "avg_current_window": 744.0065299887162,
    "avg_prior_window": 758.6226449882085,
    "inception_score_mean": 2.042977593035026,
    "inception_score_std": 0.11971522956985418,
    "fid_per_class": {
        "airplane": 903.7337452718849,
        "automobile": 1034.5630759185103,
        "bird": 1132.9706046783226,
        "cat": 998.3694528543665,
        "deer": 1196.880430078576,
        "dog": 1004.3311403228576,
        "frog": 1292.0876784795114,
        "horse": 1106.566609135983,
        "ship": 738.8073247778516,
        "truck": 1050.4468266700924
    },
    "fid": 629.4713072849864,
    "wasserstein_distance": null,
    "g_loss": null,
    "g_cost": null,
    "d_loss_real": null,
    "d_loss_fake": null
}