{
    "epoch": 113,
    "avg_current_window": 718.9051735824477,
    "avg_prior_window": 728.2213563299936,
    "inception_score_mean": 2.1106911204952516,
    "inception_score_std": 0.2153677349616804,
    "fid_per_class": {
        "airplane": 852.2770514993027,
        "automobile": 1179.3709710749536,
        "bird": 1185.2215790604857,
        "cat": 968.605656210771,
        "deer": 1270.7722675030814,
        "dog": 924.6636344142636,
        "frog": 1423.1662673210217,
        "horse": 1156.8721008703114,
        "ship": 788.0723951379912,
        "truck": 1015.5038378042029
    },
    "fid": 654.0761776624137,
    "wasserstein_distance": null,
    "g_loss": null,
    "g_cost": null,
    "d_loss_real": null,
    "d_loss_fake": null
}