{
    "epoch": 185,
    "avg_current_window": 681.8608644491417,
    "avg_prior_window": 687.4006562393298,
    "inception_score_mean": 2.0683640215839927,
    "inception_score_std": 0.13446572229339174,
    "fid_per_class": {
        "airplane": 930.8784567112381,
        "automobile": 1109.2134580188995,
        "bird": 1156.8796948218242,
        "cat": 965.5879833123838,
        "deer": 1192.182253763673,
        "dog": 984.4759401544666,
        "frog": 1212.8043966139098,
        "horse": 1103.1984412358945,
        "ship": 813.4042551471007,
        "truck": 993.0072813838603
    },
    "fid": 637.9305354613883,
    "wasserstein_distance": null,
    "g_loss": null,
    "g_cost": null,
    "d_loss_real": null,
    "d_loss_fake": null
}