{
    "epoch": 118,
    "avg_current_window": 715.6445074371619,
    "avg_prior_window": 724.693458340522,
    "inception_score_mean": 2.0150565395980156,
    "inception_score_std": 0.17467738025371404,
    "fid_per_class": {
        "airplane": 861.5215814744361,
        "automobile": 989.0575295835719,
        "bird": 1187.9983822198985,
        "cat": 1019.6068309628247,
        "deer": 1169.9938060849156,
        "dog": 967.224121507948,
        "frog": 1388.8302821221196,
        "horse": 1028.2314495817682,
        "ship": 725.9573759697157,
        "truck": 894.1461255282752
    },
    "fid": 620.6885094469353,
    "wasserstein_distance": null,
    "g_loss": null,
    "g_cost": null,
    "d_loss_real": null,
    "d_loss_fake": null
}