{
    "epoch": 88,
    "avg_current_window": 745.348528280554,
    "avg_prior_window": 760.268796158773,
    "inception_score_mean": 2.06436214287955,
    "inception_score_std": 0.17533207652335053,
    "fid_per_class": {
        "airplane": 907.959564988741,
        "automobile": 1118.3596956890917,
        "bird": 1134.4638546110004,
        "cat": 947.0706639143281,
        "deer": 1141.6190259408152,
        "dog": 972.2139772174697,
        "frog": 1238.77430518245,
        "horse": 1098.4373102632817,
        "ship": 788.7864637713428,
        "truck": 991.3851288134226
    },
    "fid": 625.9106803070042,
    "wasserstein_distance": null,
    "g_loss": null,
    "g_cost": null,
    "d_loss_real": null,
    "d_loss_fake": null
}