{
    "epoch": 190,
    "avg_current_window": 680.4270565061919,
    "avg_prior_window": 685.3091376137978,
    "inception_score_mean": 1.9849006895797934,
    "inception_score_std": 0.15002879964843002,
    "fid_per_class": {
        "airplane": 865.4619876819487,
        "automobile": 1049.747182600549,
        "bird": 1135.8849171771276,
        "cat": 960.7368482095653,
        "deer": 1287.6550070726616,
        "dog": 944.5195082413333,
        "frog": 1309.3045091947986,
        "horse": 1039.4963238736864,
        "ship": 801.708823117126,
        "truck": 948.8478489595365
    },
    "fid": 611.4477187039073,
    "wasserstein_distance": null,
    "g_loss": null,
    "g_cost": null,
    "d_loss_real": null,
    "d_loss_fake": null
}