{
    "epoch": 138,
    "avg_current_window": 703.1563835665137,
    "avg_prior_window": 710.5621125724888,
    "inception_score_mean": 2.0738889499624085,
    "inception_score_std": 0.09343379728913534,
    "fid_per_class": {
        "airplane": 956.1397246808917,
        "automobile": 1062.427996986711,
        "bird": 1067.7539475753351,
        "cat": 920.2700397700908,
        "deer": 1155.6295909104629,
        "dog": 922.3906502700238,
        "frog": 1281.7516763621095,
        "horse": 1038.4518332249459,
        "ship": 797.455123933386,
        "truck": 968.8634778587711
    },
    "fid": 592.5149608638465,
    "wasserstein_distance": null,
    "g_loss": null,
    "g_cost": null,
    "d_loss_real": null,
    "d_loss_fake": null
}