{
    "epoch": 43,
    "avg_current_window": 835.9505840389274,
    "avg_prior_window": 871.4614169368144,
    "inception_score_mean": 1.9499067245607962,
    "inception_score_std": 0.19970224530880845,
    "fid_per_class": {
        "airplane": 910.8016246030116,
        "automobile": 1092.0079145620034,
        "bird": 1218.8352333805824,
        "cat": 1074.1977844826483,
        "deer": 1354.6992473968646,
        "dog": 1090.2802406022533,
        "frog": 1472.567141270963,
        "horse": 1265.1963668539656,
        "ship": 786.6069433375197,
        "truck": 1069.097744556118
    },
    "fid": 728.8371199391166,
    "wasserstein_distance": null,
    "g_loss": null,
    "g_cost": null,
    "d_loss_real": null,
    "d_loss_fake": null
}