{
    "epoch": 129,
    "avg_current_window": 708.162353347201,
    "avg_prior_window": 716.3474696134632,
    "inception_score_mean": 2.0530947382257763,
    "inception_score_std": 0.21418613120084595,
    "fid_per_class": {
        "airplane": 857.0857338101803,
        "automobile": 1082.8857271695833,
        "bird": 1204.649734849991,
        "cat": 1017.3755274270234,
        "deer": 1254.8066611209597,
        "dog": 961.8365412809273,
        "frog": 1399.99716521264,
        "horse": 1078.3097829480573,
        "ship": 777.009130778261,
        "truck": 978.8626113095977
    },
    "fid": 645.8276795636084,
    "wasserstein_distance": null,
    "g_loss": null,
    "g_cost": null,
    "d_loss_real": null,
    "d_loss_fake": null
}