{
    "epoch": 46,
    "avg_current_window": 827.1961659012698,
    "avg_prior_window": 858.1150670914175,
    "inception_score_mean": 1.9998799927486317,
    "inception_score_std": 0.1813563860744843,
    "fid_per_class": {
        "airplane": 911.5029863899183,
        "automobile": 1121.5637101431637,
        "bird": 1227.4312242762817,
        "cat": 1023.9157434945269,
        "deer": 1367.010986675,
        "dog": 1057.534570164642,
        "frog": 1396.578067805483,
        "horse": 1231.8273629125613,
        "ship": 803.2864848144009,
        "truck": 1079.4067693866316
    },
    "fid": 721.567593613075,
    "wasserstein_distance": null,
    "g_loss": null,
    "g_cost": null,
    "d_loss_real": null,
    "d_loss_fake": null
}