{
    "epoch": 68,
    "avg_current_window": 777.3101335385637,
    "avg_prior_window": 797.7786687151076,
    "inception_score_mean": 1.9597328465166473,
    "inception_score_std": 0.12368088718832294,
    "fid_per_class": {
        "airplane": 902.0446005963022,
        "automobile": 1069.2769587133598,
        "bird": 1198.4179137343092,
        "cat": 1019.7844905428489,
        "deer": 1279.287200957614,
        "dog": 1047.686547716985,
        "frog": 1368.0878088591064,
        "horse": 1191.7772315214804,
        "ship": 725.99274160491,
        "truck": 1036.5717383008991
    },
    "fid": 677.2283916437029,
    "wasserstein_distance": null,
    "g_loss": null,
    "g_cost": null,
    "d_loss_real": null,
    "d_loss_fake": null
}