{
    "epoch": 128,
    "avg_current_window": 708.7557582728624,
    "avg_prior_window": 717.5926666104654,
    "inception_score_mean": 2.107349863372929,
    "inception_score_std": 0.17604308827093473,
    "fid_per_class": {
        "airplane": 866.9205711233329,
        "automobile": 1132.4432173678142,
        "bird": 1210.0799701726896,
        "cat": 971.2837484667468,
        "deer": 1234.3817732760824,
        "dog": 926.4366203760057,
        "frog": 1352.084708458545,
        "horse": 1130.6921909464186,
        "ship": 754.4403252701508,
        "truck": 948.588163718274
    },
    "fid": 632.2065228625477,
    "wasserstein_distance": null,
    "g_loss": null,
    "g_cost": null,
    "d_loss_real": null,
    "d_loss_fake": null
}