{
    "epoch": 159,
    "avg_current_window": 692.7646444378743,
    "avg_prior_window": 699.569852016056,
    "inception_score_mean": 2.138297401611637,
    "inception_score_std": 0.1800484544442143,
    "fid_per_class": {
        "airplane": 859.7836877515149,
        "automobile": 1114.6632269126603,
        "bird": 1118.3996809558296,
        "cat": 950.00084217323,
        "deer": 1265.162208444389,
        "dog": 964.185022507531,
        "frog": 1330.040842320615,
        "horse": 1107.173419986221,
        "ship": 743.2526163250725,
        "truck": 907.0043945279909
    },
    "fid": 619.6206704003498,
    "wasserstein_distance": null,
    "g_loss": null,
    "g_cost": null,
    "d_loss_real": null,
    "d_loss_fake": null
}