{
    "epoch": 30,
    "avg_current_window": 895.9615652753471,
    "avg_prior_window": 964.8045085440266,
    "inception_score_mean": 1.9709053499559215,
    "inception_score_std": 0.1689935489340697,
    "fid_per_class": {
        "airplane": 960.4067221566779,
        "automobile": 1140.3621649904014,
        "bird": 1252.1933823477327,
        "cat": 978.3163723088164,
        "deer": 1360.936430661011,
        "dog": 954.1478252149103,
        "frog": 1380.9482036340605,
        "horse": 1212.4217641371142,
        "ship": 735.7526838463023,
        "truck": 1051.756532576756
    },
    "fid": 700.7517149274468,
    "wasserstein_distance": null,
    "g_loss": null,
    "g_cost": null,
    "d_loss_real": null,
    "d_loss_fake": null
}