{
    "epoch": 102,
    "avg_current_window": 729.1678537725751,
    "avg_prior_window": 740.7339168936893,
    "inception_score_mean": 2.1465884716189847,
    "inception_score_std": 0.17662224167361817,
    "fid_per_class": {
        "airplane": 886.0713928942276,
        "automobile": 1056.0375019202463,
        "bird": 1136.7034537220275,
        "cat": 888.4860816681396,
        "deer": 1163.7147039256708,
        "dog": 911.9179135403134,
        "frog": 1254.0680022551007,
        "horse": 974.6069421228781,
        "ship": 776.992841886946,
        "truck": 1012.8468693780177
    },
    "fid": 582.1793270506173,
    "wasserstein_distance": null,
    "g_loss": null,
    "g_cost": null,
    "d_loss_real": null,
    "d_loss_fake": null
}