{
    "epoch": 155,
    "avg_current_window": 1038.86949432223,
    "avg_prior_window": 1050.8220355721553,
    "inception_score_mean": 1.8592534219533956,
    "inception_score_std": 0.1264702971812044,
    "fid_per_class": {
        "airplane": 1069.1727855110971,
        "automobile": 1154.2606388520135,
        "bird": 1264.5544226719485,
        "cat": 1072.2942062588259,
        "deer": 1406.1684420272725,
        "dog": 1077.285852777719,
        "frog": 1504.971948808491,
        "horse": 1335.7808419040048,
        "ship": 898.523248650173,
        "truck": 1042.271385252468
    },
    "fid": 815.1343523865604,
    "wasserstein_distance": null,
    "g_loss": null,
    "g_cost": null,
    "d_loss_real": null,
    "d_loss_fake": null
}