{
    "epoch": 172,
    "avg_current_window": 1017.784497982423,
    "avg_prior_window": 1027.9079031201006,
    "inception_score_mean": 1.8460811814871547,
    "inception_score_std": 0.15207085711345464,
    "fid_per_class": {
        "airplane": 968.1638252869933,
        "automobile": 1153.273214288747,
        "bird": 1225.8251356996964,
        "cat": 1006.0458470685027,
        "deer": 1391.7500115356274,
        "dog": 1050.6547217701934,
        "frog": 1446.8198964249614,
        "horse": 1292.7648538103124,
        "ship": 970.6440296146146,
        "truck": 1039.8643255532725
    },
    "fid": 787.7058221652405,
    "wasserstein_distance": null,
    "g_loss": null,
    "g_cost": null,
    "d_loss_real": null,
    "d_loss_fake": null
}