{
    "epoch": 143,
    "avg_current_window": 1054.9391090061513,
    "avg_prior_window": 1068.9000030812795,
    "inception_score_mean": 1.825459319791293,
    "inception_score_std": 0.16991491795428967,
    "fid_per_class": {
        "airplane": 1075.9450787966762,
        "automobile": 1177.8397448662117,
        "bird": 1273.4387218967847,
        "cat": 1067.5041150524837,
        "deer": 1369.403393368247,
        "dog": 1112.1284608626938,
        "frog": 1341.2305626911857,
        "horse": 1278.9689098758752,
        "ship": 932.6805442982331,
        "truck": 1153.381591061496
    },
    "fid": 806.7203285795977,
    "wasserstein_distance": null,
    "g_loss": null,
    "g_cost": null,
    "d_loss_real": null,
    "d_loss_fake": null
}