{
    "epoch": 101,
    "avg_current_window": 1145.0725427365942,
    "avg_prior_window": 1168.4287824955404,
    "inception_score_mean": 1.793880109811056,
    "inception_score_std": 0.13153735440260364,
    "fid_per_class": {
        "airplane": 1131.704409294748,
        "automobile": 1176.8090299874016,
        "bird": 1327.4725451185768,
        "cat": 995.6211693736404,
        "deer": 1456.4486542376305,
        "dog": 1074.492457829618,
        "frog": 1488.6657209806833,
        "horse": 1351.5891408416858,
        "ship": 986.1471288773091,
        "truck": 1194.6357510119165
    },
    "fid": 864.465513363314,
    "wasserstein_distance": null,
    "g_loss": null,
    "g_cost": null,
    "d_loss_real": null,
    "d_loss_fake": null
}