{
    "epoch": 192,
    "avg_current_window": 995.025051851893,
    "avg_prior_window": 1004.7864268906993,
    "inception_score_mean": 1.8405952526296105,
    "inception_score_std": 0.13182195979170455,
    "fid_per_class": {
        "airplane": 1067.3223199775216,
        "automobile": 1142.3716567782512,
        "bird": 1189.0047524415368,
        "cat": 1010.2696735739254,
        "deer": 1445.1311143820947,
        "dog": 1137.617167702265,
        "frog": 1385.4855771092268,
        "horse": 1326.601851858985,
        "ship": 969.3976868025936,
        "truck": 1090.7076628172545
    },
    "fid": 809.6208987128231,
    "wasserstein_distance": null,
    "g_loss": null,
    "g_cost": null,
    "d_loss_real": null,
    "d_loss_fake": null
}