{
    "epoch": 70,
    "avg_current_window": 1257.0966217487403,
    "avg_prior_window": 1297.6976796136269,
    "inception_score_mean": 1.6933653849980352,
    "inception_score_std": 0.15439945870358268,
    "fid_per_class": {
        "airplane": 1139.0109415181944,
        "automobile": 1301.905289694716,
        "bird": 1370.5838378448184,
        "cat": 1059.792061328148,
        "deer": 1483.9759416651873,
        "dog": 1146.3810608800327,
        "frog": 1606.7504603485079,
        "horse": 1350.9166366754928,
        "ship": 1004.7502679848714,
        "truck": 1179.0206942494547
    },
    "fid": 927.8545570857882,
    "wasserstein_distance": null,
    "g_loss": null,
    "g_cost": null,
    "d_loss_real": null,
    "d_loss_fake": null
}