{
    "epoch": 185,
    "avg_current_window": 1002.5074355017347,
    "avg_prior_window": 1012.8116475958358,
    "inception_score_mean": 1.8946113471234256,
    "inception_score_std": 0.1732822097845089,
    "fid_per_class": {
        "airplane": 1026.8183149858412,
        "automobile": 1212.6397949035859,
        "bird": 1230.725061213323,
        "cat": 992.9344326389539,
        "deer": 1439.8855128865744,
        "dog": 1116.8947136128772,
        "frog": 1412.7498582018227,
        "horse": 1311.6291901933291,
        "ship": 935.1007623057878,
        "truck": 1128.6668070170308
    },
    "fid": 806.0874066712591,
    "wasserstein_distance": null,
    "g_loss": null,
    "g_cost": null,
    "d_loss_real": null,
    "d_loss_fake": null
}