{
    "epoch": 193,
    "avg_current_window": 994.0644085713798,
    "avg_prior_window": 1003.6926301996865,
    "inception_score_mean": 1.8102842107575678,
    "inception_score_std": 0.10816911436663607,
    "fid_per_class": {
        "airplane": 1034.7400155414819,
        "automobile": 1085.9527277119794,
        "bird": 1308.6043156747846,
        "cat": 1005.9003431662725,
        "deer": 1529.1339669291708,
        "dog": 1065.0748166733888,
        "frog": 1538.6792787519475,
        "horse": 1358.4744195258181,
        "ship": 914.856258751916,
        "truck": 1073.0031272528927
    },
    "fid": 818.6563717430402,
    "wasserstein_distance": null,
    "g_loss": null,
    "g_cost": null,
    "d_loss_real": null,
    "d_loss_fake": null
}