{
    "epoch": 115,
    "avg_current_window": 1109.7718461031357,
    "avg_prior_window": 1130.3810285067261,
    "inception_score_mean": 1.794702857055497,
    "inception_score_std": 0.16808079493268968,
    "fid_per_class": {
        "airplane": 1153.57008842714,
        "automobile": 1280.4554644370592,
        "bird": 1319.0823721202823,
        "cat": 1007.100941470142,
        "deer": 1435.8537435338462,
        "dog": 1113.6035175204452,
        "frog": 1382.0204349976652,
        "horse": 1259.9665539397329,
        "ship": 940.1127628970914,
        "truck": 1142.4229203300938
    },
    "fid": 833.1403055210734,
    "wasserstein_distance": null,
    "g_loss": null,
    "g_cost": null,
    "d_loss_real": null,
    "d_loss_fake": null
}