{
    "epoch": 141,
    "avg_current_window": 1057.5863882444842,
    "avg_prior_window": 1071.8080351057088,
    "inception_score_mean": 1.786404289377458,
    "inception_score_std": 0.1615751820174207,
    "fid_per_class": {
        "airplane": 1134.2658620309937,
        "automobile": 1238.3532397921615,
        "bird": 1401.5474856891442,
        "cat": 1146.7347600125822,
        "deer": 1499.0055139880828,
        "dog": 1217.0631101984554,
        "frog": 1567.3383071037902,
        "horse": 1359.353469951474,
        "ship": 975.7366715231401,
        "truck": 1196.484024704799
    },
    "fid": 918.5737514213099,
    "wasserstein_distance": null,
    "g_loss": null,
    "g_cost": null,
    "d_loss_real": null,
    "d_loss_fake": null
}