{
    "epoch": 107,
    "avg_current_window": 1128.5258974058195,
    "avg_prior_window": 1151.007877199744,
    "inception_score_mean": 1.7991918378987868,
    "inception_score_std": 0.1481225270762764,
    "fid_per_class": {
        "airplane": 1136.1635564950757,
        "automobile": 1284.4411230170663,
        "bird": 1411.3046429703993,
        "cat": 1145.9690255453763,
        "deer": 1581.5638600330237,
        "dog": 1262.2526830478337,
        "frog": 1635.5817043109753,
        "horse": 1343.2024958118627,
        "ship": 984.538461824145,
        "truck": 1183.0873102718294
    },
    "fid": 946.9390340735629,
    "wasserstein_distance": null,
    "g_loss": null,
    "g_cost": null,
    "d_loss_real": null,
    "d_loss_fake": null
}