{
    "epoch": 102,
    "avg_current_window": 1142.3214934290131,
    "avg_prior_window": 1165.3925941826546,
    "inception_score_mean": 1.7456709767801661,
    "inception_score_std": 0.12712638277855606,
    "fid_per_class": {
        "airplane": 1105.9062322074585,
        "automobile": 1258.2091255422852,
        "bird": 1382.234918586104,
        "cat": 1078.028170156937,
        "deer": 1464.2353872326137,
        "dog": 1166.3032448917506,
        "frog": 1503.8779524081926,
        "horse": 1309.0568340273142,
        "ship": 1030.0841327670098,
        "truck": 1161.6718926713868
    },
    "fid": 886.0111446145324,
    "wasserstein_distance": null,
    "g_loss": null,
    "g_cost": null,
    "d_loss_real": null,
    "d_loss_fake": null
}