{
    "epoch": 186,
    "avg_current_window": 1001.4514138413557,
    "avg_prior_window": 1011.313429866338,
    "inception_score_mean": 1.8275976515692425,
    "inception_score_std": 0.12198761043043835,
    "fid_per_class": {
        "airplane": 996.9705524350995,
        "automobile": 1117.829679018931,
        "bird": 1252.518839089667,
        "cat": 1025.273035088991,
        "deer": 1462.4903346902609,
        "dog": 1143.6975008812542,
        "frog": 1468.653674878007,
        "horse": 1338.2013033781468,
        "ship": 842.8457325557766,
        "truck": 1021.5707359900625
    },
    "fid": 798.3581257728689,
    "wasserstein_distance": null,
    "g_loss": null,
    "g_cost": null,
    "d_loss_real": null,
    "d_loss_fake": null
}