{
    "epoch": 196,
    "avg_current_window": 991.5447416094651,
    "avg_prior_window": 1000.2346070971909,
    "inception_score_mean": 1.8871288969993203,
    "inception_score_std": 0.1777931052970293,
    "fid_per_class": {
        "airplane": 1069.0038636432885,
        "automobile": 1109.7482186273205,
        "bird": 1183.763497490803,
        "cat": 1010.1195733201176,
        "deer": 1418.8383203660103,
        "dog": 1071.9108823891404,
        "frog": 1371.5049003424497,
        "horse": 1282.6466200051314,
        "ship": 920.6331324118086,
        "truck": 1066.8726152816198
    },
    "fid": 776.6993576537853,
    "wasserstein_distance": null,
    "g_loss": null,
    "g_cost": null,
    "d_loss_real": null,
    "d_loss_fake": null
}