{
    "epoch": 136,
    "avg_current_window": 1065.426856295273,
    "avg_prior_window": 1081.7997050707513,
    "inception_score_mean": 1.8248396713631476,
    "inception_score_std": 0.19528195051620567,
    "fid_per_class": {
        "airplane": 1078.9693811635443,
        "automobile": 1216.4878589288994,
        "bird": 1361.7152139059872,
        "cat": 1032.8489582154357,
        "deer": 1481.2926312553045,
        "dog": 1103.0250757274116,
        "frog": 1616.285465298851,
        "horse": 1313.7734256072808,
        "ship": 956.2313644437445,
        "truck": 1159.3319184615907
    },
    "fid": 867.8403182192721,
    "wasserstein_distance": null,
    "g_loss": null,
    "g_cost": null,
    "d_loss_real": null,
    "d_loss_fake": null
}