{
    "epoch": 58,
    "avg_current_window": 1327.9123069476116,
    "avg_prior_window": 1382.2668401152243,
    "inception_score_mean": 1.687436432575483,
    "inception_score_std": 0.11853140318874092,
    "fid_per_class": {
        "airplane": 1182.2795716230648,
        "automobile": 1319.254537799197,
        "bird": 1393.8704095496041,
        "cat": 1149.0949597019285,
        "deer": 1567.260015979097,
        "dog": 1211.8866395149148,
        "frog": 1794.1726067771644,
        "horse": 1350.657511879479,
        "ship": 1028.5812125562393,
        "truck": 1203.187072692786
    },
    "fid": 967.3198910057951,
    "wasserstein_distance": null,
    "g_loss": null,
    "g_cost": null,
    "d_loss_real": null,
    "d_loss_fake": null
}