{
    "epoch": 125,
    "avg_current_window": 1087.485136460828,
    "avg_prior_window": 1104.1574135873027,
    "inception_score_mean": 1.790986361715106,
    "inception_score_std": 0.12988697159171791,
    "fid_per_class": {
        "airplane": 1092.7574205418086,
        "automobile": 1169.4973074870172,
        "bird": 1376.052215831698,
        "cat": 1042.001853964565,
        "deer": 1479.456540842051,
        "dog": 1122.2282134918219,
        "frog": 1441.3307608575517,
        "horse": 1288.593699478996,
        "ship": 989.3899360617451,
        "truck": 1133.9425890285574
    },
    "fid": 842.7486658911002,
    "wasserstein_distance": null,
    "g_loss": null,
    "g_cost": null,
    "d_loss_real": null,
    "d_loss_fake": null
}