{
    "epoch": 46,
    "avg_current_window": 1417.111448515922,
    "avg_prior_window": 1479.1270177006804,
    "inception_score_mean": 1.7158404028259504,
    "inception_score_std": 0.12339756681186753,
    "fid_per_class": {
        "airplane": 1224.8025471517583,
        "automobile": 1294.7055636526115,
        "bird": 1383.0876444193973,
        "cat": 1137.1256324068136,
        "deer": 1652.638731919742,
        "dog": 1288.8924981921668,
        "frog": 1757.6190032848401,
        "horse": 1473.0296640279585,
        "ship": 1058.3972444577228,
        "truck": 1173.3723388409817
    },
    "fid": 990.100928564613,
    "wasserstein_distance": null,
    "g_loss": null,
    "g_cost": null,
    "d_loss_real": null,
    "d_loss_fake": null
}