{
    "epoch": 130,
    "avg_current_window": 1077.8829046520898,
    "avg_prior_window": 1094.2271257879568,
    "inception_score_mean": 1.8912782223678917,
    "inception_score_std": 0.20454836195331735,
    "fid_per_class": {
        "airplane": 1034.5325174735494,
        "automobile": 1145.3585875954036,
        "bird": 1266.3210581780208,
        "cat": 973.6308899287937,
        "deer": 1392.4638754330203,
        "dog": 1059.713834716537,
        "frog": 1375.4836350094872,
        "horse": 1269.8004219662903,
        "ship": 953.3419415668002,
        "truck": 1101.1534582454701
    },
    "fid": 785.1892171350736,
    "wasserstein_distance": null,
    "g_loss": null,
    "g_cost": null,
    "d_loss_real": null,
    "d_loss_fake": null
}