{
    "epoch": 41,
    "avg_current_window": 1452.0496489251375,
    "avg_prior_window": 1528.7344722211133,
    "inception_score_mean": 1.6755203039905768,
    "inception_score_std": 0.10341115994815422,
    "fid_per_class": {
        "airplane": 1294.2273794457628,
        "automobile": 1369.8789954273025,
        "bird": 1504.4479189670087,
        "cat": 1233.6892000021724,
        "deer": 1723.8947784416478,
        "dog": 1419.710103964007,
        "frog": 1993.8296761887786,
        "horse": 1478.9671985584785,
        "ship": 1128.3116047441558,
        "truck": 1246.3976265814852
    },
    "fid": 1110.1721197972552,
    "wasserstein_distance": null,
    "g_loss": null,
    "g_cost": null,
    "d_loss_real": null,
    "d_loss_fake": null
}