{
    "epoch": 194,
    "avg_current_window": 993.1602434330894,
    "avg_prior_window": 1002.5842746167218,
    "inception_score_mean": 1.90144453402424,
    "inception_score_std": 0.10413865176810733,
    "fid_per_class": {
        "airplane": 1051.271369840248,
        "automobile": 1120.9262578524354,
        "bird": 1260.0656448067916,
        "cat": 1033.0514985825307,
        "deer": 1640.7974629082769,
        "dog": 1061.3913840408534,
        "frog": 1478.072762333345,
        "horse": 1308.0705494859753,
        "ship": 961.308471695938,
        "truck": 1059.492477209604
    },
    "fid": 812.4706974163028,
    "wasserstein_distance": null,
    "g_loss": null,
    "g_cost": null,
    "d_loss_real": null,
    "d_loss_fake": null
}