{
    "epoch": 197,
    "avg_current_window": 990.4541559041063,
    "avg_prior_window": 999.2418273660223,
    "inception_score_mean": 1.8799763916849472,
    "inception_score_std": 0.14388800201784316,
    "fid_per_class": {
        "airplane": 986.552681239874,
        "automobile": 1123.57651216141,
        "bird": 1181.3846517215197,
        "cat": 1026.7519204068738,
        "deer": 1444.4211467693674,
        "dog": 1095.4878406886924,
        "frog": 1399.0544332678614,
        "horse": 1251.4978928593493,
        "ship": 900.4293002238128,
        "truck": 1084.2192461856775
    },
    "fid": 777.1772619487654,
    "wasserstein_distance": null,
    "g_loss": null,
    "g_cost": null,
    "d_loss_real": null,
    "d_loss_fake": null
}