{
    "epoch": 118,
    "avg_current_window": 1102.6028558806752,
    "avg_prior_window": 1122.2722779930805,
    "inception_score_mean": 1.8690264620458676,
    "inception_score_std": 0.22389653776912966,
    "fid_per_class": {
        "airplane": 1080.2820110410767,
        "automobile": 1172.1726088483558,
        "bird": 1293.4460694860318,
        "cat": 954.6402195688959,
        "deer": 1437.372885621482,
        "dog": 1047.5596828557152,
        "frog": 1299.2516536972564,
        "horse": 1202.3056605622633,
        "ship": 928.2718953597168,
        "truck": 1123.3575069594178
    },
    "fid": 777.8218360346505,
    "wasserstein_distance": null,
    "g_loss": null,
    "g_cost": null,
    "d_loss_real": null,
    "d_loss_fake": null
}