{
    "epoch": 152,
    "avg_current_window": 1043.2107773829628,
    "avg_prior_window": 1055.6793339384317,
    "inception_score_mean": 1.9681213507679427,
    "inception_score_std": 0.1992026632870492,
    "fid_per_class": {
        "airplane": 980.9040071308794,
        "automobile": 1167.0471622060559,
        "bird": 1156.7054431197682,
        "cat": 954.2618749508488,
        "deer": 1307.2407882674981,
        "dog": 1022.1160502284682,
        "frog": 1352.8501764285368,
        "horse": 1154.6351333170178,
        "ship": 918.4342983069216,
        "truck": 1054.3225783061307
    },
    "fid": 722.8907911218713,
    "wasserstein_distance": null,
    "g_loss": null,
    "g_cost": null,
    "d_loss_real": null,
    "d_loss_fake": null
}