{
    "epoch": 23,
    "avg_current_window": 1633.065088708783,
    "avg_prior_window": 1773.782176859796,
    "inception_score_mean": 1.265744565317442,
    "inception_score_std": 0.05462802115235627,
    "fid_per_class": {
        "airplane": 1422.179676434358,
        "automobile": 1502.4687788419571,
        "bird": 1561.1060157727225,
        "cat": 1385.2665492475862,
        "deer": 1628.9769797745207,
        "dog": 1552.0834837742464,
        "frog": 1914.0330365885113,
        "horse": 1473.7137258770376,
        "ship": 1318.8020207387897,
        "truck": 1417.062825087306
    },
    "fid": 1236.196074714654,
    "wasserstein_distance": null,
    "g_loss": null,
    "g_cost": null,
    "d_loss_real": null,
    "d_loss_fake": null
}