{
    "epoch": 51,
    "avg_current_window": 1376.9841056719663,
    "avg_prior_window": 1438.6353817455874,
    "inception_score_mean": 1.7860956544131643,
    "inception_score_std": 0.16921910452513186,
    "fid_per_class": {
        "airplane": 1209.5945912310772,
        "automobile": 1305.091184990281,
        "bird": 1486.3055101945963,
        "cat": 1109.2378337819027,
        "deer": 1668.4865689229505,
        "dog": 1222.5837031257445,
        "frog": 1883.5338007067155,
        "horse": 1386.0296594255674,
        "ship": 1086.1964410844814,
        "truck": 1255.5144279518656
    },
    "fid": 1015.6608396753097,
    "wasserstein_distance": null,
    "g_loss": null,
    "g_cost": null,
    "d_loss_real": null,
    "d_loss_fake": null
}