{
    "epoch": 96,
    "avg_current_window": 1159.0569836382222,
    "avg_prior_window": 1183.6043679018596,
    "inception_score_mean": 1.7599008654242982,
    "inception_score_std": 0.14858568099683692,
    "fid_per_class": {
        "airplane": 1092.1664838437432,
        "automobile": 1261.5191057929756,
        "bird": 1403.9476802893962,
        "cat": 1075.3053422908788,
        "deer": 1503.077705875362,
        "dog": 1057.3700234503399,
        "frog": 1572.0008991631053,
        "horse": 1330.6810255956336,
        "ship": 978.0874208952102,
        "truck": 1174.55041214101
    },
    "fid": 899.6926903025424,
    "wasserstein_distance": null,
    "g_loss": null,
    "g_cost": null,
    "d_loss_real": null,
    "d_loss_fake": null
}