{
    "epoch": 190,
    "avg_current_window": 997.3075152766338,
    "avg_prior_window": 1006.8646647269848,
    "inception_score_mean": 1.8484715125814322,
    "inception_score_std": 0.15219153424739768,
    "fid_per_class": {
        "airplane": 1009.0452471314666,
        "automobile": 1051.816268807473,
        "bird": 1214.4999823785438,
        "cat": 978.7625128187112,
        "deer": 1408.1646453243113,
        "dog": 1021.8685535203557,
        "frog": 1366.7090936698996,
        "horse": 1272.6519277971602,
        "ship": 921.3274973821024,
        "truck": 1036.8943897492138
    },
    "fid": 755.5791624554593,
    "wasserstein_distance": null,
    "g_loss": null,
    "g_cost": null,
    "d_loss_real": null,
    "d_loss_fake": null
}