{
    "epoch": 6,
    "avg_current_window": 1513.801193850576,
    "avg_prior_window": 3.0,
    "inception_score_mean": 1.2862457407692616,
    "inception_score_std": 0.03927158080210747,
    "fid_per_class": {
        "airplane": 1500.0003580489079,
        "automobile": 1602.3696569223803,
        "bird": 1970.039319000868,
        "cat": 1817.6789755827622,
        "deer": 2332.3816914796917,
        "dog": 1957.9853369797074,
        "frog": 2154.609659994537,
        "horse": 1943.1186971245402,
        "ship": 1651.0140068578778,
        "truck": 1535.2557006469478
    },
    "fid": 1567.2025753191951,
    "wasserstein_distance": null,
    "g_loss": null,
    "g_cost": null,
    "d_loss_real": null,
    "d_loss_fake": null
}