{
    "epoch": 161,
    "avg_current_window": 1030.4887630151136,
    "avg_prior_window": 1042.3972211869348,
    "inception_score_mean": 1.732389743545785,
    "inception_score_std": 0.1385730331476072,
    "fid_per_class": {
        "airplane": 1117.603932752555,
        "automobile": 1214.795373337272,
        "bird": 1286.519127024099,
        "cat": 1062.1087685881744,
        "deer": 1514.7831417701452,
        "dog": 1158.1099224044083,
        "frog": 1532.0516834261134,
        "horse": 1367.9360886235252,
        "ship": 911.5931993627534,
        "truck": 1124.599980287202
    },
    "fid": 881.6510660961151,
    "wasserstein_distance": null,
    "g_loss": null,
    "g_cost": null,
    "d_loss_real": null,
    "d_loss_fake": null
}