{
    "epoch": 149,
    "avg_current_window": 1046.7115715295472,
    "avg_prior_window": 1059.2345769869612,
    "inception_score_mean": 1.892139723731764,
    "inception_score_std": 0.16644920480056644,
    "fid_per_class": {
        "airplane": 1053.9844777820613,
        "automobile": 1117.352390468128,
        "bird": 1254.410137267404,
        "cat": 1006.8803936858901,
        "deer": 1379.7654580138644,
        "dog": 1085.4031259263775,
        "frog": 1375.3122257057582,
        "horse": 1189.7683924497273,
        "ship": 962.921792770293,
        "truck": 1099.4549536350694
    },
    "fid": 772.2871049771611,
    "wasserstein_distance": null,
    "g_loss": null,
    "g_cost": null,
    "d_loss_real": null,
    "d_loss_fake": null
}