{
    "epoch": 63,
    "avg_current_window": 1296.5255421475895,
    "avg_prior_window": 1344.5902361028839,
    "inception_score_mean": 1.6554152973463796,
    "inception_score_std": 0.11087712777755139,
    "fid_per_class": {
        "airplane": 1179.9279492670473,
        "automobile": 1341.328665012693,
        "bird": 1301.5164353902971,
        "cat": 1099.0119862606232,
        "deer": 1387.9828088465197,
        "dog": 1186.257797891701,
        "frog": 1603.3116377927865,
        "horse": 1363.659236195579,
        "ship": 1009.0258491058723,
        "truck": 1249.3112116069776
    },
    "fid": 940.7097382353439,
    "wasserstein_distance": null,
    "g_loss": null,
    "g_cost": null,
    "d_loss_real": null,
    "d_loss_fake": null
}