{
    "epoch": 106,
    "avg_current_window": 1131.4961421840903,
    "avg_prior_window": 1153.63160722534,
    "inception_score_mean": 1.8061984264318796,
    "inception_score_std": 0.17561552613980427,
    "fid_per_class": {
        "airplane": 1153.2922719392548,
        "automobile": 1173.5230939398448,
        "bird": 1321.485107364512,
        "cat": 979.4777277273886,
        "deer": 1350.4501791158968,
        "dog": 1008.7927080896227,
        "frog": 1437.6250449998424,
        "horse": 1227.5005383952266,
        "ship": 978.3329318427434,
        "truck": 1158.7671644183458
    },
    "fid": 813.6799509091011,
    "wasserstein_distance": null,
    "g_loss": null,
    "g_cost": null,
    "d_loss_real": null,
    "d_loss_fake": null
}