{
    "epoch": 30,
    "avg_current_window": 1550.7081800748797,
    "avg_prior_window": 1664.758272403047,
    "inception_score_mean": 1.382365728322468,
    "inception_score_std": 0.07670186929277599,
    "fid_per_class": {
        "airplane": 1359.7177745956433,
        "automobile": 1439.661689521848,
        "bird": 1663.9628274599888,
        "cat": 1519.1298526730468,
        "deer": 1827.587757135969,
        "dog": 1703.4145622089204,
        "frog": 2083.8961369467474,
        "horse": 1699.0951009317635,
        "ship": 1183.354420255348,
        "truck": 1254.113703455916
    },
    "fid": 1314.5381306940048,
    "wasserstein_distance": null,
    "g_loss": null,
    "g_cost": null,
    "d_loss_real": null,
    "d_loss_fake": null
}