{
    "epoch": 59,
    "avg_current_window": 1321.800571084191,
    "avg_prior_window": 1373.5777363743694,
    "inception_score_mean": 1.718254452938463,
    "inception_score_std": 0.14022636076960412,
    "fid_per_class": {
        "airplane": 1097.2559590790656,
        "automobile": 1259.3646492556165,
        "bird": 1268.8850468508144,
        "cat": 1026.1437001208824,
        "deer": 1428.8179394522504,
        "dog": 1095.5747400967512,
        "frog": 1537.3448599407666,
        "horse": 1298.7070515333953,
        "ship": 958.2862664066214,
        "truck": 1175.952235652253
    },
    "fid": 862.2162409076204,
    "wasserstein_distance": null,
    "g_loss": null,
    "g_cost": null,
    "d_loss_real": null,
    "d_loss_fake": null
}