{
    "epoch": 49,
    "avg_current_window": 1390.4848547423358,
    "avg_prior_window": 1457.2776818824902,
    "inception_score_mean": 1.790673078116765,
    "inception_score_std": 0.15543178616585426,
    "fid_per_class": {
        "airplane": 1206.3072075504163,
        "automobile": 1242.169352429435,
        "bird": 1440.8950140730622,
        "cat": 1152.3398440243445,
        "deer": 1709.4182129153928,
        "dog": 1244.9644462224874,
        "frog": 1840.757346714423,
        "horse": 1392.6439423463053,
        "ship": 1026.867459561234,
        "truck": 1177.0711031850763
    },
    "fid": 980.1071648802526,
    "wasserstein_distance": null,
    "g_loss": null,
    "g_cost": null,
    "d_loss_real": null,
    "d_loss_fake": null
}