{
    "epoch": 67,
    "avg_current_window": 1272.6502277285288,
    "avg_prior_window": 1317.4372444402925,
    "inception_score_mean": 1.8120202362220148,
    "inception_score_std": 0.10832536271242409,
    "fid_per_class": {
        "airplane": 1142.774113832494,
        "automobile": 1263.9470797277197,
        "bird": 1346.0867715618754,
        "cat": 1081.511819043808,
        "deer": 1553.2495988953144,
        "dog": 1221.6698307461597,
        "frog": 1660.8577425107528,
        "horse": 1376.299625954217,
        "ship": 1000.804524968404,
        "truck": 1215.4640218229638
    },
    "fid": 938.5993000181205,
    "wasserstein_distance": null,
    "g_loss": null,
    "g_cost": null,
    "d_loss_real": null,
    "d_loss_fake": null
}