{
    "epoch": 9,
    "avg_current_window": 1574.6673939232337,
    "avg_prior_window": 1780.1296814393354,
    "inception_score_mean": 1.1633826943049044,
    "inception_score_std": 0.03243165232479251,
    "fid_per_class": {
        "airplane": 2060.171385083102,
        "automobile": 1837.4654858802737,
        "bird": 2253.4955012783257,
        "cat": 2331.9294443754316,
        "deer": 2374.1387861814546,
        "dog": 2485.0136834925297,
        "frog": 3068.678014276389,
        "horse": 2221.9436514104773,
        "ship": 2089.3131282299064,
        "truck": 1659.1979401726692
    },
    "fid": 1997.1575175469352,
    "wasserstein_distance": null,
    "g_loss": null,
    "g_cost": null,
    "d_loss_real": null,
    "d_loss_fake": null
}