{
    "epoch": 86,
    "avg_current_window": 1191.2381930447655,
    "avg_prior_window": 1219.5138594153248,
    "inception_score_mean": 1.7318584845051692,
    "inception_score_std": 0.1071790716638439,
    "fid_per_class": {
        "airplane": 1129.8448670269286,
        "automobile": 1227.0351688382134,
        "bird": 1408.2645715805781,
        "cat": 1105.2067392093259,
        "deer": 1544.0220468630607,
        "dog": 1088.8433113420947,
        "frog": 1736.2484495485594,
        "horse": 1356.261981724801,
        "ship": 996.4227850459612,
        "truck": 1142.0626715517924
    },
    "fid": 935.9417485114303,
    "wasserstein_distance": null,
    "g_loss": null,
    "g_cost": null,
    "d_loss_real": null,
    "d_loss_fake": null
}