{
    "epoch": 175,
    "avg_current_window": 1014.5057556664915,
    "avg_prior_window": 1024.560961693911,
    "inception_score_mean": 1.8614296073646979,
    "inception_score_std": 0.18895771640795,
    "fid_per_class": {
        "airplane": 1056.0322186839917,
        "automobile": 1152.625385978983,
        "bird": 1267.1761639983806,
        "cat": 1041.7395768620736,
        "deer": 1511.6253219077335,
        "dog": 1088.7667584286346,
        "frog": 1541.6960768628333,
        "horse": 1352.5873451816415,
        "ship": 970.7818259563307,
        "truck": 1034.5985337105958
    },
    "fid": 818.0667777967251,
    "wasserstein_distance": null,
    "g_loss": null,
    "g_cost": null,
    "d_loss_real": null,
    "d_loss_fake": null
}