{
    "epoch": 29,
    "avg_current_window": 1563.087067075719,
    "avg_prior_window": 1672.2695490920214,
    "inception_score_mean": 1.4922415508712106,
    "inception_score_std": 0.08606899617532886,
    "fid_per_class": {
        "airplane": 1332.6418339620823,
        "automobile": 1354.8012224671984,
        "bird": 1622.193857755717,
        "cat": 1397.1805597293874,
        "deer": 1797.3103002980179,
        "dog": 1641.9378219372236,
        "frog": 1995.0783411979687,
        "horse": 1583.3854307189986,
        "ship": 1238.6831691998932,
        "truck": 1236.3364432970861
    },
    "fid": 1191.7204570505435,
    "wasserstein_distance": null,
    "g_loss": null,
    "g_cost": null,
    "d_loss_real": null,
    "d_loss_fake": null
}