{
    "epoch": 87,
    "avg_current_window": 1188.3037511535777,
    "avg_prior_window": 1215.0323297093228,
    "inception_score_mean": 1.7557582838946744,
    "inception_score_std": 0.12053085309213363,
    "fid_per_class": {
        "airplane": 1115.124293595003,
        "automobile": 1226.9532967479445,
        "bird": 1322.283685380246,
        "cat": 983.4579251759908,
        "deer": 1443.0714128003124,
        "dog": 1044.708617073367,
        "frog": 1479.4099926992399,
        "horse": 1239.7694286351784,
        "ship": 1016.3040912830896,
        "truck": 1139.7279194380126
    },
    "fid": 842.0047708170157,
    "wasserstein_distance": null,
    "g_loss": null,
    "g_cost": null,
    "d_loss_real": null,
    "d_loss_fake": null
}