{
    "epoch": 62,
    "avg_current_window": 1302.964701222504,
    "avg_prior_window": 1351.2090140870432,
    "inception_score_mean": 1.7421516128356813,
    "inception_score_std": 0.09145026392701927,
    "fid_per_class": {
        "airplane": 1151.1822757440398,
        "automobile": 1279.4494622479822,
        "bird": 1333.31532413811,
        "cat": 1074.1950736015615,
        "deer": 1430.498620169178,
        "dog": 1112.775291683043,
        "frog": 1624.2409906215448,
        "horse": 1323.7454990719123,
        "ship": 934.9914096198411,
        "truck": 1202.6039041956067
    },
    "fid": 897.2976795028922,
    "wasserstein_distance": null,
    "g_loss": null,
    "g_cost": null,
    "d_loss_real": null,
    "d_loss_fake": null
}