{
    "epoch": 105,
    "avg_current_window": 1133.9482006669605,
    "avg_prior_window": 1156.5232681639602,
    "inception_score_mean": 1.7553426023135459,
    "inception_score_std": 0.13239683782738287,
    "fid_per_class": {
        "airplane": 1103.7119868895788,
        "automobile": 1207.8279120944044,
        "bird": 1347.8771475732722,
        "cat": 1015.5326945718793,
        "deer": 1542.3086251324507,
        "dog": 1116.7321685794927,
        "frog": 1585.3457920568312,
        "horse": 1286.0517396049702,
        "ship": 987.8360758634753,
        "truck": 1180.8826099344249
    },
    "fid": 874.0300014827403,
    "wasserstein_distance": null,
    "g_loss": null,
    "g_cost": null,
    "d_loss_real": null,
    "d_loss_fake": null
}