{
    "epoch": 78,
    "avg_current_window": 1219.9482629287968,
    "avg_prior_window": 1255.3091558577157,
    "inception_score_mean": 1.6863312734031441,
    "inception_score_std": 0.11572629531943499,
    "fid_per_class": {
        "airplane": 1100.3527243969424,
        "automobile": 1326.137471682654,
        "bird": 1305.4251296410464,
        "cat": 1040.7768625816157,
        "deer": 1465.5315508728263,
        "dog": 1089.3735700751797,
        "frog": 1637.2859164774018,
        "horse": 1372.4456304765215,
        "ship": 1024.8211939928344,
        "truck": 1182.2149021747975
    },
    "fid": 910.8127785642856,
    "wasserstein_distance": null,
    "g_loss": null,
    "g_cost": null,
    "d_loss_real": null,
    "d_loss_fake": null
}