{
    "epoch": 176,
    "avg_current_window": 1013.3896251104132,
    "avg_prior_window": 1023.7364541109752,
    "inception_score_mean": 1.860882538615196,
    "inception_score_std": 0.1481420981259517,
    "fid_per_class": {
        "airplane": 987.5934465299115,
        "automobile": 1042.013328331228,
        "bird": 1159.2781603895169,
        "cat": 967.2110825462748,
        "deer": 1389.9076584594875,
        "dog": 1068.1621731223192,
        "frog": 1301.4804470530712,
        "horse": 1253.2555228628248,
        "ship": 912.9297444365365,
        "truck": 1013.7819117925926
    },
    "fid": 729.8164784735075,
    "wasserstein_distance": null,
    "g_loss": null,
    "g_cost": null,
    "d_loss_real": null,
    "d_loss_fake": null
}