{
    "epoch": 13,
    "avg_current_window": 1668.4304039942983,
    "avg_prior_window": 1771.5008181636379,
    "inception_score_mean": 1.2547385338270485,
    "inception_score_std": 0.06840499578501563,
    "fid_per_class": {
        "airplane": 1620.6535873129228,
        "automobile": 2172.779277245796,
        "bird": 2052.5573992774025,
        "cat": 1798.1906535045118,
        "deer": 2346.5090780029673,
        "dog": 2102.689523795245,
        "frog": 2388.4103694842215,
        "horse": 2323.9801154839097,
        "ship": 1772.120930306632,
        "truck": 1808.9853266181453
    },
    "fid": 1735.3484140971127,
    "wasserstein_distance": null,
    "g_loss": null,
    "g_cost": null,
    "d_loss_real": null,
    "d_loss_fake": null
}