{
    "epoch": 25,
    "avg_current_window": 1605.3787671283405,
    "avg_prior_window": 1734.8019785936772,
    "inception_score_mean": 1.2873159300570998,
    "inception_score_std": 0.04243147551562039,
    "fid_per_class": {
        "airplane": 1572.4989033199115,
        "automobile": 1619.1879830614323,
        "bird": 1756.1834950069276,
        "cat": 1589.336833530709,
        "deer": 1934.2341344134084,
        "dog": 1841.6558223565278,
        "frog": 2159.296517666862,
        "horse": 1681.1158440850886,
        "ship": 1495.1931003703626,
        "truck": 1449.442619275296
    },
    "fid": 1484.4876318676584,
    "wasserstein_distance": null,
    "g_loss": null,
    "g_cost": null,
    "d_loss_real": null,
    "d_loss_fake": null
}