{
    "epoch": 94,
    "avg_current_window": 1165.3161622528467,
    "avg_prior_window": 1191.042507985668,
    "inception_score_mean": 1.771993047698339,
    "inception_score_std": 0.1766062455396623,
    "fid_per_class": {
        "airplane": 1102.0781443450082,
        "automobile": 1254.406969953242,
        "bird": 1399.4716812151269,
        "cat": 1034.5673142117498,
        "deer": 1551.149164452756,
        "dog": 1141.25513623141,
        "frog": 1520.8771012350808,
        "horse": 1334.844622153659,
        "ship": 1001.997176716917,
        "truck": 1174.8419228436815
    },
    "fid": 900.0676918164911,
    "wasserstein_distance": null,
    "g_loss": null,
    "g_cost": null,
    "d_loss_real": null,
    "d_loss_fake": null
}