{
    "epoch": 95,
    "avg_current_window": 1162.5240730903588,
    "avg_prior_window": 1187.4332189090096,
    "inception_score_mean": 1.8797878028711317,
    "inception_score_std": 0.19116770626357216,
    "fid_per_class": {
        "airplane": 1119.1590242578181,
        "automobile": 1219.6545152261983,
        "bird": 1288.0616652112194,
        "cat": 933.6833895252214,
        "deer": 1398.969055216062,
        "dog": 1058.2191137546697,
        "frog": 1474.4177236629243,
        "horse": 1280.6502980166038,
        "ship": 1054.5349996242696,
        "truck": 1180.0622618814778
    },
    "fid": 829.6834856852475,
    "wasserstein_distance": null,
    "g_loss": null,
    "g_cost": null,
    "d_loss_real": null,
    "d_loss_fake": null
}