{
    "epoch": 112,
    "avg_current_window": 1117.3128433693516,
    "avg_prior_window": 1137.3757949205258,
    "inception_score_mean": 1.8339513023389338,
    "inception_score_std": 0.1807322509390809,
    "fid_per_class": {
        "airplane": 1177.2063836802654,
        "automobile": 1188.8715015014577,
        "bird": 1276.0792668426716,
        "cat": 961.3629933386962,
        "deer": 1412.4710755507751,
        "dog": 992.4413231124281,
        "frog": 1328.663431365198,
        "horse": 1246.83759436342,
        "ship": 1039.1798225859789,
        "truck": 1117.1317526877854
    },
    "fid": 790.3484079662787,
    "wasserstein_distance": null,
    "g_loss": null,
    "g_cost": null,
    "d_loss_real": null,
    "d_loss_fake": null
}