{
    "epoch": 20,
    "avg_current_window": 1664.7926225066585,
    "avg_prior_window": 1823.338892916591,
    "inception_score_mean": 1.1602870984515663,
    "inception_score_std": 0.020526251757594004,
    "fid_per_class": {
        "airplane": 1498.0016649608328,
        "automobile": 1648.3493375278258,
        "bird": 1495.6887441655756,
        "cat": 1539.3279376109322,
        "deer": 1697.87804527453,
        "dog": 1663.1288869626346,
        "frog": 1878.685284702019,
        "horse": 1807.1663245742063,
        "ship": 1414.553835684591,
        "truck": 1436.6446354737568
    },
    "fid": 1400.1871217403723,
    "wasserstein_distance": null,
    "g_loss": null,
    "g_cost": null,
    "d_loss_real": null,
    "d_loss_fake": null
}