{
    "epoch": 122,
    "avg_current_window": 1093.167604718129,
    "avg_prior_window": 1112.0268119138432,
    "inception_score_mean": 1.8463535553719381,
    "inception_score_std": 0.16475496774632892,
    "fid_per_class": {
        "airplane": 1090.3424015816054,
        "automobile": 1207.7199571359579,
        "bird": 1358.629607986024,
        "cat": 1082.4170159605442,
        "deer": 1433.849789466526,
        "dog": 1104.5753545165899,
        "frog": 1429.616605802471,
        "horse": 1408.0671639440393,
        "ship": 987.9499151194336,
        "truck": 1181.2118605376936
    },
    "fid": 867.3787465492277,
    "wasserstein_distance": null,
    "g_loss": null,
    "g_cost": null,
    "d_loss_real": null,
    "d_loss_fake": null
}