{
    "epoch": 131,
    "avg_current_window": 1075.6486016939446,
    "avg_prior_window": 1092.3712862857103,
    "inception_score_mean": 1.788605777509042,
    "inception_score_std": 0.11601086957284526,
    "fid_per_class": {
        "airplane": 1092.4309373060617,
        "automobile": 1183.7711950010919,
        "bird": 1291.6957662764985,
        "cat": 995.4262850892413,
        "deer": 1425.272117672349,
        "dog": 1008.551494308837,
        "frog": 1366.3556948774558,
        "horse": 1300.1313140667473,
        "ship": 908.9885527438673,
        "truck": 1139.9222153374194
    },
    "fid": 805.7945423616986,
    "wasserstein_distance": null,
    "g_loss": null,
    "g_cost": null,
    "d_loss_real": null,
    "d_loss_fake": null
}