{
    "epoch": 17,
    "avg_current_window": 1697.813035525813,
    "avg_prior_window": 1807.4662709938232,
    "inception_score_mean": 1.488142056600519,
    "inception_score_std": 0.17251792672813482,
    "fid_per_class": {
        "airplane": 1523.0957984244742,
        "automobile": 2129.598987645722,
        "bird": 1922.7439111937395,
        "cat": 1829.4766257649649,
        "deer": 2422.9954769199257,
        "dog": 1913.6404977198908,
        "frog": 2129.1157840412216,
        "horse": 2378.382544433701,
        "ship": 1982.355691895968,
        "truck": 1675.0064043622824
    },
    "fid": 1636.2376278677225,
    "wasserstein_distance": null,
    "g_loss": null,
    "g_cost": null,
    "d_loss_real": null,
    "d_loss_fake": null
}