{
    "epoch": 36,
    "avg_current_window": 1497.46806607922,
    "avg_prior_window": 1578.8341000746536,
    "inception_score_mean": 1.6138493680273078,
    "inception_score_std": 0.1022428505536359,
    "fid_per_class": {
        "airplane": 1248.1707666002776,
        "automobile": 1392.2626363595327,
        "bird": 1669.9399018996241,
        "cat": 1232.5408459305381,
        "deer": 1817.429153495511,
        "dog": 1293.2926523443364,
        "frog": 1903.989238985219,
        "horse": 1515.7306704969508,
        "ship": 1094.441595661746,
        "truck": 1250.1243301344318
    },
    "fid": 1125.5906211081553,
    "wasserstein_distance": null,
    "g_loss": null,
    "g_cost": null,
    "d_loss_real": null,
    "d_loss_fake": null
}