{
    "epoch": 124,
    "avg_current_window": 1089.5512083206581,
    "avg_prior_window": 1107.0253830098072,
    "inception_score_mean": 1.8996404402514746,
    "inception_score_std": 0.14215328147657574,
    "fid_per_class": {
        "airplane": 1107.7325685669102,
        "automobile": 1181.2395197667802,
        "bird": 1313.8524862869724,
        "cat": 1005.2627605139377,
        "deer": 1452.9402019997672,
        "dog": 1038.2605476930962,
        "frog": 1400.3012693072037,
        "horse": 1334.963313511655,
        "ship": 979.8087012701602,
        "truck": 1167.0034865622952
    },
    "fid": 831.2922258419057,
    "wasserstein_distance": null,
    "g_loss": null,
    "g_cost": null,
    "d_loss_real": null,
    "d_loss_fake": null
}