{
    "epoch": 32,
    "avg_current_window": 1529.4955344473208,
    "avg_prior_window": 1633.2135061742372,
    "inception_score_mean": 1.472125048407092,
    "inception_score_std": 0.07444405102870391,
    "fid_per_class": {
        "airplane": 1410.9834884478075,
        "automobile": 1363.9515776621759,
        "bird": 1716.6777567985741,
        "cat": 1548.8694847001275,
        "deer": 1875.1852584598794,
        "dog": 1641.916951254289,
        "frog": 2152.3753072839854,
        "horse": 1788.8383975398442,
        "ship": 1207.4956958120383,
        "truck": 1229.160679245293
    },
    "fid": 1320.6596193786672,
    "wasserstein_distance": null,
    "g_loss": null,
    "g_cost": null,
    "d_loss_real": null,
    "d_loss_fake": null
}