{
    "epoch": 93,
    "avg_current_window": 1168.4516373779304,
    "avg_prior_window": 1194.6592941728659,
    "inception_score_mean": 1.7866376222678944,
    "inception_score_std": 0.12135014957982328,
    "fid_per_class": {
        "airplane": 1051.379114702988,
        "automobile": 1270.1718788667754,
        "bird": 1377.7973715545836,
        "cat": 1025.1700960214932,
        "deer": 1366.5167664510434,
        "dog": 1017.1658674433586,
        "frog": 1496.0905466842057,
        "horse": 1404.6902165081026,
        "ship": 945.4629868507474,
        "truck": 1202.8998682833856
    },
    "fid": 873.7169756200605,
    "wasserstein_distance": null,
    "g_loss": null,
    "g_cost": null,
    "d_loss_real": null,
    "d_loss_fake": null
}