{
    "epoch": 5,
    "avg_current_window": 1424.1037451514683,
    "avg_prior_window": 1481.8273472908404,
    "inception_score_mean": 1.1983731093215257,
    "inception_score_std": 0.022402608991999237,
    "fid_per_class": {
        "airplane": 1885.8254918674238,
        "automobile": 1890.2230367094185,
        "bird": 2279.9568247979414,
        "cat": 2190.7554791923294,
        "deer": 2500.6920412728405,
        "dog": 2190.8687352532274,
        "frog": 2696.708994696178,
        "horse": 2206.210486767913,
        "ship": 2049.9390096873094,
        "truck": 1639.505557354245
    },
    "fid": 1962.288437346115,
    "wasserstein_distance": null,
    "g_loss": null,
    "g_cost": null,
    "d_loss_real": null,
    "d_loss_fake": null
}