{
    "epoch": 166,
    "avg_current_window": 1024.7438701820456,
    "avg_prior_window": 1035.9648565933503,
    "inception_score_mean": 1.882357325421036,
    "inception_score_std": 0.13364056452813208,
    "fid_per_class": {
        "airplane": 995.5902741458742,
        "automobile": 1163.4590996376091,
        "bird": 1209.4255687508985,
        "cat": 1011.1154049675473,
        "deer": 1414.5996251361116,
        "dog": 1032.3956600607085,
        "frog": 1382.2053467431617,
        "horse": 1267.7965078532345,
        "ship": 994.3426924360505,
        "truck": 1134.6739532991633
    },
    "fid": 780.4066277519458,
    "wasserstein_distance": null,
    "g_loss": null,
    "g_cost": null,
    "d_loss_real": null,
    "d_loss_fake": null
}