{
    "epoch": 88,
    "avg_current_window": 1184.3685354679349,
    "avg_prior_window": 1212.2865625491227,
    "inception_score_mean": 1.7710010934330023,
    "inception_score_std": 0.1309758175684734,
    "fid_per_class": {
        "airplane": 1082.7177639380532,
        "automobile": 1252.8604328469157,
        "bird": 1341.6509589780787,
        "cat": 1094.9234253752072,
        "deer": 1545.237044453413,
        "dog": 1044.6964551152046,
        "frog": 1586.3621440653396,
        "horse": 1367.2705514856832,
        "ship": 1013.1264483276551,
        "truck": 1158.8617017394095
    },
    "fid": 905.5867660339209,
    "wasserstein_distance": null,
    "g_loss": null,
    "g_cost": null,
    "d_loss_real": null,
    "d_loss_fake": null
}