{
    "epoch": 104,
    "avg_current_window": 1137.4909793585662,
    "avg_prior_window": 1159.1399891040955,
    "inception_score_mean": 1.8305803564759782,
    "inception_score_std": 0.12898103767369076,
    "fid_per_class": {
        "airplane": 1018.3517078434437,
        "automobile": 1176.1689839024184,
        "bird": 1200.6518863762074,
        "cat": 989.9291888596723,
        "deer": 1277.5249518987025,
        "dog": 1101.4834480373434,
        "frog": 1399.1530840676442,
        "horse": 1179.2498534716876,
        "ship": 978.8175312586698,
        "truck": 1113.5819569897144
    },
    "fid": 765.4992167399686,
    "wasserstein_distance": null,
    "g_loss": null,
    "g_cost": null,
    "d_loss_real": null,
    "d_loss_fake": null
}