{
    "epoch": 140,
    "avg_current_window": 1059.33843380952,
    "avg_prior_window": 1073.3189070826452,
    "inception_score_mean": 1.8503370321864552,
    "inception_score_std": 0.1680237800556887,
    "fid_per_class": {
        "airplane": 1053.4781652800016,
        "automobile": 1242.4653668067085,
        "bird": 1267.5326839172467,
        "cat": 1073.512443160467,
        "deer": 1416.0246870596457,
        "dog": 1077.3892812049335,
        "frog": 1390.7336871929679,
        "horse": 1250.7882961967903,
        "ship": 942.2650668907153,
        "truck": 1107.088079486955
    },
    "fid": 812.3000091394698,
    "wasserstein_distance": null,
    "g_loss": null,
    "g_cost": null,
    "d_loss_real": null,
    "d_loss_fake": null
}