{
    "epoch": 135,
    "avg_current_window": 1067.6405107978703,
    "avg_prior_window": 1083.922821706975,
    "inception_score_mean": 1.836731846738251,
    "inception_score_std": 0.1743495380605114,
    "fid_per_class": {
        "airplane": 1053.5466912646878,
        "automobile": 1111.866376819214,
        "bird": 1310.8653852225757,
        "cat": 966.2943071923817,
        "deer": 1379.4149114751135,
        "dog": 1033.7490542536593,
        "frog": 1426.9260830143098,
        "horse": 1201.2461681330087,
        "ship": 928.6263644644293,
        "truck": 1112.039648396637
    },
    "fid": 766.5834984446026,
    "wasserstein_distance": null,
    "g_loss": null,
    "g_cost": null,
    "d_loss_real": null,
    "d_loss_fake": null
}