{
    "epoch": 177,
    "avg_current_window": 1011.7875169373234,
    "avg_prior_window": 1022.3641829950117,
    "inception_score_mean": 1.7911791405214526,
    "inception_score_std": 0.1442264817872658,
    "fid_per_class": {
        "airplane": 1040.1443953229887,
        "automobile": 1219.3634755905705,
        "bird": 1365.0037318916088,
        "cat": 1070.8600444445367,
        "deer": 1466.8337320284345,
        "dog": 1110.130291725059,
        "frog": 1523.1097830630042,
        "horse": 1387.5144191002005,
        "ship": 946.308773128999,
        "truck": 1071.810781866242
    },
    "fid": 853.8161808380835,
    "wasserstein_distance": null,
    "g_loss": null,
    "g_cost": null,
    "d_loss_real": null,
    "d_loss_fake": null
}