{
    "epoch": 8,
    "avg_current_window": 1541.4314694606946,
    "avg_prior_window": 1.0,
    "inception_score_mean": 1.2213131970948283,
    "inception_score_std": 0.03677927242380806,
    "fid_per_class": {
        "airplane": 1603.1122128432633,
        "automobile": 1799.7473243768245,
        "bird": 2260.829299100422,
        "cat": 2104.2418503880363,
        "deer": 2446.4928960092543,
        "dog": 2202.723834343667,
        "frog": 2568.1131871290677,
        "horse": 2187.961402636575,
        "ship": 1883.3767851260948,
        "truck": 1578.6213206620719
    },
    "fid": 1840.5547896235462,
    "wasserstein_distance": null,
    "g_loss": null,
    "g_cost": null,
    "d_loss_real": null,
    "d_loss_fake": null
}