{
    "epoch": 74,
    "avg_current_window": 1099.932944752711,
    "avg_prior_window": 1128.215830498316,
    "inception_score_mean": 2.044807592897671,
    "inception_score_std": 0.10947496415637667,
    "fid_per_class": {
        "airplane": 1070.6666721397187,
        "automobile": 1192.2113959188516,
        "bird": 1250.499369081142,
        "cat": 1086.2810011763906,
        "deer": 1411.6498978788245,
        "dog": 1188.8456968514363,
        "frog": 1623.1532585132998,
        "horse": 1451.9725234044736,
        "ship": 989.9895090662842,
        "truck": 1146.0423319044203
    },
    "fid": 863.4882461113284,
    "wasserstein_distance": null,
    "g_loss": null,
    "g_cost": null,
    "d_loss_real": null,
    "d_loss_fake": null
}