{
    "epoch": 9,
    "avg_current_window": 1566.2665815338157,
    "avg_prior_window": 1924.1552454160055,
    "inception_score_mean": 1.4047170580945436,
    "inception_score_std": 0.15976444330580863,
    "fid_per_class": {
        "airplane": 1448.7257123696822,
        "automobile": 1414.1012324817243,
        "bird": 2136.9564698440545,
        "cat": 1905.8622954303403,
        "deer": 2168.7678191748328,
        "dog": 1798.390937156394,
        "frog": 2459.6775788582872,
        "horse": 1957.3060654312073,
        "ship": 1422.0579228623747,
        "truck": 1344.9787251037599
    },
    "fid": 1519.4526604948746,
    "wasserstein_distance": null,
    "g_loss": null,
    "g_cost": null,
    "d_loss_real": null,
    "d_loss_fake": null
}