{
    "epoch": 146,
    "avg_current_window": 978.718372345483,
    "avg_prior_window": 989.9773270381951,
    "inception_score_mean": 2.0630167270162376,
    "inception_score_std": 0.1868426948046632,
    "fid_per_class": {
        "airplane": 1048.5927352411554,
        "automobile": 1241.1618255214453,
        "bird": 1240.0371175983141,
        "cat": 1109.8952521165158,
        "deer": 1400.6750345676473,
        "dog": 1080.1448098985293,
        "frog": 1632.7909847437083,
        "horse": 1298.192119335616,
        "ship": 966.7206547587696,
        "truck": 1075.6114569001743
    },
    "fid": 797.291046737954,
    "wasserstein_distance": null,
    "g_loss": null,
    "g_cost": null,
    "d_loss_real": null,
    "d_loss_fake": null
}