{
    "epoch": 129,
    "avg_current_window": 998.1012594139175,
    "avg_prior_window": 1011.2039801842136,
    "inception_score_mean": 2.0437797219346874,
    "inception_score_std": 0.11193966644619668,
    "fid_per_class": {
        "airplane": 1020.5731492019767,
        "automobile": 1145.8586241162661,
        "bird": 1300.2252442243139,
        "cat": 1154.0937150539644,
        "deer": 1389.136604501527,
        "dog": 1203.4921009433922,
        "frog": 1730.9114120672834,
        "horse": 1417.749335867268,
        "ship": 1014.6871348254895,
        "truck": 1121.5071719559446
    },
    "fid": 850.645653180543,
    "wasserstein_distance": null,
    "g_loss": null,
    "g_cost": null,
    "d_loss_real": null,
    "d_loss_fake": null
}