{
    "epoch": 27,
    "avg_current_window": 1373.7151565583354,
    "avg_prior_window": 1479.9244697635727,
    "inception_score_mean": 1.7878302429478659,
    "inception_score_std": 0.11217830567031725,
    "fid_per_class": {
        "airplane": 1030.233672315754,
        "automobile": 1258.8701297237735,
        "bird": 1427.004104612383,
        "cat": 1304.1698662459032,
        "deer": 1606.2195758689304,
        "dog": 1278.5828939399403,
        "frog": 2100.8935021864313,
        "horse": 1566.9842023618235,
        "ship": 1031.8329259120667,
        "truck": 1173.299626456509
    },
    "fid": 1023.2429670912862,
    "wasserstein_distance": null,
    "g_loss": null,
    "g_cost": null,
    "d_loss_real": null,
    "d_loss_fake": null
}