{
    "epoch": 186,
    "avg_current_window": 942.8613908815895,
    "avg_prior_window": 951.3664014751041,
    "inception_score_mean": 2.0702035555787237,
    "inception_score_std": 0.1263585780940819,
    "fid_per_class": {
        "airplane": 973.5872203543836,
        "automobile": 1140.460534876766,
        "bird": 1295.494711392951,
        "cat": 1140.2905756284426,
        "deer": 1391.0656969972806,
        "dog": 1113.3228900597815,
        "frog": 1685.9946409133645,
        "horse": 1313.937466135244,
        "ship": 939.406166724166,
        "truck": 1066.575840051474
    },
    "fid": 813.5652329325555,
    "wasserstein_distance": null,
    "g_loss": null,
    "g_cost": null,
    "d_loss_real": null,
    "d_loss_fake": null
}