{
    "epoch": 192,
    "avg_current_window": 938.8907803328451,
    "avg_prior_window": 946.491084020988,
    "inception_score_mean": 2.0079840310138333,
    "inception_score_std": 0.10210558100043027,
    "fid_per_class": {
        "airplane": 986.3002716448208,
        "automobile": 1184.8652056294732,
        "bird": 1306.1980509790574,
        "cat": 1172.5879909411346,
        "deer": 1495.8915715273622,
        "dog": 1164.9306269924427,
        "frog": 1762.6181528725042,
        "horse": 1326.8105998463361,
        "ship": 949.1958645404663,
        "truck": 1119.5780766268933
    },
    "fid": 849.5121467349161,
    "wasserstein_distance": null,
    "g_loss": null,
    "g_cost": null,
    "d_loss_real": null,
    "d_loss_fake": null
}