{
    "epoch": 178,
    "avg_current_window": 949.0659345647031,
    "avg_prior_window": 957.3856794347886,
    "inception_score_mean": 2.076306646715854,
    "inception_score_std": 0.059888610551644364,
    "fid_per_class": {
        "airplane": 947.9187454383724,
        "automobile": 1115.3078170387944,
        "bird": 1273.1654745674591,
        "cat": 1225.3061470665598,
        "deer": 1465.3724989749066,
        "dog": 1148.761447932974,
        "frog": 1694.9969457079837,
        "horse": 1353.324745277664,
        "ship": 1006.4658723736649,
        "truck": 1012.591309680375
    },
    "fid": 818.7383287748733,
    "wasserstein_distance": null,
    "g_loss": null,
    "g_cost": null,
    "d_loss_real": null,
    "d_loss_fake": null
}