{
    "epoch": 158,
    "avg_current_window": 966.0555146254762,
    "avg_prior_window": 976.5642958128581,
    "inception_score_mean": 2.074001714893749,
    "inception_score_std": 0.17796837491393824,
    "fid_per_class": {
        "airplane": 1029.4986921683594,
        "automobile": 1193.6916268683763,
        "bird": 1252.2018755604586,
        "cat": 1067.6175309934476,
        "deer": 1472.0548612865164,
        "dog": 1132.5201901497167,
        "frog": 1718.1756286945465,
        "horse": 1269.8661571894509,
        "ship": 972.2614316157903,
        "truck": 1064.7024731182123
    },
    "fid": 812.7931396191078,
    "wasserstein_distance": null,
    "g_loss": null,
    "g_cost": null,
    "d_loss_real": null,
    "d_loss_fake": null
}