{
    "epoch": 23,
    "avg_current_window": 1415.579927599939,
    "avg_prior_window": 1542.6273292761755,
    "inception_score_mean": 1.6777276587081478,
    "inception_score_std": 0.14703573332202463,
    "fid_per_class": {
        "airplane": 1124.8793318090713,
        "automobile": 1332.577661427192,
        "bird": 1594.6983489999934,
        "cat": 1437.6211107002566,
        "deer": 1862.7522656888466,
        "dog": 1586.7868449009343,
        "frog": 2142.710472571245,
        "horse": 1699.5588855279639,
        "ship": 1226.6006560798292,
        "truck": 1271.13531210092
    },
    "fid": 1194.8200902510935,
    "wasserstein_distance": null,
    "g_loss": null,
    "g_cost": null,
    "d_loss_real": null,
    "d_loss_fake": null
}