{
    "epoch": 89,
    "avg_current_window": 1062.6260590069833,
    "avg_prior_window": 1084.281183114139,
    "inception_score_mean": 2.055806738564427,
    "inception_score_std": 0.14668542240792418,
    "fid_per_class": {
        "airplane": 1020.4913531433298,
        "automobile": 1122.635792385532,
        "bird": 1341.3995046428643,
        "cat": 1213.089677760855,
        "deer": 1456.704938128783,
        "dog": 1121.9302190706987,
        "frog": 1722.686338586686,
        "horse": 1445.9780973260201,
        "ship": 947.9966180252193,
        "truck": 1103.8558468024507
    },
    "fid": 856.3723839065094,
    "wasserstein_distance": null,
    "g_loss": null,
    "g_cost": null,
    "d_loss_real": null,
    "d_loss_fake": null
}