{
    "epoch": 88,
    "avg_current_window": 1064.7313059425148,
    "avg_prior_window": 1087.5064685399595,
    "inception_score_mean": 1.9695300322680844,
    "inception_score_std": 0.09637005235150709,
    "fid_per_class": {
        "airplane": 1089.3013752291085,
        "automobile": 1153.6714667235065,
        "bird": 1268.3112775149452,
        "cat": 1253.2593990390533,
        "deer": 1463.4298052513277,
        "dog": 1205.795324023935,
        "frog": 1721.0264334530143,
        "horse": 1489.3367549369443,
        "ship": 926.2874036133185,
        "truck": 1104.661689763404
    },
    "fid": 877.3643286802095,
    "wasserstein_distance": null,
    "g_loss": null,
    "g_cost": null,
    "d_loss_real": null,
    "d_loss_fake": null
}