{
    "epoch": 194,
    "avg_current_window": 937.9827845938947,
    "avg_prior_window": 944.944114954699,
    "inception_score_mean": 2.1585246186615477,
    "inception_score_std": 0.1968383112369061,
    "fid_per_class": {
        "airplane": 1015.1231066662484,
        "automobile": 1156.8192385009625,
        "bird": 1302.6505844599149,
        "cat": 1110.3829287771298,
        "deer": 1463.1382461283058,
        "dog": 1097.8547741722184,
        "frog": 1593.2227099927106,
        "horse": 1274.6675376767462,
        "ship": 978.6375533226984,
        "truck": 966.9698443401525
    },
    "fid": 785.6050477875358,
    "wasserstein_distance": null,
    "g_loss": null,
    "g_cost": null,
    "d_loss_real": null,
    "d_loss_fake": null
}