{
    "epoch": 85,
    "avg_current_window": 1071.5249339010313,
    "avg_prior_window": 1095.0442723115593,
    "inception_score_mean": 1.9766859044060077,
    "inception_score_std": 0.10427643688302479,
    "fid_per_class": {
        "airplane": 1047.1801712901645,
        "automobile": 1207.3376531487297,
        "bird": 1232.4821916027727,
        "cat": 1194.6089580705896,
        "deer": 1501.1211156883264,
        "dog": 1151.9342535232502,
        "frog": 1579.5189538987192,
        "horse": 1390.309075248596,
        "ship": 967.9612445056775,
        "truck": 1168.423917569217
    },
    "fid": 855.1862615857108,
    "wasserstein_distance": null,
    "g_loss": null,
    "g_cost": null,
    "d_loss_real": null,
    "d_loss_fake": null
}