{
    "epoch": 120,
    "avg_current_window": 1007.9744519714058,
    "avg_prior_window": 1022.7039498853061,
    "inception_score_mean": 1.9791169714126446,
    "inception_score_std": 0.11818098617296775,
    "fid_per_class": {
        "airplane": 1120.9289052443214,
        "automobile": 1208.097291432105,
        "bird": 1310.7251178413862,
        "cat": 1223.7462650811817,
        "deer": 1456.3938866940139,
        "dog": 1278.4277974953243,
        "frog": 1699.0075449202948,
        "horse": 1319.0959728507394,
        "ship": 1015.6786324967238,
        "truck": 1091.73419312011
    },
    "fid": 874.5582736926455,
    "wasserstein_distance": null,
    "g_loss": null,
    "g_cost": null,
    "d_loss_real": null,
    "d_loss_fake": null
}