{
    "epoch": 124,
    "avg_current_window": 1004.0913550822956,
    "avg_prior_window": 1016.444825517384,
    "inception_score_mean": 2.032460517862113,
    "inception_score_std": 0.21004765099964337,
    "fid_per_class": {
        "airplane": 1060.088192072527,
        "automobile": 1215.298677045761,
        "bird": 1311.4722764416517,
        "cat": 1258.5725504558065,
        "deer": 1488.2219180821658,
        "dog": 1251.0226678764684,
        "frog": 1789.2038812527214,
        "horse": 1383.6194354016986,
        "ship": 1032.809559935512,
        "truck": 1049.4517347256706
    },
    "fid": 881.9655126378138,
    "wasserstein_distance": null,
    "g_loss": null,
    "g_cost": null,
    "d_loss_real": null,
    "d_loss_fake": null
}