{
    "epoch": 2,
    "avg_current_window": 969.8376945810501,
    "avg_prior_window": 1942.6753891621001,
    "inception_score_mean": 1.1225389986264016,
    "inception_score_std": 0.03600407825246889,
    "fid_per_class": {
        "airplane": 2020.721021972015,
        "automobile": 2036.698584528002,
        "bird": 2628.211455454369,
        "cat": 2521.700781437831,
        "deer": 2606.480182781446,
        "dog": 2704.384453167374,
        "frog": 2836.604966921901,
        "horse": 2568.9945471810415,
        "ship": 2108.3266967479703,
        "truck": 2019.4217626409177
    },
    "fid": 2237.3445164709865,
    "wasserstein_distance": null,
    "g_loss": null,
    "g_cost": null,
    "d_loss_real": null,
    "d_loss_fake": null
}