{
    "epoch": 48,
    "avg_current_window": 1206.3252446996553,
    "avg_prior_window": 1256.6977292543672,
    "inception_score_mean": 1.8681129404753407,
    "inception_score_std": 0.07202538093815083,
    "fid_per_class": {
        "airplane": 1105.0509695089434,
        "automobile": 1132.732163923225,
        "bird": 1423.2999696842605,
        "cat": 1278.5262853043669,
        "deer": 1534.5763229968475,
        "dog": 1182.3645312250385,
        "frog": 1974.5303178728316,
        "horse": 1570.9497879347475,
        "ship": 1038.6802910356455,
        "truck": 1172.1867622279335
    },
    "fid": 976.1424881303599,
    "wasserstein_distance": null,
    "g_loss": null,
    "g_cost": null,
    "d_loss_real": null,
    "d_loss_fake": null
}