{
    "epoch": 126,
    "avg_current_window": 1001.6461632556128,
    "avg_prior_window": 1014.3483139629255,
    "inception_score_mean": 2.03125723929789,
    "inception_score_std": 0.11875126659380535,
    "fid_per_class": {
        "airplane": 1074.7899118086953,
        "automobile": 1232.079071767939,
        "bird": 1301.3691761251946,
        "cat": 1185.3564527455387,
        "deer": 1540.9379092478798,
        "dog": 1201.9895649985274,
        "frog": 1749.181549530341,
        "horse": 1426.3661900554453,
        "ship": 1048.044883377137,
        "truck": 1103.2320069980142
    },
    "fid": 874.3037294319698,
    "wasserstein_distance": null,
    "g_loss": null,
    "g_cost": null,
    "d_loss_real": null,
    "d_loss_fake": null
}