{
    "epoch": 24,
    "avg_current_window": 1406.381601043737,
    "avg_prior_window": 1526.0161530830517,
    "inception_score_mean": 1.761013580691601,
    "inception_score_std": 0.16610060211037775,
    "fid_per_class": {
        "airplane": 1077.314073856508,
        "automobile": 1264.4820289012794,
        "bird": 1627.1262453839965,
        "cat": 1316.0446353885723,
        "deer": 1770.1552744171001,
        "dog": 1491.2166942280255,
        "frog": 2235.6732631822365,
        "horse": 1598.9801129158325,
        "ship": 1152.7416682908613,
        "truck": 1240.2694192065587
    },
    "fid": 1120.1354360874518,
    "wasserstein_distance": null,
    "g_loss": null,
    "g_cost": null,
    "d_loss_real": null,
    "d_loss_fake": null
}