{
    "epoch": 188,
    "avg_current_window": 941.4565569783231,
    "avg_prior_window": 949.7858831007474,
    "inception_score_mean": 1.9896358708879398,
    "inception_score_std": 0.05525096567230619,
    "fid_per_class": {
        "airplane": 1078.224471763744,
        "automobile": 1135.8243937054335,
        "bird": 1286.596864682493,
        "cat": 1166.021168895491,
        "deer": 1395.606608298281,
        "dog": 1132.4268599028221,
        "frog": 1534.576482046797,
        "horse": 1275.6334310805535,
        "ship": 959.4420148454221,
        "truck": 1011.2845112795911
    },
    "fid": 809.6203579899219,
    "wasserstein_distance": null,
    "g_loss": null,
    "g_cost": null,
    "d_loss_real": null,
    "d_loss_fake": null
}