{
    "epoch": 95,
    "avg_current_window": 1049.2769304674416,
    "avg_prior_window": 1069.9474538671977,
    "inception_score_mean": 2.0807973487856084,
    "inception_score_std": 0.17594911040614397,
    "fid_per_class": {
        "airplane": 1008.8994233721478,
        "automobile": 1135.982825031108,
        "bird": 1294.5374330249058,
        "cat": 1137.462193825512,
        "deer": 1392.645160986314,
        "dog": 1234.206536512921,
        "frog": 1740.106083605718,
        "horse": 1365.247046072226,
        "ship": 966.67834873454,
        "truck": 1163.5839231488396
    },
    "fid": 847.0530382805846,
    "wasserstein_distance": null,
    "g_loss": null,
    "g_cost": null,
    "d_loss_real": null,
    "d_loss_fake": null
}