{
    "epoch": 90,
    "avg_current_window": 1060.3343515058668,
    "avg_prior_window": 1081.585948743216,
    "inception_score_mean": 1.9583643432203783,
    "inception_score_std": 0.10764706200786574,
    "fid_per_class": {
        "airplane": 1086.1286181776418,
        "automobile": 1214.2873574060459,
        "bird": 1240.1860091952353,
        "cat": 1174.1777054394756,
        "deer": 1467.6301820068704,
        "dog": 1132.8767674360329,
        "frog": 1670.5648697829847,
        "horse": 1428.2531268041257,
        "ship": 1009.0432589950503,
        "truck": 1144.112129123573
    },
    "fid": 865.1792125197758,
    "wasserstein_distance": null,
    "g_loss": null,
    "g_cost": null,
    "d_loss_real": null,
    "d_loss_fake": null
}