{
    "epoch": 93,
    "avg_current_window": 1053.7031432399579,
    "avg_prior_window": 1074.7013551320626,
    "inception_score_mean": 2.0495097310254202,
    "inception_score_std": 0.09372514273864467,
    "fid_per_class": {
        "airplane": 1078.3682197367152,
        "automobile": 1145.7232439484535,
        "bird": 1266.3899558843682,
        "cat": 1133.9041346858849,
        "deer": 1437.9576335969584,
        "dog": 1137.492677177189,
        "frog": 1622.1580771171969,
        "horse": 1376.1009960461763,
        "ship": 1009.3401668763404,
        "truck": 1141.5809967365615
    },
    "fid": 859.9706518385601,
    "wasserstein_distance": null,
    "g_loss": null,
    "g_cost": null,
    "d_loss_real": null,
    "d_loss_fake": null
}