{
    "epoch": 28,
    "avg_current_window": 1361.198292648798,
    "avg_prior_window": 1467.5286271760735,
    "inception_score_mean": 1.7406337309103974,
    "inception_score_std": 0.08607816055264939,
    "fid_per_class": {
        "airplane": 1076.3833840477268,
        "automobile": 1334.589028991973,
        "bird": 1436.671512541646,
        "cat": 1406.0293733880858,
        "deer": 1679.0460059485044,
        "dog": 1274.0073593810234,
        "frog": 2025.4257366354755,
        "horse": 1565.5774756232302,
        "ship": 1086.0059601946064,
        "truck": 1158.8145654267896
    },
    "fid": 1060.0232615623775,
    "wasserstein_distance": null,
    "g_loss": null,
    "g_cost": null,
    "d_loss_real": null,
    "d_loss_fake": null
}