{
    "epoch": 65,
    "avg_current_window": 1129.834197628127,
    "avg_prior_window": 1165.446504914166,
    "inception_score_mean": 1.89395740341816,
    "inception_score_std": 0.08011904115942824,
    "fid_per_class": {
        "airplane": 1150.3174438875094,
        "automobile": 1254.5098020726055,
        "bird": 1302.2110425714702,
        "cat": 1141.0576464167766,
        "deer": 1557.729605002912,
        "dog": 1203.3469902223537,
        "frog": 1714.617282335044,
        "horse": 1568.2784371078496,
        "ship": 990.2180659191043,
        "truck": 1135.5229974782296
    },
    "fid": 936.6530765027219,
    "wasserstein_distance": null,
    "g_loss": null,
    "g_cost": null,
    "d_loss_real": null,
    "d_loss_fake": null
}