{
    "epoch": 44,
    "avg_current_window": 1228.136417225859,
    "avg_prior_window": 1286.8587494398944,
    "inception_score_mean": 1.7859923028533555,
    "inception_score_std": 0.15520855259618216,
    "fid_per_class": {
        "airplane": 1068.5273664411652,
        "automobile": 1211.3489628000461,
        "bird": 1340.366969098554,
        "cat": 1197.3502731706444,
        "deer": 1563.3448470149792,
        "dog": 1197.701423023303,
        "frog": 1933.3549339783847,
        "horse": 1644.4796232980837,
        "ship": 1019.2192903302566,
        "truck": 1167.4083892333838
    },
    "fid": 980.6386755099347,
    "wasserstein_distance": null,
    "g_loss": null,
    "g_cost": null,
    "d_loss_real": null,
    "d_loss_fake": null
}