{
    "epoch": 198,
    "avg_current_window": 935.0817817797947,
    "avg_prior_window": 942.8427990218424,
    "inception_score_mean": 2.0335712884740627,
    "inception_score_std": 0.12990698484410126,
    "fid_per_class": {
        "airplane": 1047.4558345696846,
        "automobile": 1149.5379115857527,
        "bird": 1364.6715996602115,
        "cat": 1213.1607574520513,
        "deer": 1529.881591046003,
        "dog": 1232.4593802984327,
        "frog": 1711.480948156638,
        "horse": 1348.5991867184337,
        "ship": 978.7186313886016,
        "truck": 1125.2365894785432
    },
    "fid": 877.280429597244,
    "wasserstein_distance": null,
    "g_loss": null,
    "g_cost": null,
    "d_loss_real": null,
    "d_loss_fake": null
}