{
    "epoch": 187,
    "avg_current_window": 942.1699675770492,
    "avg_prior_window": 950.5709250772763,
    "inception_score_mean": 2.0960994782219506,
    "inception_score_std": 0.12678547714482052,
    "fid_per_class": {
        "airplane": 1019.616212770741,
        "automobile": 1102.5973420511323,
        "bird": 1298.1404881217734,
        "cat": 1245.9829080332029,
        "deer": 1475.9765369198178,
        "dog": 1224.3668269600973,
        "frog": 1658.178327334172,
        "horse": 1248.6086675029358,
        "ship": 909.1819291879585,
        "truck": 1000.7167663740981
    },
    "fid": 808.0487750165412,
    "wasserstein_distance": null,
    "g_loss": null,
    "g_cost": null,
    "d_loss_real": null,
    "d_loss_fake": null
}