{
    "epoch": 39,
    "avg_current_window": 1262.477704020312,
    "avg_prior_window": 1331.510129328017,
    "inception_score_mean": 1.7862234813992757,
    "inception_score_std": 0.09015354657204765,
    "fid_per_class": {
        "airplane": 1069.1781106911549,
        "automobile": 1224.5097664600753,
        "bird": 1379.8677869259777,
        "cat": 1242.3182290110192,
        "deer": 1484.3455091619664,
        "dog": 1199.809670964018,
        "frog": 1841.6650986107284,
        "horse": 1496.2363684689192,
        "ship": 983.2577475695118,
        "truck": 1182.7996436563576
    },
    "fid": 950.8607713637001,
    "wasserstein_distance": null,
    "g_loss": null,
    "g_cost": null,
    "d_loss_real": null,
    "d_loss_fake": null
}