{
    "epoch": 104,
    "avg_current_window": 1033.4065317134393,
    "avg_prior_window": 1049.9604842099518,
    "inception_score_mean": 1.9956660298152555,
    "inception_score_std": 0.11641772720853169,
    "fid_per_class": {
        "airplane": 1050.034779376786,
        "automobile": 1183.037515153836,
        "bird": 1302.6516981445302,
        "cat": 1167.55567727346,
        "deer": 1468.6843986833992,
        "dog": 1240.9285970795197,
        "frog": 1807.293997462919,
        "horse": 1366.394565850394,
        "ship": 1009.4494252751792,
        "truck": 1143.908811763772
    },
    "fid": 865.3866289949957,
    "wasserstein_distance": null,
    "g_loss": null,
    "g_cost": null,
    "d_loss_real": null,
    "d_loss_fake": null
}