{
    "epoch": 128,
    "avg_current_window": 999.2559519208628,
    "avg_prior_window": 1012.2546994325583,
    "inception_score_mean": 1.9812827074245831,
    "inception_score_std": 0.11564349318668736,
    "fid_per_class": {
        "airplane": 1013.5619636243498,
        "automobile": 1169.3840399162414,
        "bird": 1305.0012833026049,
        "cat": 1172.6485463441063,
        "deer": 1466.2184551554603,
        "dog": 1173.3916357093854,
        "frog": 1676.9654546777692,
        "horse": 1438.065319337607,
        "ship": 1044.0195205198752,
        "truck": 1060.1306717134764
    },
    "fid": 850.3006185249284,
    "wasserstein_distance": null,
    "g_loss": null,
    "g_cost": null,
    "d_loss_real": null,
    "d_loss_fake": null
}