{
    "epoch": 21,
    "avg_current_window": 1437.2991419897762,
    "avg_prior_window": 1574.3005766489625,
    "inception_score_mean": 1.6701086566811523,
    "inception_score_std": 0.12584809291883836,
    "fid_per_class": {
        "airplane": 1267.2742322262752,
        "automobile": 1444.254790605525,
        "bird": 1597.6136453662718,
        "cat": 1518.78757389611,
        "deer": 1720.2153261055832,
        "dog": 1536.737554757514,
        "frog": 2142.1204776126206,
        "horse": 1534.9899320650454,
        "ship": 1236.7450631858555,
        "truck": 1268.543926434841
    },
    "fid": 1188.232559020835,
    "wasserstein_distance": null,
    "g_loss": null,
    "g_cost": null,
    "d_loss_real": null,
    "d_loss_fake": null
}