{
    "epoch": 1,
    "avg_current_window": 3.0,
    "avg_prior_window": 8.0,
    "inception_score_mean": 1.1197311047323801,
    "inception_score_std": 0.05132011479368635,
    "fid_per_class": {
        "airplane": 2076.501135579826,
        "automobile": 2121.220090507993,
        "bird": 2092.9925747058082,
        "cat": 1971.827688901355,
        "deer": 2321.316811021223,
        "dog": 2493.086527826693,
        "frog": 2389.9483143784914,
        "horse": 2246.1192704845216,
        "ship": 2134.678690946145,
        "truck": 1753.7708763969144
    },
    "fid": 1935.6753891621001,
    "wasserstein_distance": null,
    "g_loss": null,
    "g_cost": null,
    "d_loss_real": null,
    "d_loss_fake": null
}