{
    "epoch": 162,
    "avg_current_window": 962.4087155868443,
    "avg_prior_window": 972.2087344638551,
    "inception_score_mean": 2.0080147887776816,
    "inception_score_std": 0.17869524040592344,
    "fid_per_class": {
        "airplane": 1127.5196632697202,
        "automobile": 1203.1299545386987,
        "bird": 1339.0501648371235,
        "cat": 1186.31550022321,
        "deer": 1452.002031773804,
        "dog": 1062.6397893114217,
        "frog": 1590.53355947098,
        "horse": 1291.6437646769705,
        "ship": 924.4478971524619,
        "truck": 1091.1221041367874
    },
    "fid": 826.5807214791405,
    "wasserstein_distance": null,
    "g_loss": null,
    "g_cost": null,
    "d_loss_real": null,
    "d_loss_fake": null
}