{
    "epoch": 195,
    "avg_current_window": 937.2013603025802,
    "avg_prior_window": 944.359628041159,
    "inception_score_mean": 2.0807927648109574,
    "inception_score_std": 0.1478165743539378,
    "fid_per_class": {
        "airplane": 980.5450265665388,
        "automobile": 1143.092127405393,
        "bird": 1232.5371065940794,
        "cat": 1132.2276107404762,
        "deer": 1379.3347749417176,
        "dog": 1109.3298051595211,
        "frog": 1650.6452873063254,
        "horse": 1241.8151524555014,
        "ship": 932.0894995389181,
        "truck": 1078.2321650976992
    },
    "fid": 774.8988490931179,
    "wasserstein_distance": null,
    "g_loss": null,
    "g_cost": null,
    "d_loss_real": null,
    "d_loss_fake": null
}