{
    "epoch": 76,
    "avg_current_window": 1094.268547547086,
    "avg_prior_window": 1121.3933220002125,
    "inception_score_mean": 1.9278900532815832,
    "inception_score_std": 0.11586086726681195,
    "fid_per_class": {
        "airplane": 1075.0489878884432,
        "automobile": 1249.5613011727721,
        "bird": 1342.3564388642778,
        "cat": 1110.8364396852694,
        "deer": 1402.3652130086275,
        "dog": 1206.6157630257826,
        "frog": 1719.5563788829772,
        "horse": 1427.8929730229845,
        "ship": 1014.7184773392257,
        "truck": 1136.5276650444641
    },
    "fid": 886.1742809291371,
    "wasserstein_distance": null,
    "g_loss": null,
    "g_cost": null,
    "d_loss_real": null,
    "d_loss_fake": null
}