{
    "epoch": 176,
    "avg_current_window": 950.5002003189239,
    "avg_prior_window": 959.2864127591407,
    "inception_score_mean": 2.042632344056593,
    "inception_score_std": 0.16179724959279895,
    "fid_per_class": {
        "airplane": 1046.393790272244,
        "automobile": 1122.5366819808933,
        "bird": 1372.1179016636213,
        "cat": 1156.4837687210581,
        "deer": 1543.8832476580587,
        "dog": 1131.5461554808821,
        "frog": 1766.4222216340927,
        "horse": 1305.1539360378629,
        "ship": 902.9264202628342,
        "truck": 1083.240632478943
    },
    "fid": 842.6119410844801,
    "wasserstein_distance": null,
    "g_loss": null,
    "g_cost": null,
    "d_loss_real": null,
    "d_loss_fake": null
}