{
    "epoch": 150,
    "avg_current_window": 974.3699793225337,
    "avg_prior_window": 985.4681542237278,
    "inception_score_mean": 2.0857889301261787,
    "inception_score_std": 0.20098359614981653,
    "fid_per_class": {
        "airplane": 1046.5725850262593,
        "automobile": 1149.2450450866909,
        "bird": 1256.9546145201557,
        "cat": 1057.3385598503835,
        "deer": 1399.405785094566,
        "dog": 1061.1527314310258,
        "frog": 1640.5419514938883,
        "horse": 1210.5549194666867,
        "ship": 937.2966676303743,
        "truck": 1046.4208124722659
    },
    "fid": 770.9066911701751,
    "wasserstein_distance": null,
    "g_loss": null,
    "g_cost": null,
    "d_loss_real": null,
    "d_loss_fake": null
}