{
    "epoch": 60,
    "avg_current_window": 1150.5323009005836,
    "avg_prior_window": 1189.274068596159,
    "inception_score_mean": 1.9192621582094218,
    "inception_score_std": 0.15878362922380287,
    "fid_per_class": {
        "airplane": 1024.615781247161,
        "automobile": 1227.7993530596425,
        "bird": 1275.9341542166903,
        "cat": 1163.1408427952674,
        "deer": 1479.6197389483616,
        "dog": 1215.6509933160426,
        "frog": 1623.1847541381637,
        "horse": 1549.8472814418624,
        "ship": 965.2296639392756,
        "truck": 1113.231807476307
    },
    "fid": 894.8522408149547,
    "wasserstein_distance": null,
    "g_loss": null,
    "g_cost": null,
    "d_loss_real": null,
    "d_loss_fake": null
}