{
    "epoch": 131,
    "avg_current_window": 995.876576689477,
    "avg_prior_window": 1008.5850817431682,
    "inception_score_mean": 1.986597644198764,
    "inception_score_std": 0.12434319359352605,
    "fid_per_class": {
        "airplane": 1027.32143554921,
        "automobile": 1153.884230318178,
        "bird": 1322.8146957835306,
        "cat": 1113.7235317158327,
        "deer": 1440.1703577966796,
        "dog": 1244.1857300213803,
        "frog": 1682.9908691429816,
        "horse": 1354.8347987309103,
        "ship": 1015.1687784447969,
        "truck": 1104.239863949095
    },
    "fid": 841.7374046883982,
    "wasserstein_distance": null,
    "g_loss": null,
    "g_cost": null,
    "d_loss_real": null,
    "d_loss_fake": null
}