{
    "epoch": 43,
    "avg_current_window": 1235.1519560488002,
    "avg_prior_window": 1295.7008014945309,
    "inception_score_mean": 1.918234622312927,
    "inception_score_std": 0.11748976189710422,
    "fid_per_class": {
        "airplane": 1087.8111058184645,
        "automobile": 1212.3297444827165,
        "bird": 1405.5246068282677,
        "cat": 1216.1631552219756,
        "deer": 1495.338897657612,
        "dog": 1150.4073339625331,
        "frog": 1708.694551572572,
        "horse": 1525.0914760960497,
        "ship": 992.8563448763643,
        "truck": 1091.2476517758655
    },
    "fid": 926.4682478393896,
    "wasserstein_distance": null,
    "g_loss": null,
    "g_cost": null,
    "d_loss_real": null,
    "d_loss_fake": null
}