{
    "epoch": 193,
    "avg_current_window": 938.4276786043584,
    "avg_prior_window": 945.7630482442269,
    "inception_score_mean": 2.0175954564227525,
    "inception_score_std": 0.12976395914742592,
    "fid_per_class": {
        "airplane": 953.7268898658418,
        "automobile": 1193.1436376790318,
        "bird": 1287.8195771028513,
        "cat": 1131.673143905162,
        "deer": 1489.0927278187896,
        "dog": 1201.7012675020867,
        "frog": 1627.7783340373485,
        "horse": 1435.0511610628853,
        "ship": 979.3726161763552,
        "truck": 1095.2885206868516
    },
    "fid": 852.1182405743978,
    "wasserstein_distance": null,
    "g_loss": null,
    "g_cost": null,
    "d_loss_real": null,
    "d_loss_fake": null
}