{
    "epoch": 91,
    "avg_current_window": 1058.1897895389868,
    "avg_prior_window": 1079.6132055428723,
    "inception_score_mean": 2.0078487158939096,
    "inception_score_std": 0.09378316882765193,
    "fid_per_class": {
        "airplane": 1076.8600357536957,
        "automobile": 1175.0168812551772,
        "bird": 1244.0365675939088,
        "cat": 1080.7705162540262,
        "deer": 1468.6085679420607,
        "dog": 1097.419344699021,
        "frog": 1513.7046511789167,
        "horse": 1383.2516330026228,
        "ship": 977.9654592226036,
        "truck": 1088.5061406401564
    },
    "fid": 802.2981306866976,
    "wasserstein_distance": null,
    "g_loss": null,
    "g_cost": null,
    "d_loss_real": null,
    "d_loss_fake": null
}