{
    "epoch": 96,
    "avg_current_window": 1047.1704315904951,
    "avg_prior_window": 1067.0062525135659,
    "inception_score_mean": 1.9745778890927255,
    "inception_score_std": 0.12759255501619354,
    "fid_per_class": {
        "airplane": 1108.042505257012,
        "automobile": 1178.5677530691032,
        "bird": 1225.019235932478,
        "cat": 1158.7932705092578,
        "deer": 1360.8456005238713,
        "dog": 1177.15804517124,
        "frog": 1576.5802645956355,
        "horse": 1461.9527811105604,
        "ship": 1008.044451608136,
        "truck": 1133.4379620751063
    },
    "fid": 845.968105704715,
    "wasserstein_distance": null,
    "g_loss": null,
    "g_cost": null,
    "d_loss_real": null,
    "d_loss_fake": null
}