{
    "epoch": 12,
    "avg_current_window": 1536.304857217787,
    "avg_prior_window": 1783.5977038604756,
    "inception_score_mean": 1.7724901475183308,
    "inception_score_std": 0.1254583958123562,
    "fid_per_class": {
        "airplane": 1303.0778166576501,
        "automobile": 1415.637759224033,
        "bird": 1801.5675850541143,
        "cat": 1628.405828736618,
        "deer": 1964.9454293601075,
        "dog": 1770.688122186013,
        "frog": 2245.6296884636367,
        "horse": 1888.3366204462914,
        "ship": 1254.3055369307294,
        "truck": 1245.960059764912
    },
    "fid": 1315.880679713086,
    "wasserstein_distance": null,
    "g_loss": null,
    "g_cost": null,
    "d_loss_real": null,
    "d_loss_fake": null
}