{
    "epoch": 106,
    "avg_current_window": 1030.33442990647,
    "avg_prior_window": 1046.773742733314,
    "inception_score_mean": 2.0270366099109305,
    "inception_score_std": 0.12440403491073206,
    "fid_per_class": {
        "airplane": 1098.8182872160367,
        "automobile": 1149.1936979365737,
        "bird": 1306.2976946827248,
        "cat": 1189.308705586632,
        "deer": 1517.4380512957146,
        "dog": 1151.1212830949944,
        "frog": 1752.0452999622237,
        "horse": 1428.6914609079918,
        "ship": 988.49402145357,
        "truck": 1066.043160411341
    },
    "fid": 866.2945508579617,
    "wasserstein_distance": null,
    "g_loss": null,
    "g_cost": null,
    "d_loss_real": null,
    "d_loss_fake": null
}