{
    "epoch": 16,
    "avg_current_window": 1491.0170807233158,
    "avg_prior_window": 1675.9689351466768,
    "inception_score_mean": 1.7077846686253857,
    "inception_score_std": 0.14266274898313244,
    "fid_per_class": {
        "airplane": 1300.111220401096,
        "automobile": 1521.508786615554,
        "bird": 1727.4152286986946,
        "cat": 1604.1675702110035,
        "deer": 1889.217443604533,
        "dog": 1752.457422692233,
        "frog": 2110.9536824160027,
        "horse": 1838.8250528275748,
        "ship": 1275.436880183963,
        "truck": 1298.559854880116
    },
    "fid": 1332.5359348103498,
    "wasserstein_distance": null,
    "g_loss": null,
    "g_cost": null,
    "d_loss_real": null,
    "d_loss_fake": null
}