{
    "epoch": 138,
    "avg_current_window": 987.236219605509,
    "avg_prior_window": 999.2214642221498,
    "inception_score_mean": 2.097266617454662,
    "inception_score_std": 0.09129494268460173,
    "fid_per_class": {
        "airplane": 923.8740616479254,
        "automobile": 1148.0205790399693,
        "bird": 1362.1128255601145,
        "cat": 1145.6446874099463,
        "deer": 1518.7969028632594,
        "dog": 1121.994449771021,
        "frog": 1808.7339329761407,
        "horse": 1268.726016355597,
        "ship": 981.6307970104699,
        "truck": 1112.3773504557225
    },
    "fid": 822.1049498454797,
    "wasserstein_distance": null,
    "g_loss": null,
    "g_cost": null,
    "d_loss_real": null,
    "d_loss_fake": null
}