{
    "epoch": 5,
    "avg_current_window": 1539.3241963328044,
    "avg_prior_window": 1939.6753891621001,
    "inception_score_mean": 1.0951769394272066,
    "inception_score_std": 0.032934659287105525,
    "fid_per_class": {
        "airplane": 1619.9779135394137,
        "automobile": 1567.2784139659902,
        "bird": 1913.7205950046155,
        "cat": 1958.0678729795918,
        "deer": 2040.7923751077567,
        "dog": 1782.2533153899958,
        "frog": 1950.4868826914337,
        "horse": 1949.4317630215014,
        "ship": 1537.9218369168375,
        "truck": 1444.7906350691353
    },
    "fid": 1497.5404226155752,
    "wasserstein_distance": null,
    "g_loss": null,
    "g_cost": null,
    "d_loss_real": null,
    "d_loss_fake": null
}