{
    "epoch": 84,
    "avg_current_window": 1074.5599629621029,
    "avg_prior_window": 1097.5845237647045,
    "inception_score_mean": 2.0337239155947326,
    "inception_score_std": 0.08073735248934961,
    "fid_per_class": {
        "airplane": 1089.350984628611,
        "automobile": 1172.9013434307703,
        "bird": 1246.9989231784498,
        "cat": 1062.419725056199,
        "deer": 1409.4273523951383,
        "dog": 1170.9693615272602,
        "frog": 1601.558106620419,
        "horse": 1348.4493219640012,
        "ship": 931.2658537877597,
        "truck": 1129.4979130032211
    },
    "fid": 816.582492771016,
    "wasserstein_distance": null,
    "g_loss": null,
    "g_cost": null,
    "d_loss_real": null,
    "d_loss_fake": null
}