{
    "epoch": 160,
    "avg_current_window": 963.9097210902198,
    "avg_prior_window": 974.351558426487,
    "inception_score_mean": 2.0433675685203263,
    "inception_score_std": 0.18711117697554835,
    "fid_per_class": {
        "airplane": 1088.3167474500083,
        "automobile": 1213.3040845071457,
        "bird": 1306.936987321521,
        "cat": 1169.5989423353105,
        "deer": 1522.621770569046,
        "dog": 1134.6402208563884,
        "frog": 1750.047616751414,
        "horse": 1348.2192853811762,
        "ship": 1007.1475543924969,
        "truck": 1123.8664098322733
    },
    "fid": 861.980548333974,
    "wasserstein_distance": null,
    "g_loss": null,
    "g_cost": null,
    "d_loss_real": null,
    "d_loss_fake": null
}