{
    "epoch": 49,
    "avg_current_window": 1201.627637422731,
    "avg_prior_window": 1250.423659851085,
    "inception_score_mean": 1.9776933834775032,
    "inception_score_std": 0.11111420567475691,
    "fid_per_class": {
        "airplane": 1087.7073697142005,
        "automobile": 1196.890995956071,
        "bird": 1303.3421423002296,
        "cat": 1156.7838109157474,
        "deer": 1456.9937152114103,
        "dog": 1110.3301762328128,
        "frog": 1774.2664711665946,
        "horse": 1510.6281492691523,
        "ship": 965.133234666845,
        "truck": 1121.2346040628647
    },
    "fid": 888.0904595101504,
    "wasserstein_distance": null,
    "g_loss": null,
    "g_cost": null,
    "d_loss_real": null,
    "d_loss_fake": null
}