{
    "epoch": 189,
    "avg_current_window": 940.7590109519294,
    "avg_prior_window": 948.9268847375379,
    "inception_score_mean": 2.0625150869045092,
    "inception_score_std": 0.13798953076835968,
    "fid_per_class": {
        "airplane": 1036.5352806354244,
        "automobile": 1095.9964654714593,
        "bird": 1292.7307166610558,
        "cat": 1125.2763454467206,
        "deer": 1419.111299324578,
        "dog": 1116.040651299988,
        "frog": 1667.4469880637257,
        "horse": 1240.5207877896305,
        "ship": 996.0442227882736,
        "truck": 996.1537808085548
    },
    "fid": 790.9846565234477,
    "wasserstein_distance": null,
    "g_loss": null,
    "g_cost": null,
    "d_loss_real": null,
    "d_loss_fake": null
}