{
    "epoch": 83,
    "avg_current_window": 1076.1904318747083,
    "avg_prior_window": 1100.3707758667556,
    "inception_score_mean": 1.9379139716330065,
    "inception_score_std": 0.06548064692477897,
    "fid_per_class": {
        "airplane": 1126.4878527901922,
        "automobile": 1246.447589526199,
        "bird": 1363.5235755693723,
        "cat": 1242.1690151209923,
        "deer": 1522.0514456847056,
        "dog": 1298.9303956153208,
        "frog": 1796.0627490234292,
        "horse": 1540.037572752416,
        "ship": 1000.940106959005,
        "truck": 1130.4093328841
    },
    "fid": 939.2310432158506,
    "wasserstein_distance": null,
    "g_loss": null,
    "g_cost": null,
    "d_loss_real": null,
    "d_loss_fake": null
}