{
    "epoch": 61,
    "avg_current_window": 1146.3408245057371,
    "avg_prior_window": 1184.5977207763788,
    "inception_score_mean": 1.9331606648666741,
    "inception_score_std": 0.07142758656042383,
    "fid_per_class": {
        "airplane": 1107.2968181118151,
        "automobile": 1206.581956694805,
        "bird": 1305.7166601120707,
        "cat": 1181.758920330702,
        "deer": 1423.9698504292733,
        "dog": 1156.012593319818,
        "frog": 1697.587721564615,
        "horse": 1476.7940704196685,
        "ship": 979.4593610349509,
        "truck": 1103.6061038895668
    },
    "fid": 878.5774996672423,
    "wasserstein_distance": null,
    "g_loss": null,
    "g_cost": null,
    "d_loss_real": null,
    "d_loss_fake": null
}