{
    "epoch": 103,
    "avg_current_window": 1035.0080366605732,
    "avg_prior_window": 1051.8531341443986,
    "inception_score_mean": 1.9809263605241842,
    "inception_score_std": 0.15098501216876753,
    "fid_per_class": {
        "airplane": 1112.464296439092,
        "automobile": 1188.522888284881,
        "bird": 1309.729210072182,
        "cat": 1179.7782551437679,
        "deer": 1478.9844276263025,
        "dog": 1196.9991025376153,
        "frog": 1679.7021461866343,
        "horse": 1400.450829461246,
        "ship": 932.6665710370896,
        "truck": 1048.720145364819
    },
    "fid": 868.4515221586427,
    "wasserstein_distance": null,
    "g_loss": null,
    "g_cost": null,
    "d_loss_real": null,
    "d_loss_fake": null
}