{
    "epoch": 98,
    "avg_current_window": 1042.952598205817,
    "avg_prior_window": 1062.9501394962865,
    "inception_score_mean": 2.027737994404494,
    "inception_score_std": 0.16570300005100597,
    "fid_per_class": {
        "airplane": 1100.9419935680658,
        "automobile": 1194.625828994161,
        "bird": 1256.4096299198707,
        "cat": 1203.2102476076352,
        "deer": 1500.9716540219438,
        "dog": 1242.603614563146,
        "frog": 1655.047047964571,
        "horse": 1463.9047408466217,
        "ship": 1019.6278529937958,
        "truck": 1181.7600839170145
    },
    "fid": 872.2525219810116,
    "wasserstein_distance": null,
    "g_loss": null,
    "g_cost": null,
    "d_loss_real": null,
    "d_loss_fake": null
}