{
    "epoch": 81,
    "avg_current_window": 1081.5252072212932,
    "avg_prior_window": 1105.9287354540484,
    "inception_score_mean": 2.0629708264018722,
    "inception_score_std": 0.10525473350557021,
    "fid_per_class": {
        "airplane": 1092.896962821601,
        "automobile": 1186.2559944887478,
        "bird": 1312.7330145207998,
        "cat": 1168.5665225795283,
        "deer": 1401.4489199517463,
        "dog": 1190.6238817182598,
        "frog": 1706.5552031694972,
        "horse": 1462.9698574785107,
        "ship": 1006.3206246330633,
        "truck": 1157.47239100399
    },
    "fid": 880.9156964597508,
    "wasserstein_distance": null,
    "g_loss": null,
    "g_cost": null,
    "d_loss_real": null,
    "d_loss_fake": null
}