{
    "epoch": 50,
    "avg_current_window": 1195.3568938644794,
    "avg_prior_window": 1243.6243191526119,
    "inception_score_mean": 1.986523366533082,
    "inception_score_std": 0.14585236492017342,
    "fid_per_class": {
        "airplane": 1073.2464102728838,
        "automobile": 1237.9602600286453,
        "bird": 1443.7646579116972,
        "cat": 1209.710433766637,
        "deer": 1629.3888502150232,
        "dog": 1133.0195706987574,
        "frog": 1886.6802748079272,
        "horse": 1642.149593139314,
        "ship": 1031.122452049816,
        "truck": 1185.0398377319123
    },
    "fid": 976.2462439633131,
    "wasserstein_distance": null,
    "g_loss": null,
    "g_cost": null,
    "d_loss_real": null,
    "d_loss_fake": null
}