{
    "epoch": 166,
    "avg_current_window": 959.1831334313933,
    "avg_prior_window": 968.3864094724769,
    "inception_score_mean": 2.0860083344575067,
    "inception_score_std": 0.16062937435131444,
    "fid_per_class": {
        "airplane": 1033.416646887565,
        "automobile": 1092.2488208673976,
        "bird": 1257.6527534749684,
        "cat": 1189.0337037692843,
        "deer": 1419.6028690387593,
        "dog": 1062.634608513188,
        "frog": 1562.789003759387,
        "horse": 1278.3401867158732,
        "ship": 959.6839202494162,
        "truck": 1106.5571607025083
    },
    "fid": 782.6781068651336,
    "wasserstein_distance": null,
    "g_loss": null,
    "g_cost": null,
    "d_loss_real": null,
    "d_loss_fake": null
}