{
    "epoch": 177,
    "avg_current_window": 949.8906621311587,
    "avg_prior_window": 958.2944241028409,
    "inception_score_mean": 2.077788039530425,
    "inception_score_std": 0.08333840259929647,
    "fid_per_class": {
        "airplane": 1000.7410829966499,
        "automobile": 1160.9978151906976,
        "bird": 1261.4481911520534,
        "cat": 1201.8925459196632,
        "deer": 1532.544704410049,
        "dog": 1130.1425785033475,
        "frog": 1748.9598190943516,
        "horse": 1210.3692702219173,
        "ship": 918.1765262069891,
        "truck": 1039.008156300538
    },
    "fid": 803.0891553020627,
    "wasserstein_distance": null,
    "g_loss": null,
    "g_cost": null,
    "d_loss_real": null,
    "d_loss_fake": null
}