{
    "epoch": 119,
    "avg_current_window": 1009.4645849810503,
    "avg_prior_window": 1024.5552439101532,
    "inception_score_mean": 1.980302628591217,
    "inception_score_std": 0.13729630549059163,
    "fid_per_class": {
        "airplane": 1032.0363935821838,
        "automobile": 1191.7840007754558,
        "bird": 1227.3250380036868,
        "cat": 1193.22635770619,
        "deer": 1399.9588091999115,
        "dog": 1201.6322926507432,
        "frog": 1652.9426409866064,
        "horse": 1245.6053711406862,
        "ship": 983.2133320532192,
        "truck": 1039.5676915198737
    },
    "fid": 830.6486238237097,
    "wasserstein_distance": null,
    "g_loss": null,
    "g_cost": null,
    "d_loss_real": null,
    "d_loss_fake": null
}