{
    "epoch": 62,
    "avg_current_window": 1142.0220612018904,
    "avg_prior_window": 1179.3465595497698,
    "inception_score_mean": 1.8652488079005476,
    "inception_score_std": 0.08009538301173437,
    "fid_per_class": {
        "airplane": 1110.900383323329,
        "automobile": 1190.286159425093,
        "bird": 1341.8471528588655,
        "cat": 1152.6699882024416,
        "deer": 1481.7138411430715,
        "dog": 1166.0092239744463,
        "frog": 1554.6713761688807,
        "horse": 1553.355162592365,
        "ship": 1003.9028632801794,
        "truck": 1133.3808078039178
    },
    "fid": 908.5674787522825,
    "wasserstein_distance": null,
    "g_loss": null,
    "g_cost": null,
    "d_loss_real": null,
    "d_loss_fake": null
}