{
    "epoch": 142,
    "avg_current_window": 983.0056557210247,
    "avg_prior_window": 994.44232339825,
    "inception_score_mean": 2.0507443422299088,
    "inception_score_std": 0.0849095285699808,
    "fid_per_class": {
        "airplane": 1002.8377676504252,
        "automobile": 1076.0240585691768,
        "bird": 1364.087238220317,
        "cat": 1182.042309511513,
        "deer": 1484.2885073070518,
        "dog": 1260.9164692160634,
        "frog": 1724.187582903731,
        "horse": 1227.072258024715,
        "ship": 950.1468686211615,
        "truck": 1018.5861510039913
    },
    "fid": 810.9916539360784,
    "wasserstein_distance": null,
    "g_loss": null,
    "g_cost": null,
    "d_loss_real": null,
    "d_loss_fake": null
}