{
    "epoch": 149,
    "avg_current_window": 975.2870373846245,
    "avg_prior_window": 986.5335665439919,
    "inception_score_mean": 2.0122554331236273,
    "inception_score_std": 0.18899514043424834,
    "fid_per_class": {
        "airplane": 1056.214170123246,
        "automobile": 1174.2129019750737,
        "bird": 1350.6254249123128,
        "cat": 1141.4401967098197,
        "deer": 1477.3520099111354,
        "dog": 1127.4055131956711,
        "frog": 1757.91196463269,
        "horse": 1327.6504360179238,
        "ship": 940.1365495151013,
        "truck": 1054.0356090296382
    },
    "fid": 837.7283280710049,
    "wasserstein_distance": null,
    "g_loss": null,
    "g_cost": null,
    "d_loss_real": null,
    "d_loss_fake": null
}