{
    "epoch": 127,
    "avg_current_window": 1000.6434669262928,
    "avg_prior_window": 1013.2546422698487,
    "inception_score_mean": 2.0820190748699527,
    "inception_score_std": 0.1516534756831542,
    "fid_per_class": {
        "airplane": 1058.2747163569288,
        "automobile": 1182.3574647171863,
        "bird": 1288.4650567664323,
        "cat": 1102.3669272403745,
        "deer": 1407.5120088417063,
        "dog": 1073.9610633184202,
        "frog": 1712.550640742791,
        "horse": 1306.6583002689017,
        "ship": 1047.6158598771956,
        "truck": 1136.9089159038322
    },
    "fid": 823.0415462312567,
    "wasserstein_distance": null,
    "g_loss": null,
    "g_cost": null,
    "d_loss_real": null,
    "d_loss_fake": null
}