{
    "epoch": 175,
    "avg_current_window": 951.0848688686649,
    "avg_prior_window": 960.2887144488873,
    "inception_score_mean": 2.0689857485247183,
    "inception_score_std": 0.169821061243472,
    "fid_per_class": {
        "airplane": 1004.9555994540299,
        "automobile": 1141.6142470922077,
        "bird": 1309.0858657053448,
        "cat": 1181.8590814879972,
        "deer": 1614.327934855501,
        "dog": 1135.6650793265837,
        "frog": 1731.762658851621,
        "horse": 1236.0698884684398,
        "ship": 967.0391382986255,
        "truck": 1093.594748527915
    },
    "fid": 848.1832041142698,
    "wasserstein_distance": null,
    "g_loss": null,
    "g_cost": null,
    "d_loss_real": null,
    "d_loss_fake": null
}