{
    "epoch": 47,
    "avg_current_window": 1210.9456793393324,
    "avg_prior_window": 1264.560335954724,
    "inception_score_mean": 1.7896099316918217,
    "inception_score_std": 0.14405563206452313,
    "fid_per_class": {
        "airplane": 1122.4125502051436,
        "automobile": 1258.347344711458,
        "bird": 1386.352358566757,
        "cat": 1267.4312762956058,
        "deer": 1498.843040887704,
        "dog": 1261.494017597434,
        "frog": 1873.725891146834,
        "horse": 1588.397384973784,
        "ship": 975.7036708104825,
        "truck": 1220.7222970549967
    },
    "fid": 989.1648166348322,
    "wasserstein_distance": null,
    "g_loss": null,
    "g_cost": null,
    "d_loss_real": null,
    "d_loss_fake": null
}