{
    "epoch": 105,
    "avg_current_window": 1031.8063421637398,
    "avg_prior_window": 1048.5226424513528,
    "inception_score_mean": 1.9321429037260145,
    "inception_score_std": 0.09420145760214862,
    "fid_per_class": {
        "airplane": 1116.2591555542253,
        "automobile": 1232.192753139684,
        "bird": 1385.335069954528,
        "cat": 1084.4440177286328,
        "deer": 1472.4948536885781,
        "dog": 1167.971090341987,
        "frog": 1698.9303343684967,
        "horse": 1401.2690080524935,
        "ship": 1064.1087984153658,
        "truck": 1193.3452168570157
    },
    "fid": 875.7836428931363,
    "wasserstein_distance": null,
    "g_loss": null,
    "g_cost": null,
    "d_loss_real": null,
    "d_loss_fake": null
}