{
    "epoch": 15,
    "avg_current_window": 1501.5780228639853,
    "avg_prior_window": 1709.6965011329412,
    "inception_score_mean": 1.6870338588021518,
    "inception_score_std": 0.12201034287650254,
    "fid_per_class": {
        "airplane": 1282.4034729600498,
        "automobile": 1502.2873860134127,
        "bird": 1669.2624000825335,
        "cat": 1579.2783045594217,
        "deer": 1773.0765542945978,
        "dog": 1815.8938688198978,
        "frog": 2304.0004471844936,
        "horse": 1796.8198800786495,
        "ship": 1336.8911660612034,
        "truck": 1350.1660136150094
    },
    "fid": 1332.6029486132709,
    "wasserstein_distance": null,
    "g_loss": null,
    "g_cost": null,
    "d_loss_real": null,
    "d_loss_fake": null
}