{
    "epoch": 139,
    "avg_current_window": 986.0482248590339,
    "avg_prior_window": 997.8270470797443,
    "inception_score_mean": 2.024506255644958,
    "inception_score_std": 0.17999435277898093,
    "fid_per_class": {
        "airplane": 996.5938007521852,
        "automobile": 1232.3383710992389,
        "bird": 1335.5949115499022,
        "cat": 1150.335805932403,
        "deer": 1434.3092718754233,
        "dog": 1130.5821169198286,
        "frog": 1712.7915606675394,
        "horse": 1442.6980323209598,
        "ship": 945.0540009081571,
        "truck": 1110.3717430361864
    },
    "fid": 842.9912104992214,
    "wasserstein_distance": null,
    "g_loss": null,
    "g_cost": null,
    "d_loss_real": null,
    "d_loss_fake": null
}