{
    "epoch": 109,
    "avg_current_window": 1025.1000834350218,
    "avg_prior_window": 1041.7275569922374,
    "inception_score_mean": 1.9578811437312833,
    "inception_score_std": 0.11830462728582761,
    "fid_per_class": {
        "airplane": 1066.7023173089528,
        "automobile": 1132.6069127537207,
        "bird": 1251.7257950876965,
        "cat": 1148.3474504265143,
        "deer": 1540.8969204268165,
        "dog": 1206.3100131915378,
        "frog": 1722.5856327361612,
        "horse": 1388.4357182557164,
        "ship": 988.8920973989515,
        "truck": 1065.458797714543
    },
    "fid": 853.9821257785878,
    "wasserstein_distance": null,
    "g_loss": null,
    "g_cost": null,
    "d_loss_real": null,
    "d_loss_fake": null
}