{
    "epoch": 159,
    "avg_current_window": 965.0916003172601,
    "avg_prior_window": 975.3249070019023,
    "inception_score_mean": 2.095423801366446,
    "inception_score_std": 0.17962248856921773,
    "fid_per_class": {
        "airplane": 1060.5473680755251,
        "automobile": 1127.8194575171283,
        "bird": 1253.711662565948,
        "cat": 1097.8663507117265,
        "deer": 1472.1878095724314,
        "dog": 1037.1321836292266,
        "frog": 1604.9841135848965,
        "horse": 1256.613276172191,
        "ship": 948.929830989511,
        "truck": 1026.1430071597163
    },
    "fid": 775.9909239908033,
    "wasserstein_distance": null,
    "g_loss": null,
    "g_cost": null,
    "d_loss_real": null,
    "d_loss_fake": null
}