{
    "epoch": 52,
    "avg_current_window": 1185.8158502869392,
    "avg_prior_window": 1231.991739267733,
    "inception_score_mean": 1.9378778901531213,
    "inception_score_std": 0.10229710911399945,
    "fid_per_class": {
        "airplane": 1105.719503137279,
        "automobile": 1227.3352513056368,
        "bird": 1390.464182260117,
        "cat": 1241.1832437364053,
        "deer": 1477.787161205447,
        "dog": 1292.0580329937666,
        "frog": 1713.0303920960025,
        "horse": 1514.0234498114567,
        "ship": 1049.9509289609014,
        "truck": 1143.1193556318576
    },
    "fid": 944.4046616660985,
    "wasserstein_distance": null,
    "g_loss": null,
    "g_cost": null,
    "d_loss_real": null,
    "d_loss_fake": null
}