{
    "epoch": 37,
    "avg_current_window": 1276.4175186411903,
    "avg_prior_window": 1351.9537797992662,
    "inception_score_mean": 1.8060005652167348,
    "inception_score_std": 0.1325318897982071,
    "fid_per_class": {
        "airplane": 1186.0383901759778,
        "automobile": 1274.3383059470955,
        "bird": 1477.4546403874135,
        "cat": 1275.9744500316087,
        "deer": 1479.8808859047845,
        "dog": 1223.5457115263193,
        "frog": 1911.151323329971,
        "horse": 1502.751871611238,
        "ship": 966.3499985362017,
        "truck": 1206.868078448273
    },
    "fid": 986.403521110032,
    "wasserstein_distance": null,
    "g_loss": null,
    "g_cost": null,
    "d_loss_real": null,
    "d_loss_fake": null
}