{
    "epoch": 124,
    "avg_current_window": 711.5018682815396,
    "avg_prior_window": 719.9999193897074,
    "inception_score_mean": 1.9729633954598806,
    "inception_score_std": 0.1395963083641055,
    "fid_per_class": {
        "airplane": 882.4875616470017,
        "automobile": 1007.298571081617,
        "bird": 1108.5694573064036,
        "cat": 857.0485252737643,
        "deer": 1120.8970615267517,
        "dog": 890.3869332997781,
        "frog": 1114.351938293938,
        "horse": 1093.5190085028146,
        "ship": 816.2745952858613,
        "truck": 1006.6755833788792
    },
    "fid": 583.7232403568887,
    "wasserstein_distance": null,
    "g_loss": null,
    "g_cost": null,
    "d_loss_real": null,
    "d_loss_fake": null
}