{
    "epoch": 34,
    "avg_current_window": 903.266582278072,
    "avg_prior_window": 966.9620104088506,
    "inception_score_mean": 1.7594847340074717,
    "inception_score_std": 0.0871190529829951,
    "fid_per_class": {
        "airplane": 923.6363633884836,
        "automobile": 1138.2260247557997,
        "bird": 1245.716532546513,
        "cat": 892.2457700966378,
        "deer": 1183.2108452526645,
        "dog": 968.5119118763804,
        "frog": 1249.1998016762413,
        "horse": 1136.0526807976191,
        "ship": 778.5123024272144,
        "truck": 1029.7011222610918
    },
    "fid": 644.877445331718,
    "wasserstein_distance": null,
    "g_loss": null,
    "g_cost": null,
    "d_loss_real": null,
    "d_loss_fake": null
}