{
    "epoch": 152,
    "avg_current_window": 695.6850507511568,
    "avg_prior_window": 702.3659217719772,
    "inception_score_mean": 1.9236347444614477,
    "inception_score_std": 0.082587765851629,
    "fid_per_class": {
        "airplane": 882.8720476779081,
        "automobile": 1107.2231531749717,
        "bird": 1196.297097344211,
        "cat": 919.0234694505378,
        "deer": 1207.469057806147,
        "dog": 899.9799740892637,
        "frog": 1153.8680525731604,
        "horse": 1029.0977032967883,
        "ship": 845.8984558527784,
        "truck": 980.2004349727135
    },
    "fid": 617.6637183073168,
    "wasserstein_distance": null,
    "g_loss": null,
    "g_cost": null,
    "d_loss_real": null,
    "d_loss_fake": null
}