{
    "epoch": 30,
    "avg_current_window": 934.7299433952222,
    "avg_prior_window": 1010.7667963759479,
    "inception_score_mean": 1.722675008187334,
    "inception_score_std": 0.10249552844259469,
    "fid_per_class": {
        "airplane": 894.6021078450199,
        "automobile": 1156.9357329978773,
        "bird": 1179.1146759757946,
        "cat": 945.5272250747852,
        "deer": 1206.3426364593,
        "dog": 979.6246073666301,
        "frog": 1307.3115890531822,
        "horse": 1216.1221321234898,
        "ship": 745.8436558778943,
        "truck": 1079.984504455542
    },
    "fid": 687.8572398708911,
    "wasserstein_distance": null,
    "g_loss": null,
    "g_cost": null,
    "d_loss_real": null,
    "d_loss_fake": null
}