{
    "epoch": 153,
    "avg_current_window": 695.1751074018507,
    "avg_prior_window": 701.5025629624453,
    "inception_score_mean": 1.9990987169917678,
    "inception_score_std": 0.13865113105218407,
    "fid_per_class": {
        "airplane": 780.6748486503534,
        "automobile": 1003.2853432595252,
        "bird": 1125.0870480952483,
        "cat": 895.6964737289017,
        "deer": 1138.4704363889905,
        "dog": 905.7611723513878,
        "frog": 1117.5676870536238,
        "horse": 1088.8294630243677,
        "ship": 895.6837909577644,
        "truck": 967.1228569797345
    },
    "fid": 590.066756307762,
    "wasserstein_distance": null,
    "g_loss": null,
    "g_cost": null,
    "d_loss_real": null,
    "d_loss_fake": null
}