{
    "epoch": 120,
    "avg_current_window": 713.9999200614599,
    "avg_prior_window": 723.3741444394761,
    "inception_score_mean": 1.9590919458489786,
    "inception_score_std": 0.12583195599957805,
    "fid_per_class": {
        "airplane": 901.8921713565937,
        "automobile": 1017.0968118354358,
        "bird": 1176.1929127364624,
        "cat": 903.5372509786444,
        "deer": 1183.4913935777631,
        "dog": 907.7761793689019,
        "frog": 1230.1797049570664,
        "horse": 1003.0864734108909,
        "ship": 806.5904144763895,
        "truck": 1028.448896566805
    },
    "fid": 616.486054894561,
    "wasserstein_distance": null,
    "g_loss": null,
    "g_cost": null,
    "d_loss_real": null,
    "d_loss_fake": null
}