{
    "epoch": 134,
    "avg_current_window": 703.8070410894824,
    "avg_prior_window": 712.2340820442431,
    "inception_score_mean": 1.9556549974301898,
    "inception_score_std": 0.15758539902478041,
    "fid_per_class": {
        "airplane": 960.0181650372208,
        "automobile": 1108.2833363071113,
        "bird": 1216.6722261738516,
        "cat": 964.2414963273319,
        "deer": 1230.1057515227462,
        "dog": 1028.245119245993,
        "frog": 1389.4014048092617,
        "horse": 1147.2898803242185,
        "ship": 873.2680968082018,
        "truck": 1136.3219653301458
    },
    "fid": 714.248410646204,
    "wasserstein_distance": null,
    "g_loss": null,
    "g_cost": null,
    "d_loss_real": null,
    "d_loss_fake": null
}