{
    "epoch": 48,
    "avg_current_window": 831.6881824835722,
    "avg_prior_window": 868.2860389160446,
    "inception_score_mean": 1.9501443811005843,
    "inception_score_std": 0.13740245555961428,
    "fid_per_class": {
        "airplane": 871.119013713414,
        "automobile": 1051.5794857833016,
        "bird": 1137.8291295076974,
        "cat": 881.5515232049604,
        "deer": 1265.108627081539,
        "dog": 893.4879698240773,
        "frog": 1242.9100903099616,
        "horse": 1104.135671803625,
        "ship": 806.0151329651576,
        "truck": 1068.542503357105
    },
    "fid": 627.260565223529,
    "wasserstein_distance": null,
    "g_loss": null,
    "g_cost": null,
    "d_loss_real": null,
    "d_loss_fake": null
}