{
    "epoch": 110,
    "avg_current_window": 721.4448337610369,
    "avg_prior_window": 730.7464142038339,
    "inception_score_mean": 1.9490514811261561,
    "inception_score_std": 0.11223716777999965,
    "fid_per_class": {
        "airplane": 905.6934167391717,
        "automobile": 1061.514929080785,
        "bird": 1088.3959473204081,
        "cat": 925.355161712164,
        "deer": 1096.3188354922627,
        "dog": 938.1903121852174,
        "frog": 1179.7909634654932,
        "horse": 1081.0750698586048,
        "ship": 877.475756151929,
        "truck": 1091.2973343003682
    },
    "fid": 617.878736301809,
    "wasserstein_distance": null,
    "g_loss": null,
    "g_cost": null,
    "d_loss_real": null,
    "d_loss_fake": null
}