{
    "epoch": 141,
    "avg_current_window": 700.5642425152439,
    "avg_prior_window": 707.8355370548866,
    "inception_score_mean": 1.97326012359336,
    "inception_score_std": 0.13106471878404766,
    "fid_per_class": {
        "airplane": 872.4654260071038,
        "automobile": 975.7086721384791,
        "bird": 1231.3142730858708,
        "cat": 973.5789949467845,
        "deer": 1258.0635633106963,
        "dog": 979.3911264512378,
        "frog": 1356.8755507469448,
        "horse": 1143.5300867479236,
        "ship": 854.553800656733,
        "truck": 1037.6393006556018
    },
    "fid": 677.9932414996944,
    "wasserstein_distance": null,
    "g_loss": null,
    "g_cost": null,
    "d_loss_real": null,
    "d_loss_fake": null
}