{
    "epoch": 107,
    "avg_current_window": 723.7820750258751,
    "avg_prior_window": 733.9714962470167,
    "inception_score_mean": 1.902594098658375,
    "inception_score_std": 0.1463729946480643,
    "fid_per_class": {
        "airplane": 896.5626504421969,
        "automobile": 1022.7511022451852,
        "bird": 1095.946630832016,
        "cat": 929.469254607962,
        "deer": 1160.9592433446705,
        "dog": 927.5757675506308,
        "frog": 1118.0782314460348,
        "horse": 1029.9522290682557,
        "ship": 861.4872594389536,
        "truck": 1071.8407600253117
    },
    "fid": 614.3545427168657,
    "wasserstein_distance": null,
    "g_loss": null,
    "g_cost": null,
    "d_loss_real": null,
    "d_loss_fake": null
}