{
    "epoch": 92,
    "avg_current_window": 737.921124872547,
    "avg_prior_window": 750.8799711902691,
    "inception_score_mean": 1.97512826532015,
    "inception_score_std": 0.11218769037397837,
    "fid_per_class": {
        "airplane": 860.7534087617794,
        "automobile": 1045.8016875466178,
        "bird": 1134.1530903776288,
        "cat": 1003.6557033930334,
        "deer": 1192.2527277380518,
        "dog": 959.3826563744349,
        "frog": 1261.2182504386296,
        "horse": 1154.9404075547877,
        "ship": 808.7546109882119,
        "truck": 998.6212583648563
    },
    "fid": 652.8810920089945,
    "wasserstein_distance": null,
    "g_loss": null,
    "g_cost": null,
    "d_loss_real": null,
    "d_loss_fake": null
}