{
    "epoch": 154,
    "avg_current_window": 694.4925856414995,
    "avg_prior_window": 700.9871583669612,
    "inception_score_mean": 2.0584732002461954,
    "inception_score_std": 0.1664573224927051,
    "fid_per_class": {
        "airplane": 848.8380112234161,
        "automobile": 1022.6194551008106,
        "bird": 1151.1678441086883,
        "cat": 894.8766423535114,
        "deer": 1183.2000730951045,
        "dog": 929.1003502063339,
        "frog": 1142.0829365073823,
        "horse": 1000.8762766600602,
        "ship": 800.7074640852431,
        "truck": 1038.019000385987
    },
    "fid": 602.1508434222668,
    "wasserstein_distance": null,
    "g_loss": null,
    "g_cost": null,
    "d_loss_real": null,
    "d_loss_fake": null
}