{
    "epoch": 183,
    "avg_current_window": 682.7787506310692,
    "avg_prior_window": 686.8711551772703,
    "inception_score_mean": 2.001591134687768,
    "inception_score_std": 0.12896871598154808,
    "fid_per_class": {
        "airplane": 839.2931344640806,
        "automobile": 1012.1809386814268,
        "bird": 1106.4772916764482,
        "cat": 835.8634248605282,
        "deer": 1137.932829888421,
        "dog": 893.8323264413013,
        "frog": 1058.3985216254357,
        "horse": 1066.014972307617,
        "ship": 796.6339551423896,
        "truck": 1024.6496973656617
    },
    "fid": 572.1984338842392,
    "wasserstein_distance": null,
    "g_loss": null,
    "g_cost": null,
    "d_loss_real": null,
    "d_loss_fake": null
}