{
    "epoch": 8,
    "avg_current_window": 1392.1718909601163,
    "avg_prior_window": 1.0,
    "inception_score_mean": 1.403144058347415,
    "inception_score_std": 0.06406714989049843,
    "fid_per_class": {
        "airplane": 1280.93394948492,
        "automobile": 1618.974363093537,
        "bird": 1346.210465886591,
        "cat": 1285.6798829787251,
        "deer": 1394.7384240756433,
        "dog": 1397.1734006326255,
        "frog": 1457.6979185866571,
        "horse": 1370.089076362416,
        "ship": 1084.6718240594091,
        "truck": 1480.636633161209
    },
    "fid": 1049.647948070392,
    "wasserstein_distance": null,
    "g_loss": null,
    "g_cost": null,
    "d_loss_real": null,
    "d_loss_fake": null
}