{
    "epoch": 127,
    "avg_current_window": 708.8329270524839,
    "avg_prior_window": 717.8538560106023,
    "inception_score_mean": 2.0575415894657394,
    "inception_score_std": 0.1468219559545045,
    "fid_per_class": {
        "airplane": 881.5418598271283,
        "automobile": 1039.5730080199955,
        "bird": 1098.6603313502585,
        "cat": 924.882574491825,
        "deer": 1134.086700786838,
        "dog": 883.8203388066504,
        "frog": 1189.2260655613086,
        "horse": 1078.6837381365972,
        "ship": 827.9756879915159,
        "truck": 1005.2880011249445
    },
    "fid": 594.0540355357825,
    "wasserstein_distance": null,
    "g_loss": null,
    "g_cost": null,
    "d_loss_real": null,
    "d_loss_fake": null
}