{
    "epoch": 61,
    "avg_current_window": 792.4532551859933,
    "avg_prior_window": 816.8441933412348,
    "inception_score_mean": 1.9048864468066817,
    "inception_score_std": 0.15253920445506478,
    "fid_per_class": {
        "airplane": 926.7425149997691,
        "automobile": 1097.8139382146528,
        "bird": 1187.217242962795,
        "cat": 970.3220669799437,
        "deer": 1262.2461788158546,
        "dog": 996.1363959541652,
        "frog": 1292.797466776089,
        "horse": 1103.9453963973665,
        "ship": 878.8451451561236,
        "truck": 1030.2810235720542
    },
    "fid": 667.2257761945909,
    "wasserstein_distance": null,
    "g_loss": null,
    "g_cost": null,
    "d_loss_real": null,
    "d_loss_fake": null
}