{
    "epoch": 178,
    "avg_current_window": 683.6725108634892,
    "avg_prior_window": 689.726482037433,
    "inception_score_mean": 2.0520337931512267,
    "inception_score_std": 0.15340407869972914,
    "fid_per_class": {
        "airplane": 882.8152332344894,
        "automobile": 1007.9530250122491,
        "bird": 1094.8835096088264,
        "cat": 852.440289947785,
        "deer": 1089.3332922407951,
        "dog": 940.2232571294952,
        "frog": 1118.9589990086174,
        "horse": 986.5010369858039,
        "ship": 765.233642890669,
        "truck": 983.2242319383657
    },
    "fid": 569.3586878530687,
    "wasserstein_distance": null,
    "g_loss": null,
    "g_cost": null,
    "d_loss_real": null,
    "d_loss_fake": null
}