{
    "epoch": 28,
    "avg_current_window": 952.5618808968363,
    "avg_prior_window": 1034.35260386881,
    "inception_score_mean": 1.7841504070702192,
    "inception_score_std": 0.12886756060610588,
    "fid_per_class": {
        "airplane": 986.0598476004106,
        "automobile": 1072.381966987925,
        "bird": 1239.8291799298581,
        "cat": 898.6163411447674,
        "deer": 1081.662537808194,
        "dog": 1000.7541808514022,
        "frog": 1238.4063149005674,
        "horse": 1122.7987103444896,
        "ship": 781.2276480733726,
        "truck": 1054.5244291241934
    },
    "fid": 655.0867119896592,
    "wasserstein_distance": null,
    "g_loss": null,
    "g_cost": null,
    "d_loss_real": null,
    "d_loss_fake": null
}