{
    "epoch": 44,
    "avg_current_window": 848.5522653043164,
    "avg_prior_window": 893.44800163587,
    "inception_score_mean": 1.9302348259984132,
    "inception_score_std": 0.11764071835703056,
    "fid_per_class": {
        "airplane": 909.7491441969235,
        "automobile": 1165.349120611904,
        "bird": 1209.9730475423426,
        "cat": 901.0872800386377,
        "deer": 1179.1388658534192,
        "dog": 971.5411553252666,
        "frog": 1190.2969818959536,
        "horse": 1121.739868643987,
        "ship": 839.3619524967595,
        "truck": 1076.1814093974015
    },
    "fid": 649.1790556940194,
    "wasserstein_distance": null,
    "g_loss": null,
    "g_cost": null,
    "d_loss_real": null,
    "d_loss_fake": null
}