{
    "epoch": 13,
    "avg_current_window": 1190.714632499842,
    "avg_prior_window": 1523.3778844689155,
    "inception_score_mean": 1.7127915603596455,
    "inception_score_std": 0.11374133211173992,
    "fid_per_class": {
        "airplane": 1043.7463527158984,
        "automobile": 1350.700157439712,
        "bird": 1256.7955997775332,
        "cat": 1080.3481854393772,
        "deer": 1187.5514702798205,
        "dog": 1130.8633756034012,
        "frog": 1305.9126987692523,
        "horse": 1219.2257996972069,
        "ship": 940.671095813827,
        "truck": 1301.6082376893196
    },
    "fid": 816.7214699546096,
    "wasserstein_distance": null,
    "g_loss": null,
    "g_cost": null,
    "d_loss_real": null,
    "d_loss_fake": null
}