{
    "epoch": 149,
    "avg_current_window": 696.7944920700799,
    "avg_prior_window": 704.1019709460503,
    "inception_score_mean": 1.9577312648574907,
    "inception_score_std": 0.12725261047440767,
    "fid_per_class": {
        "airplane": 883.1824360312595,
        "automobile": 1045.2276593876152,
        "bird": 1106.7110527410628,
        "cat": 924.6331198217929,
        "deer": 1159.5556804447378,
        "dog": 942.5820162840996,
        "frog": 1147.2171579015962,
        "horse": 1108.146844554472,
        "ship": 895.5589862920361,
        "truck": 1100.0537345287119
    },
    "fid": 624.7072782353198,
    "wasserstein_distance": null,
    "g_loss": null,
    "g_cost": null,
    "d_loss_real": null,
    "d_loss_fake": null
}