{
    "epoch": 46,
    "avg_current_window": 839.2818277474863,
    "avg_prior_window": 881.2610537510876,
    "inception_score_mean": 1.9017108928392343,
    "inception_score_std": 0.11748696416677053,
    "fid_per_class": {
        "airplane": 896.5256535286651,
        "automobile": 1204.4037161997637,
        "bird": 1210.814533606793,
        "cat": 912.2912999712998,
        "deer": 1209.3237839539513,
        "dog": 920.6713306645696,
        "frog": 1253.8668204192038,
        "horse": 1076.8878487154261,
        "ship": 861.8267496027053,
        "truck": 1157.1840764659225
    },
    "fid": 661.2665082046153,
    "wasserstein_distance": null,
    "g_loss": null,
    "g_cost": null,
    "d_loss_real": null,
    "d_loss_fake": null
}