{
    "epoch": 179,
    "avg_current_window": 683.0338861539336,
    "avg_prior_window": 689.142228649112,
    "inception_score_mean": 1.9420070849485178,
    "inception_score_std": 0.12696654382460934,
    "fid_per_class": {
        "airplane": 872.2790386487386,
        "automobile": 1035.165029663066,
        "bird": 1172.8653903715053,
        "cat": 962.6822257649651,
        "deer": 1287.7850680820252,
        "dog": 933.9609161382646,
        "frog": 1310.4111797239511,
        "horse": 1119.269947177076,
        "ship": 917.9365485847703,
        "truck": 1024.3000604783842
    },
    "fid": 673.1120548552807,
    "wasserstein_distance": null,
    "g_loss": null,
    "g_cost": null,
    "d_loss_real": null,
    "d_loss_fake": null
}