{
    "epoch": 187,
    "avg_current_window": 681.3769439792377,
    "avg_prior_window": 686.5302822279432,
    "inception_score_mean": 1.9913917369946081,
    "inception_score_std": 0.13394687945269057,
    "fid_per_class": {
        "airplane": 885.9318943455867,
        "automobile": 1056.581811142494,
        "bird": 1047.755613619699,
        "cat": 856.7423197892003,
        "deer": 1145.1542173593427,
        "dog": 871.4829928389097,
        "frog": 1005.0966404333819,
        "horse": 1012.9933815553848,
        "ship": 861.7377455848159,
        "truck": 932.6647327002061
    },
    "fid": 554.9851291587688,
    "wasserstein_distance": null,
    "g_loss": null,
    "g_cost": null,
    "d_loss_real": null,
    "d_loss_fake": null
}