{
    "epoch": 111,
    "avg_current_window": 720.5118058559988,
    "avg_prior_window": 730.610207809138,
    "inception_score_mean": 1.9403385706118268,
    "inception_score_std": 0.11762366520348827,
    "fid_per_class": {
        "airplane": 865.724977054067,
        "automobile": 1121.4728035675137,
        "bird": 1130.2276900974489,
        "cat": 929.7031333344189,
        "deer": 1208.552119395941,
        "dog": 939.579599458006,
        "frog": 1208.6663782709925,
        "horse": 1082.9087232636484,
        "ship": 903.1353406921561,
        "truck": 1032.9245726593845
    },
    "fid": 646.5131666122281,
    "wasserstein_distance": null,
    "g_loss": null,
    "g_cost": null,
    "d_loss_real": null,
    "d_loss_fake": null
}