{
    "epoch": 112,
    "avg_current_window": 719.8511037198938,
    "avg_prior_window": 729.5237062662197,
    "inception_score_mean": 1.9618474836442275,
    "inception_score_std": 0.17609611094195113,
    "fid_per_class": {
        "airplane": 875.0332717254919,
        "automobile": 1105.9467839786914,
        "bird": 1252.9478557757438,
        "cat": 968.2031145158514,
        "deer": 1334.2592058573964,
        "dog": 990.4841050323143,
        "frog": 1330.441420988511,
        "horse": 1158.8475829616352,
        "ship": 895.7555637266603,
        "truck": 1051.2439821802209
    },
    "fid": 708.1529198167825,
    "wasserstein_distance": null,
    "g_loss": null,
    "g_cost": null,
    "d_loss_real": null,
    "d_loss_fake": null
}