{
    "epoch": 81,
    "avg_current_window": 753.2665353180959,
    "avg_prior_window": 770.4599157429687,
    "inception_score_mean": 1.9471492147853913,
    "inception_score_std": 0.14850107599490622,
    "fid_per_class": {
        "airplane": 894.933558408846,
        "automobile": 1038.5214994099665,
        "bird": 1151.7360226061946,
        "cat": 941.8777476865953,
        "deer": 1151.7242711751721,
        "dog": 944.6400670274377,
        "frog": 1271.0186163085275,
        "horse": 1103.706515728707,
        "ship": 880.4455026675103,
        "truck": 1067.6185792479064
    },
    "fid": 639.6498586328546,
    "wasserstein_distance": null,
    "g_loss": null,
    "g_cost": null,
    "d_loss_real": null,
    "d_loss_fake": null
}