{
    "epoch": 182,
    "avg_current_window": 682.7365815951241,
    "avg_prior_window": 687.5350674220399,
    "inception_score_mean": 1.96828185340886,
    "inception_score_std": 0.13610945873237884,
    "fid_per_class": {
        "airplane": 918.7086177750641,
        "automobile": 1030.62787238581,
        "bird": 1194.4379140434046,
        "cat": 940.3682211681045,
        "deer": 1350.071680723977,
        "dog": 917.0967202671013,
        "frog": 1291.0404150998656,
        "horse": 1189.7078277314565,
        "ship": 896.1625513931087,
        "truck": 1028.9818673665131
    },
    "fid": 690.453515173078,
    "wasserstein_distance": null,
    "g_loss": null,
    "g_cost": null,
    "d_loss_real": null,
    "d_loss_fake": null
}