{
    "epoch": 57,
    "avg_current_window": 802.5135934580552,
    "avg_prior_window": 828.9867360402858,
    "inception_score_mean": 1.915742815567258,
    "inception_score_std": 0.10093290620766905,
    "fid_per_class": {
        "airplane": 844.3763836513319,
        "automobile": 1039.6360828830238,
        "bird": 1185.5067379529132,
        "cat": 900.7710870167978,
        "deer": 1218.2648433940622,
        "dog": 938.3524226744545,
        "frog": 1237.0790890388785,
        "horse": 1111.3644308297075,
        "ship": 870.6558628854364,
        "truck": 1040.8854029910688
    },
    "fid": 619.3859036206952,
    "wasserstein_distance": null,
    "g_loss": null,
    "g_cost": null,
    "d_loss_real": null,
    "d_loss_fake": null
}