{
    "epoch": 125,
    "avg_current_window": 710.4796392581425,
    "avg_prior_window": 719.1373038522478,
    "inception_score_mean": 1.9295295006861637,
    "inception_score_std": 0.0859698890884607,
    "fid_per_class": {
        "airplane": 851.5901709720562,
        "automobile": 1075.8437318393408,
        "bird": 1150.116321989679,
        "cat": 935.2155137618051,
        "deer": 1084.1913851443583,
        "dog": 974.8798693242861,
        "frog": 1138.0955637408183,
        "horse": 1052.149425399752,
        "ship": 826.8974833797993,
        "truck": 1034.4199868883534
    },
    "fid": 612.4797187181973,
    "wasserstein_distance": null,
    "g_loss": null,
    "g_cost": null,
    "d_loss_real": null,
    "d_loss_fake": null
}