{
    "epoch": 132,
    "avg_current_window": 705.457062851488,
    "avg_prior_window": 713.5105178834743,
    "inception_score_mean": 1.9965607010637332,
    "inception_score_std": 0.13979256968413464,
    "fid_per_class": {
        "airplane": 886.9891218457772,
        "automobile": 1024.369952441838,
        "bird": 1116.6272536630738,
        "cat": 913.743434153205,
        "deer": 1153.1607319071059,
        "dog": 915.9651455738875,
        "frog": 1140.3679009059756,
        "horse": 1066.9883152779626,
        "ship": 812.0100410335293,
        "truck": 1041.559763422576
    },
    "fid": 608.2235776621397,
    "wasserstein_distance": null,
    "g_loss": null,
    "g_cost": null,
    "d_loss_real": null,
    "d_loss_fake": null
}