{
    "epoch": 56,
    "avg_current_window": 805.0115210040282,
    "avg_prior_window": 832.7026429512475,
    "inception_score_mean": 1.9234809459077429,
    "inception_score_std": 0.1425523344838083,
    "fid_per_class": {
        "airplane": 807.6560965895858,
        "automobile": 1077.7818495375273,
        "bird": 1165.946628189864,
        "cat": 955.8485368097647,
        "deer": 1204.4805295515616,
        "dog": 974.928197677524,
        "frog": 1306.1210191140167,
        "horse": 1187.4034849000268,
        "ship": 877.1987320549867,
        "truck": 1004.544669042796
    },
    "fid": 662.6296508835716,
    "wasserstein_distance": null,
    "g_loss": null,
    "g_cost": null,
    "d_loss_real": null,
    "d_loss_fake": null
}