{
    "epoch": 14,
    "avg_current_window": 1164.0008351751826,
    "avg_prior_window": 1455.6235661411993,
    "inception_score_mean": 1.6960779210198766,
    "inception_score_std": 0.12481467730720543,
    "fid_per_class": {
        "airplane": 987.0012924292843,
        "automobile": 1356.955686733792,
        "bird": 1288.145620472294,
        "cat": 1054.5808260646163,
        "deer": 1284.191474242567,
        "dog": 1207.4846080955272,
        "frog": 1349.8401454971834,
        "horse": 1263.120362509825,
        "ship": 829.952274583025,
        "truck": 1261.050919619478
    },
    "fid": 804.0648839213109,
    "wasserstein_distance": null,
    "g_loss": null,
    "g_cost": null,
    "d_loss_real": null,
    "d_loss_fake": null
}