{
    "epoch": 148,
    "avg_current_window": 697.6202060843287,
    "avg_prior_window": 704.3931596282525,
    "inception_score_mean": 1.9492766663236227,
    "inception_score_std": 0.1524000021133195,
    "fid_per_class": {
        "airplane": 857.8935774718138,
        "automobile": 1035.7902032359457,
        "bird": 1142.363063839298,
        "cat": 898.0357097337439,
        "deer": 1157.3007896148117,
        "dog": 878.7911375289275,
        "frog": 1089.8310482485522,
        "horse": 1027.6050860588866,
        "ship": 830.6672955341924,
        "truck": 953.3410893970256
    },
    "fid": 574.5888179612526,
    "wasserstein_distance": null,
    "g_loss": null,
    "g_cost": null,
    "d_loss_real": null,
    "d_loss_fake": null
}