{
    "epoch": 123,
    "avg_current_window": 712.0176457991339,
    "avg_prior_window": 721.0609898657591,
    "inception_score_mean": 1.9243710587198901,
    "inception_score_std": 0.17546003916913908,
    "fid_per_class": {
        "airplane": 920.0229900540994,
        "automobile": 1066.4834536217463,
        "bird": 1109.396187392811,
        "cat": 966.8452844629155,
        "deer": 1168.539592555287,
        "dog": 938.0424101017622,
        "frog": 1233.2100365523743,
        "horse": 1147.4358247471919,
        "ship": 830.4099766155798,
        "truck": 1054.443735273061
    },
    "fid": 648.0612336174322,
    "wasserstein_distance": null,
    "g_loss": null,
    "g_cost": null,
    "d_loss_real": null,
    "d_loss_fake": null
}