{
    "epoch": 84,
    "avg_current_window": 748.7574024590192,
    "avg_prior_window": 764.8917031108336,
    "inception_score_mean": 1.9521079895062041,
    "inception_score_std": 0.10541097977804723,
    "fid_per_class": {
        "airplane": 843.7218115823648,
        "automobile": 1035.4855214558982,
        "bird": 1136.2634578660918,
        "cat": 931.4285466223163,
        "deer": 1168.9334210674265,
        "dog": 865.3798572014442,
        "frog": 1144.3523548804792,
        "horse": 1048.167040286884,
        "ship": 878.9472191750076,
        "truck": 1032.85489699612
    },
    "fid": 600.6436996875086,
    "wasserstein_distance": null,
    "g_loss": null,
    "g_cost": null,
    "d_loss_real": null,
    "d_loss_fake": null
}