{
    "epoch": 37,
    "avg_current_window": 887.4054015906273,
    "avg_prior_window": 938.2984037169147,
    "inception_score_mean": 1.8339916763914679,
    "inception_score_std": 0.1293540227375997,
    "fid_per_class": {
        "airplane": 980.2296558861419,
        "automobile": 1184.322186561851,
        "bird": 1217.1956537173899,
        "cat": 884.4490565357419,
        "deer": 1168.2248819558106,
        "dog": 915.5388937679547,
        "frog": 1276.9867523519138,
        "horse": 1100.018660343227,
        "ship": 819.0085034094293,
        "truck": 1074.8025350418366
    },
    "fid": 655.4498250272973,
    "wasserstein_distance": null,
    "g_loss": null,
    "g_cost": null,
    "d_loss_real": null,
    "d_loss_fake": null
}