{
    "epoch": 186,
    "avg_current_window": 681.7241010039965,
    "avg_prior_window": 686.5086069078044,
    "inception_score_mean": 1.959766332895261,
    "inception_score_std": 0.15092375729122626,
    "fid_per_class": {
        "airplane": 893.5054511813594,
        "automobile": 1061.6738818542685,
        "bird": 1171.7287142947825,
        "cat": 911.8639461014425,
        "deer": 1244.0132003487308,
        "dog": 927.0529090418909,
        "frog": 1190.0881287037491,
        "horse": 1021.8774277836898,
        "ship": 873.7516395571554,
        "truck": 1035.286210725387
    },
    "fid": 616.8057373741046,
    "wasserstein_distance": null,
    "g_loss": null,
    "g_cost": null,
    "d_loss_real": null,
    "d_loss_fake": null
}