{
    "epoch": 139,
    "avg_current_window": 701.6101601476793,
    "avg_prior_window": 709.1372531092302,
    "inception_score_mean": 1.9640963629872494,
    "inception_score_std": 0.094014983028767,
    "fid_per_class": {
        "airplane": 877.8388506329923,
        "automobile": 1068.7635834482635,
        "bird": 1134.7768910985287,
        "cat": 931.8137022728305,
        "deer": 1152.40540804374,
        "dog": 886.205165251142,
        "frog": 1099.422810163933,
        "horse": 1129.865123767067,
        "ship": 856.9693240919587,
        "truck": 989.6628550411276
    },
    "fid": 621.1739681367976,
    "wasserstein_distance": null,
    "g_loss": null,
    "g_cost": null,
    "d_loss_real": null,
    "d_loss_fake": null
}