{
    "epoch": 158,
    "avg_current_window": 692.3622931537707,
    "avg_prior_window": 699.0317528679145,
    "inception_score_mean": 1.8904765841829163,
    "inception_score_std": 0.16020955123081318,
    "fid_per_class": {
        "airplane": 875.2693388366044,
        "automobile": 1044.065641388458,
        "bird": 1159.5005331057725,
        "cat": 977.447275815744,
        "deer": 1333.3770425457571,
        "dog": 965.8095205244512,
        "frog": 1275.6990545429162,
        "horse": 1142.8286409513967,
        "ship": 935.0105221543038,
        "truck": 1147.0967627169352
    },
    "fid": 689.6054733689432,
    "wasserstein_distance": null,
    "g_loss": null,
    "g_cost": null,
    "d_loss_real": null,
    "d_loss_fake": null
}