{
    "epoch": 33,
    "avg_current_window": 909.8651187557961,
    "avg_prior_window": 975.9578348964669,
    "inception_score_mean": 1.771850116206669,
    "inception_score_std": 0.10504420835815031,
    "fid_per_class": {
        "airplane": 943.5856527380342,
        "automobile": 1062.5983704945497,
        "bird": 1239.8732270831856,
        "cat": 935.7167708184844,
        "deer": 1210.5674689338261,
        "dog": 1005.3121105730686,
        "frog": 1291.177130066303,
        "horse": 1165.9031744845151,
        "ship": 840.1620942234225,
        "truck": 1049.386748521843
    },
    "fid": 685.5148785131801,
    "wasserstein_distance": null,
    "g_loss": null,
    "g_cost": null,
    "d_loss_real": null,
    "d_loss_fake": null
}