{
    "epoch": 173,
    "avg_current_window": 685.7854602074556,
    "avg_prior_window": 691.7535891653873,
    "inception_score_mean": 1.9748785557064479,
    "inception_score_std": 0.08247054292801925,
    "fid_per_class": {
        "airplane": 945.4010710341739,
        "automobile": 1072.9884779850581,
        "bird": 1193.260181151853,
        "cat": 991.1261289071158,
        "deer": 1355.7515943875158,
        "dog": 945.0397285976626,
        "frog": 1252.274843125226,
        "horse": 1124.295725456767,
        "ship": 894.2028290755516,
        "truck": 1047.8959103121872
    },
    "fid": 681.7967765860892,
    "wasserstein_distance": null,
    "g_loss": null,
    "g_cost": null,
    "d_loss_real": null,
    "d_loss_fake": null
}