{
    "epoch": 58,
    "avg_current_window": 799.3562194953421,
    "avg_prior_window": 824.9175128681467,
    "inception_score_mean": 1.9605723654110947,
    "inception_score_std": 0.1397613657831699,
    "fid_per_class": {
        "airplane": 873.9866307792381,
        "automobile": 1096.283292701513,
        "bird": 1249.6736997379248,
        "cat": 889.9800687529116,
        "deer": 1262.7339671061957,
        "dog": 932.0538583116299,
        "frog": 1276.1250395665315,
        "horse": 1162.940279186645,
        "ship": 819.962969467142,
        "truck": 1077.1750189472848
    },
    "fid": 656.9243837573433,
    "wasserstein_distance": null,
    "g_loss": null,
    "g_cost": null,
    "d_loss_real": null,
    "d_loss_fake": null
}