{
    "epoch": 131,
    "avg_current_window": 705.9726052476253,
    "avg_prior_window": 714.458585203694,
    "inception_score_mean": 1.9294602140955628,
    "inception_score_std": 0.16373104637323968,
    "fid_per_class": {
        "airplane": 897.1315246543148,
        "automobile": 1023.2000137247155,
        "bird": 1199.3644593813033,
        "cat": 928.6599387501177,
        "deer": 1250.839430890662,
        "dog": 893.3526948083684,
        "frog": 1215.5565081016377,
        "horse": 1134.2641044957988,
        "ship": 850.6363278968145,
        "truck": 1054.3222599468972
    },
    "fid": 637.9210089574922,
    "wasserstein_distance": null,
    "g_loss": null,
    "g_cost": null,
    "d_loss_real": null,
    "d_loss_fake": null
}