{
    "epoch": 29,
    "avg_current_window": 942.3041164517612,
    "avg_prior_window": 1022.494928449089,
    "inception_score_mean": 1.831557595768513,
    "inception_score_std": 0.08596636413749639,
    "fid_per_class": {
        "airplane": 916.6894360557333,
        "automobile": 1212.1373948144364,
        "bird": 1231.281817533756,
        "cat": 949.1588392587284,
        "deer": 1267.5069919712219,
        "dog": 931.3295101312362,
        "frog": 1336.5552982850222,
        "horse": 1191.7056667964216,
        "ship": 783.7240414810923,
        "truck": 1149.696531852285
    },
    "fid": 715.078924755592,
    "wasserstein_distance": null,
    "g_loss": null,
    "g_cost": null,
    "d_loss_real": null,
    "d_loss_fake": null
}