{
    "epoch": 175,
    "avg_current_window": 685.2042730568313,
    "avg_prior_window": 690.9095595063978,
    "inception_score_mean": 1.9647329076223676,
    "inception_score_std": 0.1161873247368863,
    "fid_per_class": {
        "airplane": 886.4626074519686,
        "automobile": 1030.3424381890447,
        "bird": 1097.7511220737824,
        "cat": 924.3118536827163,
        "deer": 1129.1657139915496,
        "dog": 931.6439543260395,
        "frog": 1119.0245090677824,
        "horse": 1054.1630031844206,
        "ship": 761.3871707961574,
        "truck": 1005.219395242265
    },
    "fid": 587.0022531624036,
    "wasserstein_distance": null,
    "g_loss": null,
    "g_cost": null,
    "d_loss_real": null,
    "d_loss_fake": null
}