{
    "epoch": 114,
    "avg_current_window": 718.6673067841492,
    "avg_prior_window": 728.0635937037987,
    "inception_score_mean": 1.9646059979367518,
    "inception_score_std": 0.14634349650692996,
    "fid_per_class": {
        "airplane": 800.338797694992,
        "automobile": 1087.8975576056453,
        "bird": 1117.293638756364,
        "cat": 890.3852336902444,
        "deer": 1119.7764668585735,
        "dog": 900.0083921187652,
        "frog": 1176.4512997892534,
        "horse": 1060.9950674644724,
        "ship": 840.2774059218942,
        "truck": 1019.0536244082814
    },
    "fid": 598.9998188714574,
    "wasserstein_distance": null,
    "g_loss": null,
    "g_cost": null,
    "d_loss_real": null,
    "d_loss_fake": null
}