{
    "epoch": 169,
    "avg_current_window": 687.6603726614502,
    "avg_prior_window": 693.7786447094127,
    "inception_score_mean": 1.9580272166862174,
    "inception_score_std": 0.08130587906021047,
    "fid_per_class": {
        "airplane": 872.2019821483964,
        "automobile": 1025.8353446583778,
        "bird": 1131.6884473698701,
        "cat": 970.2508561493897,
        "deer": 1208.4984613727015,
        "dog": 936.9353814563037,
        "frog": 1110.5170275941878,
        "horse": 1156.0222613007147,
        "ship": 869.7259934757024,
        "truck": 966.2502033305922
    },
    "fid": 630.930544666687,
    "wasserstein_distance": null,
    "g_loss": null,
    "g_cost": null,
    "d_loss_real": null,
    "d_loss_fake": null
}