{
    "epoch": 65,
    "avg_current_window": 785.5668771687687,
    "avg_prior_window": 805.6608094390932,
    "inception_score_mean": 1.9545325138534853,
    "inception_score_std": 0.14002165518197154,
    "fid_per_class": {
        "airplane": 929.4128838662677,
        "automobile": 1043.5588356524818,
        "bird": 1148.9904881280956,
        "cat": 897.4919755157864,
        "deer": 1138.5892778237308,
        "dog": 937.3704326501272,
        "frog": 1245.0877604837651,
        "horse": 1118.6549516702219,
        "ship": 832.0089613706532,
        "truck": 1031.5466229623212
    },
    "fid": 623.1353236039969,
    "wasserstein_distance": null,
    "g_loss": null,
    "g_cost": null,
    "d_loss_real": null,
    "d_loss_fake": null
}