{
    "epoch": 170,
    "avg_current_window": 687.3266677908928,
    "avg_prior_window": 693.1172749237434,
    "inception_score_mean": 1.9821533260439108,
    "inception_score_std": 0.1344535530077232,
    "fid_per_class": {
        "airplane": 866.362639356392,
        "automobile": 964.4648901281046,
        "bird": 1096.2013026200239,
        "cat": 921.2769084605827,
        "deer": 1211.0672404437362,
        "dog": 915.675214964185,
        "frog": 1182.92443449166,
        "horse": 1150.739582288776,
        "ship": 884.3508341671433,
        "truck": 974.4497578133237
    },
    "fid": 609.0915916358662,
    "wasserstein_distance": null,
    "g_loss": null,
    "g_cost": null,
    "d_loss_real": null,
    "d_loss_fake": null
}