{
    "epoch": 181,
    "avg_current_window": 683.0150864696733,
    "avg_prior_window": 688.0416449435999,
    "inception_score_mean": 2.016096138352265,
    "inception_score_std": 0.13658268598414172,
    "fid_per_class": {
        "airplane": 927.1822905723191,
        "automobile": 1089.851143605479,
        "bird": 1146.5937832743375,
        "cat": 931.3352768808818,
        "deer": 1184.7700617321366,
        "dog": 946.6209943757274,
        "frog": 1172.8488049822895,
        "horse": 1056.3199265944752,
        "ship": 877.1753932914253,
        "truck": 1005.1296417271583
    },
    "fid": 632.3271993017088,
    "wasserstein_distance": null,
    "g_loss": null,
    "g_cost": null,
    "d_loss_real": null,
    "d_loss_fake": null
}