{
    "epoch": 50,
    "avg_current_window": 823.7155061312181,
    "avg_prior_window": 857.9325350307638,
    "inception_score_mean": 1.912106780637723,
    "inception_score_std": 0.14288993569246447,
    "fid_per_class": {
        "airplane": 883.5390336304743,
        "automobile": 1092.6616869578188,
        "bird": 1115.1839907839935,
        "cat": 865.6363037166722,
        "deer": 1167.4631388380271,
        "dog": 935.3708069101654,
        "frog": 1199.7931151149603,
        "horse": 1074.7662500173078,
        "ship": 808.8053520171516,
        "truck": 1092.3211067125999
    },
    "fid": 608.3266141184993,
    "wasserstein_distance": null,
    "g_loss": null,
    "g_cost": null,
    "d_loss_real": null,
    "d_loss_fake": null
}