{
    "epoch": 196,
    "avg_current_window": 678.5197589079045,
    "avg_prior_window": 683.6040534133101,
    "inception_score_mean": 2.016758035570959,
    "inception_score_std": 0.1161098117780739,
    "fid_per_class": {
        "airplane": 851.2104882549839,
        "automobile": 999.6609222146708,
        "bird": 1114.4121156590782,
        "cat": 868.3686104983885,
        "deer": 1169.0971192689087,
        "dog": 953.8414399946396,
        "frog": 1184.874105894494,
        "horse": 1040.6406737487446,
        "ship": 849.4049019145455,
        "truck": 976.868295818597
    },
    "fid": 601.3995119085987,
    "wasserstein_distance": null,
    "g_loss": null,
    "g_cost": null,
    "d_loss_real": null,
    "d_loss_fake": null
}