{
    "epoch": 91,
    "avg_current_window": 738.9071255453573,
    "avg_prior_window": 752.7315461138417,
    "inception_score_mean": 1.999958054999297,
    "inception_score_std": 0.1110000147198557,
    "fid_per_class": {
        "airplane": 849.0232604683592,
        "automobile": 1063.8448385174356,
        "bird": 1222.7627436079954,
        "cat": 950.9627030480251,
        "deer": 1186.023129197818,
        "dog": 958.4616773609564,
        "frog": 1235.0944304459576,
        "horse": 1106.5060476016565,
        "ship": 863.3159733522031,
        "truck": 1130.9859551772183
    },
    "fid": 648.1950636468036,
    "wasserstein_distance": null,
    "g_loss": null,
    "g_cost": null,
    "d_loss_real": null,
    "d_loss_fake": null
}