{
    "epoch": 117,
    "avg_current_window": 716.2474634670165,
    "avg_prior_window": 726.1738976468293,
    "inception_score_mean": 1.9640723895863341,
    "inception_score_std": 0.16797211584391042,
    "fid_per_class": {
        "airplane": 907.5561936978527,
        "automobile": 1045.3931603376932,
        "bird": 1164.507796502672,
        "cat": 956.3740637928875,
        "deer": 1158.7813207382655,
        "dog": 917.4273597106883,
        "frog": 1239.2043019932169,
        "horse": 1073.3599239264017,
        "ship": 859.3540381764233,
        "truck": 1049.8645995751883
    },
    "fid": 631.9732988271808,
    "wasserstein_distance": null,
    "g_loss": null,
    "g_cost": null,
    "d_loss_real": null,
    "d_loss_fake": null
}