{
    "epoch": 184,
    "avg_current_window": 682.1777706487495,
    "avg_prior_window": 686.7942886950246,
    "inception_score_mean": 1.9624595005240024,
    "inception_score_std": 0.1304561947736595,
    "fid_per_class": {
        "airplane": 883.1771739407454,
        "automobile": 1057.0417798107069,
        "bird": 1135.9373222209715,
        "cat": 931.8287243241272,
        "deer": 1234.9988461137823,
        "dog": 954.836096638332,
        "frog": 1176.7785599085937,
        "horse": 1048.8538368449806,
        "ship": 837.0542414158381,
        "truck": 1034.1757280698066
    },
    "fid": 625.0158776016717,
    "wasserstein_distance": null,
    "g_loss": null,
    "g_cost": null,
    "d_loss_real": null,
    "d_loss_fake": null
}