{
    "epoch": 35,
    "avg_current_window": 895.8840355081761,
    "avg_prior_window": 957.6585180575853,
    "inception_score_mean": 1.7533445764903952,
    "inception_score_std": 0.11528950066472075,
    "fid_per_class": {
        "airplane": 1019.6425598126056,
        "automobile": 1154.796680622348,
        "bird": 1232.1954856589477,
        "cat": 1024.5786568567592,
        "deer": 1343.350027232167,
        "dog": 1043.3748811274604,
        "frog": 1374.8132399205995,
        "horse": 1192.2737144428925,
        "ship": 842.4739916207914,
        "truck": 1161.8532556686835
    },
    "fid": 767.2613365060879,
    "wasserstein_distance": null,
    "g_loss": null,
    "g_cost": null,
    "d_loss_real": null,
    "d_loss_fake": null
}