{
    "epoch": 49,
    "avg_current_window": 827.5161902945916,
    "avg_prior_window": 863.3063347519077,
    "inception_score_mean": 1.8678050052736428,
    "inception_score_std": 0.13029249354993117,
    "fid_per_class": {
        "airplane": 881.9443614217516,
        "automobile": 1143.180994900024,
        "bird": 1134.3811628606454,
        "cat": 899.9169046362894,
        "deer": 1223.5649239890593,
        "dog": 930.1760258208384,
        "frog": 1119.9660290138459,
        "horse": 1161.43460229454,
        "ship": 881.2852932774093,
        "truck": 1093.795272359945
    },
    "fid": 637.4819821259136,
    "wasserstein_distance": null,
    "g_loss": null,
    "g_cost": null,
    "d_loss_real": null,
    "d_loss_fake": null
}