{
    "epoch": 137,
    "avg_current_window": 702.6688543026612,
    "avg_prior_window": 710.0648172277163,
    "inception_score_mean": 2.0507171362986827,
    "inception_score_std": 0.1390125563989152,
    "fid_per_class": {
        "airplane": 893.3769502193259,
        "automobile": 1059.907729801392,
        "bird": 1137.2116501517671,
        "cat": 899.0054235011593,
        "deer": 1141.7156724619035,
        "dog": 881.170942920156,
        "frog": 1239.149481197503,
        "horse": 1102.5298564407442,
        "ship": 903.4703235616619,
        "truck": 1066.010404463303
    },
    "fid": 628.1614906608664,
    "wasserstein_distance": null,
    "g_loss": null,
    "g_cost": null,
    "d_loss_real": null,
    "d_loss_fake": null
}