{
    "epoch": 7,
    "avg_current_window": 1439.4456281455673,
    "avg_prior_window": 2.0,
    "inception_score_mean": 1.5783062532174992,
    "inception_score_std": 0.08370352493759113,
    "fid_per_class": {
        "airplane": 1213.9193183010243,
        "automobile": 1437.1019237605897,
        "bird": 1514.3228942331136,
        "cat": 1316.0494382396826,
        "deer": 1387.4027570678516,
        "dog": 1377.3815652601324,
        "frog": 1619.827232734318,
        "horse": 1466.850633184244,
        "ship": 1142.3758045520517,
        "truck": 1346.0896281464375
    },
    "fid": 1061.2557306619603,
    "wasserstein_distance": null,
    "g_loss": null,
    "g_cost": null,
    "d_loss_real": null,
    "d_loss_fake": null
}