{
    "epoch": 51,
    "avg_current_window": 819.4921945231257,
    "avg_prior_window": 853.6571866214997,
    "inception_score_mean": 1.8616090393906215,
    "inception_score_std": 0.15178404050497357,
    "fid_per_class": {
        "airplane": 881.1363377540711,
        "automobile": 1118.7575160856247,
        "bird": 1217.0589092224188,
        "cat": 935.5569465116737,
        "deer": 1245.0685428782147,
        "dog": 924.8551354286623,
        "frog": 1251.8435276498321,
        "horse": 1115.9244316797372,
        "ship": 838.5578765108817,
        "truck": 1165.858088353581
    },
    "fid": 673.7328698342174,
    "wasserstein_distance": null,
    "g_loss": null,
    "g_cost": null,
    "d_loss_real": null,
    "d_loss_fake": null
}