{
    "epoch": 4,
    "avg_current_window": 1474.927593422552,
    "avg_prior_window": 2334.863191300428,
    "inception_score_mean": 1.493542747223914,
    "inception_score_std": 0.06291006614722632,
    "fid_per_class": {
        "airplane": 1795.8151379931917,
        "automobile": 2138.534482019096,
        "bird": 1892.7363830744941,
        "cat": 1966.4296534173047,
        "deer": 2148.4134718301116,
        "dog": 2008.406327463789,
        "frog": 1986.5846878428374,
        "horse": 2274.8251106168314,
        "ship": 1992.4770844346872,
        "truck": 2015.351620484838
    },
    "fid": 1771.813558902683,
    "wasserstein_distance": null,
    "g_loss": null,
    "g_cost": null,
    "d_loss_real": null,
    "d_loss_fake": null
}