{
    "epoch": 142,
    "avg_current_window": 708.9776873284044,
    "avg_prior_window": 715.8500193815363,
    "inception_score_mean": 2.0499204173852723,
    "inception_score_std": 0.11092677189042194,
    "fid_per_class": {
        "airplane": 905.6454235484287,
        "automobile": 1048.1782356049655,
        "bird": 1171.5291430844468,
        "cat": 932.4516523608661,
        "deer": 1198.2217529034235,
        "dog": 929.2088596741164,
        "frog": 1254.4941405529069,
        "horse": 983.1372129558227,
        "ship": 829.4723011643081,
        "truck": 997.6014980298231
    },
    "fid": 611.9748169495465,
    "wasserstein_distance": null,
    "g_loss": null,
    "g_cost": null,
    "d_loss_real": null,
    "d_loss_fake": null
}