{
    "epoch": 23,
    "avg_current_window": 1002.7580838365886,
    "avg_prior_window": 1123.180135271676,
    "inception_score_mean": 1.8381251687004192,
    "inception_score_std": 0.14073156088803343,
    "fid_per_class": {
        "airplane": 888.0147681019884,
        "automobile": 1085.6510776826876,
        "bird": 1308.9720487266059,
        "cat": 977.0004426211699,
        "deer": 1445.1595751120778,
        "dog": 1092.954088662402,
        "frog": 1608.6197124313205,
        "horse": 1236.21427277203,
        "ship": 834.285647497832,
        "truck": 1021.9956885283517
    },
    "fid": 743.4247111402386,
    "wasserstein_distance": null,
    "g_loss": null,
    "g_cost": null,
    "d_loss_real": null,
    "d_loss_fake": null
}