{
    "epoch": 135,
    "avg_current_window": 712.3429756393707,
    "avg_prior_window": 720.2247209406146,
    "inception_score_mean": 2.0408063435714467,
    "inception_score_std": 0.12718521089660856,
    "fid_per_class": {
        "airplane": 877.2216155466517,
        "automobile": 1098.4813988710482,
        "bird": 1234.7960015586348,
        "cat": 987.988611647733,
        "deer": 1297.1112310624346,
        "dog": 1007.6070427729486,
        "frog": 1425.9536956059594,
        "horse": 1062.0321513036965,
        "ship": 863.0397721298448,
        "truck": 1002.9970562785609
    },
    "fid": 685.7518766800802,
    "wasserstein_distance": null,
    "g_loss": null,
    "g_cost": null,
    "d_loss_real": null,
    "d_loss_fake": null
}