{
    "epoch": 171,
    "avg_current_window": 695.0458550931368,
    "avg_prior_window": 701.1491594478033,
    "inception_score_mean": 2.1132716994600687,
    "inception_score_std": 0.16448982667093257,
    "fid_per_class": {
        "airplane": 847.2897901516606,
        "automobile": 1049.6832668112747,
        "bird": 1168.5894705419275,
        "cat": 941.0686285021968,
        "deer": 1105.0294032172278,
        "dog": 960.4826961177173,
        "frog": 1270.2357787650594,
        "horse": 959.2568037678611,
        "ship": 800.1181451818094,
        "truck": 1038.4912227243055
    },
    "fid": 595.8113212251415,
    "wasserstein_distance": null,
    "g_loss": null,
    "g_cost": null,
    "d_loss_real": null,
    "d_loss_fake": null
}