{
    "epoch": 108,
    "avg_current_window": 730.8946485324811,
    "avg_prior_window": 740.7436901406751,
    "inception_score_mean": 2.1051190094744223,
    "inception_score_std": 0.18015624848919237,
    "fid_per_class": {
        "airplane": 844.4875150045426,
        "automobile": 1085.7775670336587,
        "bird": 1177.174860983568,
        "cat": 974.3729290399543,
        "deer": 1302.4079746848952,
        "dog": 999.9708319289791,
        "frog": 1334.9124019133783,
        "horse": 1023.5940943742146,
        "ship": 891.5687141252735,
        "truck": 1005.6711526920102
    },
    "fid": 652.0108097735886,
    "wasserstein_distance": null,
    "g_loss": null,
    "g_cost": null,
    "d_loss_real": null,
    "d_loss_fake": null
}