{
    "epoch": 174,
    "avg_current_window": 693.6614379812604,
    "avg_prior_window": 699.6794883241362,
    "inception_score_mean": 2.0958492003764944,
    "inception_score_std": 0.10710141141353803,
    "fid_per_class": {
        "airplane": 899.8466368465934,
        "automobile": 1054.5815673744582,
        "bird": 1203.7760939736218,
        "cat": 921.7168325468238,
        "deer": 1287.4881587750883,
        "dog": 983.9673189676124,
        "frog": 1265.6521428820838,
        "horse": 1040.385170334011,
        "ship": 830.9110390515968,
        "truck": 1005.3300454417428
    },
    "fid": 637.861037825792,
    "wasserstein_distance": null,
    "g_loss": null,
    "g_cost": null,
    "d_loss_real": null,
    "d_loss_fake": null
}