{
    "epoch": 165,
    "avg_current_window": 697.807274365298,
    "avg_prior_window": 704.0826198238085,
    "inception_score_mean": 2.0521220271879566,
    "inception_score_std": 0.08798286951473928,
    "fid_per_class": {
        "airplane": 868.5369929765195,
        "automobile": 1035.8995119927445,
        "bird": 1077.1815961226334,
        "cat": 993.025178289141,
        "deer": 1160.8261062531803,
        "dog": 918.0618152575631,
        "frog": 1217.3127909796176,
        "horse": 979.777285349055,
        "ship": 816.466692814814,
        "truck": 990.5321220677963
    },
    "fid": 612.7480004153333,
    "wasserstein_distance": null,
    "g_loss": null,
    "g_cost": null,
    "d_loss_real": null,
    "d_loss_fake": null
}