{
    "epoch": 7,
    "avg_current_window": 1322.1433085333877,
    "avg_prior_window": 2.0,
    "inception_score_mean": 1.6544506583183747,
    "inception_score_std": 0.06923286479617977,
    "fid_per_class": {
        "airplane": 1707.23333413786,
        "automobile": 1689.6144314647054,
        "bird": 2134.9373451127803,
        "cat": 2133.957661959111,
        "deer": 2347.799003209041,
        "dog": 2215.019466671139,
        "frog": 2446.9086191529864,
        "horse": 2133.863975554815,
        "ship": 1676.9759127442235,
        "truck": 1544.8439653209412
    },
    "fid": 1744.417176779688,
    "wasserstein_distance": null,
    "g_loss": null,
    "g_cost": null,
    "d_loss_real": null,
    "d_loss_fake": null
}