{
    "epoch": 144,
    "avg_current_window": 707.7662761411267,
    "avg_prior_window": 715.0294063329651,
    "inception_score_mean": 2.0255023881876326,
    "inception_score_std": 0.14421979410617922,
    "fid_per_class": {
        "airplane": 859.4675378102656,
        "automobile": 1105.1001328236707,
        "bird": 1235.3815072933467,
        "cat": 1005.24355037777,
        "deer": 1350.9497774522317,
        "dog": 993.860290237873,
        "frog": 1399.3908987607729,
        "horse": 1030.8420174430773,
        "ship": 747.5250708411331,
        "truck": 1009.2407584030132
    },
    "fid": 655.8293937398076,
    "wasserstein_distance": null,
    "g_loss": null,
    "g_cost": null,
    "d_loss_real": null,
    "d_loss_fake": null
}