{
    "epoch": 30,
    "avg_current_window": 934.9559773909968,
    "avg_prior_window": 1008.0252637066878,
    "inception_score_mean": 1.8900912025573742,
    "inception_score_std": 0.12461762143724758,
    "fid_per_class": {
        "airplane": 892.3350294965476,
        "automobile": 1140.998248424901,
        "bird": 1306.171395472927,
        "cat": 973.9190467408325,
        "deer": 1311.9185423762624,
        "dog": 944.8940137470719,
        "frog": 1348.9564377373663,
        "horse": 1191.8591276957977,
        "ship": 777.8757053962962,
        "truck": 1161.3682321006513
    },
    "fid": 686.5331512612734,
    "wasserstein_distance": null,
    "g_loss": null,
    "g_cost": null,
    "d_loss_real": null,
    "d_loss_fake": null
}