{
    "epoch": 147,
    "avg_current_window": 706.3669449089014,
    "avg_prior_window": 713.2873691379082,
    "inception_score_mean": 2.0346717369940834,
    "inception_score_std": 0.11443890910594733,
    "fid_per_class": {
        "airplane": 897.2674334490418,
        "automobile": 1029.5604580078934,
        "bird": 1189.5786666082793,
        "cat": 974.0215018725935,
        "deer": 1272.2552529029554,
        "dog": 918.3242298566058,
        "frog": 1269.1268569140068,
        "horse": 1098.6746063221037,
        "ship": 792.2642428599745,
        "truck": 975.9311786905542
    },
    "fid": 638.7488838232161,
    "wasserstein_distance": null,
    "g_loss": null,
    "g_cost": null,
    "d_loss_real": null,
    "d_loss_fake": null
}