{
    "epoch": 94,
    "avg_current_window": 743.4303740490543,
    "avg_prior_window": 756.1700215016635,
    "inception_score_mean": 2.0454788007377873,
    "inception_score_std": 0.13278192344395337,
    "fid_per_class": {
        "airplane": 869.9355068787615,
        "automobile": 1040.913670335898,
        "bird": 1160.7270318120927,
        "cat": 899.7213623797644,
        "deer": 1237.6905720947025,
        "dog": 939.0675764168168,
        "frog": 1259.3369653050627,
        "horse": 1026.792941248021,
        "ship": 847.5336331759189,
        "truck": 1074.7370638761695
    },
    "fid": 617.3243449974374,
    "wasserstein_distance": null,
    "g_loss": null,
    "g_cost": null,
    "d_loss_real": null,
    "d_loss_fake": null
}