{
    "epoch": 121,
    "avg_current_window": 721.6997104327071,
    "avg_prior_window": 730.734832373888,
    "inception_score_mean": 1.980908975524276,
    "inception_score_std": 0.10213646051807468,
    "fid_per_class": {
        "airplane": 911.6548565216937,
        "automobile": 1031.676607500131,
        "bird": 1188.911404398732,
        "cat": 972.7854298794392,
        "deer": 1233.5198811467417,
        "dog": 942.1125672978425,
        "frog": 1291.683359217959,
        "horse": 1017.848012751212,
        "ship": 805.2917668088844,
        "truck": 1022.1947590039695
    },
    "fid": 630.6910020566709,
    "wasserstein_distance": null,
    "g_loss": null,
    "g_cost": null,
    "d_loss_real": null,
    "d_loss_fake": null
}