{
    "epoch": 32,
    "avg_current_window": 919.8239363068266,
    "avg_prior_window": 988.8677658233634,
    "inception_score_mean": 1.9341828164744768,
    "inception_score_std": 0.1115361961215991,
    "fid_per_class": {
        "airplane": 861.8545631000521,
        "automobile": 1035.2550631253675,
        "bird": 1229.5154009762753,
        "cat": 904.0569906655355,
        "deer": 1290.6946668934872,
        "dog": 938.9703404950271,
        "frog": 1432.5585231441187,
        "horse": 1116.8758565138005,
        "ship": 763.1207752929938,
        "truck": 1159.8305481842608
    },
    "fid": 643.5472337242566,
    "wasserstein_distance": null,
    "g_loss": null,
    "g_cost": null,
    "d_loss_real": null,
    "d_loss_fake": null
}