{
    "epoch": 105,
    "avg_current_window": 732.9461325639,
    "avg_prior_window": 743.8287689014402,
    "inception_score_mean": 2.089968294585011,
    "inception_score_std": 0.183629652334866,
    "fid_per_class": {
        "airplane": 891.3203826292493,
        "automobile": 1085.7701690886215,
        "bird": 1237.9202078713265,
        "cat": 1021.3266692433481,
        "deer": 1284.1087833187335,
        "dog": 948.4483172470768,
        "frog": 1390.3125754290093,
        "horse": 983.4163199608024,
        "ship": 801.9361837573322,
        "truck": 1078.1683211979152
    },
    "fid": 663.7049252292277,
    "wasserstein_distance": null,
    "g_loss": null,
    "g_cost": null,
    "d_loss_real": null,
    "d_loss_fake": null
}