{
    "epoch": 1,
    "avg_current_window": 3.0,
    "avg_prior_window": 8.0,
    "inception_score_mean": 1.0012299238507567,
    "inception_score_std": 0.0007904225581042849,
    "fid_per_class": {
        "airplane": 2259.9182717654317,
        "automobile": 2420.405777730366,
        "bird": 2475.333285027651,
        "cat": 2360.7255634150265,
        "deer": 2773.83462322357,
        "dog": 2489.124137310777,
        "frog": 2693.9615407813294,
        "horse": 2728.376405249637,
        "ship": 2459.9634703481265,
        "truck": 2315.4770516802814
    },
    "fid": 2449.9642564128903,
    "wasserstein_distance": null,
    "g_loss": null,
    "g_cost": null,
    "d_loss_real": null,
    "d_loss_fake": null
}