{
    "epoch": 167,
    "avg_current_window": 696.950661487038,
    "avg_prior_window": 702.922829222854,
    "inception_score_mean": 2.0914498090577083,
    "inception_score_std": 0.14038665112029153,
    "fid_per_class": {
        "airplane": 926.0523816381535,
        "automobile": 1065.9083274950058,
        "bird": 1152.5826863069708,
        "cat": 939.1649916071062,
        "deer": 1231.5999915036475,
        "dog": 944.9256991736174,
        "frog": 1234.114236553502,
        "horse": 1015.1316712073151,
        "ship": 832.9722204433847,
        "truck": 990.4865175135568
    },
    "fid": 622.3045737792413,
    "wasserstein_distance": null,
    "g_loss": null,
    "g_cost": null,
    "d_loss_real": null,
    "d_loss_fake": null
}