{
    "epoch": 43,
    "avg_current_window": 856.1429868650314,
    "avg_prior_window": 899.0140938085219,
    "inception_score_mean": 1.9646594830260788,
    "inception_score_std": 0.21568929556595517,
    "fid_per_class": {
        "airplane": 905.6121738577834,
        "automobile": 1090.5186778507452,
        "bird": 1262.5879431581175,
        "cat": 986.4232486012543,
        "deer": 1425.0237223016336,
        "dog": 990.0768330875848,
        "frog": 1443.467026510531,
        "horse": 1154.9683304492678,
        "ship": 783.35568017606,
        "truck": 1064.389529202104
    },
    "fid": 697.6603273054006,
    "wasserstein_distance": null,
    "g_loss": null,
    "g_cost": null,
    "d_loss_real": null,
    "d_loss_fake": null
}