{
    "epoch": 166,
    "avg_current_window": 697.2948691005392,
    "avg_prior_window": 703.5601308871886,
    "inception_score_mean": 2.045724970653839,
    "inception_score_std": 0.09348261548108133,
    "fid_per_class": {
        "airplane": 851.9571389849912,
        "automobile": 1038.3829398951268,
        "bird": 1246.2346080830748,
        "cat": 987.2874243266572,
        "deer": 1243.2387084416573,
        "dog": 996.8186493788131,
        "frog": 1303.477947961599,
        "horse": 998.9139051909892,
        "ship": 792.9500120282735,
        "truck": 992.5293320523183
    },
    "fid": 639.8121976458409,
    "wasserstein_distance": null,
    "g_loss": null,
    "g_cost": null,
    "d_loss_real": null,
    "d_loss_fake": null
}