{
    "epoch": 89,
    "avg_current_window": 748.6513644803102,
    "avg_prior_window": 762.9190941207935,
    "inception_score_mean": 2.004808618035144,
    "inception_score_std": 0.14820950687309184,
    "fid_per_class": {
        "airplane": 867.9153197549699,
        "automobile": 1057.130862290759,
        "bird": 1196.3934855424557,
        "cat": 984.1996059882981,
        "deer": 1252.3157633099663,
        "dog": 968.865013191624,
        "frog": 1412.557000459749,
        "horse": 1107.4355948051652,
        "ship": 823.0240305244146,
        "truck": 1030.4915605851675
    },
    "fid": 669.1604749004413,
    "wasserstein_distance": null,
    "g_loss": null,
    "g_cost": null,
    "d_loss_real": null,
    "d_loss_fake": null
}