{
    "epoch": 53,
    "avg_current_window": 820.8570361091491,
    "avg_prior_window": 849.5490658590348,
    "inception_score_mean": 2.094736780587482,
    "inception_score_std": 0.2426143417707167,
    "fid_per_class": {
        "airplane": 900.2890947112929,
        "automobile": 1017.8419667888825,
        "bird": 1141.8544726097748,
        "cat": 897.8017939691765,
        "deer": 1250.9682527683826,
        "dog": 897.7726033573118,
        "frog": 1372.358717696072,
        "horse": 974.7038042218398,
        "ship": 727.1796397018522,
        "truck": 1020.168805240075
    },
    "fid": 604.2728130751902,
    "wasserstein_distance": null,
    "g_loss": null,
    "g_cost": null,
    "d_loss_real": null,
    "d_loss_fake": null
}