{
    "epoch": 81,
    "avg_current_window": 760.044250814398,
    "avg_prior_window": 775.8357191394464,
    "inception_score_mean": 2.050599790563328,
    "inception_score_std": 0.09388564898818981,
    "fid_per_class": {
        "airplane": 829.1855334711349,
        "automobile": 1046.7954584582983,
        "bird": 1159.604102882831,
        "cat": 953.8433934163137,
        "deer": 1271.6838406957627,
        "dog": 958.1475441602395,
        "frog": 1353.4850637157406,
        "horse": 1070.4959927878679,
        "ship": 808.2906678888054,
        "truck": 1004.9559877459093
    },
    "fid": 638.6444725683339,
    "wasserstein_distance": null,
    "g_loss": null,
    "g_cost": null,
    "d_loss_real": null,
    "d_loss_fake": null
}