{
    "epoch": 37,
    "avg_current_window": 885.0074942664547,
    "avg_prior_window": 939.9347873607096,
    "inception_score_mean": 1.9341140579902827,
    "inception_score_std": 0.15831612082548616,
    "fid_per_class": {
        "airplane": 889.912873837659,
        "automobile": 1109.6460757203854,
        "bird": 1218.9545098061617,
        "cat": 1030.9736714265937,
        "deer": 1296.2338632425533,
        "dog": 990.8049666575425,
        "frog": 1520.4276671999733,
        "horse": 1179.7367324086385,
        "ship": 763.697936762732,
        "truck": 1130.8826354761402
    },
    "fid": 724.6874382001615,
    "wasserstein_distance": null,
    "g_loss": null,
    "g_cost": null,
    "d_loss_real": null,
    "d_loss_fake": null
}