{
    "epoch": 18,
    "avg_current_window": 1081.6946156264507,
    "avg_prior_window": 1263.3537545587826,
    "inception_score_mean": 1.85309897368924,
    "inception_score_std": 0.1173904125306992,
    "fid_per_class": {
        "airplane": 1068.631319081565,
        "automobile": 1155.0558705905746,
        "bird": 1212.607458180336,
        "cat": 988.0565385463117,
        "deer": 1276.1026145905355,
        "dog": 946.4229539177738,
        "frog": 1521.960617055714,
        "horse": 1234.270635671286,
        "ship": 900.5357576884454,
        "truck": 1136.6642658968829
    },
    "fid": 746.7393536140523,
    "wasserstein_distance": null,
    "g_loss": null,
    "g_cost": null,
    "d_loss_real": null,
    "d_loss_fake": null
}