{
    "epoch": 13,
    "avg_current_window": 1195.9117279447928,
    "avg_prior_window": 1510.8001103071533,
    "inception_score_mean": 1.9204603341986197,
    "inception_score_std": 0.10617605588013147,
    "fid_per_class": {
        "airplane": 1175.0544895558708,
        "automobile": 1266.6327590889152,
        "bird": 1366.8859307563694,
        "cat": 1092.182138149377,
        "deer": 1547.8740470415496,
        "dog": 1137.95730603179,
        "frog": 1686.6746643452466,
        "horse": 1470.047675295737,
        "ship": 967.6250282145165,
        "truck": 1151.2797847302008
    },
    "fid": 876.7463459818682,
    "wasserstein_distance": null,
    "g_loss": null,
    "g_cost": null,
    "d_loss_real": null,
    "d_loss_fake": null
}