{
    "epoch": 102,
    "avg_current_window": 735.4765115296159,
    "avg_prior_window": 746.8670885734168,
    "inception_score_mean": 2.00609828866736,
    "inception_score_std": 0.11509734456283083,
    "fid_per_class": {
        "airplane": 891.8684284144821,
        "automobile": 1083.6271700018165,
        "bird": 1160.235115576279,
        "cat": 969.5845068557511,
        "deer": 1289.6507185194782,
        "dog": 978.478858465731,
        "frog": 1366.3646080201913,
        "horse": 1133.9968250402312,
        "ship": 834.6649487060687,
        "truck": 1085.0779422726373
    },
    "fid": 662.388276526422,
    "wasserstein_distance": null,
    "g_loss": null,
    "g_cost": null,
    "d_loss_real": null,
    "d_loss_fake": null
}