{
    "epoch": 14,
    "avg_current_window": 1173.1142006617267,
    "avg_prior_window": 1444.9319721067843,
    "inception_score_mean": 1.7528769545742175,
    "inception_score_std": 0.15695526598071435,
    "fid_per_class": {
        "airplane": 1061.0858036417972,
        "automobile": 1313.5475226259878,
        "bird": 1261.9881666197446,
        "cat": 1063.6416410435272,
        "deer": 1529.6761270045802,
        "dog": 1112.158953927323,
        "frog": 1523.343378557428,
        "horse": 1381.779458166278,
        "ship": 949.2506007144923,
        "truck": 1282.6252602099858
    },
    "fid": 835.9559479252034,
    "wasserstein_distance": null,
    "g_loss": null,
    "g_cost": null,
    "d_loss_real": null,
    "d_loss_fake": null
}