{
    "epoch": 152,
    "avg_current_window": 703.9212401403126,
    "avg_prior_window": 710.7121754111,
    "inception_score_mean": 2.0727513187980677,
    "inception_score_std": 0.1436885438192978,
    "fid_per_class": {
        "airplane": 854.653464422334,
        "automobile": 1052.098370869372,
        "bird": 1167.6059093991714,
        "cat": 962.9438317841068,
        "deer": 1219.391615797078,
        "dog": 986.7289136299382,
        "frog": 1270.72850434574,
        "horse": 1021.9885065019314,
        "ship": 767.8967672330538,
        "truck": 998.0733976923309
    },
    "fid": 617.5254811968579,
    "wasserstein_distance": null,
    "g_loss": null,
    "g_cost": null,
    "d_loss_real": null,
    "d_loss_fake": null
}