{
    "epoch": 131,
    "avg_current_window": 714.7268223074801,
    "avg_prior_window": 722.7644827543006,
    "inception_score_mean": 2.0469201809030366,
    "inception_score_std": 0.17098156041520485,
    "fid_per_class": {
        "airplane": 869.4102362666168,
        "automobile": 1024.934860999044,
        "bird": 1158.143995482661,
        "cat": 991.6516391472624,
        "deer": 1264.0910531577583,
        "dog": 946.0508570846857,
        "frog": 1343.654638902436,
        "horse": 1114.6606145492858,
        "ship": 817.2749946083298,
        "truck": 1012.9386143904044
    },
    "fid": 647.1864931868212,
    "wasserstein_distance": null,
    "g_loss": null,
    "g_cost": null,
    "d_loss_real": null,
    "d_loss_fake": null
}