{
    "epoch": 155,
    "avg_current_window": 702.2042930415989,
    "avg_prior_window": 708.9357164495065,
    "inception_score_mean": 2.050867838040132,
    "inception_score_std": 0.08730733802325226,
    "fid_per_class": {
        "airplane": 900.881216294111,
        "automobile": 1062.5636967827788,
        "bird": 1207.6156344980068,
        "cat": 965.7750317051714,
        "deer": 1252.4689399970746,
        "dog": 933.1398584851747,
        "frog": 1345.1234882132235,
        "horse": 956.2255659198182,
        "ship": 816.4893436952962,
        "truck": 1033.1490544528951
    },
    "fid": 647.9450579552666,
    "wasserstein_distance": null,
    "g_loss": null,
    "g_cost": null,
    "d_loss_real": null,
    "d_loss_fake": null
}