{
    "epoch": 82,
    "avg_current_window": 758.5637657138362,
    "avg_prior_window": 774.3918669390865,
    "inception_score_mean": 2.0502363294233357,
    "inception_score_std": 0.21213594964936056,
    "fid_per_class": {
        "airplane": 865.390211404467,
        "automobile": 1093.0998218025384,
        "bird": 1191.5667431332513,
        "cat": 967.2691659612346,
        "deer": 1325.8739757522576,
        "dog": 1017.4543730525361,
        "frog": 1399.7827886185933,
        "horse": 1070.0178933542666,
        "ship": 831.5573040501379,
        "truck": 1064.0590908688068
    },
    "fid": 662.1022802981589,
    "wasserstein_distance": null,
    "g_loss": null,
    "g_cost": null,
    "d_loss_real": null,
    "d_loss_fake": null
}