{
    "epoch": 134,
    "avg_current_window": 712.8499731590009,
    "avg_prior_window": 720.7908453651027,
    "inception_score_mean": 2.0666177799085004,
    "inception_score_std": 0.14664634667284718,
    "fid_per_class": {
        "airplane": 915.4885426098909,
        "automobile": 1040.1494636397406,
        "bird": 1214.1491024269367,
        "cat": 978.0780648449912,
        "deer": 1266.9038634799708,
        "dog": 925.2725862145354,
        "frog": 1307.5156289032648,
        "horse": 1072.2316188923578,
        "ship": 875.5686981842892,
        "truck": 1044.1490531223333
    },
    "fid": 644.4053080089236,
    "wasserstein_distance": null,
    "g_loss": null,
    "g_cost": null,
    "d_loss_real": null,
    "d_loss_fake": null
}