{
    "epoch": 194,
    "avg_current_window": 685.6993158697516,
    "avg_prior_window": 690.7555064366276,
    "inception_score_mean": 2.047685406390143,
    "inception_score_std": 0.1381675095529404,
    "fid_per_class": {
        "airplane": 858.2384957649867,
        "automobile": 1042.7295593952956,
        "bird": 1138.7752173574777,
        "cat": 939.8663817992249,
        "deer": 1367.211940705945,
        "dog": 953.2795970845001,
        "frog": 1269.5030212578495,
        "horse": 963.0625033118972,
        "ship": 833.5041924384602,
        "truck": 987.1977398083104
    },
    "fid": 623.8825911501312,
    "wasserstein_distance": null,
    "g_loss": null,
    "g_cost": null,
    "d_loss_real": null,
    "d_loss_fake": null
}