{
    "epoch": 26,
    "avg_current_window": 969.2550612564306,
    "avg_prior_window": 1064.624830250482,
    "inception_score_mean": 1.8938963202740902,
    "inception_score_std": 0.13908318102505504,
    "fid_per_class": {
        "airplane": 967.0395285058644,
        "automobile": 1135.738669337928,
        "bird": 1239.2799319742107,
        "cat": 1019.1674942085655,
        "deer": 1364.528440507105,
        "dog": 1062.306576067193,
        "frog": 1479.7061427179915,
        "horse": 1164.5313485276708,
        "ship": 741.186686998806,
        "truck": 1136.491077428565
    },
    "fid": 721.9827390930509,
    "wasserstein_distance": null,
    "g_loss": null,
    "g_cost": null,
    "d_loss_real": null,
    "d_loss_fake": null
}