{
    "epoch": 176,
    "avg_current_window": 692.7153569792931,
    "avg_prior_window": 698.5301318254476,
    "inception_score_mean": 2.0567768584684707,
    "inception_score_std": 0.167313800518008,
    "fid_per_class": {
        "airplane": 895.4181741476832,
        "automobile": 1049.3441522757391,
        "bird": 1198.2394144914815,
        "cat": 943.7240181811068,
        "deer": 1240.270812576637,
        "dog": 1004.2669976950416,
        "frog": 1290.1565486457432,
        "horse": 1000.8685753500117,
        "ship": 833.3896906027192,
        "truck": 1014.4971488253921
    },
    "fid": 624.7603380913238,
    "wasserstein_distance": null,
    "g_loss": null,
    "g_cost": null,
    "d_loss_real": null,
    "d_loss_fake": null
}