{
    "epoch": 191,
    "avg_current_window": 686.6430576441214,
    "avg_prior_window": 691.7570821187169,
    "inception_score_mean": 2.040165453960907,
    "inception_score_std": 0.18528435806555396,
    "fid_per_class": {
        "airplane": 919.3620855235874,
        "automobile": 1065.5820123124017,
        "bird": 1169.7750160545581,
        "cat": 920.4347386568206,
        "deer": 1246.6315144374814,
        "dog": 981.2312156422827,
        "frog": 1306.6621605723144,
        "horse": 1042.1763251580771,
        "ship": 808.3242603730461,
        "truck": 1047.025490365269
    },
    "fid": 644.0709066976661,
    "wasserstein_distance": null,
    "g_loss": null,
    "g_cost": null,
    "d_loss_real": null,
    "d_loss_fake": null
}