{
    "epoch": 24,
    "avg_current_window": 991.9525266409074,
    "avg_prior_window": 1101.133951171458,
    "inception_score_mean": 1.852242543112179,
    "inception_score_std": 0.1380666282638282,
    "fid_per_class": {
        "airplane": 873.8020884887518,
        "automobile": 1085.1555536516023,
        "bird": 1318.384521047033,
        "cat": 1030.4586062828632,
        "deer": 1382.8442681527204,
        "dog": 1086.3937606614631,
        "frog": 1519.0886182417373,
        "horse": 1162.8854673213018,
        "ship": 741.4370398978025,
        "truck": 1030.7139865545766
    },
    "fid": 723.8131891545032,
    "wasserstein_distance": null,
    "g_loss": null,
    "g_cost": null,
    "d_loss_real": null,
    "d_loss_fake": null
}