{
    "epoch": 170,
    "avg_current_window": 695.5637266281118,
    "avg_prior_window": 701.5208986102394,
    "inception_score_mean": 2.029548512452201,
    "inception_score_std": 0.1600028608685969,
    "fid_per_class": {
        "airplane": 922.7815072307346,
        "automobile": 1024.4129463939307,
        "bird": 1102.4548517533997,
        "cat": 931.5080503041204,
        "deer": 1220.888561016969,
        "dog": 958.7553479589993,
        "frog": 1198.536966248471,
        "horse": 954.9971857739004,
        "ship": 797.9622585129791,
        "truck": 991.1018504279141
    },
    "fid": 607.0076941473753,
    "wasserstein_distance": null,
    "g_loss": null,
    "g_cost": null,
    "d_loss_real": null,
    "d_loss_fake": null
}