{
    "epoch": 132,
    "avg_current_window": 714.2151531474751,
    "avg_prior_window": 721.8535757433152,
    "inception_score_mean": 2.091249491903099,
    "inception_score_std": 0.13011852229397186,
    "fid_per_class": {
        "airplane": 887.6118085089558,
        "automobile": 990.3958502319031,
        "bird": 1239.5497463105398,
        "cat": 979.5154262509284,
        "deer": 1216.4397599605336,
        "dog": 936.0027411550028,
        "frog": 1373.5280357509735,
        "horse": 1001.0837173315815,
        "ship": 801.0830837186193,
        "truck": 968.1336262545251
    },
    "fid": 630.3267265159855,
    "wasserstein_distance": null,
    "g_loss": null,
    "g_cost": null,
    "d_loss_real": null,
    "d_loss_fake": null
}