{
    "epoch": 163,
    "avg_current_window": 698.6104192276217,
    "avg_prior_window": 704.9115651359607,
    "inception_score_mean": 2.088650627195798,
    "inception_score_std": 0.16641721765269768,
    "fid_per_class": {
        "airplane": 880.1506249770073,
        "automobile": 1026.6171106922288,
        "bird": 1132.3315845714867,
        "cat": 942.151108599338,
        "deer": 1182.6572210317809,
        "dog": 956.4999746074708,
        "frog": 1283.1737249584821,
        "horse": 1018.7294108613614,
        "ship": 789.2921201733111,
        "truck": 962.3834819709145
    },
    "fid": 615.9723738620253,
    "wasserstein_distance": null,
    "g_loss": null,
    "g_cost": null,
    "d_loss_real": null,
    "d_loss_fake": null
}