{
    "epoch": 195,
    "avg_current_window": 685.3823070250354,
    "avg_prior_window": 690.2569684738273,
    "inception_score_mean": 2.0567358301151866,
    "inception_score_std": 0.12230280910363966,
    "fid_per_class": {
        "airplane": 813.8251355357473,
        "automobile": 1030.1905437534492,
        "bird": 1178.6960606115733,
        "cat": 960.8902514316809,
        "deer": 1203.4766244504854,
        "dog": 967.3291165574692,
        "frog": 1219.7126283770922,
        "horse": 1021.504783372533,
        "ship": 811.3497906350383,
        "truck": 945.4796820116256
    },
    "fid": 619.3392484341889,
    "wasserstein_distance": null,
    "g_loss": null,
    "g_cost": null,
    "d_loss_real": null,
    "d_loss_fake": null
}