{
    "epoch": 83,
    "avg_current_window": 757.401579142563,
    "avg_prior_window": 772.802964496199,
    "inception_score_mean": 2.035611307750721,
    "inception_score_std": 0.11013996434247217,
    "fid_per_class": {
        "airplane": 869.6352428774029,
        "automobile": 991.0889214603642,
        "bird": 1161.9346836415266,
        "cat": 959.6401040758283,
        "deer": 1253.3235557884718,
        "dog": 936.1581774778872,
        "frog": 1341.5886169624168,
        "horse": 990.6702001167666,
        "ship": 803.1275608662227,
        "truck": 1038.8718176888744
    },
    "fid": 608.7545402878573,
    "wasserstein_distance": null,
    "g_loss": null,
    "g_cost": null,
    "d_loss_real": null,
    "d_loss_fake": null
}