{
    "epoch": 159,
    "avg_current_window": 700.4781590659233,
    "avg_prior_window": 706.7640611782327,
    "inception_score_mean": 2.1116051778773417,
    "inception_score_std": 0.17084083293994615,
    "fid_per_class": {
        "airplane": 854.8439495819835,
        "automobile": 1093.8133294064114,
        "bird": 1182.745140231153,
        "cat": 944.9407371263292,
        "deer": 1276.594194423432,
        "dog": 905.4626885117955,
        "frog": 1298.1822331705844,
        "horse": 984.237647223166,
        "ship": 841.6610192611746,
        "truck": 924.496960448891
    },
    "fid": 622.3254806584445,
    "wasserstein_distance": null,
    "g_loss": null,
    "g_cost": null,
    "d_loss_real": null,
    "d_loss_fake": null
}