{
    "epoch": 86,
    "avg_current_window": 752.2537379007823,
    "avg_prior_window": 767.9287504757355,
    "inception_score_mean": 2.0321662435469365,
    "inception_score_std": 0.10792588432575705,
    "fid_per_class": {
        "airplane": 854.930521140044,
        "automobile": 1044.8248463674151,
        "bird": 1164.1722454304477,
        "cat": 994.3388523741197,
        "deer": 1324.583605356691,
        "dog": 941.7060214993113,
        "frog": 1318.0430433615584,
        "horse": 999.6241278332332,
        "ship": 760.6508389881453,
        "truck": 1056.4957250417067
    },
    "fid": 623.273673727503,
    "wasserstein_distance": null,
    "g_loss": null,
    "g_cost": null,
    "d_loss_real": null,
    "d_loss_fake": null
}