{
    "epoch": 197,
    "avg_current_window": 684.8282651351687,
    "avg_prior_window": 689.7717854735942,
    "inception_score_mean": 2.0935284464601382,
    "inception_score_std": 0.1534508131326082,
    "fid_per_class": {
        "airplane": 856.4144595831415,
        "automobile": 1019.6188793198132,
        "bird": 1130.7731422422044,
        "cat": 917.9534399388143,
        "deer": 1227.3363173090115,
        "dog": 900.2117897273545,
        "frog": 1316.1846637132212,
        "horse": 1013.1006046370726,
        "ship": 824.7722004816427,
        "truck": 1020.6398369485456
    },
    "fid": 612.4318137934431,
    "wasserstein_distance": null,
    "g_loss": null,
    "g_cost": null,
    "d_loss_real": null,
    "d_loss_fake": null
}