{
    "epoch": 3,
    "avg_current_window": 615.3956636492138,
    "avg_prior_window": 2455.9642564128903,
    "inception_score_mean": 1.2341872560817204,
    "inception_score_std": 0.04306848382318469,
    "fid_per_class": {
        "airplane": 1648.531011368016,
        "automobile": 1784.7909095604941,
        "bird": 1441.9064855182937,
        "cat": 1713.7606956388222,
        "deer": 1588.18395268411,
        "dog": 1917.1154113440612,
        "frog": 1805.833607965333,
        "horse": 1734.0466077702815,
        "ship": 1599.1762574040918,
        "truck": 1493.174867530957
    },
    "fid": 1383.313121413629,
    "wasserstein_distance": null,
    "g_loss": null,
    "g_cost": null,
    "d_loss_real": null,
    "d_loss_fake": null
}