{
    "epoch": 156,
    "avg_current_window": 701.8564774320712,
    "avg_prior_window": 708.582970207467,
    "inception_score_mean": 2.0907829534831786,
    "inception_score_std": 0.19052801363125635,
    "fid_per_class": {
        "airplane": 931.8472569258827,
        "automobile": 1063.89850675075,
        "bird": 1260.7841288326276,
        "cat": 959.4557990802465,
        "deer": 1235.0523955377525,
        "dog": 965.6246962013515,
        "frog": 1320.937889728171,
        "horse": 988.8045072989655,
        "ship": 832.1148017693449,
        "truck": 972.746249541
    },
    "fid": 637.4681654793558,
    "wasserstein_distance": null,
    "g_loss": null,
    "g_cost": null,
    "d_loss_real": null,
    "d_loss_fake": null
}