{
    "epoch": 65,
    "avg_current_window": 788.1740988054182,
    "avg_prior_window": 811.2217896443474,
    "inception_score_mean": 2.025513443493106,
    "inception_score_std": 0.16155864810927942,
    "fid_per_class": {
        "airplane": 911.5506866085178,
        "automobile": 1097.527499400005,
        "bird": 1143.52286495302,
        "cat": 917.824458038351,
        "deer": 1195.421724163958,
        "dog": 917.8244736833133,
        "frog": 1369.4151841486319,
        "horse": 1093.1676061116107,
        "ship": 814.2037895600475,
        "truck": 1004.3001231717312
    },
    "fid": 642.5477898326928,
    "wasserstein_distance": null,
    "g_loss": null,
    "g_cost": null,
    "d_loss_real": null,
    "d_loss_fake": null
}