{
    "epoch": 117,
    "avg_current_window": 724.4892355159916,
    "avg_prior_window": 733.5858386636912,
    "inception_score_mean": 2.0381849910899215,
    "inception_score_std": 0.14987660069489106,
    "fid_per_class": {
        "airplane": 860.4865880452472,
        "automobile": 1066.6009586074551,
        "bird": 1120.306072925177,
        "cat": 977.5059743052477,
        "deer": 1270.981493327491,
        "dog": 926.3355771978734,
        "frog": 1289.8013998913605,
        "horse": 1051.4050512804283,
        "ship": 781.4446294636507,
        "truck": 1067.4385827778706
    },
    "fid": 624.1941721964965,
    "wasserstein_distance": null,
    "g_loss": null,
    "g_cost": null,
    "d_loss_real": null,
    "d_loss_fake": null
}