{
    "epoch": 178,
    "avg_current_window": 691.8223809548425,
    "avg_prior_window": 697.6710416690134,
    "inception_score_mean": 2.10947549603859,
    "inception_score_std": 0.16449780477486922,
    "fid_per_class": {
        "airplane": 891.5616646132655,
        "automobile": 976.6538059972422,
        "bird": 1111.2317099234024,
        "cat": 900.3846954538842,
        "deer": 1176.3790614944458,
        "dog": 881.5534297587313,
        "frog": 1246.8254970621797,
        "horse": 941.2512360454584,
        "ship": 816.8480704591198,
        "truck": 956.3731296651347
    },
    "fid": 576.9911788983618,
    "wasserstein_distance": null,
    "g_loss": null,
    "g_cost": null,
    "d_loss_real": null,
    "d_loss_fake": null
}