{
    "epoch": 199,
    "avg_current_window": 683.921417394992,
    "avg_prior_window": 688.9152055148552,
    "inception_score_mean": 2.0310666253620813,
    "inception_score_std": 0.1762385103346361,
    "fid_per_class": {
        "airplane": 862.7537596202021,
        "automobile": 1060.7445819785332,
        "bird": 1147.0912559104409,
        "cat": 911.1114104869242,
        "deer": 1224.3143352486375,
        "dog": 889.5477195765214,
        "frog": 1296.689449854126,
        "horse": 942.71298350406,
        "ship": 847.7054830673627,
        "truck": 996.6381442543484
    },
    "fid": 612.2622632893094,
    "wasserstein_distance": null,
    "g_loss": null,
    "g_cost": null,
    "d_loss_real": null,
    "d_loss_fake": null
}