{
    "epoch": 154,
    "avg_current_window": 702.8548262221093,
    "avg_prior_window": 709.4773160508959,
    "inception_score_mean": 2.0897075398416827,
    "inception_score_std": 0.18755254001707322,
    "fid_per_class": {
        "airplane": 844.212194508158,
        "automobile": 1009.7297011050764,
        "bird": 1180.4445219383836,
        "cat": 918.6079401839722,
        "deer": 1264.279298202686,
        "dog": 970.0203414026626,
        "frog": 1230.1571133268267,
        "horse": 993.8824502820175,
        "ship": 822.3561232371595,
        "truck": 962.0239015840957
    },
    "fid": 602.0221832429917,
    "wasserstein_distance": null,
    "g_loss": null,
    "g_cost": null,
    "d_loss_real": null,
    "d_loss_fake": null
}