{
    "epoch": 183,
    "avg_current_window": 689.7151139955041,
    "avg_prior_window": 695.0639044317996,
    "inception_score_mean": 2.0671372015170473,
    "inception_score_std": 0.18991871973752922,
    "fid_per_class": {
        "airplane": 838.5333683858055,
        "automobile": 1032.5924603556768,
        "bird": 1182.599211077972,
        "cat": 897.6824225085065,
        "deer": 1203.5087942019854,
        "dog": 935.3432664722602,
        "frog": 1336.2544883719268,
        "horse": 1047.2184518100876,
        "ship": 773.3617490344005,
        "truck": 985.9489583060418
    },
    "fid": 617.472277885474,
    "wasserstein_distance": null,
    "g_loss": null,
    "g_cost": null,
    "d_loss_real": null,
    "d_loss_fake": null
}