{
    "epoch": 161,
    "avg_current_window": 699.7094358497475,
    "avg_prior_window": 705.9428118261695,
    "inception_score_mean": 2.082121458672046,
    "inception_score_std": 0.09981791892818141,
    "fid_per_class": {
        "airplane": 863.4365525792709,
        "automobile": 1032.7278593335286,
        "bird": 1174.318299529844,
        "cat": 990.314945128481,
        "deer": 1111.8011824029102,
        "dog": 934.1974199546682,
        "frog": 1328.4251420490345,
        "horse": 952.6333088165452,
        "ship": 814.4919748846007,
        "truck": 1007.2889415225627
    },
    "fid": 619.9619010280122,
    "wasserstein_distance": null,
    "g_loss": null,
    "g_cost": null,
    "d_loss_real": null,
    "d_loss_fake": null
}