{
    "epoch": 138,
    "avg_current_window": 710.6627004005107,
    "avg_prior_window": 718.2097473932791,
    "inception_score_mean": 2.126136197435479,
    "inception_score_std": 0.17957586848481988,
    "fid_per_class": {
        "airplane": 890.5922153296035,
        "automobile": 1056.7519165475596,
        "bird": 1196.90100934714,
        "cat": 1018.5604881833988,
        "deer": 1212.2092204060727,
        "dog": 987.1865647268962,
        "frog": 1343.9980303695936,
        "horse": 1034.4302465159303,
        "ship": 811.1153744095589,
        "truck": 993.9318096372432
    },
    "fid": 653.3159614308764,
    "wasserstein_distance": null,
    "g_loss": null,
    "g_cost": null,
    "d_loss_real": null,
    "d_loss_fake": null
}