{
    "epoch": 160,
    "avg_current_window": 699.9897048258765,
    "avg_prior_window": 706.3845837380845,
    "inception_score_mean": 2.022268103869724,
    "inception_score_std": 0.10458183779349314,
    "fid_per_class": {
        "airplane": 908.1557133008873,
        "automobile": 1096.0949252639439,
        "bird": 1158.5224879728976,
        "cat": 965.3896539257084,
        "deer": 1262.5748385205513,
        "dog": 920.1507554304044,
        "frog": 1389.3353567531287,
        "horse": 965.3704466215024,
        "ship": 837.7606601183719,
        "truck": 1023.3639563662855
    },
    "fid": 654.8663996691204,
    "wasserstein_distance": null,
    "g_loss": null,
    "g_cost": null,
    "d_loss_real": null,
    "d_loss_fake": null
}