{
    "epoch": 51,
    "avg_current_window": 826.71932482972,
    "avg_prior_window": 856.3748924371993,
    "inception_score_mean": 1.9334880656235414,
    "inception_score_std": 0.1287958042420557,
    "fid_per_class": {
        "airplane": 926.1311962177265,
        "automobile": 1101.457601242893,
        "bird": 1182.3751580228543,
        "cat": 951.650702913359,
        "deer": 1219.502610175959,
        "dog": 937.6317979295586,
        "frog": 1346.2796479399371,
        "horse": 1079.220322816344,
        "ship": 831.0961864526095,
        "truck": 1067.8357794266915
    },
    "fid": 656.6748785697043,
    "wasserstein_distance": null,
    "g_loss": null,
    "g_cost": null,
    "d_loss_real": null,
    "d_loss_fake": null
}