{
    "epoch": 136,
    "avg_current_window": 712.1474528529053,
    "avg_prior_window": 719.6671772173031,
    "inception_score_mean": 2.0709435346569385,
    "inception_score_std": 0.10588486207670095,
    "fid_per_class": {
        "airplane": 870.7775005937269,
        "automobile": 1057.0301267625955,
        "bird": 1188.2371229504397,
        "cat": 1013.5017375684063,
        "deer": 1172.5273379725695,
        "dog": 974.6228536756566,
        "frog": 1299.161517321105,
        "horse": 1032.815508214242,
        "ship": 843.5856262207615,
        "truck": 1029.1569209848212
    },
    "fid": 631.4119937967515,
    "wasserstein_distance": null,
    "g_loss": null,
    "g_cost": null,
    "d_loss_real": null,
    "d_loss_fake": null
}