{
    "epoch": 164,
    "avg_current_window": 698.1065287070999,
    "avg_prior_window": 704.3921557996241,
    "inception_score_mean": 2.0200223151821692,
    "inception_score_std": 0.16922221555808786,
    "fid_per_class": {
        "airplane": 924.1648791835398,
        "automobile": 1063.580926315019,
        "bird": 1201.1508013394728,
        "cat": 993.5627919695596,
        "deer": 1372.0467003189876,
        "dog": 945.3093278585741,
        "frog": 1253.2133218309004,
        "horse": 1010.4716048483915,
        "ship": 826.431094300748,
        "truck": 1027.2042439758548
    },
    "fid": 648.7295623097984,
    "wasserstein_distance": null,
    "g_loss": null,
    "g_cost": null,
    "d_loss_real": null,
    "d_loss_fake": null
}