{
    "epoch": 162,
    "avg_current_window": 699.21716711628,
    "avg_prior_window": 705.4235290580292,
    "inception_score_mean": 2.059504703589015,
    "inception_score_std": 0.13604876201925506,
    "fid_per_class": {
        "airplane": 805.6316014535892,
        "automobile": 1024.93082874609,
        "bird": 1117.9611287503405,
        "cat": 936.9642659838785,
        "deer": 1191.1725675707785,
        "dog": 931.227437912817,
        "frog": 1368.2245805217444,
        "horse": 934.7699784494499,
        "ship": 746.3172248276376,
        "truck": 1105.3747819551938
    },
    "fid": 600.3172612649744,
    "wasserstein_distance": null,
    "g_loss": null,
    "g_cost": null,
    "d_loss_real": null,
    "d_loss_fake": null
}