{
    "epoch": 39,
    "avg_current_window": 875.9624503775342,
    "avg_prior_window": 924.2516670130859,
    "inception_score_mean": 1.957201224994647,
    "inception_score_std": 0.18430109125790806,
    "fid_per_class": {
        "airplane": 894.6625762578383,
        "automobile": 1054.5224971398802,
        "bird": 1195.744273565543,
        "cat": 942.6350937180775,
        "deer": 1209.4761008295095,
        "dog": 956.7566187201706,
        "frog": 1420.2644816054897,
        "horse": 1112.5895198619878,
        "ship": 769.315155730055,
        "truck": 1028.550331851772
    },
    "fid": 645.0204199596842,
    "wasserstein_distance": null,
    "g_loss": null,
    "g_cost": null,
    "d_loss_real": null,
    "d_loss_fake": null
}