{
    "epoch": 91,
    "avg_current_window": 746.4676448220458,
    "avg_prior_window": 759.5011061999394,
    "inception_score_mean": 2.01709768572643,
    "inception_score_std": 0.14729083720613342,
    "fid_per_class": {
        "airplane": 923.1649132190997,
        "automobile": 1062.6087244738646,
        "bird": 1138.9284044357896,
        "cat": 948.2329731567517,
        "deer": 1239.7677410040583,
        "dog": 902.9040339501735,
        "frog": 1381.5069518593714,
        "horse": 1047.1821168448364,
        "ship": 922.8321766058838,
        "truck": 1098.0868926116245
    },
    "fid": 645.9612766374532,
    "wasserstein_distance": null,
    "g_loss": null,
    "g_cost": null,
    "d_loss_real": null,
    "d_loss_fake": null
}