{
    "epoch": 180,
    "avg_current_window": 690.9527182677845,
    "avg_prior_window": 696.6737304477463,
    "inception_score_mean": 2.0799803528387075,
    "inception_score_std": 0.097897687644646,
    "fid_per_class": {
        "airplane": 863.1807321507075,
        "automobile": 1024.1603430606597,
        "bird": 1115.6648170418894,
        "cat": 948.6940687138192,
        "deer": 1190.480917278494,
        "dog": 899.6170714794694,
        "frog": 1284.1559343944762,
        "horse": 975.2620518536521,
        "ship": 804.0063070872858,
        "truck": 1017.8675769028114
    },
    "fid": 609.3352163182276,
    "wasserstein_distance": null,
    "g_loss": null,
    "g_cost": null,
    "d_loss_real": null,
    "d_loss_fake": null
}