{
    "epoch": 110,
    "avg_current_window": 1861.6988770820174,
    "avg_prior_window": 1913.8838728372677,
    "inception_score_mean": 1.746645024288675,
    "inception_score_std": 0.14327487236565858,
    "fid_per_class": {
        "airplane": 1147.4510591510414,
        "automobile": 1227.6698422667337,
        "bird": 1254.9396353794946,
        "cat": 1201.612486842306,
        "deer": 1546.2581666438125,
        "dog": 1169.6944271660245,
        "frog": 1696.599491630469,
        "horse": 1370.9553174179405,
        "ship": 1071.6751488227756,
        "truck": 1197.521597449147
    },
    "fid": 928.1932059219357,
    "wasserstein_distance": null,
    "g_loss": null,
    "g_cost": null,
    "d_loss_real": null,
    "d_loss_fake": null
}