{
    "epoch": 37,
    "avg_current_window": 2700.3075800320867,
    "avg_prior_window": 2783.5237176908154,
    "inception_score_mean": 1.000000000000387,
    "inception_score_std": 5.339209052534961e-13,
    "fid_per_class": {
        "airplane": 2103.7719652093992,
        "automobile": 2477.664858828612,
        "bird": 2555.7483367901787,
        "cat": 2693.583250124043,
        "deer": 2944.2614992718964,
        "dog": 2686.2016687402347,
        "frog": 2966.0380021352285,
        "horse": 2745.7951610120735,
        "ship": 2446.3496351318845,
        "truck": 2319.2444201470976
    },
    "fid": 2586.2663629408644,
    "wasserstein_distance": null,
    "g_loss": null,
    "g_cost": null,
    "d_loss_real": null,
    "d_loss_fake": null
}