{
    "epoch": 192,
    "avg_current_window": 1461.6825424219633,
    "avg_prior_window": 1482.0873988730084,
    "inception_score_mean": 1.8014458556715414,
    "inception_score_std": 0.11587099113144676,
    "fid_per_class": {
        "airplane": 1044.6429039416814,
        "automobile": 1205.3011814645665,
        "bird": 1267.1523522234916,
        "cat": 1137.4261161059117,
        "deer": 1545.211609166486,
        "dog": 1215.887640106158,
        "frog": 1686.8800318085828,
        "horse": 1292.9019944738156,
        "ship": 1011.7778117897408,
        "truck": 1175.7807908215962
    },
    "fid": 878.185623775947,
    "wasserstein_distance": null,
    "g_loss": null,
    "g_cost": null,
    "d_loss_real": null,
    "d_loss_fake": null
}