{
    "epoch": 195,
    "avg_current_window": 1452.8367528448782,
    "avg_prior_window": 1472.5232413980668,
    "inception_score_mean": 1.7855238174275017,
    "inception_score_std": 0.14409738441898146,
    "fid_per_class": {
        "airplane": 1074.2550115228546,
        "automobile": 1151.5841387330393,
        "bird": 1287.1939492350914,
        "cat": 1174.441730561954,
        "deer": 1445.130942260214,
        "dog": 1186.0522481037613,
        "frog": 1660.2485055444229,
        "horse": 1302.5135007656986,
        "ship": 1011.6157638099171,
        "truck": 1144.8744077493884
    },
    "fid": 874.4148604514855,
    "wasserstein_distance": null,
    "g_loss": null,
    "g_cost": null,
    "d_loss_real": null,
    "d_loss_fake": null
}