{
    "epoch": 51,
    "avg_current_window": 2573.144870797531,
    "avg_prior_window": 2695.709356099384,
    "inception_score_mean": 1.2158998958821963,
    "inception_score_std": 0.04639467898386603,
    "fid_per_class": {
        "airplane": 1823.3689319121681,
        "automobile": 1582.7334055521617,
        "bird": 2142.430378229553,
        "cat": 1941.8662514505133,
        "deer": 2280.051389357958,
        "dog": 2205.416433195756,
        "frog": 2558.026339504213,
        "horse": 2235.814026063993,
        "ship": 1579.5558552124958,
        "truck": 1493.2267992857746
    },
    "fid": 1737.5469989725075,
    "wasserstein_distance": null,
    "g_loss": null,
    "g_cost": null,
    "d_loss_real": null,
    "d_loss_fake": null
}