{
    "epoch": 124,
    "avg_current_window": 1759.5120273836,
    "avg_prior_window": 1801.6074676255703,
    "inception_score_mean": 1.8052323654702913,
    "inception_score_std": 0.06444211296613628,
    "fid_per_class": {
        "airplane": 1083.8012390101264,
        "automobile": 1208.3942575854521,
        "bird": 1316.03571332227,
        "cat": 1140.385214110293,
        "deer": 1658.1002277333334,
        "dog": 1235.444338162095,
        "frog": 1661.6093144913136,
        "horse": 1381.0216820015794,
        "ship": 1106.9356559713476,
        "truck": 1257.849732463809
    },
    "fid": 947.883071711902,
    "wasserstein_distance": null,
    "g_loss": null,
    "g_cost": null,
    "d_loss_real": null,
    "d_loss_fake": null
}