{
    "epoch": 176,
    "avg_current_window": 1513.666046133374,
    "avg_prior_window": 1536.6904355006977,
    "inception_score_mean": 1.7005118545372728,
    "inception_score_std": 0.12069167830498767,
    "fid_per_class": {
        "airplane": 1048.826320807464,
        "automobile": 1265.048620897954,
        "bird": 1246.2236508989781,
        "cat": 1127.0960073028943,
        "deer": 1496.9885027279388,
        "dog": 1175.0505874021433,
        "frog": 1669.8162092393231,
        "horse": 1323.0557629165783,
        "ship": 1061.512184857765,
        "truck": 1122.096303969375
    },
    "fid": 885.7776376186715,
    "wasserstein_distance": null,
    "g_loss": null,
    "g_cost": null,
    "d_loss_real": null,
    "d_loss_fake": null
}