{
    "epoch": 98,
    "avg_current_window": 1963.782690334797,
    "avg_prior_window": 2024.6443131620053,
    "inception_score_mean": 1.65358872628217,
    "inception_score_std": 0.11412719760860601,
    "fid_per_class": {
        "airplane": 1208.2831376000793,
        "automobile": 1371.8528782804278,
        "bird": 1504.5867194269429,
        "cat": 1439.9455037321438,
        "deer": 1840.0860149725672,
        "dog": 1410.1107469596197,
        "frog": 2131.267582316086,
        "horse": 1706.803799894502,
        "ship": 1174.1933151404648,
        "truck": 1340.002347330866
    },
    "fid": 1178.6537428473844,
    "wasserstein_distance": null,
    "g_loss": null,
    "g_cost": null,
    "d_loss_real": null,
    "d_loss_fake": null
}