{
    "epoch": 39,
    "avg_current_window": 2694.459300027534,
    "avg_prior_window": 2786.4366337983784,
    "inception_score_mean": 1.0000000000002052,
    "inception_score_std": 3.925501695718038e-13,
    "fid_per_class": {
        "airplane": 2103.771359198576,
        "automobile": 2477.6644943972206,
        "bird": 2555.7480950340846,
        "cat": 2693.5830066283997,
        "deer": 2944.2607717600868,
        "dog": 2686.2016687402347,
        "frog": 2966.0380021352285,
        "horse": 2745.7938192679926,
        "ship": 2446.348541733073,
        "truck": 2319.2442990881264
    },
    "fid": 2586.265878119763,
    "wasserstein_distance": null,
    "g_loss": null,
    "g_cost": null,
    "d_loss_real": null,
    "d_loss_fake": null
}