{
    "epoch": 97,
    "avg_current_window": 1972.5451823412575,
    "avg_prior_window": 2035.6313224934668,
    "inception_score_mean": 1.572141741656593,
    "inception_score_std": 0.11437751419664968,
    "fid_per_class": {
        "airplane": 1178.8005200321475,
        "automobile": 1400.6599640878137,
        "bird": 1460.4331556612938,
        "cat": 1326.0041324712586,
        "deer": 1693.8448698002849,
        "dog": 1300.8414048533286,
        "frog": 2037.7681970681165,
        "horse": 1580.8023048066148,
        "ship": 1172.2212511881594,
        "truck": 1360.2619925987624
    },
    "fid": 1113.820965708112,
    "wasserstein_distance": null,
    "g_loss": null,
    "g_cost": null,
    "d_loss_real": null,
    "d_loss_fake": null
}