{
    "epoch": 149,
    "avg_current_window": 1622.3249348700172,
    "avg_prior_window": 1653.036233305037,
    "inception_score_mean": 1.742592893162622,
    "inception_score_std": 0.11726849054366985,
    "fid_per_class": {
        "airplane": 1024.627115405123,
        "automobile": 1211.7622090088717,
        "bird": 1314.0814962887207,
        "cat": 1169.8792264750707,
        "deer": 1457.1669470599495,
        "dog": 1273.01875396584,
        "frog": 1625.7900786160321,
        "horse": 1328.6034252269606,
        "ship": 1002.6910202072813,
        "truck": 1141.8375218866192
    },
    "fid": 894.5719874184999,
    "wasserstein_distance": null,
    "g_loss": null,
    "g_cost": null,
    "d_loss_real": null,
    "d_loss_fake": null
}