{
    "epoch": 12,
    "avg_current_window": 2767.835585795447,
    "avg_prior_window": 3014.476784322258,
    "inception_score_mean": 1.0000000000038674,
    "inception_score_std": 3.40264369059869e-12,
    "fid_per_class": {
        "airplane": 2469.3417833591466,
        "automobile": 2963.4866281958252,
        "bird": 2929.2308024269782,
        "cat": 3186.9379649406183,
        "deer": 3448.3816015665957,
        "dog": 3122.1320766610343,
        "frog": 3368.0814396225555,
        "horse": 3210.6263104433156,
        "ship": 2871.9341000010527,
        "truck": 2787.551899018247
    },
    "fid": 3028.1712374891595,
    "wasserstein_distance": null,
    "g_loss": null,
    "g_cost": null,
    "d_loss_real": null,
    "d_loss_fake": null
}