{
    "epoch": 65,
    "avg_current_window": 2361.457241035374,
    "avg_prior_window": 2460.151915429668,
    "inception_score_mean": 1.4502766568324823,
    "inception_score_std": 0.0843313384626704,
    "fid_per_class": {
        "airplane": 1385.520659052236,
        "automobile": 1611.669066567713,
        "bird": 2011.0117487319535,
        "cat": 1824.5309977934944,
        "deer": 2051.4303854645514,
        "dog": 1955.6643559271095,
        "frog": 2371.593386313752,
        "horse": 1841.9339444969032,
        "ship": 1284.5112032420432,
        "truck": 1467.0635149631212
    },
    "fid": 1506.7454236593244,
    "wasserstein_distance": null,
    "g_loss": null,
    "g_cost": null,
    "d_loss_real": null,
    "d_loss_fake": null
}