{
    "epoch": 28,
    "avg_current_window": 2684.5203066162503,
    "avg_prior_window": 2850.5193514705998,
    "inception_score_mean": 1.0000004236117919,
    "inception_score_std": 3.2191606272800186e-07,
    "fid_per_class": {
        "airplane": 2315.9179155444594,
        "automobile": 2680.651333097434,
        "bird": 2735.805398641497,
        "cat": 2855.5649792489976,
        "deer": 3167.593842307945,
        "dog": 2828.6829567375444,
        "frog": 3141.1628791662047,
        "horse": 2934.924012010006,
        "ship": 2664.2458620260427,
        "truck": 2529.435868329293
    },
    "fid": 2776.868033280289,
    "wasserstein_distance": null,
    "g_loss": null,
    "g_cost": null,
    "d_loss_real": null,
    "d_loss_fake": null
}