{
    "epoch": 106,
    "avg_current_window": 1895.828364602954,
    "avg_prior_window": 1948.9781293562621,
    "inception_score_mean": 1.7827095897105747,
    "inception_score_std": 0.12918218074511625,
    "fid_per_class": {
        "airplane": 1124.7797439401115,
        "automobile": 1244.9890460417773,
        "bird": 1296.6035287104503,
        "cat": 1129.816534449929,
        "deer": 1533.3660480423168,
        "dog": 1186.6820166028842,
        "frog": 1711.7809141175205,
        "horse": 1401.1114791401224,
        "ship": 1110.6522804669933,
        "truck": 1232.1594786243322
    },
    "fid": 942.9924600148573,
    "wasserstein_distance": null,
    "g_loss": null,
    "g_cost": null,
    "d_loss_real": null,
    "d_loss_fake": null
}