{
    "epoch": 52,
    "avg_current_window": 2557.0756809547424,
    "avg_prior_window": 2678.018135325001,
    "inception_score_mean": 1.2134565712500471,
    "inception_score_std": 0.05003757979056174,
    "fid_per_class": {
        "airplane": 1615.6466982035417,
        "automobile": 1610.1071142152923,
        "bird": 2024.153856023978,
        "cat": 2039.7626505416142,
        "deer": 2339.365833778238,
        "dog": 2145.2764442401076,
        "frog": 2552.2045777462376,
        "horse": 2202.861965619867,
        "ship": 1459.6843240526532,
        "truck": 1521.5747707712212
    },
    "fid": 1719.0793149358108,
    "wasserstein_distance": null,
    "g_loss": null,
    "g_cost": null,
    "d_loss_real": null,
    "d_loss_fake": null
}