{
    "epoch": 144,
    "avg_current_window": 1646.0746890949601,
    "avg_prior_window": 1678.3436857451388,
    "inception_score_mean": 1.721322904934619,
    "inception_score_std": 0.16122968012374753,
    "fid_per_class": {
        "airplane": 1120.722150502406,
        "automobile": 1253.3514609281974,
        "bird": 1373.2248695654996,
        "cat": 1257.9536254875425,
        "deer": 1627.200486616473,
        "dog": 1292.806820759143,
        "frog": 1900.920457716021,
        "horse": 1480.9669729072805,
        "ship": 1098.2885561538867,
        "truck": 1211.0838081437278
    },
    "fid": 1002.4623662511052,
    "wasserstein_distance": null,
    "g_loss": null,
    "g_cost": null,
    "d_loss_real": null,
    "d_loss_fake": null
}