{
    "epoch": 72,
    "avg_current_window": 2270.0442435326604,
    "avg_prior_window": 2359.652737643962,
    "inception_score_mean": 1.5563354160448237,
    "inception_score_std": 0.10343168804172945,
    "fid_per_class": {
        "airplane": 1350.928342282742,
        "automobile": 1487.5957597269182,
        "bird": 1772.3185915710271,
        "cat": 1633.7082815317751,
        "deer": 2031.5474849763964,
        "dog": 1738.4457176524897,
        "frog": 2323.985307555755,
        "horse": 1674.383378531667,
        "ship": 1271.8834939582016,
        "truck": 1434.1310018756071
    },
    "fid": 1375.7897773346365,
    "wasserstein_distance": null,
    "g_loss": null,
    "g_cost": null,
    "d_loss_real": null,
    "d_loss_fake": null
}