{
    "epoch": 166,
    "avg_current_window": 1550.3004105280204,
    "avg_prior_window": 1575.7035576387389,
    "inception_score_mean": 1.7817881168869714,
    "inception_score_std": 0.11042748445243641,
    "fid_per_class": {
        "airplane": 1070.8429058112056,
        "automobile": 1184.1542245140386,
        "bird": 1293.0581938942548,
        "cat": 1136.261019426041,
        "deer": 1597.0926814549962,
        "dog": 1282.8017146333282,
        "frog": 1640.6017246387887,
        "horse": 1348.64534201243,
        "ship": 1018.438341322033,
        "truck": 1189.7683961925131
    },
    "fid": 910.3188425725166,
    "wasserstein_distance": null,
    "g_loss": null,
    "g_cost": null,
    "d_loss_real": null,
    "d_loss_fake": null
}