{
    "epoch": 7,
    "avg_current_window": 2581.8810823510007,
    "avg_prior_window": 2.0,
    "inception_score_mean": 1.0000000000114073,
    "inception_score_std": 1.1178441885309032e-11,
    "fid_per_class": {
        "airplane": 2469.3431240473974,
        "automobile": 2963.486840203147,
        "bird": 2929.227664365996,
        "cat": 3186.9354530675273,
        "deer": 3448.377136975378,
        "dog": 3122.133781860071,
        "frog": 3368.0819002808325,
        "horse": 3210.6237907995355,
        "ship": 2871.932571385525,
        "truck": 2787.548155873451
    },
    "fid": 3028.169913798801,
    "wasserstein_distance": null,
    "g_loss": null,
    "g_cost": null,
    "d_loss_real": null,
    "d_loss_fake": null
}