{
    "epoch": 129,
    "avg_current_window": 1728.2384905108556,
    "avg_prior_window": 1767.1562457038574,
    "inception_score_mean": 1.702143082256392,
    "inception_score_std": 0.1132204598930471,
    "fid_per_class": {
        "airplane": 1094.028777279792,
        "automobile": 1238.0074861745297,
        "bird": 1361.4590678639802,
        "cat": 1203.3390631192872,
        "deer": 1694.0336362585995,
        "dog": 1275.8180356280275,
        "frog": 1938.7995477225093,
        "horse": 1458.4392412797451,
        "ship": 1085.5658082279683,
        "truck": 1195.7224052052786
    },
    "fid": 1001.406849505146,
    "wasserstein_distance": null,
    "g_loss": null,
    "g_cost": null,
    "d_loss_real": null,
    "d_loss_fake": null
}