{
    "epoch": 90,
    "avg_current_window": 2047.8168079192774,
    "avg_prior_window": 2120.11696123833,
    "inception_score_mean": 1.6458231303926216,
    "inception_score_std": 0.15017638649251017,
    "fid_per_class": {
        "airplane": 1168.2093960430373,
        "automobile": 1271.5063444654345,
        "bird": 1321.4095094306736,
        "cat": 1219.8355321623967,
        "deer": 1564.2155097528062,
        "dog": 1171.3831472397126,
        "frog": 1745.494759620036,
        "horse": 1420.151846951394,
        "ship": 1187.6587840334303,
        "truck": 1265.9766807618905
    },
    "fid": 998.9013114826862,
    "wasserstein_distance": null,
    "g_loss": null,
    "g_cost": null,
    "d_loss_real": null,
    "d_loss_fake": null
}