{
    "epoch": 35,
    "avg_current_window": 2706.8241585469964,
    "avg_prior_window": 2786.4328554097533,
    "inception_score_mean": 1.000000000001602,
    "inception_score_std": 9.818635324768014e-13,
    "fid_per_class": {
        "airplane": 2103.7736689819053,
        "automobile": 2477.6672951038677,
        "bird": 2555.7507672326346,
        "cat": 2693.5855600278555,
        "deer": 2944.2624725392257,
        "dog": 2686.201911541195,
        "frog": 2966.0380018705587,
        "horse": 2745.7952826364117,
        "ship": 2446.3515870722476,
        "truck": 2319.2475913174667
    },
    "fid": 2586.26782105127,
    "wasserstein_distance": null,
    "g_loss": null,
    "g_cost": null,
    "d_loss_real": null,
    "d_loss_fake": null
}