{
    "epoch": 5,
    "avg_current_window": 2403.3665850479983,
    "avg_prior_window": 2936.4917973434494,
    "inception_score_mean": 1.0000000000576084,
    "inception_score_std": 1.7827094275603075e-11,
    "fid_per_class": {
        "airplane": 2469.341577077919,
        "automobile": 2963.484021167608,
        "bird": 2929.224792345473,
        "cat": 3186.932323084552,
        "deer": 3448.3755494100487,
        "dog": 3122.129024607838,
        "frog": 3368.0709108864226,
        "horse": 3210.624707148202,
        "ship": 2871.92874814318,
        "truck": 2787.5458624502244
    },
    "fid": 3028.167132948175,
    "wasserstein_distance": null,
    "g_loss": null,
    "g_cost": null,
    "d_loss_real": null,
    "d_loss_fake": null
}