{
    "epoch": 9,
    "avg_current_window": 2681.056532586097,
    "avg_prior_window": 3004.208231309998,
    "inception_score_mean": 1.0000000000061453,
    "inception_score_std": 6.537156129524832e-12,
    "fid_per_class": {
        "airplane": 2469.3422748234966,
        "automobile": 2963.4878519514664,
        "bird": 2929.2294068861324,
        "cat": 3186.9396824744754,
        "deer": 3448.382565207059,
        "dog": 3122.134036109081,
        "frog": 3368.085356568842,
        "horse": 3210.6240380090726,
        "ship": 2871.935809552607,
        "truck": 2787.5528604767687
    },
    "fid": 3028.1723029398345,
    "wasserstein_distance": null,
    "g_loss": null,
    "g_cost": null,
    "d_loss_real": null,
    "d_loss_fake": null
}