{
    "epoch": 154,
    "avg_current_window": 1599.3720424947594,
    "avg_prior_window": 1628.3287737117519,
    "inception_score_mean": 1.7682941359714568,
    "inception_score_std": 0.12317281595951732,
    "fid_per_class": {
        "airplane": 1054.3804884047868,
        "automobile": 1201.8888884958537,
        "bird": 1230.5184007835674,
        "cat": 1166.4246729932083,
        "deer": 1566.8144744327128,
        "dog": 1201.4762575407476,
        "frog": 1637.562536186344,
        "horse": 1353.5437888745298,
        "ship": 1033.8514668031437,
        "truck": 1153.0685625848187
    },
    "fid": 896.3175517295351,
    "wasserstein_distance": null,
    "g_loss": null,
    "g_cost": null,
    "d_loss_real": null,
    "d_loss_fake": null
}