{
    "epoch": 198,
    "avg_current_window": 1444.4219490877463,
    "avg_prior_window": 1462.8687741846193,
    "inception_score_mean": 1.8397722165599013,
    "inception_score_std": 0.07308205019141292,
    "fid_per_class": {
        "airplane": 1063.7696854406263,
        "automobile": 1219.4255262991105,
        "bird": 1204.806490614545,
        "cat": 1064.3253024854112,
        "deer": 1398.5957584381495,
        "dog": 1199.4145345569798,
        "frog": 1431.56538191361,
        "horse": 1203.8699823448958,
        "ship": 1086.0219935800028,
        "truck": 1120.865009774388
    },
    "fid": 807.7774851377211,
    "wasserstein_distance": null,
    "g_loss": null,
    "g_cost": null,
    "d_loss_real": null,
    "d_loss_fake": null
}