{
    "epoch": 59,
    "avg_current_window": 2450.712357220603,
    "avg_prior_window": 2556.954770567925,
    "inception_score_mean": 1.426377547533662,
    "inception_score_std": 0.1437053364385439,
    "fid_per_class": {
        "airplane": 1557.0752523877695,
        "automobile": 1490.420003384821,
        "bird": 1878.0206805881473,
        "cat": 1543.6901865689451,
        "deer": 2208.4752763995757,
        "dog": 1613.859069889976,
        "frog": 2360.809077768947,
        "horse": 1828.61469395575,
        "ship": 1364.5755918785858,
        "truck": 1376.0762196589358
    },
    "fid": 1435.8240917954035,
    "wasserstein_distance": null,
    "g_loss": null,
    "g_cost": null,
    "d_loss_real": null,
    "d_loss_fake": null
}