{
    "epoch": 170,
    "avg_current_window": 1535.128689740543,
    "avg_prior_window": 1559.6961705918266,
    "inception_score_mean": 1.7694194973279198,
    "inception_score_std": 0.12928473207881971,
    "fid_per_class": {
        "airplane": 1077.7495580410223,
        "automobile": 1229.3627494047835,
        "bird": 1273.7662237449836,
        "cat": 1132.448648177337,
        "deer": 1572.131278537258,
        "dog": 1192.474925135657,
        "frog": 1693.6039941886256,
        "horse": 1374.3536861495747,
        "ship": 1058.2020945150732,
        "truck": 1185.8267078605386
    },
    "fid": 907.6909308864599,
    "wasserstein_distance": null,
    "g_loss": null,
    "g_cost": null,
    "d_loss_real": null,
    "d_loss_fake": null
}