{
    "epoch": 53,
    "avg_current_window": 2541.264428765706,
    "avg_prior_window": 2661.9446234398074,
    "inception_score_mean": 1.2080693771692785,
    "inception_score_std": 0.052727992213650404,
    "fid_per_class": {
        "airplane": 1509.2839503610965,
        "automobile": 1562.3848870961199,
        "bird": 2088.0520900595047,
        "cat": 1910.083745288861,
        "deer": 2184.35061820792,
        "dog": 2168.9891344511943,
        "frog": 2603.853058851279,
        "horse": 2011.1615759203264,
        "ship": 1366.9367845462689,
        "truck": 1447.3887933040874
    },
    "fid": 1615.9614901064003,
    "wasserstein_distance": null,
    "g_loss": null,
    "g_cost": null,
    "d_loss_real": null,
    "d_loss_fake": null
}