{
    "epoch": 79,
    "avg_current_window": 2176.2125724547113,
    "avg_prior_window": 2260.558929874478,
    "inception_score_mean": 1.4724688171833875,
    "inception_score_std": 0.06945429406235985,
    "fid_per_class": {
        "airplane": 1232.600276222001,
        "automobile": 1457.634384334127,
        "bird": 1652.8440991068278,
        "cat": 1573.0780760402504,
        "deer": 1831.4703717700718,
        "dog": 1749.950461750969,
        "frog": 2247.730274395438,
        "horse": 1621.742746236234,
        "ship": 1207.8850647838606,
        "truck": 1367.1887897232546
    },
    "fid": 1299.8926746758943,
    "wasserstein_distance": null,
    "g_loss": null,
    "g_cost": null,
    "d_loss_real": null,
    "d_loss_fake": null
}