{
    "epoch": 160,
    "avg_current_window": 1574.6183165338407,
    "avg_prior_window": 1601.309792079476,
    "inception_score_mean": 1.7510720941081117,
    "inception_score_std": 0.08878010592400616,
    "fid_per_class": {
        "airplane": 1044.3574701424618,
        "automobile": 1242.855511932623,
        "bird": 1269.6682680529987,
        "cat": 1096.6681903868953,
        "deer": 1567.749541095451,
        "dog": 1218.2681293456915,
        "frog": 1708.3758309855486,
        "horse": 1391.8440190341978,
        "ship": 950.110935329087,
        "truck": 1164.3281050238672
    },
    "fid": 893.9627565612179,
    "wasserstein_distance": null,
    "g_loss": null,
    "g_cost": null,
    "d_loss_real": null,
    "d_loss_fake": null
}