{
    "epoch": 92,
    "avg_current_window": 2023.8760294914634,
    "avg_prior_window": 2095.2169690451947,
    "inception_score_mean": 1.5950829846395957,
    "inception_score_std": 0.10225267342988348,
    "fid_per_class": {
        "airplane": 1194.8205936338582,
        "automobile": 1295.9356016784463,
        "bird": 1410.4441391493876,
        "cat": 1305.7258696188064,
        "deer": 1589.2460026277329,
        "dog": 1386.1646983977816,
        "frog": 1825.8422322080576,
        "horse": 1617.442284856205,
        "ship": 1172.4572366381622,
        "truck": 1302.2811685541128
    },
    "fid": 1081.486956184307,
    "wasserstein_distance": null,
    "g_loss": null,
    "g_cost": null,
    "d_loss_real": null,
    "d_loss_fake": null
}