{
    "epoch": 6,
    "avg_current_window": 2507.500009698028,
    "avg_prior_window": 3.0,
    "inception_score_mean": 1.0000000000333773,
    "inception_score_std": 2.2019274945379826e-11,
    "fid_per_class": {
        "airplane": 2469.341519348575,
        "automobile": 2963.481421086471,
        "bird": 2929.2287678456196,
        "cat": 3186.9319864175786,
        "deer": 3448.3760886693217,
        "dog": 3122.128351785101,
        "frog": 3368.075253776529,
        "horse": 3210.625717041996,
        "ship": 2871.927887721328,
        "truck": 2787.5464359374796
    },
    "fid": 3028.167518268837,
    "wasserstein_distance": null,
    "g_loss": null,
    "g_cost": null,
    "d_loss_real": null,
    "d_loss_fake": null
}