{
    "epoch": 81,
    "avg_current_window": 2153.9975348594226,
    "avg_prior_window": 2230.9367090673045,
    "inception_score_mean": 1.4459737082757658,
    "inception_score_std": 0.09386147754822838,
    "fid_per_class": {
        "airplane": 1240.4015808714548,
        "automobile": 1526.1168065694608,
        "bird": 1647.2553197226036,
        "cat": 1582.7612942867445,
        "deer": 1924.1174157757841,
        "dog": 1670.3445838746247,
        "frog": 2142.465776714117,
        "horse": 1753.357411888977,
        "ship": 1229.8739869470987,
        "truck": 1504.1494123149832
    },
    "fid": 1339.704192016699,
    "wasserstein_distance": null,
    "g_loss": null,
    "g_cost": null,
    "d_loss_real": null,
    "d_loss_fake": null
}