{
    "epoch": 128,
    "avg_current_window": 1734.6989876207651,
    "avg_prior_window": 1773.8170032159871,
    "inception_score_mean": 1.746536715316483,
    "inception_score_std": 0.13758743142916352,
    "fid_per_class": {
        "airplane": 1044.7817151871964,
        "automobile": 1183.3671447244892,
        "bird": 1267.8336829125128,
        "cat": 1150.1760392064136,
        "deer": 1556.0901884924083,
        "dog": 1145.8676956702523,
        "frog": 1750.5688721404574,
        "horse": 1374.638893923142,
        "ship": 1038.9385084801095,
        "truck": 1141.5730437021102
    },
    "fid": 901.2948604424236,
    "wasserstein_distance": null,
    "g_loss": null,
    "g_cost": null,
    "d_loss_real": null,
    "d_loss_fake": null
}