{
    "epoch": 101,
    "avg_current_window": 1938.226561633361,
    "avg_prior_window": 1993.0925279906457,
    "inception_score_mean": 1.7398566926375825,
    "inception_score_std": 0.13688822982281898,
    "fid_per_class": {
        "airplane": 1216.5674368420819,
        "automobile": 1272.244496315803,
        "bird": 1497.449523832744,
        "cat": 1322.9249315448685,
        "deer": 1710.5882329818041,
        "dog": 1338.028820059808,
        "frog": 1955.001116213169,
        "horse": 1548.1200533935562,
        "ship": 1136.7942690577315,
        "truck": 1290.1445882949517
    },
    "fid": 1085.9083400130448,
    "wasserstein_distance": null,
    "g_loss": null,
    "g_cost": null,
    "d_loss_real": null,
    "d_loss_fake": null
}