{
    "epoch": 54,
    "avg_current_window": 2524.1291891609035,
    "avg_prior_window": 2641.6534170554673,
    "inception_score_mean": 1.215805314783342,
    "inception_score_std": 0.04371879305768313,
    "fid_per_class": {
        "airplane": 1616.5461800531157,
        "automobile": 1628.7351989968886,
        "bird": 2317.127477454508,
        "cat": 2051.1771170058582,
        "deer": 2494.3673317193998,
        "dog": 2170.7250218703794,
        "frog": 2624.1388778617584,
        "horse": 2266.735429487978,
        "ship": 1550.4220147139783,
        "truck": 1499.2686709249056
    },
    "fid": 1772.5813959791672,
    "wasserstein_distance": null,
    "g_loss": null,
    "g_cost": null,
    "d_loss_real": null,
    "d_loss_fake": null
}