{
    "epoch": 24,
    "avg_current_window": 2731.7477118259917,
    "avg_prior_window": 2907.2646900494483,
    "inception_score_mean": 1.0000253719347163,
    "inception_score_std": 4.235230003146791e-05,
    "fid_per_class": {
        "airplane": 2226.596277121198,
        "automobile": 2591.4049995071678,
        "bird": 2602.175528335525,
        "cat": 2734.8890072645395,
        "deer": 2994.9284776738095,
        "dog": 2728.366539328362,
        "frog": 2965.2192686100625,
        "horse": 2803.012209687817,
        "ship": 2562.8649753337086,
        "truck": 2412.6293345702347
    },
    "fid": 2651.282860597371,
    "wasserstein_distance": null,
    "g_loss": null,
    "g_cost": null,
    "d_loss_real": null,
    "d_loss_fake": null
}