{
    "epoch": 142,
    "avg_current_window": 1656.2427297541951,
    "avg_prior_window": 1689.7276419557672,
    "inception_score_mean": 1.7881572685717582,
    "inception_score_std": 0.09318748596593451,
    "fid_per_class": {
        "airplane": 1024.2385361655274,
        "automobile": 1184.2223070290902,
        "bird": 1282.1790488756942,
        "cat": 1198.4625331323396,
        "deer": 1622.2538264326258,
        "dog": 1142.1763239465747,
        "frog": 1846.1601251480665,
        "horse": 1454.1590523333334,
        "ship": 1059.678081462947,
        "truck": 1169.351837131737
    },
    "fid": 934.2596446377037,
    "wasserstein_distance": null,
    "g_loss": null,
    "g_cost": null,
    "d_loss_real": null,
    "d_loss_fake": null
}