{
    "epoch": 2,
    "avg_current_window": 1468.2458986717247,
    "avg_prior_window": 2939.4917973434494,
    "inception_score_mean": 1.0000000009184127,
    "inception_score_std": 6.104266719172524e-10,
    "fid_per_class": {
        "airplane": 2469.298616486201,
        "automobile": 2963.4181060062774,
        "bird": 2929.0050687911844,
        "cat": 3186.833514102964,
        "deer": 3448.240681454842,
        "dog": 3122.028931974971,
        "frog": 3367.907053809106,
        "horse": 3210.5104053658106,
        "ship": 2871.835495208275,
        "truck": 2787.4415533754272
    },
    "fid": 3028.049855094141,
    "wasserstein_distance": null,
    "g_loss": null,
    "g_cost": null,
    "d_loss_real": null,
    "d_loss_fake": null
}