{
    "epoch": 107,
    "avg_current_window": 1886.9233561488595,
    "avg_prior_window": 1940.3348650187836,
    "inception_score_mean": 1.7015562707383887,
    "inception_score_std": 0.09648533031118169,
    "fid_per_class": {
        "airplane": 1055.441683963539,
        "automobile": 1198.9769195847541,
        "bird": 1263.0663087784392,
        "cat": 1112.7107864455056,
        "deer": 1540.0656563960283,
        "dog": 1175.756175875341,
        "frog": 1672.3940409143602,
        "horse": 1340.347058531869,
        "ship": 1120.1084565361966,
        "truck": 1239.1700720247577
    },
    "fid": 905.304636967286,
    "wasserstein_distance": null,
    "g_loss": null,
    "g_cost": null,
    "d_loss_real": null,
    "d_loss_fake": null
}