{
    "epoch": 32,
    "avg_current_window": 2697.5831520202737,
    "avg_prior_window": 2783.9469846390743,
    "inception_score_mean": 1.000001239858999,
    "inception_score_std": 2.0650837200153827e-06,
    "fid_per_class": {
        "airplane": 2248.6509180911585,
        "automobile": 2582.5943971852594,
        "bird": 2751.339246622322,
        "cat": 2840.9463703450915,
        "deer": 3162.0409622587963,
        "dog": 2827.9555118055523,
        "frog": 3230.9078781682915,
        "horse": 2909.3467338421015,
        "ship": 2601.7065647047802,
        "truck": 2444.994209173139
    },
    "fid": 2750.0981014573317,
    "wasserstein_distance": null,
    "g_loss": null,
    "g_cost": null,
    "d_loss_real": null,
    "d_loss_fake": null
}