{
    "epoch": 11,
    "avg_current_window": 2744.168562352686,
    "avg_prior_window": 3012.1945960761677,
    "inception_score_mean": 1.0000000000026197,
    "inception_score_std": 3.481801248903622e-12,
    "fid_per_class": {
        "airplane": 2469.341908759614,
        "automobile": 2963.4868764077346,
        "bird": 2929.2331688021854,
        "cat": 3186.938955668691,
        "deer": 3448.383324245849,
        "dog": 3122.1333040289937,
        "frog": 3368.083893822886,
        "horse": 3210.627054003971,
        "ship": 2871.9348403868657,
        "truck": 2787.552386959788
    },
    "fid": 3028.1728436658223,
    "wasserstein_distance": null,
    "g_loss": null,
    "g_cost": null,
    "d_loss_real": null,
    "d_loss_fake": null
}