{
    "epoch": 17,
    "avg_current_window": 2786.9784574772584,
    "avg_prior_window": 3020.1831889195437,
    "inception_score_mean": 1.000453183476288,
    "inception_score_std": 0.000138693522945182,
    "fid_per_class": {
        "airplane": 2210.207266870695,
        "automobile": 2556.0708400203575,
        "bird": 2553.623068632178,
        "cat": 2679.2270705948704,
        "deer": 2940.3687680892344,
        "dog": 2692.927326562137,
        "frog": 2960.271874007255,
        "horse": 2733.1882571311944,
        "ship": 2531.7818041179403,
        "truck": 2328.4137758557517
    },
    "fid": 2597.9227244134872,
    "wasserstein_distance": null,
    "g_loss": null,
    "g_cost": null,
    "d_loss_real": null,
    "d_loss_fake": null
}