{
    "epoch": 115,
    "avg_current_window": 1822.5059416210024,
    "avg_prior_window": 1870.136997135853,
    "inception_score_mean": 1.7305750949539054,
    "inception_score_std": 0.12180352593895406,
    "fid_per_class": {
        "airplane": 1075.2739291554979,
        "automobile": 1208.280458878768,
        "bird": 1348.4446651449246,
        "cat": 1216.03728883338,
        "deer": 1628.9920980250236,
        "dog": 1274.049218217664,
        "frog": 1784.666866591253,
        "horse": 1446.9034114202552,
        "ship": 1035.8425920653185,
        "truck": 1258.0378995638039
    },
    "fid": 987.7096955407939,
    "wasserstein_distance": null,
    "g_loss": null,
    "g_cost": null,
    "d_loss_real": null,
    "d_loss_fake": null
}