{
    "epoch": 96,
    "avg_current_window": 1981.9721881611997,
    "avg_prior_window": 2046.1164254199412,
    "inception_score_mean": 1.6497647958028765,
    "inception_score_std": 0.11205401864559753,
    "fid_per_class": {
        "airplane": 1148.3957745929006,
        "automobile": 1380.8137647426088,
        "bird": 1439.6368598524969,
        "cat": 1283.2106764779899,
        "deer": 1711.9929173089151,
        "dog": 1263.8926737256197,
        "frog": 1967.3021368953173,
        "horse": 1489.131428864327,
        "ship": 1097.6937498892494,
        "truck": 1295.8293247518645
    },
    "fid": 1067.5526236267956,
    "wasserstein_distance": null,
    "g_loss": null,
    "g_cost": null,
    "d_loss_real": null,
    "d_loss_fake": null
}