{
    "epoch": 86,
    "avg_current_window": 2095.464438433233,
    "avg_prior_window": 2170.5370927855547,
    "inception_score_mean": 1.6066287862736008,
    "inception_score_std": 0.10229377709478178,
    "fid_per_class": {
        "airplane": 1177.6865800551082,
        "automobile": 1294.6449412937634,
        "bird": 1357.3302952054378,
        "cat": 1160.0345978744722,
        "deer": 1592.6934609280247,
        "dog": 1232.3654791956942,
        "frog": 1824.8030496860197,
        "horse": 1447.224531089666,
        "ship": 1131.4066980914413,
        "truck": 1251.9345717532337
    },
    "fid": 1028.720391837243,
    "wasserstein_distance": null,
    "g_loss": null,
    "g_cost": null,
    "d_loss_real": null,
    "d_loss_fake": null
}