{
    "epoch": 188,
    "avg_current_window": 1474.2039552619817,
    "avg_prior_window": 1495.527143471888,
    "inception_score_mean": 1.7548079954012887,
    "inception_score_std": 0.12480452850971753,
    "fid_per_class": {
        "airplane": 1006.2720513336358,
        "automobile": 1205.1506867940122,
        "bird": 1261.0244242541555,
        "cat": 1120.2195921383604,
        "deer": 1429.7644037070431,
        "dog": 1142.0290241952653,
        "frog": 1587.9466574908424,
        "horse": 1311.530009535101,
        "ship": 1066.8521528614913,
        "truck": 1200.3786201935138
    },
    "fid": 862.2321042547458,
    "wasserstein_distance": null,
    "g_loss": null,
    "g_cost": null,
    "d_loss_real": null,
    "d_loss_fake": null
}