{
    "epoch": 33,
    "avg_current_window": 2699.174514124427,
    "avg_prior_window": 2783.6941649476894,
    "inception_score_mean": 1.0000000000051843,
    "inception_score_std": 7.736347084104709e-13,
    "fid_per_class": {
        "airplane": 2346.7129470452037,
        "automobile": 2666.75466421123,
        "bird": 2859.677630454823,
        "cat": 2925.059895291807,
        "deer": 3287.8480846334073,
        "dog": 2920.352757789845,
        "frog": 3347.685922322691,
        "horse": 3018.259088592935,
        "ship": 2704.6678622679556,
        "truck": 2530.8645844514426
    },
    "fid": 2853.187970952548,
    "wasserstein_distance": null,
    "g_loss": null,
    "g_cost": null,
    "d_loss_real": null,
    "d_loss_fake": null
}