{
    "epoch": 89,
    "avg_current_window": 2059.6111227727793,
    "avg_prior_window": 2132.3206936233278,
    "inception_score_mean": 1.687226894734468,
    "inception_score_std": 0.1033852647707555,
    "fid_per_class": {
        "airplane": 1132.5616944381509,
        "automobile": 1269.7240552585195,
        "bird": 1333.0861816713718,
        "cat": 1226.5164269876775,
        "deer": 1589.7089461985845,
        "dog": 1246.1976066272398,
        "frog": 1780.1396925327901,
        "horse": 1432.4355709052115,
        "ship": 1080.1146658904609,
        "truck": 1298.2912645349259
    },
    "fid": 998.1227859576213,
    "wasserstein_distance": null,
    "g_loss": null,
    "g_cost": null,
    "d_loss_real": null,
    "d_loss_fake": null
}