{
    "epoch": 87,
    "avg_current_window": 2083.2030126102904,
    "avg_prior_window": 2158.2737945443246,
    "inception_score_mean": 1.6347423679070403,
    "inception_score_std": 0.11358179746271335,
    "fid_per_class": {
        "airplane": 1144.5680330260557,
        "automobile": 1365.53361836982,
        "bird": 1401.7574722269426,
        "cat": 1181.3812494022068,
        "deer": 1661.7845513162106,
        "dog": 1233.279135906355,
        "frog": 1719.2236732652418,
        "horse": 1483.2005357989526,
        "ship": 1146.7109051668212,
        "truck": 1349.5174010584667
    },
    "fid": 1045.214209836666,
    "wasserstein_distance": null,
    "g_loss": null,
    "g_cost": null,
    "d_loss_real": null,
    "d_loss_fake": null
}