{
    "epoch": 36,
    "avg_current_window": 2703.4753713943373,
    "avg_prior_window": 2784.6019633757664,
    "inception_score_mean": 1.0000000000006968,
    "inception_score_std": 6.734723778951023e-13,
    "fid_per_class": {
        "airplane": 2103.7725726930885,
        "automobile": 2477.666074800144,
        "bird": 2555.7494286431497,
        "cat": 2693.5838552996383,
        "deer": 2944.2614985457885,
        "dog": 2686.2016685137796,
        "frog": 2966.0380021352285,
        "horse": 2745.796013913894,
        "ship": 2446.3506094843488,
        "truck": 2319.2460045081125
    },
    "fid": 2586.267090991064,
    "wasserstein_distance": null,
    "g_loss": null,
    "g_cost": null,
    "d_loss_real": null,
    "d_loss_fake": null
}