{
    "epoch": 102,
    "avg_current_window": 1929.870500637083,
    "avg_prior_window": 1984.0278727093826,
    "inception_score_mean": 1.676293313905047,
    "inception_score_std": 0.12168640805290364,
    "fid_per_class": {
        "airplane": 1111.1378527872407,
        "automobile": 1280.4520113039114,
        "bird": 1543.2209177184354,
        "cat": 1321.3960635541948,
        "deer": 1690.1762801876484,
        "dog": 1408.90209986823,
        "frog": 1962.2272779777122,
        "horse": 1473.5294426391756,
        "ship": 1117.5956582527383,
        "truck": 1253.5963974324527
    },
    "fid": 1067.3651669334392,
    "wasserstein_distance": null,
    "g_loss": null,
    "g_cost": null,
    "d_loss_real": null,
    "d_loss_fake": null
}