{
    "epoch": 88,
    "avg_current_window": 2071.407685306045,
    "avg_prior_window": 2144.296487990504,
    "inception_score_mean": 1.62354117188177,
    "inception_score_std": 0.133645416053301,
    "fid_per_class": {
        "airplane": 1171.706859371673,
        "automobile": 1302.047068237355,
        "bird": 1415.4022930583883,
        "cat": 1222.3297148298093,
        "deer": 1564.6617588103607,
        "dog": 1230.0895249478922,
        "frog": 1830.5839826651404,
        "horse": 1440.3811165781244,
        "ship": 1065.0166723425873,
        "truck": 1256.5661086867826
    },
    "fid": 1021.513619845387,
    "wasserstein_distance": null,
    "g_loss": null,
    "g_cost": null,
    "d_loss_real": null,
    "d_loss_fake": null
}