{
    "epoch": 137,
    "avg_current_window": 1682.4874949499997,
    "avg_prior_window": 1717.6952091853398,
    "inception_score_mean": 1.7386927572459883,
    "inception_score_std": 0.12681771456381372,
    "fid_per_class": {
        "airplane": 1095.6107912921066,
        "automobile": 1189.0574281811828,
        "bird": 1349.1693663397705,
        "cat": 1227.2929555929177,
        "deer": 1731.3719272343974,
        "dog": 1252.0824485859084,
        "frog": 1957.4275889328405,
        "horse": 1497.049053533068,
        "ship": 1099.4392840569635,
        "truck": 1225.6055283897103
    },
    "fid": 991.9001397901809,
    "wasserstein_distance": null,
    "g_loss": null,
    "g_cost": null,
    "d_loss_real": null,
    "d_loss_fake": null
}