{
    "epoch": 143,
    "avg_current_window": 1651.1938969911428,
    "avg_prior_window": 1683.6674131764958,
    "inception_score_mean": 1.7495936842963353,
    "inception_score_std": 0.10680428492650246,
    "fid_per_class": {
        "airplane": 1057.2041795521563,
        "automobile": 1225.8422230047915,
        "bird": 1315.4962280554103,
        "cat": 1158.4846480278447,
        "deer": 1602.717705658318,
        "dog": 1193.5435287202008,
        "frog": 1718.9127673721282,
        "horse": 1393.3358893264685,
        "ship": 1069.4926355273492,
        "truck": 1160.122678114491
    },
    "fid": 914.0279599408365,
    "wasserstein_distance": null,
    "g_loss": null,
    "g_cost": null,
    "d_loss_real": null,
    "d_loss_fake": null
}