{
    "epoch": 132,
    "avg_current_window": 1711.0726998344103,
    "avg_prior_window": 1748.3580347673853,
    "inception_score_mean": 1.8375260598837344,
    "inception_score_std": 0.11541708454167067,
    "fid_per_class": {
        "airplane": 1060.7653652413421,
        "automobile": 1198.783394720818,
        "bird": 1265.3900310368224,
        "cat": 1071.5589970289625,
        "deer": 1604.3595318470582,
        "dog": 1110.7446973598878,
        "frog": 1764.0442170031436,
        "horse": 1237.3534532055103,
        "ship": 1071.802922414966,
        "truck": 1169.187448842739
    },
    "fid": 874.1712343226874,
    "wasserstein_distance": null,
    "g_loss": null,
    "g_cost": null,
    "d_loss_real": null,
    "d_loss_fake": null
}