{
    "epoch": 119,
    "avg_current_window": 1793.6732056517171,
    "avg_prior_window": 1838.492835845748,
    "inception_score_mean": 1.7247022503774758,
    "inception_score_std": 0.14259489003816786,
    "fid_per_class": {
        "airplane": 1061.9830169943793,
        "automobile": 1218.543681635088,
        "bird": 1310.5739932309102,
        "cat": 1215.4400292954633,
        "deer": 1518.9015503812432,
        "dog": 1316.362494849805,
        "frog": 1723.0279873341547,
        "horse": 1343.1464713495768,
        "ship": 1050.9990580223277,
        "truck": 1189.951182718817
    },
    "fid": 944.1771748885235,
    "wasserstein_distance": null,
    "g_loss": null,
    "g_cost": null,
    "d_loss_real": null,
    "d_loss_fake": null
}