{
    "epoch": 156,
    "avg_current_window": 1591.0449857199922,
    "avg_prior_window": 1618.7930198533766,
    "inception_score_mean": 1.7711114121609175,
    "inception_score_std": 0.11647677774488992,
    "fid_per_class": {
        "airplane": 1039.3289708675031,
        "automobile": 1237.1644543741827,
        "bird": 1351.7177213192235,
        "cat": 1189.6111029516273,
        "deer": 1713.288910208123,
        "dog": 1351.184787942974,
        "frog": 1786.9120444399423,
        "horse": 1433.9954386362933,
        "ship": 1063.3349204384594,
        "truck": 1165.235765921506
    },
    "fid": 977.7977542433769,
    "wasserstein_distance": null,
    "g_loss": null,
    "g_cost": null,
    "d_loss_real": null,
    "d_loss_fake": null
}