{
    "epoch": 57,
    "avg_current_window": 2480.441255274863,
    "avg_prior_window": 2590.1348985496616,
    "inception_score_mean": 1.2136339695054432,
    "inception_score_std": 0.03725541795736997,
    "fid_per_class": {
        "airplane": 1592.7008218296346,
        "automobile": 1624.7711795074963,
        "bird": 1901.7650047201003,
        "cat": 1861.099462768696,
        "deer": 2163.230883121687,
        "dog": 2104.4682317638317,
        "frog": 2378.910362354617,
        "horse": 1926.9601341993584,
        "ship": 1502.0807889451146,
        "truck": 1523.0632701057393
    },
    "fid": 1627.5695100783141,
    "wasserstein_distance": null,
    "g_loss": null,
    "g_cost": null,
    "d_loss_real": null,
    "d_loss_fake": null
}