{
    "epoch": 155,
    "avg_current_window": 1594.8362070704675,
    "avg_prior_window": 1623.45756617548,
    "inception_score_mean": 1.7251450136860769,
    "inception_score_std": 0.10362384439374114,
    "fid_per_class": {
        "airplane": 1054.198119444129,
        "automobile": 1249.2908219742967,
        "bird": 1410.4958163075644,
        "cat": 1248.829255412138,
        "deer": 1673.5359474604986,
        "dog": 1301.1358286856148,
        "frog": 1910.2594128856713,
        "horse": 1517.9727223502555,
        "ship": 995.5404091981383,
        "truck": 1192.3604514687638
    },
    "fid": 1003.4056763962964,
    "wasserstein_distance": null,
    "g_loss": null,
    "g_cost": null,
    "d_loss_real": null,
    "d_loss_fake": null
}