{
    "epoch": 186,
    "avg_current_window": 1480.3603355409168,
    "avg_prior_window": 1501.7005131850897,
    "inception_score_mean": 1.8143277980076888,
    "inception_score_std": 0.1153489301363999,
    "fid_per_class": {
        "airplane": 1035.1940644915219,
        "automobile": 1176.3463035192158,
        "bird": 1328.0851024740962,
        "cat": 1142.3471349740284,
        "deer": 1635.414383926963,
        "dog": 1267.167766165443,
        "frog": 1622.020098147881,
        "horse": 1307.8582435039716,
        "ship": 1013.5673421659017,
        "truck": 1136.268524956053
    },
    "fid": 891.788266329949,
    "wasserstein_distance": null,
    "g_loss": null,
    "g_cost": null,
    "d_loss_real": null,
    "d_loss_fake": null
}