{
    "epoch": 100,
    "avg_current_window": 1946.2272888383127,
    "avg_prior_window": 2002.8350532997388,
    "inception_score_mean": 1.65442789529749,
    "inception_score_std": 0.10043013092962556,
    "fid_per_class": {
        "airplane": 1203.881088124602,
        "automobile": 1356.3904692004935,
        "bird": 1516.3450875203844,
        "cat": 1342.0689070225278,
        "deer": 1698.41295128598,
        "dog": 1425.9210475307693,
        "frog": 2055.314947799438,
        "horse": 1553.3931932838418,
        "ship": 1200.6467601225368,
        "truck": 1367.0791465567174
    },
    "fid": 1138.1538411381628,
    "wasserstein_distance": null,
    "g_loss": null,
    "g_cost": null,
    "d_loss_real": null,
    "d_loss_fake": null
}