{
    "epoch": 84,
    "avg_current_window": 2118.76914884776,
    "avg_prior_window": 2192.6669101088364,
    "inception_score_mean": 1.5525947127107176,
    "inception_score_std": 0.07747306382057913,
    "fid_per_class": {
        "airplane": 1225.8295496531414,
        "automobile": 1397.2781209956447,
        "bird": 1439.6014040152263,
        "cat": 1357.5345053043238,
        "deer": 1644.5169362668294,
        "dog": 1450.5834546265642,
        "frog": 1883.9353150622649,
        "horse": 1531.025595931802,
        "ship": 1177.9787205939979,
        "truck": 1322.7047309494546
    },
    "fid": 1138.3297611477103,
    "wasserstein_distance": null,
    "g_loss": null,
    "g_cost": null,
    "d_loss_real": null,
    "d_loss_fake": null
}