{
    "epoch": 95,
    "avg_current_window": 1992.5438283133801,
    "avg_prior_window": 2058.915711380196,
    "inception_score_mean": 1.6879021281811508,
    "inception_score_std": 0.11693510314112056,
    "fid_per_class": {
        "airplane": 1099.713933621317,
        "automobile": 1267.9164142800555,
        "bird": 1324.8272433759334,
        "cat": 1155.8460759768652,
        "deer": 1487.5879702192572,
        "dog": 1179.1786960963689,
        "frog": 1880.6763871610358,
        "horse": 1431.9124538217575,
        "ship": 1137.173291555771,
        "truck": 1294.7835287936518
    },
    "fid": 977.6663737040726,
    "wasserstein_distance": null,
    "g_loss": null,
    "g_cost": null,
    "d_loss_real": null,
    "d_loss_fake": null
}