{
    "epoch": 60,
    "avg_current_window": 2433.7975527968497,
    "avg_prior_window": 2543.196559556838,
    "inception_score_mean": 1.3972720361824211,
    "inception_score_std": 0.13089196786953286,
    "fid_per_class": {
        "airplane": 1661.7336265429303,
        "automobile": 1613.7284017075663,
        "bird": 2076.3085351405025,
        "cat": 1886.9460342152354,
        "deer": 2273.3025336873798,
        "dog": 2152.835565647415,
        "frog": 2450.58825556636,
        "horse": 1968.3952265244818,
        "ship": 1400.7591973014937,
        "truck": 1361.7326846345186
    },
    "fid": 1581.2617579690932,
    "wasserstein_distance": null,
    "g_loss": null,
    "g_cost": null,
    "d_loss_real": null,
    "d_loss_fake": null
}