{
    "epoch": 75,
    "avg_current_window": 2230.418144142818,
    "avg_prior_window": 2316.257284591621,
    "inception_score_mean": 1.5178261041938756,
    "inception_score_std": 0.06254517354983981,
    "fid_per_class": {
        "airplane": 1302.2847116217688,
        "automobile": 1399.5699242973276,
        "bird": 1642.3397806816615,
        "cat": 1414.1716574509526,
        "deer": 1843.0533197741966,
        "dog": 1513.6184654777246,
        "frog": 1993.9256296349054,
        "horse": 1639.416653315702,
        "ship": 1214.9533764600133,
        "truck": 1381.3836577895136
    },
    "fid": 1213.0734747025604,
    "wasserstein_distance": null,
    "g_loss": null,
    "g_cost": null,
    "d_loss_real": null,
    "d_loss_fake": null
}