{
    "epoch": 13,
    "avg_current_window": 2787.861405156502,
    "avg_prior_window": 3016.188599159359,
    "inception_score_mean": 1.0000000000040117,
    "inception_score_std": 4.190758460752416e-12,
    "fid_per_class": {
        "airplane": 2469.341908119196,
        "automobile": 2963.4866327731256,
        "bird": 2929.231409148233,
        "cat": 3186.939200481796,
        "deer": 3448.3828341154895,
        "dog": 3122.133060558154,
        "frog": 3368.0838941297025,
        "horse": 3210.623826885116,
        "ship": 2871.9348408249853,
        "truck": 2787.5521420839746
    },
    "fid": 3028.172334387834,
    "wasserstein_distance": null,
    "g_loss": null,
    "g_cost": null,
    "d_loss_real": null,
    "d_loss_fake": null
}