{
    "epoch": 169,
    "avg_current_window": 1538.806352231826,
    "avg_prior_window": 1563.4629549148278,
    "inception_score_mean": 1.7277278351132952,
    "inception_score_std": 0.09628476843592043,
    "fid_per_class": {
        "airplane": 1086.9694765086647,
        "automobile": 1257.5726368513394,
        "bird": 1246.3859480726471,
        "cat": 1152.383621522948,
        "deer": 1610.5845022201097,
        "dog": 1231.6496866872083,
        "frog": 1653.4569733268831,
        "horse": 1308.1403489880445,
        "ship": 1121.7704617332363,
        "truck": 1174.0898741214341
    },
    "fid": 913.6037287136893,
    "wasserstein_distance": null,
    "g_loss": null,
    "g_cost": null,
    "d_loss_real": null,
    "d_loss_fake": null
}