{
    "epoch": 184,
    "avg_current_window": 1487.3992785617147,
    "avg_prior_window": 1508.4244183697601,
    "inception_score_mean": 1.7454129180592806,
    "inception_score_std": 0.11232373800293478,
    "fid_per_class": {
        "airplane": 1044.197166632543,
        "automobile": 1220.3440104378515,
        "bird": 1205.017436307418,
        "cat": 1107.3458565848312,
        "deer": 1435.6336856373464,
        "dog": 1192.6579863793484,
        "frog": 1520.350010764672,
        "horse": 1256.6289785207669,
        "ship": 973.3629766567285,
        "truck": 1137.8460420408044
    },
    "fid": 827.2622507695189,
    "wasserstein_distance": null,
    "g_loss": null,
    "g_cost": null,
    "d_loss_real": null,
    "d_loss_fake": null
}