{
    "epoch": 151,
    "avg_current_window": 1612.7061915650463,
    "avg_prior_window": 1642.5286522330498,
    "inception_score_mean": 1.7545668403362449,
    "inception_score_std": 0.09566553309648827,
    "fid_per_class": {
        "airplane": 1018.1965570098018,
        "automobile": 1294.7711524342976,
        "bird": 1284.7782381283316,
        "cat": 1159.848217808954,
        "deer": 1577.1266201765118,
        "dog": 1207.476637680867,
        "frog": 1689.9675172363975,
        "horse": 1434.9055752607728,
        "ship": 1108.5134230126616,
        "truck": 1201.1932777665525
    },
    "fid": 919.1110715378599,
    "wasserstein_distance": null,
    "g_loss": null,
    "g_cost": null,
    "d_loss_real": null,
    "d_loss_fake": null
}