{
    "epoch": 18,
    "avg_current_window": 2776.4753611959377,
    "avg_prior_window": 3020.7977385709505,
    "inception_score_mean": 1.0000142270830414,
    "inception_score_std": 6.485796600102676e-06,
    "fid_per_class": {
        "airplane": 2181.6752174667217,
        "automobile": 2540.4108572832884,
        "bird": 2599.7752271763193,
        "cat": 2742.219550910535,
        "deer": 2971.138394017423,
        "dog": 2726.1866966170264,
        "frog": 2987.932986196265,
        "horse": 2777.036804870414,
        "ship": 2519.077844243121,
        "truck": 2363.635032500823
    },
    "fid": 2631.0077256488703,
    "wasserstein_distance": null,
    "g_loss": null,
    "g_cost": null,
    "d_loss_real": null,
    "d_loss_fake": null
}