{
    "epoch": 70,
    "avg_current_window": 2296.886993757987,
    "avg_prior_window": 2384.6379398609024,
    "inception_score_mean": 1.5208808204373894,
    "inception_score_std": 0.11951163539166304,
    "fid_per_class": {
        "airplane": 1383.6453674243344,
        "automobile": 1409.4714314680518,
        "bird": 1710.0978873025267,
        "cat": 1611.339636475273,
        "deer": 1941.3843527093,
        "dog": 1779.8024279051122,
        "frog": 2206.4317163119454,
        "horse": 1671.737162889733,
        "ship": 1212.731156921884,
        "truck": 1438.6830253524051
    },
    "fid": 1355.9203583543688,
    "wasserstein_distance": null,
    "g_loss": null,
    "g_cost": null,
    "d_loss_real": null,
    "d_loss_fake": null
}