{
    "epoch": 196,
    "avg_current_window": 1449.8856207408303,
    "avg_prior_window": 1469.335330602183,
    "inception_score_mean": 1.7837107371835017,
    "inception_score_std": 0.1411144154927552,
    "fid_per_class": {
        "airplane": 1064.0699030968876,
        "automobile": 1217.318977997601,
        "bird": 1328.7761941761996,
        "cat": 1152.8633848642373,
        "deer": 1579.677515786447,
        "dog": 1116.9094926381815,
        "frog": 1768.5657059555513,
        "horse": 1336.3296435056573,
        "ship": 1121.0892438385238,
        "truck": 1140.2771393351127
    },
    "fid": 912.6039032047387,
    "wasserstein_distance": null,
    "g_loss": null,
    "g_cost": null,
    "d_loss_real": null,
    "d_loss_fake": null
}