{
    "epoch": 43,
    "avg_current_window": 2684.3948937265186,
    "avg_prior_window": 2765.3661237124693,
    "inception_score_mean": 1.1545710004610321,
    "inception_score_std": 0.053271717705943245,
    "fid_per_class": {
        "airplane": 1934.7561660683082,
        "automobile": 2191.7967360448065,
        "bird": 2459.6183007062564,
        "cat": 2501.6267571888725,
        "deer": 2724.412572967991,
        "dog": 2498.6402901207002,
        "frog": 2912.277039405869,
        "horse": 2434.4620712525057,
        "ship": 2183.729845702885,
        "truck": 2094.482646321942
    },
    "fid": 2222.84849551725,
    "wasserstein_distance": null,
    "g_loss": null,
    "g_cost": null,
    "d_loss_real": null,
    "d_loss_fake": null
}