{
    "epoch": 25,
    "avg_current_window": 2728.5291177768468,
    "avg_prior_window": 2897.0692547147864,
    "inception_score_mean": 1.1772554397501174,
    "inception_score_std": 0.05338115151960903,
    "fid_per_class": {
        "airplane": 2030.0898274059084,
        "automobile": 2284.2520944978346,
        "bird": 2341.858087767834,
        "cat": 2195.1236460915557,
        "deer": 2653.4062055772006,
        "dog": 2370.891523827836,
        "frog": 2693.785048429175,
        "horse": 2237.94323933409,
        "ship": 2214.80284917319,
        "truck": 2071.9008948868127
    },
    "fid": 2171.453083217583,
    "wasserstein_distance": null,
    "g_loss": null,
    "g_cost": null,
    "d_loss_real": null,
    "d_loss_fake": null
}