{
    "epoch": 49,
    "avg_current_window": 2607.619222961444,
    "avg_prior_window": 2720.2394317591807,
    "inception_score_mean": 1.231549213193265,
    "inception_score_std": 0.035781771259511604,
    "fid_per_class": {
        "airplane": 1577.6250761966849,
        "automobile": 1522.331872870534,
        "bird": 2075.1694165058116,
        "cat": 2105.278501914775,
        "deer": 2141.0042179715156,
        "dog": 2076.7039867862086,
        "frog": 2356.827887252495,
        "horse": 2055.88369638651,
        "ship": 1583.1916723258714,
        "truck": 1494.4756246101738
    },
    "fid": 1667.6755106071469,
    "wasserstein_distance": null,
    "g_loss": null,
    "g_cost": null,
    "d_loss_real": null,
    "d_loss_fake": null
}