{
    "epoch": 197,
    "avg_current_window": 1447.158302377703,
    "avg_prior_window": 1466.2564258791297,
    "inception_score_mean": 1.7534812856336526,
    "inception_score_std": 0.10908873354133788,
    "fid_per_class": {
        "airplane": 1018.5180504161802,
        "automobile": 1165.405483346597,
        "bird": 1328.7092516861608,
        "cat": 1146.6962566697737,
        "deer": 1561.0593459231502,
        "dog": 1244.3575006044343,
        "frog": 1752.7120162113797,
        "horse": 1400.10452395341,
        "ship": 1011.3882422780005,
        "truck": 1160.1461926158495
    },
    "fid": 905.3603509662624,
    "wasserstein_distance": null,
    "g_loss": null,
    "g_cost": null,
    "d_loss_real": null,
    "d_loss_fake": null
}