{
    "epoch": 131,
    "avg_current_window": 1716.4726661467362,
    "avg_prior_window": 1754.6191881294187,
    "inception_score_mean": 1.738701423701747,
    "inception_score_std": 0.11477514658269533,
    "fid_per_class": {
        "airplane": 1092.310804063739,
        "automobile": 1274.1293343952225,
        "bird": 1408.5104050627087,
        "cat": 1200.2849304241204,
        "deer": 1680.481090567308,
        "dog": 1315.0695603276654,
        "frog": 1786.9424931488657,
        "horse": 1475.4411675621295,
        "ship": 1032.789630207973,
        "truck": 1224.6399681586481
    },
    "fid": 1003.6771129197202,
    "wasserstein_distance": null,
    "g_loss": null,
    "g_cost": null,
    "d_loss_real": null,
    "d_loss_fake": null
}