{
    "epoch": 173,
    "avg_current_window": 1524.5544847194576,
    "avg_prior_window": 1547.9659138522536,
    "inception_score_mean": 1.7937141168646307,
    "inception_score_std": 0.14556228991331796,
    "fid_per_class": {
        "airplane": 1007.445874191879,
        "automobile": 1237.6995922372298,
        "bird": 1282.6124184456653,
        "cat": 1166.3124446362808,
        "deer": 1511.7422819561536,
        "dog": 1199.3514112980188,
        "frog": 1695.909867726529,
        "horse": 1292.7109123907674,
        "ship": 1004.8314117382415,
        "truck": 1203.0362917719785
    },
    "fid": 901.5392548565632,
    "wasserstein_distance": null,
    "g_loss": null,
    "g_cost": null,
    "d_loss_real": null,
    "d_loss_fake": null
}