{
    "epoch": 40,
    "avg_current_window": 2691.75446447984,
    "avg_prior_window": 2780.717524862747,
    "inception_score_mean": 1.0000000000001743,
    "inception_score_std": 3.680009218885935e-13,
    "fid_per_class": {
        "airplane": 2103.771359505673,
        "automobile": 2477.6643724216265,
        "bird": 2555.7480950340846,
        "cat": 2693.5830066283997,
        "deer": 2944.260527772124,
        "dog": 2686.2016687402347,
        "frog": 2966.0380021352285,
        "horse": 2745.793940802455,
        "ship": 2446.3484195080655,
        "truck": 2319.2442990881264
    },
    "fid": 2586.265878222499,
    "wasserstein_distance": null,
    "g_loss": null,
    "g_cost": null,
    "d_loss_real": null,
    "d_loss_fake": null
}