{
    "epoch": 191,
    "avg_current_window": 1464.8136956315848,
    "avg_prior_window": 1485.1548961125832,
    "inception_score_mean": 1.7929867354176303,
    "inception_score_std": 0.09903533011646147,
    "fid_per_class": {
        "airplane": 1000.0464818402877,
        "automobile": 1221.801096169679,
        "bird": 1263.6156991492376,
        "cat": 1143.9242462226762,
        "deer": 1497.0521846473148,
        "dog": 1204.7456150768362,
        "frog": 1598.9379570700187,
        "horse": 1325.494405152105,
        "ship": 1094.147745033013,
        "truck": 1096.9565940455382
    },
    "fid": 863.6322793842146,
    "wasserstein_distance": null,
    "g_loss": null,
    "g_cost": null,
    "d_loss_real": null,
    "d_loss_fake": null
}