{
    "epoch": 65,
    "avg_current_window": 923.3280146294142,
    "avg_prior_window": 955.3425973756252,
    "inception_score_mean": 1.981307746610876,
    "inception_score_std": 0.11448818862118555,
    "fid_per_class": {
        "airplane": 908.9209739617133,
        "automobile": 1078.0154263282461,
        "bird": 1197.8036693444394,
        "cat": 955.1588951444335,
        "deer": 1192.165862796312,
        "dog": 935.210337761996,
        "frog": 1248.8235484061468,
        "horse": 1068.3114279903043,
        "ship": 801.788146689995,
        "truck": 947.5686946033427
    },
    "fid": 611.9699497068744,
    "wasserstein_distance": null,
    "g_loss": null,
    "g_cost": null,
    "d_loss_real": null,
    "d_loss_fake": null
}