{
    "epoch": 81,
    "avg_current_window": 872.3366029290194,
    "avg_prior_window": 895.3287965534513,
    "inception_score_mean": 1.8858786597415118,
    "inception_score_std": 0.15017983848727762,
    "fid_per_class": {
        "airplane": 984.6372460884145,
        "automobile": 1051.3205994600985,
        "bird": 1136.4884218224045,
        "cat": 961.2792773308204,
        "deer": 1187.5502229218641,
        "dog": 1000.9288219458535,
        "frog": 1337.0667771982767,
        "horse": 1093.4358626179546,
        "ship": 788.8557586426342,
        "truck": 895.4476540735734
    },
    "fid": 641.0064853643396,
    "wasserstein_distance": null,
    "g_loss": null,
    "g_cost": null,
    "d_loss_real": null,
    "d_loss_fake": null
}