{
    "epoch": 143,
    "avg_current_window": 771.8101562853639,
    "avg_prior_window": 781.4083860557837,
    "inception_score_mean": 1.9710834063061153,
    "inception_score_std": 0.11069348693728577,
    "fid_per_class": {
        "airplane": 965.3940088180512,
        "automobile": 1095.1726153632421,
        "bird": 1176.4231799728236,
        "cat": 1023.7514371885438,
        "deer": 1372.7998454657668,
        "dog": 1012.3036811213493,
        "frog": 1481.6356557033232,
        "horse": 1199.8976017344391,
        "ship": 820.3491072440828,
        "truck": 959.4255000730893
    },
    "fid": 720.0053526174044,
    "wasserstein_distance": null,
    "g_loss": null,
    "g_cost": null,
    "d_loss_real": null,
    "d_loss_fake": null
}