{
    "epoch": 60,
    "avg_current_window": 943.4884396748054,
    "avg_prior_window": 978.3506808902953,
    "inception_score_mean": 1.8625170962898192,
    "inception_score_std": 0.12959072593426946,
    "fid_per_class": {
        "airplane": 982.5862191065256,
        "automobile": 1085.8480683381545,
        "bird": 1304.0000345038338,
        "cat": 992.626256500425,
        "deer": 1269.4265040010077,
        "dog": 1068.1139523083825,
        "frog": 1309.3454437915539,
        "horse": 1202.0898566450232,
        "ship": 820.8774380424388,
        "truck": 995.4436453146282
    },
    "fid": 711.249462049193,
    "wasserstein_distance": null,
    "g_loss": null,
    "g_cost": null,
    "d_loss_real": null,
    "d_loss_fake": null
}