{
    "epoch": 178,
    "avg_current_window": 747.7576974858409,
    "avg_prior_window": 754.5443451109628,
    "inception_score_mean": 1.9665586837213582,
    "inception_score_std": 0.15904206512482516,
    "fid_per_class": {
        "airplane": 909.9129881708145,
        "automobile": 1075.6354579605581,
        "bird": 1106.7663533416608,
        "cat": 955.1243793779564,
        "deer": 1174.9950077793226,
        "dog": 1023.2381729516928,
        "frog": 1339.0416396508251,
        "horse": 1111.5462993049707,
        "ship": 763.3749058754261,
        "truck": 963.002123794924
    },
    "fid": 643.3462095969292,
    "wasserstein_distance": null,
    "g_loss": null,
    "g_cost": null,
    "d_loss_real": null,
    "d_loss_fake": null
}