{
    "epoch": 99,
    "avg_current_window": 831.4747800169665,
    "avg_prior_window": 848.2118999433152,
    "inception_score_mean": 1.9396053635827044,
    "inception_score_std": 0.1672507029099869,
    "fid_per_class": {
        "airplane": 964.8871065948199,
        "automobile": 1005.8086863940771,
        "bird": 1133.6352424693127,
        "cat": 900.418385038406,
        "deer": 1278.7710075913938,
        "dog": 900.7115834131265,
        "frog": 1265.7270957541873,
        "horse": 1051.1220335226053,
        "ship": 829.9853573101567,
        "truck": 926.8986046600985
    },
    "fid": 615.1267875086896,
    "wasserstein_distance": null,
    "g_loss": null,
    "g_cost": null,
    "d_loss_real": null,
    "d_loss_fake": null
}