{
    "epoch": 187,
    "avg_current_window": 742.5212258831484,
    "avg_prior_window": 748.7195037733854,
    "inception_score_mean": 1.9574246543013838,
    "inception_score_std": 0.07238167504315426,
    "fid_per_class": {
        "airplane": 855.8954066027994,
        "automobile": 1095.4002894531686,
        "bird": 1106.9569575975875,
        "cat": 974.7801846704804,
        "deer": 1158.4152748674182,
        "dog": 995.13412811832,
        "frog": 1274.1837092911887,
        "horse": 1076.4371990748227,
        "ship": 784.1279948420511,
        "truck": 977.0677564092499
    },
    "fid": 613.4279614983036,
    "wasserstein_distance": null,
    "g_loss": null,
    "g_cost": null,
    "d_loss_real": null,
    "d_loss_fake": null
}