{
    "epoch": 37,
    "avg_current_window": 1095.9445825445537,
    "avg_prior_window": 1176.3008125177791,
    "inception_score_mean": 1.747810366041256,
    "inception_score_std": 0.09347631548914867,
    "fid_per_class": {
        "airplane": 1028.6276654005756,
        "automobile": 1267.014874431104,
        "bird": 1213.8379880765826,
        "cat": 1022.5447180677943,
        "deer": 1228.5391008162248,
        "dog": 1116.5114884972156,
        "frog": 1427.9382839325626,
        "horse": 1224.7314838717484,
        "ship": 799.3981696602376,
        "truck": 1090.505654425171
    },
    "fid": 739.7244607507429,
    "wasserstein_distance": null,
    "g_loss": null,
    "g_cost": null,
    "d_loss_real": null,
    "d_loss_fake": null
}