{
    "epoch": 86,
    "avg_current_window": 858.8997479308035,
    "avg_prior_window": 880.2502632421593,
    "inception_score_mean": 1.9677302758285464,
    "inception_score_std": 0.11072392850292971,
    "fid_per_class": {
        "airplane": 973.2181333775968,
        "automobile": 1063.3967398210962,
        "bird": 1075.9289036028956,
        "cat": 935.7794412561018,
        "deer": 1145.115800274878,
        "dog": 909.3151443599143,
        "frog": 1252.7598353924095,
        "horse": 1046.7549754563881,
        "ship": 744.4693074397921,
        "truck": 869.9137903402
    },
    "fid": 590.360909454501,
    "wasserstein_distance": null,
    "g_loss": null,
    "g_cost": null,
    "d_loss_real": null,
    "d_loss_fake": null
}