{
    "epoch": 33,
    "avg_current_window": 1140.6553333505738,
    "avg_prior_window": 1228.6177196706044,
    "inception_score_mean": 1.8229121470978167,
    "inception_score_std": 0.14632190695930058,
    "fid_per_class": {
        "airplane": 923.5997987491285,
        "automobile": 1101.8596942450758,
        "bird": 1224.6308631613736,
        "cat": 995.8029291078701,
        "deer": 1276.3471605875784,
        "dog": 1052.3956087988636,
        "frog": 1374.4525496125407,
        "horse": 1211.6953655013992,
        "ship": 780.0603603491348,
        "truck": 984.1944392996514
    },
    "fid": 701.4556697293033,
    "wasserstein_distance": null,
    "g_loss": null,
    "g_cost": null,
    "d_loss_real": null,
    "d_loss_fake": null
}