{
    "epoch": 129,
    "avg_current_window": 786.0168247296335,
    "avg_prior_window": 797.2812238903182,
    "inception_score_mean": 1.9264913427394208,
    "inception_score_std": 0.08187467683337396,
    "fid_per_class": {
        "airplane": 1021.9572122649687,
        "automobile": 1175.151061560389,
        "bird": 1138.8047212880706,
        "cat": 943.838291864588,
        "deer": 1266.7197360526072,
        "dog": 934.7782407145589,
        "frog": 1346.045880392466,
        "horse": 1126.9106340700337,
        "ship": 799.0554557257695,
        "truck": 951.4190043555512
    },
    "fid": 653.0726504336842,
    "wasserstein_distance": null,
    "g_loss": null,
    "g_cost": null,
    "d_loss_real": null,
    "d_loss_fake": null
}