{
    "epoch": 125,
    "avg_current_window": 790.9029740991957,
    "avg_prior_window": 802.896095884613,
    "inception_score_mean": 1.995731416148714,
    "inception_score_std": 0.14795965587908447,
    "fid_per_class": {
        "airplane": 894.4389511255397,
        "automobile": 1095.2378680427132,
        "bird": 1115.5422214339321,
        "cat": 945.7968592774832,
        "deer": 1238.0427096016308,
        "dog": 989.910029810555,
        "frog": 1293.9158604077506,
        "horse": 1115.9436218050262,
        "ship": 697.8129654520775,
        "truck": 923.0986922980971
    },
    "fid": 620.0949100776088,
    "wasserstein_distance": null,
    "g_loss": null,
    "g_cost": null,
    "d_loss_real": null,
    "d_loss_fake": null
}