{
    "epoch": 191,
    "avg_current_window": 740.6768408585004,
    "avg_prior_window": 746.5132754846708,
    "inception_score_mean": 1.9870433411435244,
    "inception_score_std": 0.13389903618237933,
    "fid_per_class": {
        "airplane": 945.8671890589076,
        "automobile": 1089.8885457348404,
        "bird": 1073.016792797387,
        "cat": 937.510471758709,
        "deer": 1180.194447432722,
        "dog": 965.1738039965745,
        "frog": 1344.9985071246504,
        "horse": 1063.3922973003196,
        "ship": 785.1283845031467,
        "truck": 949.4333912664655
    },
    "fid": 628.2871789237222,
    "wasserstein_distance": null,
    "g_loss": null,
    "g_cost": null,
    "d_loss_real": null,
    "d_loss_fake": null
}