{
    "epoch": 32,
    "avg_current_window": 1154.8735562502575,
    "avg_prior_window": 1244.9666848334698,
    "inception_score_mean": 1.8578634166660646,
    "inception_score_std": 0.12081125324764232,
    "fid_per_class": {
        "airplane": 993.0519125325818,
        "automobile": 1181.19076765323,
        "bird": 1159.5724870221484,
        "cat": 917.5897331235847,
        "deer": 1217.6778641382316,
        "dog": 1018.0520637644877,
        "frog": 1262.0446117930421,
        "horse": 1137.7324672563495,
        "ship": 853.6757731316771,
        "truck": 1094.7315870052307
    },
    "fid": 685.6722005606935,
    "wasserstein_distance": null,
    "g_loss": null,
    "g_cost": null,
    "d_loss_real": null,
    "d_loss_fake": null
}