{
    "epoch": 186,
    "avg_current_window": 742.6230795551644,
    "avg_prior_window": 749.2933929175449,
    "inception_score_mean": 1.8954548454140294,
    "inception_score_std": 0.1750204640665134,
    "fid_per_class": {
        "airplane": 1024.7047942593038,
        "automobile": 1118.2370997434507,
        "bird": 1229.1105954408226,
        "cat": 1008.0660697786225,
        "deer": 1294.5113245388125,
        "dog": 1087.3568562329629,
        "frog": 1426.5606518468799,
        "horse": 1174.573640747354,
        "ship": 801.4692310580939,
        "truck": 996.2983224829034
    },
    "fid": 723.5764428881685,
    "wasserstein_distance": null,
    "g_loss": null,
    "g_cost": null,
    "d_loss_real": null,
    "d_loss_fake": null
}