{
    "epoch": 200,
    "avg_current_window": 737.2522500344977,
    "avg_prior_window": 742.6070482097462,
    "inception_score_mean": 1.951575061086982,
    "inception_score_std": 0.09487749796064839,
    "fid_per_class": {
        "airplane": 909.3849878068559,
        "automobile": 1092.453631188066,
        "bird": 1168.789217348769,
        "cat": 975.9449798256136,
        "deer": 1219.380664496429,
        "dog": 942.230754144054,
        "frog": 1379.6164630042372,
        "horse": 1173.2241847465543,
        "ship": 795.3681930491357,
        "truck": 1004.6585757966366
    },
    "fid": 661.281249519908,
    "wasserstein_distance": null,
    "g_loss": null,
    "g_cost": null,
    "d_loss_real": null,
    "d_loss_fake": null
}