{
    "epoch": 15,
    "avg_current_window": 1529.411599630851,
    "avg_prior_window": 1895.9667313685682,
    "inception_score_mean": 1.5805252918816481,
    "inception_score_std": 0.0971673215297751,
    "fid_per_class": {
        "airplane": 1128.5165863137045,
        "automobile": 1230.2342269045992,
        "bird": 1418.8759212510658,
        "cat": 1200.6481205851846,
        "deer": 1500.583512402437,
        "dog": 1353.7725552738143,
        "frog": 1680.9851432235762,
        "horse": 1474.8216292969605,
        "ship": 985.8719769465296,
        "truck": 1045.7787526677732
    },
    "fid": 972.940755099798,
    "wasserstein_distance": null,
    "g_loss": null,
    "g_cost": null,
    "d_loss_real": null,
    "d_loss_fake": null
}