{
    "epoch": 54,
    "avg_current_window": 971.1942892663144,
    "avg_prior_window": 1014.744933543067,
    "inception_score_mean": 1.9014964251716804,
    "inception_score_std": 0.1088463057899668,
    "fid_per_class": {
        "airplane": 1048.4236277068148,
        "automobile": 1099.510503723146,
        "bird": 1216.4875983991965,
        "cat": 969.6293510584636,
        "deer": 1295.2565045176864,
        "dog": 933.7070429194307,
        "frog": 1327.3269893642032,
        "horse": 1113.5618122670667,
        "ship": 893.5581484522866,
        "truck": 1012.6195251256923
    },
    "fid": 676.2891217370081,
    "wasserstein_distance": null,
    "g_loss": null,
    "g_cost": null,
    "d_loss_real": null,
    "d_loss_fake": null
}