{
    "epoch": 156,
    "avg_current_window": 762.0982476351572,
    "avg_prior_window": 770.3472115321272,
    "inception_score_mean": 2.012521094242233,
    "inception_score_std": 0.16823706062888802,
    "fid_per_class": {
        "airplane": 874.5455956613893,
        "automobile": 1074.4856681916679,
        "bird": 1069.1783982882926,
        "cat": 882.7032464003632,
        "deer": 1218.6552548773002,
        "dog": 962.5691749544654,
        "frog": 1316.5069657064564,
        "horse": 1074.1263515491178,
        "ship": 834.527588620328,
        "truck": 926.8157260590698
    },
    "fid": 601.1188826099235,
    "wasserstein_distance": null,
    "g_loss": null,
    "g_cost": null,
    "d_loss_real": null,
    "d_loss_fake": null
}