{
    "epoch": 57,
    "avg_current_window": 956.4602548301319,
    "avg_prior_window": 995.3599324657885,
    "inception_score_mean": 1.8759762869882408,
    "inception_score_std": 0.1409999970518405,
    "fid_per_class": {
        "airplane": 955.9959142124097,
        "automobile": 1126.759119696672,
        "bird": 1272.1077968419117,
        "cat": 985.6773529739569,
        "deer": 1324.2493743916086,
        "dog": 997.4271427665401,
        "frog": 1337.1680680480326,
        "horse": 1104.4205281948082,
        "ship": 796.9769074826419,
        "truck": 997.634715664984
    },
    "fid": 688.2877828279877,
    "wasserstein_distance": null,
    "g_loss": null,
    "g_cost": null,
    "d_loss_real": null,
    "d_loss_fake": null
}