{
    "epoch": 91,
    "avg_current_window": 847.7214495886194,
    "avg_prior_window": 865.7644096686465,
    "inception_score_mean": 1.8641366517126325,
    "inception_score_std": 0.09486813514303426,
    "fid_per_class": {
        "airplane": 962.9575379903374,
        "automobile": 1104.0638753963983,
        "bird": 1104.0495462469582,
        "cat": 955.3364924988782,
        "deer": 1321.2060179348643,
        "dog": 1031.246094749778,
        "frog": 1314.8173198148984,
        "horse": 1188.1037763640238,
        "ship": 822.8695917514924,
        "truck": 1016.2387683267563
    },
    "fid": 680.4614047731727,
    "wasserstein_distance": null,
    "g_loss": null,
    "g_cost": null,
    "d_loss_real": null,
    "d_loss_fake": null
}