{
    "epoch": 128,
    "avg_current_window": 787.4487091760373,
    "avg_prior_window": 798.6082400156105,
    "inception_score_mean": 2.019355634299684,
    "inception_score_std": 0.09677681716493065,
    "fid_per_class": {
        "airplane": 917.1005377846532,
        "automobile": 1004.8052424776979,
        "bird": 1094.69410987735,
        "cat": 911.8568737370239,
        "deer": 1189.8508238362613,
        "dog": 883.3512235935782,
        "frog": 1274.6455095087256,
        "horse": 1081.4266813614188,
        "ship": 769.3341444269089,
        "truck": 911.3932999743904
    },
    "fid": 602.7356155899674,
    "wasserstein_distance": null,
    "g_loss": null,
    "g_cost": null,
    "d_loss_real": null,
    "d_loss_fake": null
}