{
    "epoch": 14,
    "avg_current_window": 1575.8174869501659,
    "avg_prior_window": 1960.3880112573918,
    "inception_score_mean": 1.6111501485978956,
    "inception_score_std": 0.11010955702481898,
    "fid_per_class": {
        "airplane": 1103.9287440663013,
        "automobile": 1201.6320974358869,
        "bird": 1313.1140145761462,
        "cat": 1188.4637270428348,
        "deer": 1241.903455157116,
        "dog": 1292.9727799846576,
        "frog": 1504.1082771917322,
        "horse": 1300.2816617160393,
        "ship": 957.1143037576586,
        "truck": 994.4893055044489
    },
    "fid": 879.7291771604445,
    "wasserstein_distance": null,
    "g_loss": null,
    "g_cost": null,
    "d_loss_real": null,
    "d_loss_fake": null
}