{
    "epoch": 62,
    "avg_current_window": 935.4852925316817,
    "avg_prior_window": 968.5354790902721,
    "inception_score_mean": 1.9105779132780714,
    "inception_score_std": 0.10314404687955026,
    "fid_per_class": {
        "airplane": 923.4671446784553,
        "automobile": 1089.7702604588012,
        "bird": 1180.3748959792754,
        "cat": 895.6680000523197,
        "deer": 1176.9610056572192,
        "dog": 935.4627867248864,
        "frog": 1236.8296530806958,
        "horse": 1053.8003582238423,
        "ship": 855.0246144334459,
        "truck": 950.1538898979919
    },
    "fid": 620.98413680853,
    "wasserstein_distance": null,
    "g_loss": null,
    "g_cost": null,
    "d_loss_real": null,
    "d_loss_fake": null
}