{
    "epoch": 1,
    "avg_current_window": 3.0,
    "avg_prior_window": 8.0,
    "inception_score_mean": 1.2292292765645076,
    "inception_score_std": 0.03468422057664324,
    "fid_per_class": {
        "airplane": 1888.9684036288445,
        "automobile": 1858.852257509441,
        "bird": 2126.787440819258,
        "cat": 2116.3947933085747,
        "deer": 2437.2355976264807,
        "dog": 2194.728438201413,
        "frog": 2437.5413761441937,
        "horse": 2181.738241903818,
        "ship": 1868.1450429762792,
        "truck": 1761.7076950911285
    },
    "fid": 1931.2431326568935,
    "wasserstein_distance": null,
    "g_loss": null,
    "g_cost": null,
    "d_loss_real": null,
    "d_loss_fake": null
}