{
    "epoch": 196,
    "avg_current_window": 738.8182367392883,
    "avg_prior_window": 743.9663025282582,
    "inception_score_mean": 1.967775624045173,
    "inception_score_std": 0.19449919220786552,
    "fid_per_class": {
        "airplane": 895.9377870101127,
        "automobile": 1065.8013344580716,
        "bird": 1045.7048019482916,
        "cat": 958.00340709548,
        "deer": 1193.9970157294233,
        "dog": 952.7959142683,
        "frog": 1284.9080722971703,
        "horse": 1133.7321577219536,
        "ship": 753.9389876353241,
        "truck": 941.0877051609091
    },
    "fid": 622.6252056935729,
    "wasserstein_distance": null,
    "g_loss": null,
    "g_cost": null,
    "d_loss_real": null,
    "d_loss_fake": null
}