{
    "epoch": 58,
    "avg_current_window": 951.8365915197502,
    "avg_prior_window": 989.518709818509,
    "inception_score_mean": 1.8804440522351293,
    "inception_score_std": 0.17061555833227102,
    "fid_per_class": {
        "airplane": 998.0816816478513,
        "automobile": 1080.4000321727144,
        "bird": 1236.3581494799214,
        "cat": 982.9474775044869,
        "deer": 1224.131960854817,
        "dog": 988.293769833075,
        "frog": 1348.5815390917473,
        "horse": 1084.1540454193687,
        "ship": 790.8953973291327,
        "truck": 954.1728514752767
    },
    "fid": 666.981794953919,
    "wasserstein_distance": null,
    "g_loss": null,
    "g_cost": null,
    "d_loss_real": null,
    "d_loss_fake": null
}