{
    "epoch": 79,
    "avg_current_window": 877.9494369697082,
    "avg_prior_window": 902.0099188927331,
    "inception_score_mean": 1.8155581144216808,
    "inception_score_std": 0.14219048241121818,
    "fid_per_class": {
        "airplane": 988.4095675501196,
        "automobile": 1071.758604651145,
        "bird": 1241.427981516901,
        "cat": 960.7892046637602,
        "deer": 1209.4229669799186,
        "dog": 973.8364517857308,
        "frog": 1380.5268367182155,
        "horse": 1146.8269254359802,
        "ship": 852.0988462624674,
        "truck": 920.96826310338
    },
    "fid": 684.7283106963371,
    "wasserstein_distance": null,
    "g_loss": null,
    "g_cost": null,
    "d_loss_real": null,
    "d_loss_fake": null
}