{
    "epoch": 34,
    "avg_current_window": 1127.7376961852422,
    "avg_prior_window": 1222.0350542326519,
    "inception_score_mean": 1.78778523673567,
    "inception_score_std": 0.11638327503946996,
    "fid_per_class": {
        "airplane": 985.3932851839771,
        "automobile": 1164.5169747463524,
        "bird": 1253.4375578963525,
        "cat": 1031.2625320647232,
        "deer": 1375.12519260196,
        "dog": 1059.4173122928028,
        "frog": 1438.035594885824,
        "horse": 1221.5836454410723,
        "ship": 782.3377891507384,
        "truck": 1037.0852527231214
    },
    "fid": 740.6488442996344,
    "wasserstein_distance": null,
    "g_loss": null,
    "g_cost": null,
    "d_loss_real": null,
    "d_loss_fake": null
}