{
    "epoch": 27,
    "avg_current_window": 1214.0856858924726,
    "avg_prior_window": 1349.500048954303,
    "inception_score_mean": 1.7527940052490028,
    "inception_score_std": 0.08690970886996281,
    "fid_per_class": {
        "airplane": 1076.2818060230736,
        "automobile": 1166.2071699338921,
        "bird": 1383.7591903835018,
        "cat": 1085.8469509364686,
        "deer": 1504.1034292278378,
        "dog": 1167.2510395127383,
        "frog": 1500.2243831710202,
        "horse": 1373.8423525922217,
        "ship": 825.9364073920235,
        "truck": 1132.3929862684868
    },
    "fid": 833.7869714069211,
    "wasserstein_distance": null,
    "g_loss": null,
    "g_cost": null,
    "d_loss_real": null,
    "d_loss_fake": null
}