{
    "epoch": 121,
    "avg_current_window": 796.2605909599469,
    "avg_prior_window": 807.4545319681696,
    "inception_score_mean": 1.9932771147306263,
    "inception_score_std": 0.13073752999791566,
    "fid_per_class": {
        "airplane": 950.0959647016832,
        "automobile": 1046.8342836244642,
        "bird": 1097.6263153173343,
        "cat": 913.9176636762364,
        "deer": 1270.5546968083722,
        "dog": 949.7110302747645,
        "frog": 1291.0406863358614,
        "horse": 1134.1505657685248,
        "ship": 822.5337925282907,
        "truck": 966.8361075666534
    },
    "fid": 627.9921921199692,
    "wasserstein_distance": null,
    "g_loss": null,
    "g_cost": null,
    "d_loss_real": null,
    "d_loss_fake": null
}