{
    "epoch": 89,
    "avg_current_window": 851.508082360055,
    "avg_prior_window": 872.0972233466931,
    "inception_score_mean": 1.8957559257092416,
    "inception_score_std": 0.1394606184466593,
    "fid_per_class": {
        "airplane": 1003.6180468449446,
        "automobile": 1105.4674217623096,
        "bird": 1172.9823560272348,
        "cat": 997.5885871769822,
        "deer": 1287.3916919245246,
        "dog": 976.4025541406781,
        "frog": 1396.7628410309892,
        "horse": 1155.2926360913534,
        "ship": 779.3950650608288,
        "truck": 986.7443737321147
    },
    "fid": 686.5248614288255,
    "wasserstein_distance": null,
    "g_loss": null,
    "g_cost": null,
    "d_loss_real": null,
    "d_loss_fake": null
}