{
    "epoch": 152,
    "avg_current_window": 765.2791377720474,
    "avg_prior_window": 773.0043653238336,
    "inception_score_mean": 1.9795367615788546,
    "inception_score_std": 0.15073102073582942,
    "fid_per_class": {
        "airplane": 926.7911638622469,
        "automobile": 1092.9254661470964,
        "bird": 1167.4797528866193,
        "cat": 978.1234484423677,
        "deer": 1161.9524559996757,
        "dog": 980.7688184214114,
        "frog": 1369.200324959963,
        "horse": 1131.7812390206232,
        "ship": 815.4810712948943,
        "truck": 931.0176167285969
    },
    "fid": 657.0954452494697,
    "wasserstein_distance": null,
    "g_loss": null,
    "g_cost": null,
    "d_loss_real": null,
    "d_loss_fake": null
}