{
    "epoch": 51,
    "avg_current_window": 987.8570976688703,
    "avg_prior_window": 1034.967789129986,
    "inception_score_mean": 1.8925588147656842,
    "inception_score_std": 0.11179161532683028,
    "fid_per_class": {
        "airplane": 1016.0483898042369,
        "automobile": 1144.4205597288785,
        "bird": 1222.9767076967582,
        "cat": 942.1731485530576,
        "deer": 1269.4340826148373,
        "dog": 960.9341559050829,
        "frog": 1320.7174541265406,
        "horse": 1186.918598810793,
        "ship": 767.9983708940063,
        "truck": 1050.590498953361
    },
    "fid": 683.1245023039994,
    "wasserstein_distance": null,
    "g_loss": null,
    "g_cost": null,
    "d_loss_real": null,
    "d_loss_fake": null
}