{
    "epoch": 48,
    "avg_current_window": 1006.4180909099964,
    "avg_prior_window": 1058.819463466586,
    "inception_score_mean": 1.7929629700513723,
    "inception_score_std": 0.1505542003674532,
    "fid_per_class": {
        "airplane": 979.6465911106629,
        "automobile": 1142.727917091731,
        "bird": 1214.3696186841623,
        "cat": 991.7471506404986,
        "deer": 1216.2448228403466,
        "dog": 958.7957197347791,
        "frog": 1344.5267179809352,
        "horse": 1159.5073013581039,
        "ship": 880.476635084395,
        "truck": 1085.095528312699
    },
    "fid": 707.8939776768846,
    "wasserstein_distance": null,
    "g_loss": null,
    "g_cost": null,
    "d_loss_real": null,
    "d_loss_fake": null
}