{
    "epoch": 100,
    "avg_current_window": 829.3113000918837,
    "avg_prior_window": 845.8220292976686,
    "inception_score_mean": 1.85518279435448,
    "inception_score_std": 0.07943849276542622,
    "fid_per_class": {
        "airplane": 1022.4767641681597,
        "automobile": 1060.1672289540243,
        "bird": 1226.1594218069615,
        "cat": 953.6424819791995,
        "deer": 1383.759180297645,
        "dog": 918.5908456278089,
        "frog": 1374.2831227152378,
        "horse": 1112.610913865737,
        "ship": 799.270952773566,
        "truck": 946.6171981812953
    },
    "fid": 670.2269905517799,
    "wasserstein_distance": null,
    "g_loss": null,
    "g_cost": null,
    "d_loss_real": null,
    "d_loss_fake": null
}