{
    "epoch": 22,
    "avg_current_window": 1312.905932696247,
    "avg_prior_window": 1509.0850978261021,
    "inception_score_mean": 1.7771692612085832,
    "inception_score_std": 0.08639377183636913,
    "fid_per_class": {
        "airplane": 1064.5630504294854,
        "automobile": 1187.0422077138983,
        "bird": 1297.2816544288867,
        "cat": 988.9631927212024,
        "deer": 1390.222311131198,
        "dog": 1011.718272953799,
        "frog": 1539.4824122448736,
        "horse": 1348.14567215124,
        "ship": 896.7582212624324,
        "truck": 1130.0487067895756
    },
    "fid": 805.0705576772331,
    "wasserstein_distance": null,
    "g_loss": null,
    "g_cost": null,
    "d_loss_real": null,
    "d_loss_fake": null
}