{
    "epoch": 68,
    "avg_current_window": 911.1284513640112,
    "avg_prior_window": 942.0755319108677,
    "inception_score_mean": 1.8262403311696533,
    "inception_score_std": 0.1391433783721886,
    "fid_per_class": {
        "airplane": 1019.9955800461928,
        "automobile": 1004.9139902747888,
        "bird": 1224.5613676008156,
        "cat": 966.9320671333503,
        "deer": 1242.4384573603345,
        "dog": 1015.5314893583738,
        "frog": 1290.3840413658877,
        "horse": 1156.2197487864482,
        "ship": 807.8408947008412,
        "truck": 994.6741123790413
    },
    "fid": 683.2936115349179,
    "wasserstein_distance": null,
    "g_loss": null,
    "g_cost": null,
    "d_loss_real": null,
    "d_loss_fake": null
}