{
    "epoch": 74,
    "avg_current_window": 892.7809890218767,
    "avg_prior_window": 917.2807115012627,
    "inception_score_mean": 1.8132275831042641,
    "inception_score_std": 0.12773568022021367,
    "fid_per_class": {
        "airplane": 972.4550504188071,
        "automobile": 1124.679615721988,
        "bird": 1140.887441588037,
        "cat": 964.6606611315972,
        "deer": 1229.4651313666084,
        "dog": 1010.6029437871412,
        "frog": 1312.6346417358056,
        "horse": 1203.3846647784617,
        "ship": 868.9510161135033,
        "truck": 980.7172430077142
    },
    "fid": 682.9408104433696,
    "wasserstein_distance": null,
    "g_loss": null,
    "g_cost": null,
    "d_loss_real": null,
    "d_loss_fake": null
}