{
    "epoch": 82,
    "avg_current_window": 869.5155039343281,
    "avg_prior_window": 892.1785546198388,
    "inception_score_mean": 1.9402611646305068,
    "inception_score_std": 0.11705495880220247,
    "fid_per_class": {
        "airplane": 982.171298375659,
        "automobile": 1004.6429542867323,
        "bird": 1117.2196418457556,
        "cat": 915.5994241113731,
        "deer": 1207.9863445250403,
        "dog": 895.6913833276883,
        "frog": 1227.91699877604,
        "horse": 1074.9179773797123,
        "ship": 774.0352307529424,
        "truck": 960.4846893602905
    },
    "fid": 615.8828145717937,
    "wasserstein_distance": null,
    "g_loss": null,
    "g_cost": null,
    "d_loss_real": null,
    "d_loss_fake": null
}