{
    "epoch": 69,
    "avg_current_window": 907.8264971635895,
    "avg_prior_window": 937.7550148579987,
    "inception_score_mean": 1.860691842414295,
    "inception_score_std": 0.16416543294832472,
    "fid_per_class": {
        "airplane": 949.4286088172524,
        "automobile": 1012.1666782621585,
        "bird": 1194.0425074769648,
        "cat": 916.3643128940851,
        "deer": 1216.4294870480235,
        "dog": 999.1289642750379,
        "frog": 1265.9496633324904,
        "horse": 1139.5539851996796,
        "ship": 827.1238209353994,
        "truck": 975.8521736579651
    },
    "fid": 652.340789299441,
    "wasserstein_distance": null,
    "g_loss": null,
    "g_cost": null,
    "d_loss_real": null,
    "d_loss_fake": null
}