{
    "epoch": 87,
    "avg_current_window": 855.8130946149839,
    "avg_prior_window": 877.0262699656915,
    "inception_score_mean": 1.8942492709168206,
    "inception_score_std": 0.14650877158735234,
    "fid_per_class": {
        "airplane": 964.4456900193172,
        "automobile": 1028.2358006687177,
        "bird": 1158.7635290578633,
        "cat": 1007.9238543176448,
        "deer": 1262.2591444474913,
        "dog": 978.1611464622047,
        "frog": 1378.441580426046,
        "horse": 1100.7976305613674,
        "ship": 746.2334260697382,
        "truck": 917.4096135317134
    },
    "fid": 663.7739276081373,
    "wasserstein_distance": null,
    "g_loss": null,
    "g_cost": null,
    "d_loss_real": null,
    "d_loss_fake": null
}