{
    "epoch": 166,
    "avg_current_window": 754.9897169961572,
    "avg_prior_window": 762.1399920328149,
    "inception_score_mean": 2.0138247315789735,
    "inception_score_std": 0.19128614159742774,
    "fid_per_class": {
        "airplane": 935.2831033448226,
        "automobile": 1102.4233348328958,
        "bird": 1062.9250073572912,
        "cat": 958.3026433001705,
        "deer": 1177.2407210594677,
        "dog": 911.5384319577353,
        "frog": 1328.5191780195457,
        "horse": 1106.1816757125403,
        "ship": 707.4137340425763,
        "truck": 977.0261279116588
    },
    "fid": 606.4680985622298,
    "wasserstein_distance": null,
    "g_loss": null,
    "g_cost": null,
    "d_loss_real": null,
    "d_loss_fake": null
}