{
    "epoch": 169,
    "avg_current_window": 752.927927087322,
    "avg_prior_window": 760.3190097773854,
    "inception_score_mean": 1.9849706687212652,
    "inception_score_std": 0.1617068877090589,
    "fid_per_class": {
        "airplane": 919.119215443164,
        "automobile": 1041.7141463491353,
        "bird": 1202.2601244136317,
        "cat": 971.1982721909536,
        "deer": 1236.508553296017,
        "dog": 1006.4768284783058,
        "frog": 1387.4138704878226,
        "horse": 1129.3066472796486,
        "ship": 806.6596517923206,
        "truck": 983.3921872888085
    },
    "fid": 674.0097729731947,
    "wasserstein_distance": null,
    "g_loss": null,
    "g_cost": null,
    "d_loss_real": null,
    "d_loss_fake": null
}