{
    "epoch": 197,
    "avg_current_window": 738.2284243989546,
    "avg_prior_window": 743.4703772729162,
    "inception_score_mean": 2.0274795394461735,
    "inception_score_std": 0.13652871360798943,
    "fid_per_class": {
        "airplane": 928.904649483102,
        "automobile": 1088.3356404620863,
        "bird": 1202.335001563452,
        "cat": 1042.7098002645896,
        "deer": 1289.9988676296175,
        "dog": 1035.8710338678595,
        "frog": 1373.115368474023,
        "horse": 1097.9609187536782,
        "ship": 830.6413267259713,
        "truck": 959.5542798460032
    },
    "fid": 683.9048107186336,
    "wasserstein_distance": null,
    "g_loss": null,
    "g_cost": null,
    "d_loss_real": null,
    "d_loss_fake": null
}