{
    "epoch": 130,
    "avg_current_window": 784.9941772350493,
    "avg_prior_window": 795.8637333798165,
    "inception_score_mean": 1.9718382189264916,
    "inception_score_std": 0.15109305411788906,
    "fid_per_class": {
        "airplane": 963.4301072546732,
        "automobile": 1133.445406749895,
        "bird": 1153.8318271248422,
        "cat": 959.0187718593337,
        "deer": 1214.4084683942037,
        "dog": 917.1449884733643,
        "frog": 1364.7226232292878,
        "horse": 1164.0690947369894,
        "ship": 801.693362021867,
        "truck": 940.7332751798019
    },
    "fid": 662.0450569047034,
    "wasserstein_distance": null,
    "g_loss": null,
    "g_cost": null,
    "d_loss_real": null,
    "d_loss_fake": null
}