{
    "epoch": 137,
    "avg_current_window": 777.5091442410551,
    "avg_prior_window": 787.3920882511903,
    "inception_score_mean": 1.9498234235385212,
    "inception_score_std": 0.10937305836021387,
    "fid_per_class": {
        "airplane": 918.427294418033,
        "automobile": 1103.4747260068252,
        "bird": 1076.2232396419029,
        "cat": 940.2238736379952,
        "deer": 1163.997937811083,
        "dog": 939.0793190803298,
        "frog": 1308.9565816318177,
        "horse": 1058.3470620033493,
        "ship": 775.690055378999,
        "truck": 951.9950628935643
    },
    "fid": 619.0042112682362,
    "wasserstein_distance": null,
    "g_loss": null,
    "g_cost": null,
    "d_loss_real": null,
    "d_loss_fake": null
}