{
    "epoch": 134,
    "avg_current_window": 780.5516380789232,
    "avg_prior_window": 791.079403415166,
    "inception_score_mean": 1.954194278058512,
    "inception_score_std": 0.11634672526348448,
    "fid_per_class": {
        "airplane": 921.3159501261637,
        "automobile": 1036.9884165544922,
        "bird": 1156.5224329305415,
        "cat": 931.0918501818569,
        "deer": 1234.0836852892412,
        "dog": 968.7367334298308,
        "frog": 1328.9949298173447,
        "horse": 1130.0637106951522,
        "ship": 721.8339655528811,
        "truck": 954.5193520238436
    },
    "fid": 638.9485136660834,
    "wasserstein_distance": null,
    "g_loss": null,
    "g_cost": null,
    "d_loss_real": null,
    "d_loss_fake": null
}