{
    "epoch": 107,
    "avg_current_window": 816.6193618500292,
    "avg_prior_window": 831.1397771193106,
    "inception_score_mean": 1.9177087917613438,
    "inception_score_std": 0.12831408300073757,
    "fid_per_class": {
        "airplane": 942.9956269378823,
        "automobile": 1050.8705861767908,
        "bird": 1169.925118345249,
        "cat": 991.3950883683484,
        "deer": 1282.0796170467872,
        "dog": 958.3232728642727,
        "frog": 1324.740695487037,
        "horse": 1108.6985388925445,
        "ship": 821.3643757495336,
        "truck": 963.2191797423488
    },
    "fid": 662.6867377269002,
    "wasserstein_distance": null,
    "g_loss": null,
    "g_cost": null,
    "d_loss_real": null,
    "d_loss_fake": null
}