{
    "epoch": 95,
    "avg_current_window": 839.2833536281224,
    "avg_prior_window": 857.1405768062707,
    "inception_score_mean": 1.9414948706701054,
    "inception_score_std": 0.12659638711834306,
    "fid_per_class": {
        "airplane": 941.8116418401028,
        "automobile": 1057.046470321668,
        "bird": 1116.1396774698542,
        "cat": 973.3169999571802,
        "deer": 1185.093480207687,
        "dog": 923.752940457887,
        "frog": 1302.6059535432705,
        "horse": 1107.7436154850861,
        "ship": 769.0441966433261,
        "truck": 1006.1906994901715
    },
    "fid": 621.1741886068722,
    "wasserstein_distance": null,
    "g_loss": null,
    "g_cost": null,
    "d_loss_real": null,
    "d_loss_fake": null
}