{
    "epoch": 88,
    "avg_current_window": 853.6308313535425,
    "avg_prior_window": 874.4092204331665,
    "inception_score_mean": 1.8789628636751345,
    "inception_score_std": 0.13008925424481513,
    "fid_per_class": {
        "airplane": 993.2330828324785,
        "automobile": 1075.5871210937903,
        "bird": 1220.8423521849004,
        "cat": 934.699455377675,
        "deer": 1262.4613838908726,
        "dog": 983.902458812956,
        "frog": 1361.867231259023,
        "horse": 1152.0622657433705,
        "ship": 801.7441617497434,
        "truck": 987.4884824193514
    },
    "fid": 664.7061709331563,
    "wasserstein_distance": null,
    "g_loss": null,
    "g_cost": null,
    "d_loss_real": null,
    "d_loss_fake": null
}