{
    "epoch": 59,
    "avg_current_window": 947.0085441203294,
    "avg_prior_window": 983.7181618910737,
    "inception_score_mean": 1.8544692692904932,
    "inception_score_std": 0.12128024422542012,
    "fid_per_class": {
        "airplane": 1022.5243763908924,
        "automobile": 1156.599982882253,
        "bird": 1249.801245498881,
        "cat": 1028.700897712104,
        "deer": 1352.261380584343,
        "dog": 1044.4423590325778,
        "frog": 1374.074174982254,
        "horse": 1191.2836838239057,
        "ship": 860.359464647604,
        "truck": 1037.1875177295665
    },
    "fid": 735.8022773888861,
    "wasserstein_distance": null,
    "g_loss": null,
    "g_cost": null,
    "d_loss_real": null,
    "d_loss_fake": null
}