{
    "epoch": 25,
    "avg_current_window": 1251.3318506151982,
    "avg_prior_window": 1402.7634535796828,
    "inception_score_mean": 1.6978187371963251,
    "inception_score_std": 0.07686301188091794,
    "fid_per_class": {
        "airplane": 1084.9522399890125,
        "automobile": 1200.474028422206,
        "bird": 1240.2439818928049,
        "cat": 988.5791471293476,
        "deer": 1342.069181915446,
        "dog": 1035.9737155170624,
        "frog": 1409.9072691027836,
        "horse": 1322.9659682610732,
        "ship": 890.5058894637269,
        "truck": 1148.3367948930995
    },
    "fid": 779.9417733192466,
    "wasserstein_distance": null,
    "g_loss": null,
    "g_cost": null,
    "d_loss_real": null,
    "d_loss_fake": null
}