{
    "epoch": 71,
    "avg_current_window": 900.7272985183733,
    "avg_prior_window": 928.4452373891313,
    "inception_score_mean": 1.8154684756869444,
    "inception_score_std": 0.10812486743714118,
    "fid_per_class": {
        "airplane": 948.3719117609726,
        "automobile": 1120.046822941758,
        "bird": 1242.2977680040246,
        "cat": 966.1298046148797,
        "deer": 1263.6287666866747,
        "dog": 1023.9300819964412,
        "frog": 1303.4158380846418,
        "horse": 1184.355907322822,
        "ship": 897.7232645030747,
        "truck": 997.9222295704583
    },
    "fid": 695.4986761534311,
    "wasserstein_distance": null,
    "g_loss": null,
    "g_cost": null,
    "d_loss_real": null,
    "d_loss_fake": null
}