{
    "epoch": 38,
    "avg_current_window": 1086.5703688131377,
    "avg_prior_window": 1161.9115657666132,
    "inception_score_mean": 1.7905199794026097,
    "inception_score_std": 0.117970002148918,
    "fid_per_class": {
        "airplane": 1074.367447285425,
        "automobile": 1281.4573498141003,
        "bird": 1161.8155919088506,
        "cat": 919.5271930351951,
        "deer": 1241.2287583331267,
        "dog": 982.7756321235115,
        "frog": 1290.1732666390444,
        "horse": 1165.8531999216987,
        "ship": 891.1449585041069,
        "truck": 1134.4083686624488
    },
    "fid": 692.8299134307449,
    "wasserstein_distance": null,
    "g_loss": null,
    "g_cost": null,
    "d_loss_real": null,
    "d_loss_fake": null
}