{
    "epoch": 61,
    "avg_current_window": 939.6812433202871,
    "avg_prior_window": 973.539902237813,
    "inception_score_mean": 1.8548627156518591,
    "inception_score_std": 0.11488634700892518,
    "fid_per_class": {
        "airplane": 985.511355719864,
        "automobile": 1035.646438347886,
        "bird": 1230.5481748922875,
        "cat": 1034.5455653087274,
        "deer": 1339.1173788472445,
        "dog": 995.8798556078649,
        "frog": 1273.5320746833022,
        "horse": 1145.8971110621178,
        "ship": 818.8542299428301,
        "truck": 945.0055686076462
    },
    "fid": 679.5322944267534,
    "wasserstein_distance": null,
    "g_loss": null,
    "g_cost": null,
    "d_loss_real": null,
    "d_loss_fake": null
}