{
    "epoch": 135,
    "avg_current_window": 779.5027260462356,
    "avg_prior_window": 790.0868315189317,
    "inception_score_mean": 1.9689411108741528,
    "inception_score_std": 0.13964703527655825,
    "fid_per_class": {
        "airplane": 903.4699712702624,
        "automobile": 1040.0607803634905,
        "bird": 1130.932664934997,
        "cat": 942.0624827883082,
        "deer": 1238.8246701725334,
        "dog": 958.022607803442,
        "frog": 1283.8421232091273,
        "horse": 1171.759096154372,
        "ship": 730.2903876393182,
        "truck": 955.5375675806021
    },
    "fid": 640.8864366807873,
    "wasserstein_distance": null,
    "g_loss": null,
    "g_cost": null,
    "d_loss_real": null,
    "d_loss_fake": null
}