{
    "epoch": 78,
    "avg_current_window": 880.7403680221486,
    "avg_prior_window": 905.0108655838203,
    "inception_score_mean": 1.8793681768402384,
    "inception_score_std": 0.12333038129801115,
    "fid_per_class": {
        "airplane": 976.8807825896178,
        "automobile": 1071.8072568255059,
        "bird": 1142.5483501012532,
        "cat": 965.1699762135897,
        "deer": 1224.2486330833012,
        "dog": 1013.3068089797674,
        "frog": 1299.6966327132952,
        "horse": 1141.9358569649887,
        "ship": 814.4785516825441,
        "truck": 934.7595369878813
    },
    "fid": 660.2568148793656,
    "wasserstein_distance": null,
    "g_loss": null,
    "g_cost": null,
    "d_loss_real": null,
    "d_loss_fake": null
}