{
    "epoch": 112,
    "avg_current_window": 808.232940721808,
    "avg_prior_window": 822.8126958474769,
    "inception_score_mean": 1.8650607825817886,
    "inception_score_std": 0.11889048561685363,
    "fid_per_class": {
        "airplane": 930.4805085004662,
        "automobile": 1087.8473861730113,
        "bird": 1178.6966557723263,
        "cat": 954.436049500545,
        "deer": 1338.6001551926934,
        "dog": 999.7182233011505,
        "frog": 1340.20182726217,
        "horse": 1124.5309939990157,
        "ship": 808.9396097187949,
        "truck": 1022.2031066011762
    },
    "fid": 667.0593184883011,
    "wasserstein_distance": null,
    "g_loss": null,
    "g_cost": null,
    "d_loss_real": null,
    "d_loss_fake": null
}