{
    "epoch": 50,
    "avg_current_window": 994.4500348722056,
    "avg_prior_window": 1042.674850801251,
    "inception_score_mean": 1.9011388749019773,
    "inception_score_std": 0.1613555493188,
    "fid_per_class": {
        "airplane": 1076.4632380299404,
        "automobile": 1146.4276395546856,
        "bird": 1232.7266923950733,
        "cat": 952.5388558412519,
        "deer": 1275.4590280041002,
        "dog": 879.0155811790133,
        "frog": 1286.3759538886395,
        "horse": 1079.3841549188373,
        "ship": 867.1539243209207,
        "truck": 1057.264648148328
    },
    "fid": 658.2102375021034,
    "wasserstein_distance": null,
    "g_loss": null,
    "g_cost": null,
    "d_loss_real": null,
    "d_loss_fake": null
}