{
    "epoch": 28,
    "avg_current_window": 1200.50358894656,
    "avg_prior_window": 1325.1533433766206,
    "inception_score_mean": 1.8132008933048565,
    "inception_score_std": 0.13044837049557428,
    "fid_per_class": {
        "airplane": 1075.092803056414,
        "automobile": 1208.223369238299,
        "bird": 1268.83702070754,
        "cat": 1051.9453030144862,
        "deer": 1371.3521727042626,
        "dog": 1155.6133522289101,
        "frog": 1434.7635019423367,
        "horse": 1319.8295915078334,
        "ship": 822.59660173871,
        "truck": 1058.6089048119834
    },
    "fid": 787.1956602732388,
    "wasserstein_distance": null,
    "g_loss": null,
    "g_cost": null,
    "d_loss_real": null,
    "d_loss_fake": null
}