{
    "epoch": 172,
    "avg_current_window": 751.2114938051122,
    "avg_prior_window": 757.8590925576577,
    "inception_score_mean": 1.953663825327542,
    "inception_score_std": 0.19545144210476836,
    "fid_per_class": {
        "airplane": 981.2654263791142,
        "automobile": 1141.423227689623,
        "bird": 1217.5701307473223,
        "cat": 969.359469352918,
        "deer": 1240.176515764607,
        "dog": 990.8482118861608,
        "frog": 1383.096352104006,
        "horse": 1167.7697668122219,
        "ship": 731.3875281861235,
        "truck": 1011.1743672046438
    },
    "fid": 678.9246631899025,
    "wasserstein_distance": null,
    "g_loss": null,
    "g_cost": null,
    "d_loss_real": null,
    "d_loss_fake": null
}