{
    "epoch": 23,
    "avg_current_window": 1290.826133782377,
    "avg_prior_window": 1470.2929099704536,
    "inception_score_mean": 1.7795074100052037,
    "inception_score_std": 0.11842325120039576,
    "fid_per_class": {
        "airplane": 1103.2475530367149,
        "automobile": 1251.0312013088235,
        "bird": 1303.155584323537,
        "cat": 995.1961862050459,
        "deer": 1388.0712094069013,
        "dog": 990.2387515660489,
        "frog": 1449.2190574640886,
        "horse": 1346.6883094355976,
        "ship": 911.197904900501,
        "truck": 1135.6102367913954
    },
    "fid": 789.5258206676099,
    "wasserstein_distance": null,
    "g_loss": null,
    "g_cost": null,
    "d_loss_real": null,
    "d_loss_fake": null
}