{
    "epoch": 110,
    "avg_current_window": 811.7435971559444,
    "avg_prior_window": 826.4214449065205,
    "inception_score_mean": 1.9404203712333596,
    "inception_score_std": 0.12768175816785177,
    "fid_per_class": {
        "airplane": 936.7395705295716,
        "automobile": 1072.7308012385506,
        "bird": 1130.1194469014695,
        "cat": 891.5945901585917,
        "deer": 1212.1309213961388,
        "dog": 953.1962963340816,
        "frog": 1192.831064814195,
        "horse": 1085.08073535714,
        "ship": 791.9016213229506,
        "truck": 909.7154889861365
    },
    "fid": 599.4978912552579,
    "wasserstein_distance": null,
    "g_loss": null,
    "g_cost": null,
    "d_loss_real": null,
    "d_loss_fake": null
}