{
    "epoch": 12,
    "avg_current_window": 1658.2739583570972,
    "avg_prior_window": 2148.1882414213806,
    "inception_score_mean": 1.583276677279602,
    "inception_score_std": 0.027095337558094432,
    "fid_per_class": {
        "airplane": 1210.3328159628586,
        "automobile": 1336.5077787745563,
        "bird": 1539.148465414693,
        "cat": 1528.6331443281617,
        "deer": 1745.172313458479,
        "dog": 1674.8527310547872,
        "frog": 1925.5220771986897,
        "horse": 1575.6784477318756,
        "ship": 1162.288371622101,
        "truck": 1220.7580598544064
    },
    "fid": 1166.4679507250653,
    "wasserstein_distance": null,
    "g_loss": null,
    "g_cost": null,
    "d_loss_real": null,
    "d_loss_fake": null
}