{
    "epoch": 118,
    "avg_current_window": 799.6290066487987,
    "avg_prior_window": 812.3546289315659,
    "inception_score_mean": 1.9353456090289947,
    "inception_score_std": 0.12137544455049805,
    "fid_per_class": {
        "airplane": 917.7906422091105,
        "automobile": 1067.717212811334,
        "bird": 1130.9255270141143,
        "cat": 965.6381631179638,
        "deer": 1226.8893892637145,
        "dog": 964.7657995161369,
        "frog": 1325.3897267617842,
        "horse": 1144.5264038244304,
        "ship": 756.0281601538223,
        "truck": 990.9071672936877
    },
    "fid": 656.3849928746251,
    "wasserstein_distance": null,
    "g_loss": null,
    "g_cost": null,
    "d_loss_real": null,
    "d_loss_fake": null
}