{
    "epoch": 108,
    "avg_current_window": 815.1940597748151,
    "avg_prior_window": 829.6189053878367,
    "inception_score_mean": 1.898747495087057,
    "inception_score_std": 0.11690485690475116,
    "fid_per_class": {
        "airplane": 959.6155228707441,
        "automobile": 1064.9838926628693,
        "bird": 1103.9184180288921,
        "cat": 955.6937761060976,
        "deer": 1253.7026732165718,
        "dog": 960.62998607394,
        "frog": 1280.5276069920678,
        "horse": 1057.8272612586245,
        "ship": 778.2162894023639,
        "truck": 1017.7089744957551
    },
    "fid": 639.0240977190356,
    "wasserstein_distance": null,
    "g_loss": null,
    "g_cost": null,
    "d_loss_real": null,
    "d_loss_fake": null
}