{
    "epoch": 102,
    "avg_current_window": 825.7016044646954,
    "avg_prior_window": 842.1213115690962,
    "inception_score_mean": 1.936601857728649,
    "inception_score_std": 0.06749906458872927,
    "fid_per_class": {
        "airplane": 884.818894039041,
        "automobile": 954.9462464030156,
        "bird": 1113.7159499388508,
        "cat": 943.8176358315268,
        "deer": 1134.7661944817728,
        "dog": 882.7391600010856,
        "frog": 1232.0771252345303,
        "horse": 996.2047733936313,
        "ship": 690.2114139930098,
        "truck": 858.630808693041
    },
    "fid": 554.6936107707409,
    "wasserstein_distance": null,
    "g_loss": null,
    "g_cost": null,
    "d_loss_real": null,
    "d_loss_fake": null
}