{
    "epoch": 194,
    "avg_current_window": 738.9104303058599,
    "avg_prior_window": 745.0897386374414,
    "inception_score_mean": 1.902236691780511,
    "inception_score_std": 0.1675728682712922,
    "fid_per_class": {
        "airplane": 953.5419515831084,
        "automobile": 1121.896046652118,
        "bird": 1211.5727280013748,
        "cat": 1044.1998976882085,
        "deer": 1281.8487772177516,
        "dog": 966.6346727152816,
        "frog": 1499.6250209183654,
        "horse": 1223.5072297407748,
        "ship": 800.3223153255437,
        "truck": 988.6180976622147
    },
    "fid": 720.8502452612264,
    "wasserstein_distance": null,
    "g_loss": null,
    "g_cost": null,
    "d_loss_real": null,
    "d_loss_fake": null
}