{
    "epoch": 26,
    "avg_current_window": 1233.2014630268923,
    "avg_prior_window": 1375.4252628246397,
    "inception_score_mean": 1.7852898617048456,
    "inception_score_std": 0.09495832462030719,
    "fid_per_class": {
        "airplane": 1101.948079002365,
        "automobile": 1199.8950328661313,
        "bird": 1142.469000688146,
        "cat": 936.3966742011556,
        "deer": 1205.509520597948,
        "dog": 968.9080959266059,
        "frog": 1270.7483091075487,
        "horse": 1275.7197629630716,
        "ship": 862.9177770569491,
        "truck": 1155.1063156390078
    },
    "fid": 717.0754803975625,
    "wasserstein_distance": null,
    "g_loss": null,
    "g_cost": null,
    "d_loss_real": null,
    "d_loss_fake": null
}