{
    "epoch": 67,
    "avg_current_window": 914.5878457863085,
    "avg_prior_window": 945.5011657060129,
    "inception_score_mean": 1.8581188277469392,
    "inception_score_std": 0.14542027517195377,
    "fid_per_class": {
        "airplane": 973.2352394820778,
        "automobile": 1084.2790014861523,
        "bird": 1218.245680884179,
        "cat": 949.7138189878991,
        "deer": 1285.5691856822184,
        "dog": 957.1188076755766,
        "frog": 1380.5216689892486,
        "horse": 1128.811394760294,
        "ship": 812.2919270612517,
        "truck": 941.2268706536021
    },
    "fid": 679.349025070095,
    "wasserstein_distance": null,
    "g_loss": null,
    "g_cost": null,
    "d_loss_real": null,
    "d_loss_fake": null
}