{
    "epoch": 105,
    "avg_current_window": 820.489435102244,
    "avg_prior_window": 836.0135699974015,
    "inception_score_mean": 1.977628857018764,
    "inception_score_std": 0.14125684324722945,
    "fid_per_class": {
        "airplane": 938.8902288094359,
        "automobile": 997.6509957572376,
        "bird": 1088.2916768954105,
        "cat": 902.1639595123103,
        "deer": 1266.8761798278429,
        "dog": 933.0354153608605,
        "frog": 1273.0044727173986,
        "horse": 1066.4445963889084,
        "ship": 776.5163020861175,
        "truck": 982.758846857339
    },
    "fid": 622.8610294490295,
    "wasserstein_distance": null,
    "g_loss": null,
    "g_cost": null,
    "d_loss_real": null,
    "d_loss_fake": null
}