{
    "epoch": 46,
    "avg_current_window": 1020.0080062186152,
    "avg_prior_window": 1076.4603546751216,
    "inception_score_mean": 1.8027988231944625,
    "inception_score_std": 0.11451409671630733,
    "fid_per_class": {
        "airplane": 999.3838868230268,
        "automobile": 1132.910608209536,
        "bird": 1272.749973210845,
        "cat": 945.206560498913,
        "deer": 1300.677634331937,
        "dog": 961.319302396737,
        "frog": 1340.1681877524663,
        "horse": 1115.8269996142428,
        "ship": 835.860837787806,
        "truck": 995.5475735813307
    },
    "fid": 688.1500139230548,
    "wasserstein_distance": null,
    "g_loss": null,
    "g_cost": null,
    "d_loss_real": null,
    "d_loss_fake": null
}