{
    "epoch": 18,
    "avg_current_window": 1425.247036835763,
    "avg_prior_window": 1697.0342167155634,
    "inception_score_mean": 1.6935820541836009,
    "inception_score_std": 0.08450041319911661,
    "fid_per_class": {
        "airplane": 1094.3919555456857,
        "automobile": 1165.298006919004,
        "bird": 1323.6809407395936,
        "cat": 999.2215895888223,
        "deer": 1302.5156444420238,
        "dog": 1148.97826460025,
        "frog": 1544.7669216271145,
        "horse": 1348.035456819006,
        "ship": 826.5842133590545,
        "truck": 1082.72650622543
    },
    "fid": 810.8257164244299,
    "wasserstein_distance": null,
    "g_loss": null,
    "g_cost": null,
    "d_loss_real": null,
    "d_loss_fake": null
}