{
    "epoch": 77,
    "avg_current_window": 883.7011498449649,
    "avg_prior_window": 907.4411433591816,
    "inception_score_mean": 1.8347044810208992,
    "inception_score_std": 0.15264939465921906,
    "fid_per_class": {
        "airplane": 933.047229642458,
        "automobile": 1055.1154970491689,
        "bird": 1132.3743069291204,
        "cat": 978.5362871297596,
        "deer": 1245.6069696267905,
        "dog": 1006.7479932564306,
        "frog": 1338.5406368874749,
        "horse": 1141.5321562583713,
        "ship": 808.7887104277943,
        "truck": 951.9270007327509
    },
    "fid": 652.7601676652802,
    "wasserstein_distance": null,
    "g_loss": null,
    "g_cost": null,
    "d_loss_real": null,
    "d_loss_fake": null
}