{
    "epoch": 116,
    "avg_current_window": 802.1051114605098,
    "avg_prior_window": 815.5143185661486,
    "inception_score_mean": 1.9593317919495898,
    "inception_score_std": 0.10909364072964219,
    "fid_per_class": {
        "airplane": 909.902838034636,
        "automobile": 1047.9787497377229,
        "bird": 1103.15947700039,
        "cat": 907.1118075509864,
        "deer": 1214.7790173668222,
        "dog": 890.7425204554592,
        "frog": 1299.0022442921686,
        "horse": 1067.0364898229075,
        "ship": 765.88501870266,
        "truck": 990.2490377843349
    },
    "fid": 620.5327788885323,
    "wasserstein_distance": null,
    "g_loss": null,
    "g_cost": null,
    "d_loss_real": null,
    "d_loss_fake": null
}