{
    "epoch": 27,
    "avg_current_window": 2213.3212391932766,
    "avg_prior_window": 2329.3496397576037,
    "inception_score_mean": 1.2405966380357476,
    "inception_score_std": 0.0505855391676893,
    "fid_per_class": {
        "airplane": 1742.2827127972635,
        "automobile": 1683.6023041894077,
        "bird": 2050.8365475354294,
        "cat": 1909.2269776295375,
        "deer": 2281.4036827089994,
        "dog": 1983.9320698356332,
        "frog": 2354.790005515745,
        "horse": 2056.172416900393,
        "ship": 1837.343812462062,
        "truck": 1564.917638644055
    },
    "fid": 1720.21141189522,
    "wasserstein_distance": null,
    "g_loss": null,
    "g_cost": null,
    "d_loss_real": null,
    "d_loss_fake": null
}