{
    "epoch": 24,
    "avg_current_window": 2226.1611184837975,
    "avg_prior_window": 2309.9829006301698,
    "inception_score_mean": 1.000271113070532,
    "inception_score_std": 0.00011290108120953504,
    "fid_per_class": {
        "airplane": 2400.6756588598437,
        "automobile": 2633.16203648151,
        "bird": 2891.476622928505,
        "cat": 2937.000416177385,
        "deer": 3198.8536267809873,
        "dog": 2961.695710190723,
        "frog": 3279.707395655332,
        "horse": 2886.766379612146,
        "ship": 2678.1292854914673,
        "truck": 2615.6315005805536
    },
    "fid": 2832.794631860289,
    "wasserstein_distance": null,
    "g_loss": null,
    "g_cost": null,
    "d_loss_real": null,
    "d_loss_fake": null
}