{
    "epoch": 55,
    "avg_current_window": 1732.923567269892,
    "avg_prior_window": 1817.825053688851,
    "inception_score_mean": 1.7183911599240929,
    "inception_score_std": 0.13971802559738866,
    "fid_per_class": {
        "airplane": 1150.72217463591,
        "automobile": 1346.285667294289,
        "bird": 1608.247350003964,
        "cat": 1202.7509456489195,
        "deer": 1626.391339910731,
        "dog": 1343.1220394935317,
        "frog": 1944.03553317028,
        "horse": 1533.9563709615536,
        "ship": 1013.8662300720652,
        "truck": 1244.485386671391
    },
    "fid": 1060.9286931618817,
    "wasserstein_distance": null,
    "g_loss": null,
    "g_cost": null,
    "d_loss_real": null,
    "d_loss_fake": null
}