{
    "epoch": 1,
    "avg_current_window": 3.0,
    "avg_prior_window": 8.0,
    "inception_score_mean": 1.0000093440738365,
    "inception_score_std": 1.0998495289108178e-06,
    "fid_per_class": {
        "airplane": 2150.25627386635,
        "automobile": 2379.7156839065105,
        "bird": 2564.243617361494,
        "cat": 2682.2235291679053,
        "deer": 2904.0159052197187,
        "dog": 2610.207609972863,
        "frog": 2873.1466057554117,
        "horse": 2621.879287598904,
        "ship": 2474.89274212777,
        "truck": 2389.3804937715713
    },
    "fid": 2556.0802420817495,
    "wasserstein_distance": null,
    "g_loss": null,
    "g_cost": null,
    "d_loss_real": null,
    "d_loss_fake": null
}