{
    "epoch": 199,
    "avg_current_window": 1117.13460217107,
    "avg_prior_window": 1129.3152938110895,
    "inception_score_mean": 1.852662912934187,
    "inception_score_std": 0.12307537680214403,
    "fid_per_class": {
        "airplane": 1008.1898359186448,
        "automobile": 1208.7125470980707,
        "bird": 1353.7482399716714,
        "cat": 987.7429769950872,
        "deer": 1365.9320933917015,
        "dog": 1073.095040745547,
        "frog": 1367.3777190560354,
        "horse": 1258.3829878476015,
        "ship": 945.7702021797026,
        "truck": 1163.4193052505905
    },
    "fid": 793.0520482931662,
    "wasserstein_distance": null,
    "g_loss": null,
    "g_cost": null,
    "d_loss_real": null,
    "d_loss_fake": null
}