{
    "epoch": 155,
    "avg_current_window": 1198.0169531652402,
    "avg_prior_window": 1215.7581401481402,
    "inception_score_mean": 1.8108691785101356,
    "inception_score_std": 0.10415318812485425,
    "fid_per_class": {
        "airplane": 953.2669312333375,
        "automobile": 1171.6594034749758,
        "bird": 1409.7479817141727,
        "cat": 1099.3066616546428,
        "deer": 1317.14882146308,
        "dog": 1215.7975767938838,
        "frog": 1512.2002589522244,
        "horse": 1301.3103752655084,
        "ship": 889.0707907912446,
        "truck": 1178.0608503170108
    },
    "fid": 835.8645470708689,
    "wasserstein_distance": null,
    "g_loss": null,
    "g_cost": null,
    "d_loss_real": null,
    "d_loss_fake": null
}