{
    "epoch": 196,
    "avg_current_window": 1121.9582972857638,
    "avg_prior_window": 1134.1610076745442,
    "inception_score_mean": 1.8520037825299016,
    "inception_score_std": 0.1361730108256662,
    "fid_per_class": {
        "airplane": 927.6991023239239,
        "automobile": 1213.927998966775,
        "bird": 1322.62842236207,
        "cat": 988.4446281651833,
        "deer": 1213.960218104466,
        "dog": 1085.9843441729488,
        "frog": 1349.2670568603323,
        "horse": 1313.5023494157792,
        "ship": 931.7805892776921,
        "truck": 1134.7087812747613
    },
    "fid": 774.7461078784977,
    "wasserstein_distance": null,
    "g_loss": null,
    "g_cost": null,
    "d_loss_real": null,
    "d_loss_fake": null
}