{
    "epoch": 106,
    "avg_current_window": 1353.5554370481798,
    "avg_prior_window": 1384.3717744774494,
    "inception_score_mean": 1.7724726368997223,
    "inception_score_std": 0.1752153180940013,
    "fid_per_class": {
        "airplane": 1061.5927475563446,
        "automobile": 1249.2250789717102,
        "bird": 1388.7509650391928,
        "cat": 1044.2321572135868,
        "deer": 1323.343694941997,
        "dog": 1149.1188033775074,
        "frog": 1675.8442446592576,
        "horse": 1276.707184832616,
        "ship": 959.7241455441562,
        "truck": 1173.2426455522223
    },
    "fid": 884.9692849011049,
    "wasserstein_distance": null,
    "g_loss": null,
    "g_cost": null,
    "d_loss_real": null,
    "d_loss_fake": null
}