{
    "epoch": 158,
    "avg_current_window": 1191.1383714053334,
    "avg_prior_window": 1208.0920228152042,
    "inception_score_mean": 1.7919799451450071,
    "inception_score_std": 0.1453329085250271,
    "fid_per_class": {
        "airplane": 977.439252032016,
        "automobile": 1253.1724965062533,
        "bird": 1431.6366078994538,
        "cat": 1101.167949573723,
        "deer": 1414.5228611443822,
        "dog": 1210.257144445546,
        "frog": 1583.9710462932353,
        "horse": 1333.364578131514,
        "ship": 922.2224968943253,
        "truck": 1184.1663978055662
    },
    "fid": 874.6211409438081,
    "wasserstein_distance": null,
    "g_loss": null,
    "g_cost": null,
    "d_loss_real": null,
    "d_loss_fake": null
}