{
    "epoch": 180,
    "avg_current_window": 1148.547357311093,
    "avg_prior_window": 1162.2462646934491,
    "inception_score_mean": 1.8509817119042595,
    "inception_score_std": 0.10931745470954786,
    "fid_per_class": {
        "airplane": 937.0174355021359,
        "automobile": 1198.5117272851376,
        "bird": 1340.6124080127463,
        "cat": 1015.3725334786571,
        "deer": 1369.4410973818506,
        "dog": 1131.5883807959922,
        "frog": 1489.0757669896973,
        "horse": 1288.2102432061502,
        "ship": 866.8554292903239,
        "truck": 1166.683240287849
    },
    "fid": 802.5676031069858,
    "wasserstein_distance": null,
    "g_loss": null,
    "g_cost": null,
    "d_loss_real": null,
    "d_loss_fake": null
}