{
    "epoch": 124,
    "avg_current_window": 1285.0477181200758,
    "avg_prior_window": 1309.7993604059523,
    "inception_score_mean": 1.7330771555594964,
    "inception_score_std": 0.1382174950344028,
    "fid_per_class": {
        "airplane": 1006.2786980104103,
        "automobile": 1241.7592833440026,
        "bird": 1368.9250041272305,
        "cat": 1127.0010882362249,
        "deer": 1394.8301866116421,
        "dog": 1175.6442081307441,
        "frog": 1681.025634141847,
        "horse": 1371.8783960876185,
        "ship": 991.3055477686826,
        "truck": 1279.8662370345287
    },
    "fid": 902.4730089016284,
    "wasserstein_distance": null,
    "g_loss": null,
    "g_cost": null,
    "d_loss_real": null,
    "d_loss_fake": null
}