{
    "epoch": 156,
    "avg_current_window": 1195.695463382584,
    "avg_prior_window": 1213.1051310351336,
    "inception_score_mean": 1.7849008552651955,
    "inception_score_std": 0.13282726489919264,
    "fid_per_class": {
        "airplane": 981.3522921525542,
        "automobile": 1250.4633266061512,
        "bird": 1305.0760286274249,
        "cat": 1019.0232516409942,
        "deer": 1351.719059089572,
        "dog": 1148.8829967435415,
        "frog": 1579.1682381740907,
        "horse": 1300.4373606765987,
        "ship": 892.8443339285983,
        "truck": 1147.1040623837139
    },
    "fid": 825.5180395819904,
    "wasserstein_distance": null,
    "g_loss": null,
    "g_cost": null,
    "d_loss_real": null,
    "d_loss_fake": null
}