{
    "epoch": 35,
    "avg_current_window": 2029.0561245776626,
    "avg_prior_window": 2194.123740304655,
    "inception_score_mean": 1.2101003276567952,
    "inception_score_std": 0.03968035602753056,
    "fid_per_class": {
        "airplane": 1377.0893658206908,
        "automobile": 1512.219134851469,
        "bird": 1647.328791763528,
        "cat": 1450.303116408121,
        "deer": 1742.754685486127,
        "dog": 1754.8013840975213,
        "frog": 2043.820031862479,
        "horse": 1628.1211841023678,
        "ship": 1202.362607002842,
        "truck": 1357.0590872448597
    },
    "fid": 1321.8337826957488,
    "wasserstein_distance": null,
    "g_loss": null,
    "g_cost": null,
    "d_loss_real": null,
    "d_loss_fake": null
}