{
    "epoch": 186,
    "avg_current_window": 1137.9698138669607,
    "avg_prior_window": 1151.1339316847505,
    "inception_score_mean": 1.8137304695516192,
    "inception_score_std": 0.14135929998859162,
    "fid_per_class": {
        "airplane": 925.9908186170277,
        "automobile": 1249.8354591326818,
        "bird": 1436.0517493862208,
        "cat": 1082.0979455513761,
        "deer": 1494.1722599444722,
        "dog": 1129.1340421026978,
        "frog": 1599.1659403359045,
        "horse": 1343.2279228903117,
        "ship": 925.1585348217835,
        "truck": 1168.3642693556471
    },
    "fid": 872.6308572218627,
    "wasserstein_distance": null,
    "g_loss": null,
    "g_cost": null,
    "d_loss_real": null,
    "d_loss_fake": null
}