{
    "epoch": 84,
    "avg_current_window": 1468.9957929199093,
    "avg_prior_window": 1515.2625970851138,
    "inception_score_mean": 1.6861297546289145,
    "inception_score_std": 0.12989362556417738,
    "fid_per_class": {
        "airplane": 1059.490303069739,
        "automobile": 1312.411924854668,
        "bird": 1413.621951883071,
        "cat": 1055.8607536124773,
        "deer": 1400.267004738147,
        "dog": 1167.727221155721,
        "frog": 1753.613288098253,
        "horse": 1362.9220694529638,
        "ship": 965.427074014188,
        "truck": 1279.417695124877
    },
    "fid": 922.7621153906255,
    "wasserstein_distance": null,
    "g_loss": null,
    "g_cost": null,
    "d_loss_real": null,
    "d_loss_fake": null
}