{
    "epoch": 86,
    "avg_current_window": 1456.4170405550321,
    "avg_prior_window": 1500.2786633145365,
    "inception_score_mean": 1.717861272187707,
    "inception_score_std": 0.13871674142548973,
    "fid_per_class": {
        "airplane": 996.851935629086,
        "automobile": 1290.827295961224,
        "bird": 1375.9793988416943,
        "cat": 1103.146081440514,
        "deer": 1525.1672949475042,
        "dog": 1223.0113608271856,
        "frog": 1811.782221891899,
        "horse": 1406.3725832551222,
        "ship": 914.6052933540813,
        "truck": 1226.5635006944033
    },
    "fid": 935.2798194966022,
    "wasserstein_distance": null,
    "g_loss": null,
    "g_cost": null,
    "d_loss_real": null,
    "d_loss_fake": null
}