{
    "epoch": 108,
    "avg_current_window": 1345.2357507401482,
    "avg_prior_window": 1375.2466070282437,
    "inception_score_mean": 1.7132452832895713,
    "inception_score_std": 0.06824289415451476,
    "fid_per_class": {
        "airplane": 1001.7042494753161,
        "automobile": 1322.9058108887803,
        "bird": 1448.764471728741,
        "cat": 1115.846490973373,
        "deer": 1372.0602192164902,
        "dog": 1196.4632271988226,
        "frog": 1703.0138741141689,
        "horse": 1379.282382221013,
        "ship": 932.0637093899909,
        "truck": 1179.9745412628372
    },
    "fid": 898.1388187588758,
    "wasserstein_distance": null,
    "g_loss": null,
    "g_cost": null,
    "d_loss_real": null,
    "d_loss_fake": null
}