{
    "epoch": 154,
    "avg_current_window": 1200.2472694203004,
    "avg_prior_window": 1218.5769508765352,
    "inception_score_mean": 1.8128491125730513,
    "inception_score_std": 0.11698428343715293,
    "fid_per_class": {
        "airplane": 902.4637825786793,
        "automobile": 1239.498787717523,
        "bird": 1389.6257626772,
        "cat": 1052.96164444863,
        "deer": 1425.4891459157122,
        "dog": 1202.2465938980922,
        "frog": 1564.718120683909,
        "horse": 1349.5827970790203,
        "ship": 910.8970872409155,
        "truck": 1140.2067402507996
    },
    "fid": 854.5482498859702,
    "wasserstein_distance": null,
    "g_loss": null,
    "g_cost": null,
    "d_loss_real": null,
    "d_loss_fake": null
}