{
    "epoch": 8,
    "avg_current_window": 2159.9766651864147,
    "avg_prior_window": 1.0,
    "inception_score_mean": 1.000000727021194,
    "inception_score_std": 2.3657700645317688e-07,
    "fid_per_class": {
        "airplane": 2246.0412154134024,
        "automobile": 2466.6014429948627,
        "bird": 2748.498373145598,
        "cat": 2869.255917557829,
        "deer": 3128.0369699727908,
        "dog": 2785.617483197344,
        "frog": 3127.905173098627,
        "horse": 2785.632036399472,
        "ship": 2588.0640049596095,
        "truck": 2506.6069648512084
    },
    "fid": 2717.0326185602416,
    "wasserstein_distance": null,
    "g_loss": null,
    "g_cost": null,
    "d_loss_real": null,
    "d_loss_fake": null
}