{
    "epoch": 120,
    "avg_current_window": 1298.8843657359027,
    "avg_prior_window": 1324.6623772137893,
    "inception_score_mean": 1.7786456960530639,
    "inception_score_std": 0.14261773737786598,
    "fid_per_class": {
        "airplane": 1030.109207463178,
        "automobile": 1235.9861642103956,
        "bird": 1485.5282577001449,
        "cat": 1070.84178242531,
        "deer": 1391.02115513441,
        "dog": 1145.024663490368,
        "frog": 1697.1780364165634,
        "horse": 1346.1241604738466,
        "ship": 948.5457561458704,
        "truck": 1222.8322972136043
    },
    "fid": 877.341769810155,
    "wasserstein_distance": null,
    "g_loss": null,
    "g_cost": null,
    "d_loss_real": null,
    "d_loss_fake": null
}