{
    "epoch": 12,
    "avg_current_window": 2339.2778945508185,
    "avg_prior_window": 2468.5447602130453,
    "inception_score_mean": 1.1744526510677444,
    "inception_score_std": 0.029852507292751615,
    "fid_per_class": {
        "airplane": 2129.029217368936,
        "automobile": 2486.4307244027013,
        "bird": 2222.81422593144,
        "cat": 2228.4031163339955,
        "deer": 2484.5796980742434,
        "dog": 1997.821720995898,
        "frog": 2568.229817647076,
        "horse": 2170.4339917026964,
        "ship": 2134.2050385325397,
        "truck": 2377.9773685530963
    },
    "fid": 2031.3660443053618,
    "wasserstein_distance": null,
    "g_loss": null,
    "g_cost": null,
    "d_loss_real": null,
    "d_loss_fake": null
}