{
    "epoch": 169,
    "avg_current_window": 1168.345691417865,
    "avg_prior_window": 1183.4346163131,
    "inception_score_mean": 1.7853289011881912,
    "inception_score_std": 0.11539429382241376,
    "fid_per_class": {
        "airplane": 998.1651010165092,
        "automobile": 1227.8874066341664,
        "bird": 1427.4228108930417,
        "cat": 1097.2740732524187,
        "deer": 1427.3334527634438,
        "dog": 1126.7654174288691,
        "frog": 1631.7040132084846,
        "horse": 1317.1222916328525,
        "ship": 934.8065268722639,
        "truck": 1188.0153608074484
    },
    "fid": 870.6159342252186,
    "wasserstein_distance": null,
    "g_loss": null,
    "g_cost": null,
    "d_loss_real": null,
    "d_loss_fake": null
}