{
    "epoch": 133,
    "avg_current_window": 1255.8978503459412,
    "avg_prior_window": 1278.9409959200407,
    "inception_score_mean": 1.801125441079495,
    "inception_score_std": 0.18774068318205062,
    "fid_per_class": {
        "airplane": 971.5858588112069,
        "automobile": 1237.8089299823882,
        "bird": 1369.9779407533692,
        "cat": 1005.2010688221812,
        "deer": 1382.0241465635793,
        "dog": 1150.8924815939138,
        "frog": 1595.6625990064013,
        "horse": 1328.8379753678475,
        "ship": 893.0672335708159,
        "truck": 1190.9306098655904
    },
    "fid": 836.6130514095048,
    "wasserstein_distance": null,
    "g_loss": null,
    "g_cost": null,
    "d_loss_real": null,
    "d_loss_fake": null
}