{
    "epoch": 46,
    "avg_current_window": 1844.8878257249175,
    "avg_prior_window": 1949.0305528434458,
    "inception_score_mean": 1.5120478227662766,
    "inception_score_std": 0.11635384481545215,
    "fid_per_class": {
        "airplane": 1221.0430437146279,
        "automobile": 1407.546414328572,
        "bird": 1676.641625226457,
        "cat": 1393.5429948005813,
        "deer": 1691.5923684489455,
        "dog": 1604.2970772803105,
        "frog": 1966.356684956264,
        "horse": 1591.4276405931666,
        "ship": 1027.661271784547,
        "truck": 1285.916721920939
    },
    "fid": 1187.9406996191394,
    "wasserstein_distance": null,
    "g_loss": null,
    "g_cost": null,
    "d_loss_real": null,
    "d_loss_fake": null
}