{
    "epoch": 39,
    "avg_current_window": 1950.1039199444324,
    "avg_prior_window": 2088.73424588877,
    "inception_score_mean": 1.404502907021771,
    "inception_score_std": 0.10154867470407473,
    "fid_per_class": {
        "airplane": 1335.10234627422,
        "automobile": 1407.0514702333605,
        "bird": 1615.4616316462632,
        "cat": 1460.9400302293927,
        "deer": 1574.119617804723,
        "dog": 1681.1436069429053,
        "frog": 1963.919072417034,
        "horse": 1648.7444633712564,
        "ship": 1084.1304746070018,
        "truck": 1325.5849692502902
    },
    "fid": 1234.8814219396832,
    "wasserstein_distance": null,
    "g_loss": null,
    "g_cost": null,
    "d_loss_real": null,
    "d_loss_fake": null
}