{
    "epoch": 43,
    "avg_current_window": 1887.7843876815787,
    "avg_prior_window": 2001.4224441534964,
    "inception_score_mean": 1.3880282169090639,
    "inception_score_std": 0.10490878154110546,
    "fid_per_class": {
        "airplane": 1245.6022171214986,
        "automobile": 1506.0438656118708,
        "bird": 1764.5168519273384,
        "cat": 1537.5425990643585,
        "deer": 1601.8046958714976,
        "dog": 1757.3586992693574,
        "frog": 1975.9197967414948,
        "horse": 1593.6831482702808,
        "ship": 1054.570313900075,
        "truck": 1350.804638991469
    },
    "fid": 1257.730377915888,
    "wasserstein_distance": null,
    "g_loss": null,
    "g_cost": null,
    "d_loss_real": null,
    "d_loss_fake": null
}