{
    "epoch": 93,
    "avg_current_window": 1416.0541856295406,
    "avg_prior_window": 1454.6636337867792,
    "inception_score_mean": 1.7532631570988548,
    "inception_score_std": 0.16743038215689637,
    "fid_per_class": {
        "airplane": 1053.272970250459,
        "automobile": 1241.4388497851219,
        "bird": 1386.9783054576546,
        "cat": 1051.6551119898613,
        "deer": 1418.0222268517507,
        "dog": 1113.5617141506518,
        "frog": 1755.3543027778296,
        "horse": 1362.7809270455998,
        "ship": 982.1251694707664,
        "truck": 1253.8124584317193
    },
    "fid": 893.2002675228964,
    "wasserstein_distance": null,
    "g_loss": null,
    "g_cost": null,
    "d_loss_real": null,
    "d_loss_fake": null
}