{
    "epoch": 200,
    "avg_current_window": 1115.5141894016806,
    "avg_prior_window": 1127.7119295795371,
    "inception_score_mean": 1.8428819403449297,
    "inception_score_std": 0.15181236361462805,
    "fid_per_class": {
        "airplane": 969.5026708260564,
        "automobile": 1175.0902336259646,
        "bird": 1362.6505691445964,
        "cat": 1009.1752153054067,
        "deer": 1411.361732636749,
        "dog": 1080.4061812081627,
        "frog": 1448.3454651931527,
        "horse": 1295.4882606450024,
        "ship": 919.5079038078493,
        "truck": 1099.1423032418427
    },
    "fid": 803.1557859419354,
    "wasserstein_distance": null,
    "g_loss": null,
    "g_cost": null,
    "d_loss_real": null,
    "d_loss_fake": null
}