{
    "epoch": 99,
    "avg_current_window": 1385.3526896971364,
    "avg_prior_window": 1419.9878473517995,
    "inception_score_mean": 1.7213400626811464,
    "inception_score_std": 0.11960210411541343,
    "fid_per_class": {
        "airplane": 940.1049923642793,
        "automobile": 1289.9263824568156,
        "bird": 1404.0320963149845,
        "cat": 1059.22870676914,
        "deer": 1423.3188426428871,
        "dog": 1132.4493824003125,
        "frog": 1821.954943241518,
        "horse": 1347.5350977178123,
        "ship": 917.8581468756813,
        "truck": 1154.6695839067563
    },
    "fid": 889.7614836023823,
    "wasserstein_distance": null,
    "g_loss": null,
    "g_cost": null,
    "d_loss_real": null,
    "d_loss_fake": null
}