{
    "epoch": 164,
    "avg_current_window": 1178.1948903687723,
    "avg_prior_window": 1194.4473788045527,
    "inception_score_mean": 1.8200742506611622,
    "inception_score_std": 0.15378603259325388,
    "fid_per_class": {
        "airplane": 985.056513873231,
        "automobile": 1232.5400057116144,
        "bird": 1408.231563719668,
        "cat": 1064.5528671014781,
        "deer": 1425.316059332375,
        "dog": 1179.739749820461,
        "frog": 1662.9034237548742,
        "horse": 1279.687784626794,
        "ship": 892.3082423710744,
        "truck": 1201.8564529876435
    },
    "fid": 859.3150548697197,
    "wasserstein_distance": null,
    "g_loss": null,
    "g_cost": null,
    "d_loss_real": null,
    "d_loss_fake": null
}