{
    "epoch": 188,
    "avg_current_window": 1134.7753506322538,
    "avg_prior_window": 1147.7213827067685,
    "inception_score_mean": 1.8811263360691182,
    "inception_score_std": 0.15823014611801586,
    "fid_per_class": {
        "airplane": 968.6041436703151,
        "automobile": 1226.0532897181747,
        "bird": 1388.53987094266,
        "cat": 1020.782516404402,
        "deer": 1364.5120466481285,
        "dog": 1134.1065053474888,
        "frog": 1480.9974690750082,
        "horse": 1340.4475996917076,
        "ship": 947.0757426097587,
        "truck": 1205.4266842342095
    },
    "fid": 835.5654353999839,
    "wasserstein_distance": null,
    "g_loss": null,
    "g_cost": null,
    "d_loss_real": null,
    "d_loss_fake": null
}