{
    "epoch": 163,
    "avg_current_window": 1180.183326059183,
    "avg_prior_window": 1196.67394824675,
    "inception_score_mean": 1.8823969926069677,
    "inception_score_std": 0.06928437633045005,
    "fid_per_class": {
        "airplane": 986.9043380410521,
        "automobile": 1305.5210171217882,
        "bird": 1342.6590627240207,
        "cat": 1062.9367294597353,
        "deer": 1403.3421988156974,
        "dog": 1115.5858603105,
        "frog": 1555.2918889595144,
        "horse": 1301.3319005412657,
        "ship": 957.3953829142501,
        "truck": 1196.8809822514027
    },
    "fid": 854.079872831847,
    "wasserstein_distance": null,
    "g_loss": null,
    "g_cost": null,
    "d_loss_real": null,
    "d_loss_fake": null
}