{
    "epoch": 177,
    "avg_current_window": 1153.7600963828852,
    "avg_prior_window": 1167.497920602277,
    "inception_score_mean": 1.8228957694271712,
    "inception_score_std": 0.13265812491827544,
    "fid_per_class": {
        "airplane": 995.8550780540884,
        "automobile": 1225.3888169258084,
        "bird": 1406.846074033905,
        "cat": 1091.5510038573289,
        "deer": 1474.8483535358873,
        "dog": 1144.8024346592156,
        "frog": 1551.3652287102561,
        "horse": 1399.74796106124,
        "ship": 958.0369148253287,
        "truck": 1185.9627234982274
    },
    "fid": 878.1330545778096,
    "wasserstein_distance": null,
    "g_loss": null,
    "g_cost": null,
    "d_loss_real": null,
    "d_loss_fake": null
}