{
    "epoch": 30,
    "avg_current_window": 2148.8493189912924,
    "avg_prior_window": 2325.066589115496,
    "inception_score_mean": 1.2037749116466236,
    "inception_score_std": 0.06662308169853685,
    "fid_per_class": {
        "airplane": 1463.452499448952,
        "automobile": 1590.469762756017,
        "bird": 1538.5304498581038,
        "cat": 1489.5147122933854,
        "deer": 1608.6766246094599,
        "dog": 1689.520988553519,
        "frog": 1869.253412575034,
        "horse": 1703.5662358943714,
        "ship": 1305.2679498714967,
        "truck": 1434.745388487686
    },
    "fid": 1358.2326394008815,
    "wasserstein_distance": null,
    "g_loss": null,
    "g_cost": null,
    "d_loss_real": null,
    "d_loss_fake": null
}