{
    "epoch": 88,
    "avg_current_window": 1444.4284972797475,
    "avg_prior_window": 1486.6945374129202,
    "inception_score_mean": 1.7812495541014006,
    "inception_score_std": 0.149182483791969,
    "fid_per_class": {
        "airplane": 1078.0998553905852,
        "automobile": 1280.5658501005873,
        "bird": 1388.560054201521,
        "cat": 1048.8240894120654,
        "deer": 1411.718482335704,
        "dog": 1100.5414744104792,
        "frog": 1743.5282635026865,
        "horse": 1349.676350638647,
        "ship": 935.1660778346821,
        "truck": 1148.6579588497093
    },
    "fid": 900.6920126187863,
    "wasserstein_distance": null,
    "g_loss": null,
    "g_cost": null,
    "d_loss_real": null,
    "d_loss_fake": null
}