{
    "epoch": 129,
    "avg_current_window": 1269.0267246338387,
    "avg_prior_window": 1292.3257262563793,
    "inception_score_mean": 1.810786724863494,
    "inception_score_std": 0.13466362432579523,
    "fid_per_class": {
        "airplane": 996.8055995760806,
        "automobile": 1201.5520435567323,
        "bird": 1413.9221865614886,
        "cat": 1025.6431015822718,
        "deer": 1349.2140054683075,
        "dog": 1080.2323258586273,
        "frog": 1633.9465607708294,
        "horse": 1363.172871888688,
        "ship": 960.3659905206571,
        "truck": 1204.9257165028675
    },
    "fid": 840.2817487103829,
    "wasserstein_distance": null,
    "g_loss": null,
    "g_cost": null,
    "d_loss_real": null,
    "d_loss_fake": null
}