{
    "epoch": 150,
    "avg_current_window": 1210.4531045373583,
    "avg_prior_window": 1228.4676558190486,
    "inception_score_mean": 1.875108802254229,
    "inception_score_std": 0.16379441345702894,
    "fid_per_class": {
        "airplane": 922.4457677658683,
        "automobile": 1201.9299319571473,
        "bird": 1377.4900803814326,
        "cat": 1023.9267411940447,
        "deer": 1328.4636133309364,
        "dog": 1184.0023834089961,
        "frog": 1500.5201326099457,
        "horse": 1296.5083417628289,
        "ship": 887.9223917072018,
        "truck": 1107.6362940797153
    },
    "fid": 795.7553416172611,
    "wasserstein_distance": null,
    "g_loss": null,
    "g_cost": null,
    "d_loss_real": null,
    "d_loss_fake": null
}