{
    "epoch": 127,
    "avg_current_window": 1275.1918813256689,
    "avg_prior_window": 1298.99684997502,
    "inception_score_mean": 1.8021057459673488,
    "inception_score_std": 0.1354892782150056,
    "fid_per_class": {
        "airplane": 980.3782170722536,
        "automobile": 1219.2566154496806,
        "bird": 1429.0622982432421,
        "cat": 1062.8275579823414,
        "deer": 1424.6538008402,
        "dog": 1084.854967105092,
        "frog": 1626.5529466052426,
        "horse": 1269.4238224737528,
        "ship": 940.45058158557,
        "truck": 1163.2710380477488
    },
    "fid": 856.2401431249333,
    "wasserstein_distance": null,
    "g_loss": null,
    "g_cost": null,
    "d_loss_real": null,
    "d_loss_fake": null
}