{
    "epoch": 151,
    "avg_current_window": 1207.706761736563,
    "avg_prior_window": 1225.935201615044,
    "inception_score_mean": 1.8135566374350156,
    "inception_score_std": 0.12689052290521935,
    "fid_per_class": {
        "airplane": 961.7967605688352,
        "automobile": 1154.4868769548887,
        "bird": 1354.0296241568249,
        "cat": 1007.834226515331,
        "deer": 1332.2170164371983,
        "dog": 1158.2229489297022,
        "frog": 1538.5259828760236,
        "horse": 1255.5130066399802,
        "ship": 904.2397820086778,
        "truck": 1138.8314671987096
    },
    "fid": 815.1537640841287,
    "wasserstein_distance": null,
    "g_loss": null,
    "g_cost": null,
    "d_loss_real": null,
    "d_loss_fake": null
}