{
    "epoch": 47,
    "avg_current_window": 1830.910227297135,
    "avg_prior_window": 1932.7316350073306,
    "inception_score_mean": 1.5804334434547886,
    "inception_score_std": 0.1144246610495324,
    "fid_per_class": {
        "airplane": 1257.4380488380143,
        "automobile": 1406.0543690529828,
        "bird": 1749.3462125134793,
        "cat": 1468.2535134680334,
        "deer": 1647.580084591267,
        "dog": 1685.5560266292473,
        "frog": 2069.724763678805,
        "horse": 1651.6881344937212,
        "ship": 1096.0542170178815,
        "truck": 1284.2941153760478
    },
    "fid": 1236.2255713913696,
    "wasserstein_distance": null,
    "g_loss": null,
    "g_cost": null,
    "d_loss_real": null,
    "d_loss_fake": null
}