{
    "epoch": 103,
    "avg_current_window": 1366.468974706551,
    "avg_prior_window": 1399.4889416328215,
    "inception_score_mean": 1.7556297356891708,
    "inception_score_std": 0.12437277495038702,
    "fid_per_class": {
        "airplane": 1082.8311171412263,
        "automobile": 1239.103977514841,
        "bird": 1405.727175186167,
        "cat": 1019.1278579174879,
        "deer": 1389.4734175443919,
        "dog": 1091.4226763306926,
        "frog": 1723.8811678698762,
        "horse": 1369.728482921952,
        "ship": 976.133982502133,
        "truck": 1255.1845761722732
    },
    "fid": 904.0961291343444,
    "wasserstein_distance": null,
    "g_loss": null,
    "g_cost": null,
    "d_loss_real": null,
    "d_loss_fake": null
}