{
    "epoch": 53,
    "avg_current_window": 1756.701458748028,
    "avg_prior_window": 1843.6467562876267,
    "inception_score_mean": 1.653427509418425,
    "inception_score_std": 0.13579433051272294,
    "fid_per_class": {
        "airplane": 1130.9382221771593,
        "automobile": 1390.3337669753912,
        "bird": 1581.40130985305,
        "cat": 1304.1137267057918,
        "deer": 1645.1648338801867,
        "dog": 1388.4065577456045,
        "frog": 1931.9364750058455,
        "horse": 1601.474484489327,
        "ship": 1015.3795070763961,
        "truck": 1304.0407588717478
    },
    "fid": 1105.2850460343784,
    "wasserstein_distance": null,
    "g_loss": null,
    "g_cost": null,
    "d_loss_real": null,
    "d_loss_fake": null
}