{
    "epoch": 160,
    "avg_current_window": 1186.982082687024,
    "avg_prior_window": 1203.4096276624716,
    "inception_score_mean": 1.777289663888285,
    "inception_score_std": 0.10124606136269942,
    "fid_per_class": {
        "airplane": 969.9943390509087,
        "automobile": 1251.6722592390838,
        "bird": 1325.9910363557128,
        "cat": 1080.7040555377037,
        "deer": 1343.4190300147557,
        "dog": 1155.649513139557,
        "frog": 1479.9208767834034,
        "horse": 1259.6420823616038,
        "ship": 874.6206055790988,
        "truck": 1136.8753749206421
    },
    "fid": 819.0948758156694,
    "wasserstein_distance": null,
    "g_loss": null,
    "g_cost": null,
    "d_loss_real": null,
    "d_loss_fake": null
}