{
    "epoch": 64,
    "avg_current_window": 1633.8222165119987,
    "avg_prior_window": 1703.7497640374327,
    "inception_score_mean": 1.692033929878059,
    "inception_score_std": 0.0968820076391328,
    "fid_per_class": {
        "airplane": 1113.4931642741317,
        "automobile": 1311.4310572751276,
        "bird": 1520.2906685515702,
        "cat": 1141.9327080101339,
        "deer": 1532.4239854304726,
        "dog": 1267.0731233980202,
        "frog": 1841.5094287075833,
        "horse": 1462.23442165986,
        "ship": 986.6853022652066,
        "truck": 1189.3179619497091
    },
    "fid": 1011.0506246578411,
    "wasserstein_distance": null,
    "g_loss": null,
    "g_cost": null,
    "d_loss_real": null,
    "d_loss_fake": null
}