{
    "epoch": 71,
    "avg_current_window": 1566.4899591444662,
    "avg_prior_window": 1628.264283716186,
    "inception_score_mean": 1.6754273908210706,
    "inception_score_std": 0.09782314607840215,
    "fid_per_class": {
        "airplane": 1060.7700167081523,
        "automobile": 1284.184268093451,
        "bird": 1455.0636164840687,
        "cat": 1102.8317291268786,
        "deer": 1495.9855848167415,
        "dog": 1220.55009169928,
        "frog": 1825.8736544726398,
        "horse": 1489.6493760814824,
        "ship": 953.2503358794012,
        "truck": 1261.7316856891623
    },
    "fid": 963.7343305641363,
    "wasserstein_distance": null,
    "g_loss": null,
    "g_cost": null,
    "d_loss_real": null,
    "d_loss_fake": null
}