{
    "epoch": 61,
    "avg_current_window": 1664.9512989047641,
    "avg_prior_window": 1740.0659734477947,
    "inception_score_mean": 1.7312129522316266,
    "inception_score_std": 0.07941218614872984,
    "fid_per_class": {
        "airplane": 1127.9930255899153,
        "automobile": 1367.8406079623344,
        "bird": 1490.09960577187,
        "cat": 1042.9264569716697,
        "deer": 1573.1376080332518,
        "dog": 1323.0879748938057,
        "frog": 1877.384703173806,
        "horse": 1513.0157624309927,
        "ship": 940.1381159354981,
        "truck": 1277.1742035683037
    },
    "fid": 1015.5027503293172,
    "wasserstein_distance": null,
    "g_loss": null,
    "g_cost": null,
    "d_loss_real": null,
    "d_loss_fake": null
}