{
    "epoch": 114,
    "avg_current_window": 1320.6380384109023,
    "avg_prior_window": 1349.0983594124114,
    "inception_score_mean": 1.7098127072587044,
    "inception_score_std": 0.11875072433223731,
    "fid_per_class": {
        "airplane": 1033.55365373816,
        "automobile": 1258.208454165483,
        "bird": 1429.5467888355056,
        "cat": 1068.1751420503604,
        "deer": 1458.1008251331464,
        "dog": 1087.1513797177752,
        "frog": 1775.8288746720573,
        "horse": 1323.2006483195617,
        "ship": 959.9709459545484,
        "truck": 1205.1095684830893
    },
    "fid": 902.0750524594628,
    "wasserstein_distance": null,
    "g_loss": null,
    "g_cost": null,
    "d_loss_real": null,
    "d_loss_fake": null
}