{
    "epoch": 152,
    "avg_current_window": 1205.1241762256918,
    "avg_prior_window": 1223.4607000653805,
    "inception_score_mean": 1.7960592784188791,
    "inception_score_std": 0.11849072534047221,
    "fid_per_class": {
        "airplane": 939.4414153900212,
        "automobile": 1246.9620239569922,
        "bird": 1401.0423333003973,
        "cat": 1036.5030913045293,
        "deer": 1365.645177780719,
        "dog": 1143.987197575234,
        "frog": 1566.112169658606,
        "horse": 1280.8289672743738,
        "ship": 897.0186018081438,
        "truck": 1126.1146267613813
    },
    "fid": 826.9964885567565,
    "wasserstein_distance": null,
    "g_loss": null,
    "g_cost": null,
    "d_loss_real": null,
    "d_loss_fake": null
}