{
    "epoch": 148,
    "avg_current_window": 1215.1940737135874,
    "avg_prior_window": 1233.8641418144314,
    "inception_score_mean": 1.7352301754918291,
    "inception_score_std": 0.12335887324087517,
    "fid_per_class": {
        "airplane": 1003.6877649874745,
        "automobile": 1292.8635146596919,
        "bird": 1416.7432694293134,
        "cat": 1027.488214714217,
        "deer": 1322.1773236918382,
        "dog": 1113.6536954193446,
        "frog": 1545.1116461644092,
        "horse": 1365.4161198404593,
        "ship": 968.0679869620759,
        "truck": 1244.2323877108095
    },
    "fid": 857.2150490838285,
    "wasserstein_distance": null,
    "g_loss": null,
    "g_cost": null,
    "d_loss_real": null,
    "d_loss_fake": null
}