{
    "epoch": 72,
    "avg_current_window": 1558.1183531919617,
    "avg_prior_window": 1617.671555103162,
    "inception_score_mean": 1.7259617945956798,
    "inception_score_std": 0.10972294364775664,
    "fid_per_class": {
        "airplane": 1012.496669435661,
        "automobile": 1245.8618933753066,
        "bird": 1371.9788973195532,
        "cat": 1044.7048351480048,
        "deer": 1444.9220269473894,
        "dog": 1172.2027513188882,
        "frog": 1805.8137273819593,
        "horse": 1460.1899060500673,
        "ship": 905.3900778689156,
        "truck": 1213.6598168001865
    },
    "fid": 918.4770011449785,
    "wasserstein_distance": null,
    "g_loss": null,
    "g_cost": null,
    "d_loss_real": null,
    "d_loss_fake": null
}