{
    "epoch": 7,
    "avg_current_window": 2119.8255376720385,
    "avg_prior_window": 2.0,
    "inception_score_mean": 1.030665710056889,
    "inception_score_std": 0.006571580903947467,
    "fid_per_class": {
        "airplane": 2147.767610507704,
        "automobile": 2371.3044658606395,
        "bird": 2500.3938861160586,
        "cat": 2562.877271759368,
        "deer": 2955.936296980868,
        "dog": 2573.3658865289863,
        "frog": 2728.865319192202,
        "horse": 2613.1183948277585,
        "ship": 2485.6545041696336,
        "truck": 2454.551230318547
    },
    "fid": 2441.0345577870476,
    "wasserstein_distance": null,
    "g_loss": null,
    "g_cost": null,
    "d_loss_real": null,
    "d_loss_fake": null
}