{
    "epoch": 51,
    "avg_current_window": 1782.1814251851483,
    "avg_prior_window": 1870.7126235427247,
    "inception_score_mean": 1.6107323536086544,
    "inception_score_std": 0.13695346667191177,
    "fid_per_class": {
        "airplane": 1165.8861696490324,
        "automobile": 1363.9663597508334,
        "bird": 1582.6354674417776,
        "cat": 1347.3987801860862,
        "deer": 1596.64509674587,
        "dog": 1559.8091004483672,
        "frog": 1880.2413108796964,
        "horse": 1579.1486641786962,
        "ship": 1062.9694500224796,
        "truck": 1272.875991918156
    },
    "fid": 1118.6382197384746,
    "wasserstein_distance": null,
    "g_loss": null,
    "g_cost": null,
    "d_loss_real": null,
    "d_loss_fake": null
}