{
    "epoch": 107,
    "avg_current_window": 1349.1761272150295,
    "avg_prior_window": 1379.8657293605368,
    "inception_score_mean": 1.7413317330025102,
    "inception_score_std": 0.17949971456837246,
    "fid_per_class": {
        "airplane": 1029.387684889235,
        "automobile": 1281.1776252380623,
        "bird": 1407.3439030767486,
        "cat": 1095.6489175198722,
        "deer": 1417.1421800262865,
        "dog": 1216.0045006506962,
        "frog": 1795.3537553612432,
        "horse": 1426.5026594549022,
        "ship": 922.184937068163,
        "truck": 1144.2218961557874
    },
    "fid": 923.6154679278656,
    "wasserstein_distance": null,
    "g_loss": null,
    "g_cost": null,
    "d_loss_real": null,
    "d_loss_fake": null
}