{
    "epoch": 83,
    "avg_current_window": 1475.421932302269,
    "avg_prior_window": 1522.735474064527,
    "inception_score_mean": 1.7141639107855018,
    "inception_score_std": 0.1685220127236211,
    "fid_per_class": {
        "airplane": 1061.9110824229565,
        "automobile": 1266.4265767359395,
        "bird": 1392.5406495214313,
        "cat": 1097.1817288853108,
        "deer": 1408.6339232164767,
        "dog": 1221.1555506115192,
        "frog": 1747.4191789253277,
        "horse": 1411.9241491682255,
        "ship": 1021.2293861671101,
        "truck": 1270.0714860938897
    },
    "fid": 935.6262241840545,
    "wasserstein_distance": null,
    "g_loss": null,
    "g_cost": null,
    "d_loss_real": null,
    "d_loss_fake": null
}