{
    "epoch": 25,
    "avg_current_window": 2250.4264590188573,
    "avg_prior_window": 2323.8332645776527,
    "inception_score_mean": 1.164917600896199,
    "inception_score_std": 0.044693937944848466,
    "fid_per_class": {
        "airplane": 1952.5200693785196,
        "automobile": 1869.0072584358636,
        "bird": 2349.462899354556,
        "cat": 2079.1484331189895,
        "deer": 2582.6053763524487,
        "dog": 2069.8649064451374,
        "frog": 2553.7824586266415,
        "horse": 2270.841754740415,
        "ship": 2104.309522278667,
        "truck": 1800.3717142326127
    },
    "fid": 1866.0032524159628,
    "wasserstein_distance": null,
    "g_loss": null,
    "g_cost": null,
    "d_loss_real": null,
    "d_loss_fake": null
}