{
    "epoch": 161,
    "avg_current_window": 1184.6970689797488,
    "avg_prior_window": 1200.9872456875967,
    "inception_score_mean": 1.8904237246577345,
    "inception_score_std": 0.1598606828100983,
    "fid_per_class": {
        "airplane": 1001.480844872744,
        "automobile": 1213.9772372949328,
        "bird": 1343.194931552749,
        "cat": 1000.6390498891194,
        "deer": 1294.797199630472,
        "dog": 1137.0596479537567,
        "frog": 1559.096719526884,
        "horse": 1305.0622734904014,
        "ship": 869.2835532000004,
        "truck": 1142.8884811643738
    },
    "fid": 803.0394379911957,
    "wasserstein_distance": null,
    "g_loss": null,
    "g_cost": null,
    "d_loss_real": null,
    "d_loss_fake": null
}