{
    "epoch": 80,
    "avg_current_window": 1496.32181462155,
    "avg_prior_window": 1545.393529795744,
    "inception_score_mean": 1.7637346205074724,
    "inception_score_std": 0.17004659137766634,
    "fid_per_class": {
        "airplane": 1066.3831567234943,
        "automobile": 1263.558310313596,
        "bird": 1454.866124003715,
        "cat": 1074.4187610076037,
        "deer": 1371.0974875033226,
        "dog": 1127.913788210746,
        "frog": 1706.3884750873071,
        "horse": 1332.5381308267943,
        "ship": 906.6963018986012,
        "truck": 1177.9212381925533
    },
    "fid": 887.968974748381,
    "wasserstein_distance": null,
    "g_loss": null,
    "g_cost": null,
    "d_loss_real": null,
    "d_loss_fake": null
}