{
    "epoch": 70,
    "avg_current_window": 1574.975234674554,
    "avg_prior_window": 1638.5041523707791,
    "inception_score_mean": 1.7023837645523976,
    "inception_score_std": 0.12700079514501367,
    "fid_per_class": {
        "airplane": 1095.693484915652,
        "automobile": 1274.4056624657712,
        "bird": 1484.6104558151894,
        "cat": 1098.1083758466398,
        "deer": 1499.7690037170426,
        "dog": 1278.3815661944657,
        "frog": 1750.6935008109422,
        "horse": 1502.3104330373349,
        "ship": 977.8107939456779,
        "truck": 1213.6294285722306
    },
    "fid": 972.5206720383121,
    "wasserstein_distance": null,
    "g_loss": null,
    "g_cost": null,
    "d_loss_real": null,
    "d_loss_fake": null
}