{
    "epoch": 193,
    "avg_current_window": 1126.6607495942008,
    "avg_prior_window": 1139.219847629062,
    "inception_score_mean": 1.8654851445708023,
    "inception_score_std": 0.10848985331429867,
    "fid_per_class": {
        "airplane": 1003.3696848263387,
        "automobile": 1193.430050834782,
        "bird": 1344.2437248178037,
        "cat": 1008.307003505734,
        "deer": 1406.1850586252567,
        "dog": 1075.8017571748344,
        "frog": 1428.9189546958478,
        "horse": 1342.0756788157887,
        "ship": 949.3652438227091,
        "truck": 1147.0954493913368
    },
    "fid": 816.5081332159276,
    "wasserstein_distance": null,
    "g_loss": null,
    "g_cost": null,
    "d_loss_real": null,
    "d_loss_fake": null
}