{
    "epoch": 141,
    "avg_current_window": 1233.1059851185287,
    "avg_prior_window": 1253.4102536371877,
    "inception_score_mean": 1.8550201027447972,
    "inception_score_std": 0.17977643460335158,
    "fid_per_class": {
        "airplane": 970.2360343644206,
        "automobile": 1250.3938838429103,
        "bird": 1317.2164031392592,
        "cat": 1038.478122609589,
        "deer": 1400.5070549833883,
        "dog": 1101.0839811291357,
        "frog": 1527.1583658456484,
        "horse": 1337.4603160309528,
        "ship": 881.7555475511178,
        "truck": 1159.5110494567464
    },
    "fid": 821.7364067804858,
    "wasserstein_distance": null,
    "g_loss": null,
    "g_cost": null,
    "d_loss_real": null,
    "d_loss_fake": null
}