{
    "epoch": 112,
    "avg_current_window": 1328.6871530095934,
    "avg_prior_window": 1357.8080474760375,
    "inception_score_mean": 1.754543240946326,
    "inception_score_std": 0.09834998739426315,
    "fid_per_class": {
        "airplane": 1037.2769532347816,
        "automobile": 1276.693262342183,
        "bird": 1406.9662184796857,
        "cat": 1059.954008082346,
        "deer": 1437.443924916593,
        "dog": 1141.2178924416555,
        "frog": 1834.4494060832972,
        "horse": 1412.6211465814065,
        "ship": 915.3895275540023,
        "truck": 1210.7779211914878
    },
    "fid": 910.6309698470664,
    "wasserstein_distance": null,
    "g_loss": null,
    "g_cost": null,
    "d_loss_real": null,
    "d_loss_fake": null
}