{
    "epoch": 63,
    "avg_current_window": 1644.4272611547706,
    "avg_prior_window": 1715.6643110704465,
    "inception_score_mean": 1.7752539251489874,
    "inception_score_std": 0.12455861459776078,
    "fid_per_class": {
        "airplane": 1104.8746199128693,
        "automobile": 1300.5526972613816,
        "bird": 1499.6898730279934,
        "cat": 1048.101859590523,
        "deer": 1470.190632754121,
        "dog": 1270.099895014252,
        "frog": 1761.4477862403064,
        "horse": 1435.3763100259257,
        "ship": 942.2099752005292,
        "truck": 1192.7653210785816
    },
    "fid": 965.7044040173714,
    "wasserstein_distance": null,
    "g_loss": null,
    "g_cost": null,
    "d_loss_real": null,
    "d_loss_fake": null
}