{
    "epoch": 9,
    "avg_current_window": 2221.87177111684,
    "avg_prior_window": 2417.1082980570823,
    "inception_score_mean": 1.0000003481921573,
    "inception_score_std": 7.916874460697846e-08,
    "fid_per_class": {
        "airplane": 2246.3320125045784,
        "automobile": 2465.750144491533,
        "bird": 2747.7554239202786,
        "cat": 2866.2919301347647,
        "deer": 3125.369724271083,
        "dog": 2784.897129457107,
        "frog": 3127.0585657626084,
        "horse": 2786.360917054825,
        "ship": 2585.2780960429354,
        "truck": 2505.804148710794
    },
    "fid": 2716.1775656427208,
    "wasserstein_distance": null,
    "g_loss": null,
    "g_cost": null,
    "d_loss_real": null,
    "d_loss_fake": null
}