{
    "epoch": 60,
    "avg_current_window": 1675.3539346368088,
    "avg_prior_window": 1752.2131798728353,
    "inception_score_mean": 1.758741095835069,
    "inception_score_std": 0.10541595844299127,
    "fid_per_class": {
        "airplane": 1137.2591668718637,
        "automobile": 1355.5660144979158,
        "bird": 1543.7318548435946,
        "cat": 1129.5460338440826,
        "deer": 1586.4013098562068,
        "dog": 1252.856227785004,
        "frog": 1912.7744029385562,
        "horse": 1499.2389477217846,
        "ship": 1001.3038039332249,
        "truck": 1261.252730214187
    },
    "fid": 1040.7931549820757,
    "wasserstein_distance": null,
    "g_loss": null,
    "g_cost": null,
    "d_loss_real": null,
    "d_loss_fake": null
}