{
    "epoch": 102,
    "avg_current_window": 1370.7995021786508,
    "avg_prior_window": 1404.2729066734562,
    "inception_score_mean": 1.7578165876140002,
    "inception_score_std": 0.1387332038222119,
    "fid_per_class": {
        "airplane": 1030.5267164356317,
        "automobile": 1271.5453729706826,
        "bird": 1428.970865683488,
        "cat": 1068.2944387894918,
        "deer": 1471.78753288505,
        "dog": 1220.7109491704507,
        "frog": 1822.8343591865248,
        "horse": 1384.4867171304004,
        "ship": 972.5670488730138,
        "truck": 1212.5033412998657
    },
    "fid": 924.7551725523682,
    "wasserstein_distance": null,
    "g_loss": null,
    "g_cost": null,
    "d_loss_real": null,
    "d_loss_fake": null
}