{
    "epoch": 104,
    "avg_current_window": 1362.0230819606645,
    "avg_prior_window": 1394.3401794304937,
    "inception_score_mean": 1.7073902803407148,
    "inception_score_std": 0.08668650352027055,
    "fid_per_class": {
        "airplane": 1067.0251691326528,
        "automobile": 1315.533638217041,
        "bird": 1420.777210678132,
        "cat": 1087.7507943504825,
        "deer": 1402.347055683158,
        "dog": 1220.971014473583,
        "frog": 1663.1332212387892,
        "horse": 1386.82915967603,
        "ship": 998.0975257545347,
        "truck": 1205.162786707353
    },
    "fid": 924.5409001485899,
    "wasserstein_distance": null,
    "g_loss": null,
    "g_cost": null,
    "d_loss_real": null,
    "d_loss_fake": null
}