{
    "epoch": 126,
    "avg_current_window": 1278.7445017134196,
    "avg_prior_window": 1302.572723397374,
    "inception_score_mean": 1.8366192027449066,
    "inception_score_std": 0.12781718459677943,
    "fid_per_class": {
        "airplane": 948.9913576041458,
        "automobile": 1214.5973884952432,
        "bird": 1391.7928842390213,
        "cat": 1025.0141206503756,
        "deer": 1379.8297683424396,
        "dog": 1160.3936635797115,
        "frog": 1518.503831128282,
        "horse": 1244.8066011023045,
        "ship": 900.2573548106504,
        "truck": 1158.2817876975982
    },
    "fid": 827.5617124690681,
    "wasserstein_distance": null,
    "g_loss": null,
    "g_cost": null,
    "d_loss_real": null,
    "d_loss_fake": null
}