{
    "epoch": 10,
    "avg_current_window": 2271.302350569428,
    "avg_prior_window": 2451.2251061187003,
    "inception_score_mean": 1.0000012839613643,
    "inception_score_std": 6.962277744689997e-07,
    "fid_per_class": {
        "airplane": 2243.7847073742178,
        "automobile": 2461.3260322134474,
        "bird": 2743.0474545231828,
        "cat": 2863.244805354649,
        "deer": 3121.8974017971714,
        "dog": 2775.5403197961914,
        "frog": 3123.138542600176,
        "horse": 2778.6777992915554,
        "ship": 2582.843804750431,
        "truck": 2499.7301628475334
    },
    "fid": 2711.0488234513423,
    "wasserstein_distance": null,
    "g_loss": null,
    "g_cost": null,
    "d_loss_real": null,
    "d_loss_fake": null
}