{
    "epoch": 171,
    "avg_current_window": 1164.49056189852,
    "avg_prior_window": 1179.33181706407,
    "inception_score_mean": 1.7912877555846989,
    "inception_score_std": 0.14076311797336405,
    "fid_per_class": {
        "airplane": 988.5596459348931,
        "automobile": 1239.7151743662816,
        "bird": 1382.8780960236631,
        "cat": 1097.811813090003,
        "deer": 1365.2330389941715,
        "dog": 1216.9307931424692,
        "frog": 1594.644932549912,
        "horse": 1327.225106169976,
        "ship": 923.2189292846879,
        "truck": 1152.2984179225243
    },
    "fid": 874.0535841997087,
    "wasserstein_distance": null,
    "g_loss": null,
    "g_cost": null,
    "d_loss_real": null,
    "d_loss_fake": null
}