{
    "epoch": 34,
    "avg_current_window": 2048.9198949018532,
    "avg_prior_window": 2222.9475713703023,
    "inception_score_mean": 1.2711380481190433,
    "inception_score_std": 0.051322184406399726,
    "fid_per_class": {
        "airplane": 1319.6714661298963,
        "automobile": 1441.548509843442,
        "bird": 1837.0448959100427,
        "cat": 1611.3686038525084,
        "deer": 1939.5229305753935,
        "dog": 1786.4489663985703,
        "frog": 2108.66231079554,
        "horse": 1753.656456670978,
        "ship": 1089.0099157551235,
        "truck": 1414.4886853551798
    },
    "fid": 1353.687933555184,
    "wasserstein_distance": null,
    "g_loss": null,
    "g_cost": null,
    "d_loss_real": null,
    "d_loss_fake": null
}