{
    "epoch": 59,
    "avg_current_window": 1686.5852549506085,
    "avg_prior_window": 1765.0147444415566,
    "inception_score_mean": 1.7071520182448185,
    "inception_score_std": 0.14317890808587286,
    "fid_per_class": {
        "airplane": 1112.6380637933398,
        "automobile": 1361.8981215039803,
        "bird": 1533.2771612176657,
        "cat": 1133.460051020968,
        "deer": 1494.908206133506,
        "dog": 1231.5218290916218,
        "frog": 1869.870091928542,
        "horse": 1443.4456293403618,
        "ship": 1017.4521221020266,
        "truck": 1317.2917731915686
    },
    "fid": 1012.7060361226266,
    "wasserstein_distance": null,
    "g_loss": null,
    "g_cost": null,
    "d_loss_real": null,
    "d_loss_fake": null
}