{
    "epoch": 121,
    "avg_current_window": 1295.4005426290785,
    "avg_prior_window": 1320.7499187912413,
    "inception_score_mean": 1.7342563318348414,
    "inception_score_std": 0.1396425031943435,
    "fid_per_class": {
        "airplane": 1000.782235059113,
        "automobile": 1251.4273045843224,
        "bird": 1419.217214721296,
        "cat": 1087.0871925024471,
        "deer": 1399.8239724102573,
        "dog": 1142.9819622135037,
        "frog": 1585.0723354999127,
        "horse": 1322.273981719332,
        "ship": 913.2722955879883,
        "truck": 1151.6908617441632
    },
    "fid": 867.8338729637699,
    "wasserstein_distance": null,
    "g_loss": null,
    "g_cost": null,
    "d_loss_real": null,
    "d_loss_fake": null
}