{
    "epoch": 140,
    "avg_current_window": 1235.6798569275209,
    "avg_prior_window": 1256.1736245322288,
    "inception_score_mean": 1.7670383581444455,
    "inception_score_std": 0.1415262727872936,
    "fid_per_class": {
        "airplane": 967.8067009633053,
        "automobile": 1276.412148760645,
        "bird": 1374.8824820742366,
        "cat": 1022.735476103076,
        "deer": 1472.8531568415574,
        "dog": 1134.307080014768,
        "frog": 1673.9450963302588,
        "horse": 1325.0784792559693,
        "ship": 926.6932060072604,
        "truck": 1202.7228987669946
    },
    "fid": 872.7639318596329,
    "wasserstein_distance": null,
    "g_loss": null,
    "g_cost": null,
    "d_loss_real": null,
    "d_loss_fake": null
}