{
    "epoch": 50,
    "avg_current_window": 1795.4392714142712,
    "avg_prior_window": 1885.8853329632489,
    "inception_score_mean": 1.6948847920574117,
    "inception_score_std": 0.1230637899887542,
    "fid_per_class": {
        "airplane": 1217.5936329131573,
        "automobile": 1337.079591999054,
        "bird": 1605.456585165221,
        "cat": 1349.452643755796,
        "deer": 1580.410515104718,
        "dog": 1530.4876953382054,
        "frog": 1901.8676219153783,
        "horse": 1562.4886527174701,
        "ship": 1043.721833010144,
        "truck": 1237.476719867178
    },
    "fid": 1119.289113728996,
    "wasserstein_distance": null,
    "g_loss": null,
    "g_cost": null,
    "d_loss_real": null,
    "d_loss_fake": null
}