{
    "epoch": 175,
    "avg_current_window": 1157.2983771112858,
    "avg_prior_window": 1171.3405063802759,
    "inception_score_mean": 1.8275392293746513,
    "inception_score_std": 0.11991319948427663,
    "fid_per_class": {
        "airplane": 958.6189127058838,
        "automobile": 1272.5000148825256,
        "bird": 1401.9642474413886,
        "cat": 1119.8846625667843,
        "deer": 1411.9647193166725,
        "dog": 1166.4897773027533,
        "frog": 1590.0922300442721,
        "horse": 1344.0141828341248,
        "ship": 908.6967196481863,
        "truck": 1175.5099630370162
    },
    "fid": 865.8803268785599,
    "wasserstein_distance": null,
    "g_loss": null,
    "g_cost": null,
    "d_loss_real": null,
    "d_loss_fake": null
}