{
    "epoch": 198,
    "avg_current_window": 930.873605810531,
    "avg_prior_window": 938.8150715922252,
    "inception_score_mean": 2.0538472618520016,
    "inception_score_std": 0.16113971275707975,
    "fid_per_class": {
        "airplane": 1065.0037616009668,
        "automobile": 1098.1417764677099,
        "bird": 1336.84268314591,
        "cat": 1127.6367158508097,
        "deer": 1506.2083095469102,
        "dog": 1197.3915162680212,
        "frog": 1674.2902731401905,
        "horse": 1313.182195318241,
        "ship": 1054.6483398229648,
        "truck": 1058.868882719345
    },
    "fid": 828.843047754801,
    "wasserstein_distance": null,
    "g_loss": null,
    "g_cost": null,
    "d_loss_real": null,
    "d_loss_fake": null
}