{
    "epoch": 3,
    "avg_current_window": 856.3178482463214,
    "avg_prior_window": 2571.958116466917,
    "inception_score_mean": 1.000071557832023,
    "inception_score_std": 6.3569180533758135e-06,
    "fid_per_class": {
        "airplane": 2434.729157631832,
        "automobile": 2581.2591662217706,
        "bird": 2774.8028427963873,
        "cat": 2838.682573967684,
        "deer": 3148.5609568330183,
        "dog": 2777.4260887665214,
        "frog": 3013.417182668383,
        "horse": 3000.209647976692,
        "ship": 2782.3155352826493,
        "truck": 2595.615221573466
    },
    "fid": 2780.459755984945,
    "wasserstein_distance": null,
    "g_loss": null,
    "g_cost": null,
    "d_loss_real": null,
    "d_loss_fake": null
}