{
    "epoch": 126,
    "avg_current_window": 1013.3721818408692,
    "avg_prior_window": 1029.029491798959,
    "inception_score_mean": 2.05086542685825,
    "inception_score_std": 0.14748493643844,
    "fid_per_class": {
        "airplane": 1064.6874202367362,
        "automobile": 1069.4940706871123,
        "bird": 1274.552846211191,
        "cat": 1096.6739797756873,
        "deer": 1406.5445090369815,
        "dog": 1097.834894335494,
        "frog": 1623.9047900098662,
        "horse": 1180.443031198893,
        "ship": 1083.5663481967804,
        "truck": 1036.7582401595291
    },
    "fid": 779.2852909639628,
    "wasserstein_distance": null,
    "g_loss": null,
    "g_cost": null,
    "d_loss_real": null,
    "d_loss_fake": null
}