{
    "epoch": 12,
    "avg_current_window": 2043.1944617137706,
    "avg_prior_window": 2533.582569803016,
    "inception_score_mean": 1.3209409412573914,
    "inception_score_std": 0.1123401063130024,
    "fid_per_class": {
        "airplane": 1640.480363840794,
        "automobile": 1527.105810241324,
        "bird": 2108.768586905489,
        "cat": 1938.0066994587564,
        "deer": 2234.078162971606,
        "dog": 2078.715073930987,
        "frog": 2344.792731990097,
        "horse": 2079.5496596591993,
        "ship": 1547.3622327402802,
        "truck": 1350.8430363947032
    },
    "fid": 1650.2490162292283,
    "wasserstein_distance": null,
    "g_loss": null,
    "g_cost": null,
    "d_loss_real": null,
    "d_loss_fake": null
}