{
    "epoch": 66,
    "avg_current_window": 1194.5728885462197,
    "avg_prior_window": 1236.4276547708525,
    "inception_score_mean": 2.0580598321745565,
    "inception_score_std": 0.17487873500124346,
    "fid_per_class": {
        "airplane": 1088.7202969672658,
        "automobile": 1127.0536238362297,
        "bird": 1296.6109725769643,
        "cat": 1125.0330313263785,
        "deer": 1597.0123466221407,
        "dog": 1218.9466840028658,
        "frog": 1577.250092237009,
        "horse": 1273.3463352076205,
        "ship": 1068.0507014630575,
        "truck": 1117.8765835953727
    },
    "fid": 823.727238166209,
    "wasserstein_distance": null,
    "g_loss": null,
    "g_cost": null,
    "d_loss_real": null,
    "d_loss_fake": null
}