{
    "epoch": 182,
    "avg_current_window": 943.5711919064371,
    "avg_prior_window": 952.7778657234758,
    "inception_score_mean": 2.020281440123318,
    "inception_score_std": 0.1579836890578776,
    "fid_per_class": {
        "airplane": 1120.854506032608,
        "automobile": 1077.0038019796248,
        "bird": 1362.5532239302718,
        "cat": 1182.2758643185794,
        "deer": 1309.951755588614,
        "dog": 1153.6427246948738,
        "frog": 1752.5612559859924,
        "horse": 1207.284544719103,
        "ship": 956.0251308814977,
        "truck": 957.4883251338659
    },
    "fid": 801.1449431917943,
    "wasserstein_distance": null,
    "g_loss": null,
    "g_cost": null,
    "d_loss_real": null,
    "d_loss_fake": null
}