{
    "epoch": 10,
    "avg_current_window": 2123.693468863849,
    "avg_prior_window": 2676.1650716804406,
    "inception_score_mean": 1.3203101240336224,
    "inception_score_std": 0.09162831212728206,
    "fid_per_class": {
        "airplane": 1795.6054420354906,
        "automobile": 1585.0600599424372,
        "bird": 1949.3555757766776,
        "cat": 1784.4215328295613,
        "deer": 2064.479174850163,
        "dog": 1851.3207251110948,
        "frog": 2236.598053807287,
        "horse": 1797.1253245597043,
        "ship": 1612.364404667445,
        "truck": 1433.902440666084
    },
    "fid": 1591.6420801217228,
    "wasserstein_distance": null,
    "g_loss": null,
    "g_cost": null,
    "d_loss_real": null,
    "d_loss_fake": null
}