{
    "epoch": 192,
    "avg_current_window": 935.1028790129693,
    "avg_prior_window": 943.0734840421812,
    "inception_score_mean": 1.9995906002254245,
    "inception_score_std": 0.10014058184719267,
    "fid_per_class": {
        "airplane": 1058.3006056998831,
        "automobile": 1133.4660543700247,
        "bird": 1314.1762828565281,
        "cat": 1198.796767000757,
        "deer": 1521.9289924223012,
        "dog": 1223.2248081550892,
        "frog": 2003.872890680418,
        "horse": 1288.1929104258377,
        "ship": 1046.6476905452864,
        "truck": 1006.5702132733743
    },
    "fid": 859.0827174590122,
    "wasserstein_distance": null,
    "g_loss": null,
    "g_cost": null,
    "d_loss_real": null,
    "d_loss_fake": null
}