{
    "epoch": 22,
    "avg_current_window": 1727.1544792898203,
    "avg_prior_window": 1951.0437966810996,
    "inception_score_mean": 1.7035977621350622,
    "inception_score_std": 0.11789123112995124,
    "fid_per_class": {
        "airplane": 1305.8513012657363,
        "automobile": 1300.1727728845822,
        "bird": 1606.0507634649214,
        "cat": 1363.1396759673135,
        "deer": 1839.9084486526322,
        "dog": 1614.5984376346132,
        "frog": 1941.1732830027233,
        "horse": 1570.6111845978396,
        "ship": 1256.3789438475046,
        "truck": 1311.9303848475356
    },
    "fid": 1168.5778052062883,
    "wasserstein_distance": null,
    "g_loss": null,
    "g_cost": null,
    "d_loss_real": null,
    "d_loss_fake": null
}