{
    "epoch": 120,
    "avg_current_window": 1024.7135731650562,
    "avg_prior_window": 1041.4116243432743,
    "inception_score_mean": 2.071428682980182,
    "inception_score_std": 0.1749307224157687,
    "fid_per_class": {
        "airplane": 1031.8797954865454,
        "automobile": 1054.6255166828091,
        "bird": 1289.8491836234411,
        "cat": 1091.9954853118534,
        "deer": 1394.3680219883195,
        "dog": 1197.1858344036395,
        "frog": 1641.2471309374764,
        "horse": 1138.9169925150898,
        "ship": 1036.139440769809,
        "truck": 1026.3014177183015
    },
    "fid": 773.0018518789444,
    "wasserstein_distance": null,
    "g_loss": null,
    "g_cost": null,
    "d_loss_real": null,
    "d_loss_fake": null
}