{
    "epoch": 17,
    "avg_current_window": 1879.876875583816,
    "avg_prior_window": 2180.715213066206,
    "inception_score_mean": 1.8004004276580576,
    "inception_score_std": 0.14364210736186056,
    "fid_per_class": {
        "airplane": 1344.6631092230225,
        "automobile": 1412.9458372279582,
        "bird": 1548.1597655282617,
        "cat": 1384.9384886402613,
        "deer": 1717.9397497450584,
        "dog": 1555.453274524271,
        "frog": 2003.099125227995,
        "horse": 1684.2219134775078,
        "ship": 1296.0417919290726,
        "truck": 1269.4439749152393
    },
    "fid": 1209.8376586538238,
    "wasserstein_distance": null,
    "g_loss": null,
    "g_cost": null,
    "d_loss_real": null,
    "d_loss_fake": null
}