{
    "epoch": 161,
    "avg_current_window": 965.386690048745,
    "avg_prior_window": 975.9492550689846,
    "inception_score_mean": 2.0903598530738945,
    "inception_score_std": 0.16393881316007683,
    "fid_per_class": {
        "airplane": 1007.1672718279608,
        "automobile": 1067.5841383410473,
        "bird": 1241.0140696185822,
        "cat": 1110.088729282637,
        "deer": 1377.5437107899004,
        "dog": 1110.3677613761467,
        "frog": 1713.317806065293,
        "horse": 1217.7004694626007,
        "ship": 978.3868533230119,
        "truck": 963.9159059630351
    },
    "fid": 772.8759529749063,
    "wasserstein_distance": null,
    "g_loss": null,
    "g_cost": null,
    "d_loss_real": null,
    "d_loss_fake": null
}