{
    "epoch": 188,
    "avg_current_window": 938.057135722808,
    "avg_prior_window": 946.9836659474814,
    "inception_score_mean": 2.1057036681860204,
    "inception_score_std": 0.1657115454215153,
    "fid_per_class": {
        "airplane": 981.3941176127623,
        "automobile": 1039.5273328805206,
        "bird": 1300.3583421010144,
        "cat": 1121.8154911274737,
        "deer": 1340.7433157328887,
        "dog": 1110.0639229474964,
        "frog": 1791.650136008452,
        "horse": 1189.8834830643584,
        "ship": 963.1968307343562,
        "truck": 943.6944983567472
    },
    "fid": 760.9683156622995,
    "wasserstein_distance": null,
    "g_loss": null,
    "g_cost": null,
    "d_loss_real": null,
    "d_loss_fake": null
}