{
    "epoch": 72,
    "avg_current_window": 1165.540343935242,
    "avg_prior_window": 1201.731050601743,
    "inception_score_mean": 1.900270938980459,
    "inception_score_std": 0.1662389350106159,
    "fid_per_class": {
        "airplane": 1054.8379734556129,
        "automobile": 1175.3796763725563,
        "bird": 1287.1858773056283,
        "cat": 1178.147175436765,
        "deer": 1532.831034806277,
        "dog": 1215.9453773074667,
        "frog": 1765.3700797539561,
        "horse": 1220.8935258496126,
        "ship": 1102.220528327344,
        "truck": 1149.1513013920892
    },
    "fid": 850.5087706449906,
    "wasserstein_distance": null,
    "g_loss": null,
    "g_cost": null,
    "d_loss_real": null,
    "d_loss_fake": null
}