{
    "epoch": 168,
    "avg_current_window": 957.0849807040692,
    "avg_prior_window": 967.5245695392603,
    "inception_score_mean": 2.0472391322044414,
    "inception_score_std": 0.12528267332353954,
    "fid_per_class": {
        "airplane": 1009.5553931054413,
        "automobile": 1074.8067796838056,
        "bird": 1208.0813811691908,
        "cat": 1061.963540648753,
        "deer": 1521.691438542191,
        "dog": 1110.328481848078,
        "frog": 1627.6052181895752,
        "horse": 1309.396501813739,
        "ship": 979.8667051572988,
        "truck": 1006.7155452064851
    },
    "fid": 770.6095269368819,
    "wasserstein_distance": null,
    "g_loss": null,
    "g_cost": null,
    "d_loss_real": null,
    "d_loss_fake": null
}