{
    "epoch": 184,
    "avg_current_window": 941.8370155890713,
    "avg_prior_window": 950.7068706649721,
    "inception_score_mean": 2.0513946110550805,
    "inception_score_std": 0.14735824691914062,
    "fid_per_class": {
        "airplane": 988.220569499764,
        "automobile": 991.7960564147943,
        "bird": 1228.0362724053125,
        "cat": 1101.3889548046889,
        "deer": 1360.9064407990022,
        "dog": 1100.3569877367993,
        "frog": 1731.1887376046327,
        "horse": 1161.9543695887878,
        "ship": 992.3541968777308,
        "truck": 967.2451819488558
    },
    "fid": 737.3820859601994,
    "wasserstein_distance": null,
    "g_loss": null,
    "g_cost": null,
    "d_loss_real": null,
    "d_loss_fake": null
}