{
    "epoch": 47,
    "avg_current_window": 1321.4757535596623,
    "avg_prior_window": 1393.4018288760515,
    "inception_score_mean": 1.9466277427467347,
    "inception_score_std": 0.1380613197057475,
    "fid_per_class": {
        "airplane": 1103.0503498022558,
        "automobile": 1194.6875105875438,
        "bird": 1322.3035785220864,
        "cat": 1183.6922458101747,
        "deer": 1530.717784976539,
        "dog": 1223.05397359146,
        "frog": 1713.3428874680085,
        "horse": 1496.9908334156235,
        "ship": 1184.8853901990306,
        "truck": 1153.3250230638291
    },
    "fid": 911.2899717688965,
    "wasserstein_distance": null,
    "g_loss": null,
    "g_cost": null,
    "d_loss_real": null,
    "d_loss_fake": null
}