{
    "epoch": 81,
    "avg_current_window": 1127.5602329764547,
    "avg_prior_window": 1158.5800530095637,
    "inception_score_mean": 1.9506804611549342,
    "inception_score_std": 0.0892708390768558,
    "fid_per_class": {
        "airplane": 1081.6224738669835,
        "automobile": 1170.2971886235355,
        "bird": 1335.1471483558632,
        "cat": 1147.0527197980618,
        "deer": 1465.4613251971389,
        "dog": 1166.4367514833414,
        "frog": 1539.6401172376306,
        "horse": 1309.0287883906785,
        "ship": 1041.328306920726,
        "truck": 1135.300926375451
    },
    "fid": 832.8452539293929,
    "wasserstein_distance": null,
    "g_loss": null,
    "g_cost": null,
    "d_loss_real": null,
    "d_loss_fake": null
}