{
    "epoch": 62,
    "avg_current_window": 1216.4852732422903,
    "avg_prior_window": 1260.2253755920306,
    "inception_score_mean": 1.9787530436090308,
    "inception_score_std": 0.16248304563040028,
    "fid_per_class": {
        "airplane": 1063.7571180957339,
        "automobile": 1147.7257534130617,
        "bird": 1344.263783307181,
        "cat": 1105.2615255715561,
        "deer": 1433.8605170394176,
        "dog": 1304.692455931889,
        "frog": 1701.279748560374,
        "horse": 1312.201280740753,
        "ship": 1115.7954393084858,
        "truck": 1174.2491872848877
    },
    "fid": 853.5787733166347,
    "wasserstein_distance": null,
    "g_loss": null,
    "g_cost": null,
    "d_loss_real": null,
    "d_loss_fake": null
}