{
    "epoch": 190,
    "avg_current_window": 936.485699204115,
    "avg_prior_window": 945.0491636833356,
    "inception_score_mean": 2.0265079850304573,
    "inception_score_std": 0.13594587162924382,
    "fid_per_class": {
        "airplane": 1038.0982867507742,
        "automobile": 1074.971939087512,
        "bird": 1312.8107696760621,
        "cat": 1172.6079416768928,
        "deer": 1383.3403475669793,
        "dog": 1200.2029458263066,
        "frog": 1888.2572867462832,
        "horse": 1287.304858709287,
        "ship": 1057.763151655691,
        "truck": 992.797285461713
    },
    "fid": 823.6089410636299,
    "wasserstein_distance": null,
    "g_loss": null,
    "g_cost": null,
    "d_loss_real": null,
    "d_loss_fake": null
}