{
    "epoch": 148,
    "avg_current_window": 980.9670840500122,
    "avg_prior_window": 993.9594696924576,
    "inception_score_mean": 2.093687773399721,
    "inception_score_std": 0.12641104862739147,
    "fid_per_class": {
        "airplane": 982.1901871412317,
        "automobile": 1074.1139999542097,
        "bird": 1279.5020341152795,
        "cat": 1078.9899804239099,
        "deer": 1389.8041457444556,
        "dog": 1126.544647246997,
        "frog": 1747.3401984164254,
        "horse": 1239.3920763719161,
        "ship": 971.6536891287808,
        "truck": 985.618742877409
    },
    "fid": 774.3445882954891,
    "wasserstein_distance": null,
    "g_loss": null,
    "g_cost": null,
    "d_loss_real": null,
    "d_loss_fake": null
}