{
    "epoch": 97,
    "avg_current_window": 1074.4432880654674,
    "avg_prior_window": 1097.265373509941,
    "inception_score_mean": 1.9785289422528778,
    "inception_score_std": 0.13963507070464287,
    "fid_per_class": {
        "airplane": 1068.626335167866,
        "automobile": 1127.1047884639472,
        "bird": 1305.4185375040508,
        "cat": 1156.6728282546699,
        "deer": 1468.4208468598163,
        "dog": 1180.0835354423507,
        "frog": 1694.3908132001009,
        "horse": 1261.7981748483653,
        "ship": 1014.9190244399938,
        "truck": 1046.703669368438
    },
    "fid": 811.7521143714976,
    "wasserstein_distance": null,
    "g_loss": null,
    "g_cost": null,
    "d_loss_real": null,
    "d_loss_fake": null
}