{
    "epoch": 19,
    "avg_current_window": 1811.6313689313217,
    "avg_prior_window": 2081.5008246979514,
    "inception_score_mean": 1.8338880928949415,
    "inception_score_std": 0.11607074826383923,
    "fid_per_class": {
        "airplane": 1222.2962518712784,
        "automobile": 1365.3234575156034,
        "bird": 1583.5649574090817,
        "cat": 1396.499294704773,
        "deer": 1685.2411710157608,
        "dog": 1561.5920648170402,
        "frog": 1946.5746326991439,
        "horse": 1703.7796022602254,
        "ship": 1258.831315393537,
        "truck": 1269.3455398942199
    },
    "fid": 1170.6840580900448,
    "wasserstein_distance": null,
    "g_loss": null,
    "g_cost": null,
    "d_loss_real": null,
    "d_loss_fake": null
}