{
    "epoch": 87,
    "avg_current_window": 1104.9759534482148,
    "avg_prior_window": 1133.9581555758302,
    "inception_score_mean": 2.0352018752067886,
    "inception_score_std": 0.1228239405587517,
    "fid_per_class": {
        "airplane": 1107.867513884843,
        "automobile": 1103.7313264599086,
        "bird": 1264.9421296650632,
        "cat": 1097.6210293128638,
        "deer": 1565.1685633049296,
        "dog": 1110.6712089456855,
        "frog": 1600.6054443659932,
        "horse": 1364.8798892624538,
        "ship": 1003.427976741116,
        "truck": 1072.8753488768211
    },
    "fid": 817.2117351134593,
    "wasserstein_distance": null,
    "g_loss": null,
    "g_cost": null,
    "d_loss_real": null,
    "d_loss_fake": null
}