{
    "epoch": 89,
    "avg_current_window": 1098.31571611119,
    "avg_prior_window": 1125.4728258204257,
    "inception_score_mean": 1.9363359244902054,
    "inception_score_std": 0.1131067298346686,
    "fid_per_class": {
        "airplane": 1068.0939502876295,
        "automobile": 1137.6871114925614,
        "bird": 1282.648390667053,
        "cat": 1097.1705135011366,
        "deer": 1500.113307865387,
        "dog": 1176.8925673898493,
        "frog": 1634.445681518955,
        "horse": 1299.149585068691,
        "ship": 1049.2098229239855,
        "truck": 1105.421832230124
    },
    "fid": 827.975127674388,
    "wasserstein_distance": null,
    "g_loss": null,
    "g_cost": null,
    "d_loss_real": null,
    "d_loss_fake": null
}