{
    "epoch": 134,
    "avg_current_window": 1000.9541924555366,
    "avg_prior_window": 1014.4106580088359,
    "inception_score_mean": 1.9109682980304008,
    "inception_score_std": 0.1133772233193154,
    "fid_per_class": {
        "airplane": 1095.2375054631568,
        "automobile": 1081.9393727419258,
        "bird": 1317.4723952386864,
        "cat": 1200.8969560345183,
        "deer": 1522.2161257149862,
        "dog": 1253.3689378473362,
        "frog": 1887.6266249155242,
        "horse": 1332.5257261336728,
        "ship": 1024.481013895231,
        "truck": 1115.1647857121131
    },
    "fid": 882.280409911701,
    "wasserstein_distance": null,
    "g_loss": null,
    "g_cost": null,
    "d_loss_real": null,
    "d_loss_fake": null
}