{
    "epoch": 121,
    "avg_current_window": 1022.6333110056669,
    "avg_prior_window": 1039.1218870163568,
    "inception_score_mean": 2.064842061789561,
    "inception_score_std": 0.1244832772697276,
    "fid_per_class": {
        "airplane": 1082.800397088521,
        "automobile": 1105.2360273291006,
        "bird": 1274.5206064717916,
        "cat": 1108.2724755613278,
        "deer": 1433.6372282162235,
        "dog": 1098.4114178917112,
        "frog": 1726.3945962123337,
        "horse": 1163.975455217947,
        "ship": 1048.681664148215,
        "truck": 978.0138686462002
    },
    "fid": 773.9378759883515,
    "wasserstein_distance": null,
    "g_loss": null,
    "g_cost": null,
    "d_loss_real": null,
    "d_loss_fake": null
}