{
    "epoch": 28,
    "avg_current_window": 1583.4238447781458,
    "avg_prior_window": 1749.999365735961,
    "inception_score_mean": 1.9963939302976488,
    "inception_score_std": 0.12168892376321212,
    "fid_per_class": {
        "airplane": 1152.1139580218423,
        "automobile": 1195.3419812601446,
        "bird": 1387.383521371965,
        "cat": 1211.3842298886316,
        "deer": 1600.0814314489032,
        "dog": 1280.8953110305274,
        "frog": 1767.3483381284016,
        "horse": 1555.6231481439327,
        "ship": 1160.1208215320607,
        "truck": 1161.3435489691146
    },
    "fid": 982.5294553785404,
    "wasserstein_distance": null,
    "g_loss": null,
    "g_cost": null,
    "d_loss_real": null,
    "d_loss_fake": null
}