{
    "epoch": 70,
    "avg_current_window": 1174.3823425285632,
    "avg_prior_window": 1212.9509329853925,
    "inception_score_mean": 1.8953013691461713,
    "inception_score_std": 0.11198041991369725,
    "fid_per_class": {
        "airplane": 1090.9566711321768,
        "automobile": 1128.4509383013533,
        "bird": 1287.624826054701,
        "cat": 1059.4976854804481,
        "deer": 1503.8688685503673,
        "dog": 1149.0613125290556,
        "frog": 1617.7874529924584,
        "horse": 1334.0407093315366,
        "ship": 1062.5890410406691,
        "truck": 1077.1560084222795
    },
    "fid": 834.2140805203662,
    "wasserstein_distance": null,
    "g_loss": null,
    "g_cost": null,
    "d_loss_real": null,
    "d_loss_fake": null
}