{
    "epoch": 146,
    "avg_current_window": 983.7434625811484,
    "avg_prior_window": 996.79024696961,
    "inception_score_mean": 2.0324758619096683,
    "inception_score_std": 0.09051927154691831,
    "fid_per_class": {
        "airplane": 1019.9018997886885,
        "automobile": 1092.5172874887958,
        "bird": 1221.934773288021,
        "cat": 1121.3426470076993,
        "deer": 1457.7199385812298,
        "dog": 1145.204365381163,
        "frog": 1742.7217999708023,
        "horse": 1227.1204608083308,
        "ship": 991.7745488536715,
        "truck": 1047.427761482004
    },
    "fid": 789.3157356603037,
    "wasserstein_distance": null,
    "g_loss": null,
    "g_cost": null,
    "d_loss_real": null,
    "d_loss_fake": null
}