{
    "epoch": 176,
    "avg_current_window": 949.1051916967702,
    "avg_prior_window": 958.3938959346438,
    "inception_score_mean": 2.0429870450925347,
    "inception_score_std": 0.16648064180341235,
    "fid_per_class": {
        "airplane": 1039.4449553897532,
        "automobile": 1111.4446794041748,
        "bird": 1319.8751470277875,
        "cat": 1184.0537256789924,
        "deer": 1370.2306945305058,
        "dog": 1111.5776201889853,
        "frog": 1777.0107172438186,
        "horse": 1334.1925298461156,
        "ship": 972.4520512235214,
        "truck": 1014.0800492527826
    },
    "fid": 816.5805824172662,
    "wasserstein_distance": null,
    "g_loss": null,
    "g_cost": null,
    "d_loss_real": null,
    "d_loss_fake": null
}