{
    "epoch": 31,
    "avg_current_window": 1525.3585530389582,
    "avg_prior_window": 1666.5316932445717,
    "inception_score_mean": 1.942726838463948,
    "inception_score_std": 0.07310534824472839,
    "fid_per_class": {
        "airplane": 1158.8061464053505,
        "automobile": 1230.6084473472179,
        "bird": 1348.518587945239,
        "cat": 1189.7805296426345,
        "deer": 1496.7159636146966,
        "dog": 1251.9852130055306,
        "frog": 1705.0813865423934,
        "horse": 1470.2317817581636,
        "ship": 1182.6747079784295,
        "truck": 1220.451852097538
    },
    "fid": 947.1303346302436,
    "wasserstein_distance": null,
    "g_loss": null,
    "g_cost": null,
    "d_loss_real": null,
    "d_loss_fake": null
}