{
    "epoch": 32,
    "avg_current_window": 1507.2889212136859,
    "avg_prior_window": 1642.0691723625216,
    "inception_score_mean": 1.982035400093352,
    "inception_score_std": 0.11692896871835631,
    "fid_per_class": {
        "airplane": 1109.523827031971,
        "automobile": 1197.9118455902867,
        "bird": 1370.5007336616986,
        "cat": 1215.0543457044005,
        "deer": 1514.8055088527367,
        "dog": 1256.6994333148393,
        "frog": 1745.4635279990337,
        "horse": 1566.6166324278388,
        "ship": 1185.0965118569045,
        "truck": 1185.0356596077004
    },
    "fid": 957.828792816464,
    "wasserstein_distance": null,
    "g_loss": null,
    "g_cost": null,
    "d_loss_real": null,
    "d_loss_fake": null
}