{
    "epoch": 157,
    "avg_current_window": 969.7330177755515,
    "avg_prior_window": 981.3797457107755,
    "inception_score_mean": 2.0832324423920854,
    "inception_score_std": 0.097668081210392,
    "fid_per_class": {
        "airplane": 1048.2160520709,
        "automobile": 1029.694685775452,
        "bird": 1263.3576523801892,
        "cat": 1124.9336998712442,
        "deer": 1389.2618509163124,
        "dog": 1166.550981134965,
        "frog": 1856.2193987886042,
        "horse": 1256.4769097992125,
        "ship": 933.5623599945894,
        "truck": 1002.7666866731927
    },
    "fid": 786.3647074689754,
    "wasserstein_distance": null,
    "g_loss": null,
    "g_cost": null,
    "d_loss_real": null,
    "d_loss_fake": null
}