{
    "epoch": 175,
    "avg_current_window": 950.1279125105392,
    "avg_prior_window": 959.6183792458637,
    "inception_score_mean": 2.0360793839433877,
    "inception_score_std": 0.13431890387308973,
    "fid_per_class": {
        "airplane": 1013.8150313204429,
        "automobile": 1127.29858925455,
        "bird": 1279.1116224483721,
        "cat": 1111.5814496220123,
        "deer": 1393.748860638681,
        "dog": 1171.049564812421,
        "frog": 1651.6134403249612,
        "horse": 1178.2644961882988,
        "ship": 996.7210341303231,
        "truck": 1050.0951143564816
    },
    "fid": 770.1290492871942,
    "wasserstein_distance": null,
    "g_loss": null,
    "g_cost": null,
    "d_loss_real": null,
    "d_loss_fake": null
}