{
    "epoch": 131,
    "avg_current_window": 1005.191998009342,
    "avg_prior_window": 1019.5569857374086,
    "inception_score_mean": 2.0786861090676423,
    "inception_score_std": 0.13509317692948783,
    "fid_per_class": {
        "airplane": 1049.182501287052,
        "automobile": 1087.0127623390347,
        "bird": 1278.9995727291066,
        "cat": 1127.4493038962714,
        "deer": 1514.965241931956,
        "dog": 1138.0898614982516,
        "frog": 1917.9665950575363,
        "horse": 1107.42439245432,
        "ship": 987.9642883908225,
        "truck": 1045.6110170833113
    },
    "fid": 815.1576629652143,
    "wasserstein_distance": null,
    "g_loss": null,
    "g_cost": null,
    "d_loss_real": null,
    "d_loss_fake": null
}