{
    "epoch": 92,
    "avg_current_window": 1088.5666739740466,
    "avg_prior_window": 1114.3691917828523,
    "inception_score_mean": 2.0339875549362327,
    "inception_score_std": 0.109495304782839,
    "fid_per_class": {
        "airplane": 1060.390258822096,
        "automobile": 1129.1173376790416,
        "bird": 1246.9696663114469,
        "cat": 1133.5049302129196,
        "deer": 1422.7976109292363,
        "dog": 1223.2454276151257,
        "frog": 1622.2638173289845,
        "horse": 1229.0986979291938,
        "ship": 1065.6395594537003,
        "truck": 1110.143071855579
    },
    "fid": 800.2803573022882,
    "wasserstein_distance": null,
    "g_loss": null,
    "g_cost": null,
    "d_loss_real": null,
    "d_loss_fake": null
}