{
    "epoch": 109,
    "avg_current_window": 1046.7772701716983,
    "avg_prior_window": 1065.8748625634078,
    "inception_score_mean": 2.031343584809456,
    "inception_score_std": 0.13614775883304886,
    "fid_per_class": {
        "airplane": 1078.2443406003824,
        "automobile": 1059.0768036574623,
        "bird": 1297.236404473341,
        "cat": 1038.5780811587051,
        "deer": 1421.789185874016,
        "dog": 1146.1529383315146,
        "frog": 1683.1680518189178,
        "horse": 1308.4484214681167,
        "ship": 1005.3805001476621,
        "truck": 1054.5029275342033
    },
    "fid": 802.8690605815808,
    "wasserstein_distance": null,
    "g_loss": null,
    "g_cost": null,
    "d_loss_real": null,
    "d_loss_fake": null
}