{
    "epoch": 35,
    "avg_current_window": 1458.1756567196933,
    "avg_prior_window": 1576.2038381402567,
    "inception_score_mean": 1.982708390769627,
    "inception_score_std": 0.13241287481219718,
    "fid_per_class": {
        "airplane": 1138.2962419343207,
        "automobile": 1201.060801328348,
        "bird": 1353.3264859129147,
        "cat": 1135.6352975648767,
        "deer": 1485.600371812339,
        "dog": 1147.2911973443684,
        "frog": 1755.563694581264,
        "horse": 1394.3511829841896,
        "ship": 1123.3833242044939,
        "truck": 1242.749721947432
    },
    "fid": 921.8738809087009,
    "wasserstein_distance": null,
    "g_loss": null,
    "g_cost": null,
    "d_loss_real": null,
    "d_loss_fake": null
}