{
    "epoch": 57,
    "avg_current_window": 1245.0641088867606,
    "avg_prior_window": 1298.9789562267215,
    "inception_score_mean": 1.9738016236837073,
    "inception_score_std": 0.13692578068908992,
    "fid_per_class": {
        "airplane": 1056.6173518944345,
        "automobile": 1171.609665085902,
        "bird": 1248.0438196882671,
        "cat": 1125.5052211972693,
        "deer": 1557.8718152889182,
        "dog": 1245.9208592999664,
        "frog": 1760.4480332193116,
        "horse": 1331.6903044883945,
        "ship": 1094.685473349832,
        "truck": 1130.0664365473936
    },
    "fid": 864.1922022003827,
    "wasserstein_distance": null,
    "g_loss": null,
    "g_cost": null,
    "d_loss_real": null,
    "d_loss_fake": null
}