{
    "epoch": 152,
    "avg_current_window": 975.9669404767293,
    "avg_prior_window": 987.6403295197401,
    "inception_score_mean": 2.0510869712896245,
    "inception_score_std": 0.1279583185645212,
    "fid_per_class": {
        "airplane": 1086.3444825219547,
        "automobile": 1046.8212503519117,
        "bird": 1319.7473805053514,
        "cat": 1143.5905525987084,
        "deer": 1545.9724590168298,
        "dog": 1121.8664421249557,
        "frog": 1790.5949872824638,
        "horse": 1247.9107596206427,
        "ship": 1018.1327762889762,
        "truck": 1035.6420132995363
    },
    "fid": 822.7463955750384,
    "wasserstein_distance": null,
    "g_loss": null,
    "g_cost": null,
    "d_loss_real": null,
    "d_loss_fake": null
}