{
    "epoch": 9,
    "avg_current_window": 2165.8858942806883,
    "avg_prior_window": 2691.34805815581,
    "inception_score_mean": 1.3165511042789566,
    "inception_score_std": 0.09915503758028005,
    "fid_per_class": {
        "airplane": 1859.066881635083,
        "automobile": 1598.9387170827968,
        "bird": 2048.7701855841,
        "cat": 2026.3970005891579,
        "deer": 2261.6049604597874,
        "dog": 1995.675674793511,
        "frog": 2330.07197835873,
        "horse": 2150.786745242728,
        "ship": 1686.6462119197765,
        "truck": 1492.7300301837895
    },
    "fid": 1743.961640112294,
    "wasserstein_distance": null,
    "g_loss": null,
    "g_cost": null,
    "d_loss_real": null,
    "d_loss_fake": null
}