{
    "epoch": 51,
    "avg_current_window": 1289.684599666366,
    "avg_prior_window": 1350.2034873326984,
    "inception_score_mean": 1.9150067512594648,
    "inception_score_std": 0.11420284052776943,
    "fid_per_class": {
        "airplane": 1094.4871538142663,
        "automobile": 1212.9077290688601,
        "bird": 1387.8597947440032,
        "cat": 1188.1693670325333,
        "deer": 1537.1530423314439,
        "dog": 1169.587270652908,
        "frog": 1752.8810927583957,
        "horse": 1490.6525030195983,
        "ship": 1067.1674337816885,
        "truck": 1138.730244252278
    },
    "fid": 907.1606574458247,
    "wasserstein_distance": null,
    "g_loss": null,
    "g_cost": null,
    "d_loss_real": null,
    "d_loss_fake": null
}