{
    "epoch": 199,
    "avg_current_window": 930.3608894383917,
    "avg_prior_window": 938.2784684855371,
    "inception_score_mean": 2.102956615851389,
    "inception_score_std": 0.17246601778794315,
    "fid_per_class": {
        "airplane": 1044.2805020526516,
        "automobile": 1054.785552382723,
        "bird": 1184.430466762598,
        "cat": 1085.1120498198918,
        "deer": 1346.8223776396776,
        "dog": 1088.168971672062,
        "frog": 1613.918246843803,
        "horse": 1140.4440361526154,
        "ship": 1064.43506638913,
        "truck": 996.8317327593867
    },
    "fid": 739.2491032457918,
    "wasserstein_distance": null,
    "g_loss": null,
    "g_cost": null,
    "d_loss_real": null,
    "d_loss_fake": null
}