{
    "epoch": 183,
    "avg_current_window": 942.7929063943352,
    "avg_prior_window": 951.6104250901302,
    "inception_score_mean": 1.9987401303843417,
    "inception_score_std": 0.2323215643420306,
    "fid_per_class": {
        "airplane": 1099.955958661482,
        "automobile": 1100.5451445366311,
        "bird": 1230.9097300862718,
        "cat": 1073.074532479984,
        "deer": 1354.4822042024077,
        "dog": 1104.122971980245,
        "frog": 1680.7219001400338,
        "horse": 1248.4476767978038,
        "ship": 992.7094174685784,
        "truck": 1023.9073569832581
    },
    "fid": 766.9089982257505,
    "wasserstein_distance": null,
    "g_loss": null,
    "g_cost": null,
    "d_loss_real": null,
    "d_loss_fake": null
}