{
    "epoch": 45,
    "avg_current_window": 1339.4898227212277,
    "avg_prior_window": 1416.5195999441853,
    "inception_score_mean": 1.9521613616436593,
    "inception_score_std": 0.15490376152264657,
    "fid_per_class": {
        "airplane": 1075.9224173140237,
        "automobile": 1245.3627849713266,
        "bird": 1393.1282689805248,
        "cat": 1216.4122172563862,
        "deer": 1543.8749220265622,
        "dog": 1230.3159243097061,
        "frog": 1827.1930316508306,
        "horse": 1507.3494822872103,
        "ship": 1117.5836199566993,
        "truck": 1245.0360184634221
    },
    "fid": 921.0996431884494,
    "wasserstein_distance": null,
    "g_loss": null,
    "g_cost": null,
    "d_loss_real": null,
    "d_loss_fake": null
}