{
    "epoch": 172,
    "avg_current_window": 952.82183840014,
    "avg_prior_window": 962.8160284927162,
    "inception_score_mean": 2.0424256303003774,
    "inception_score_std": 0.10947342518468083,
    "fid_per_class": {
        "airplane": 971.4500015627152,
        "automobile": 1021.294770505293,
        "bird": 1309.2369020017625,
        "cat": 1147.8680820723575,
        "deer": 1458.9048044950816,
        "dog": 1125.0647539797542,
        "frog": 1865.8918568654362,
        "horse": 1342.665396640497,
        "ship": 927.4336548448475,
        "truck": 959.7580031477974
    },
    "fid": 788.3940399448154,
    "wasserstein_distance": null,
    "g_loss": null,
    "g_cost": null,
    "d_loss_real": null,
    "d_loss_fake": null
}