{
    "epoch": 79,
    "avg_current_window": 1135.7783701706896,
    "avg_prior_window": 1168.0440909782624,
    "inception_score_mean": 2.002183721273679,
    "inception_score_std": 0.1738297549939361,
    "fid_per_class": {
        "airplane": 1088.5357898726613,
        "automobile": 1128.2146154370741,
        "bird": 1256.9960071087164,
        "cat": 1085.8389983180978,
        "deer": 1441.373567048338,
        "dog": 1202.2978267654166,
        "frog": 1510.6083645389638,
        "horse": 1297.3909049437912,
        "ship": 1039.8517006069935,
        "truck": 1084.457637982612
    },
    "fid": 797.3136622698829,
    "wasserstein_distance": null,
    "g_loss": null,
    "g_cost": null,
    "d_loss_real": null,
    "d_loss_fake": null
}