{
    "epoch": 27,
    "avg_current_window": 1604.8082971984766,
    "avg_prior_window": 1780.2716522537426,
    "inception_score_mean": 1.8830713401578159,
    "inception_score_std": 0.12228786493214766,
    "fid_per_class": {
        "airplane": 1136.4972158106896,
        "automobile": 1174.8398117015133,
        "bird": 1411.6136012682095,
        "cat": 1201.7677159067664,
        "deer": 1656.9975104109717,
        "dog": 1297.3665007611753,
        "frog": 1721.083474580857,
        "horse": 1652.0772476974664,
        "ship": 1106.3229320631306,
        "truck": 1184.131615164099
    },
    "fid": 1006.0436294292165,
    "wasserstein_distance": null,
    "g_loss": null,
    "g_cost": null,
    "d_loss_real": null,
    "d_loss_fake": null
}