{
    "epoch": 112,
    "avg_current_window": 1040.882449860618,
    "avg_prior_window": 1058.948573004397,
    "inception_score_mean": 2.0331627102980647,
    "inception_score_std": 0.12544367023117112,
    "fid_per_class": {
        "airplane": 1001.9462628940137,
        "automobile": 1173.439203525269,
        "bird": 1217.2901755476048,
        "cat": 1058.4021445630647,
        "deer": 1358.881013174696,
        "dog": 1072.0846021123573,
        "frog": 1594.4655106149562,
        "horse": 1236.5080427138396,
        "ship": 1038.9945155242212,
        "truck": 1118.904988490433
    },
    "fid": 765.6213013848749,
    "wasserstein_distance": null,
    "g_loss": null,
    "g_cost": null,
    "d_loss_real": null,
    "d_loss_fake": null
}