{
    "epoch": 102,
    "avg_current_window": 1061.8772539820914,
    "avg_prior_window": 1082.8118665641425,
    "inception_score_mean": 1.9310571361990394,
    "inception_score_std": 0.08718991530822083,
    "fid_per_class": {
        "airplane": 1097.1789640778372,
        "automobile": 1130.0198085195195,
        "bird": 1316.3519609752093,
        "cat": 1168.441892297123,
        "deer": 1377.1088787506167,
        "dog": 1097.2313197379385,
        "frog": 1908.6663381061403,
        "horse": 1292.944992202612,
        "ship": 1027.2352375051419,
        "truck": 1126.3178821184508
    },
    "fid": 846.765503279624,
    "wasserstein_distance": null,
    "g_loss": null,
    "g_cost": null,
    "d_loss_real": null,
    "d_loss_fake": null
}