{
    "epoch": 124,
    "avg_current_window": 1017.1414080521641,
    "avg_prior_window": 1033.3246115950146,
    "inception_score_mean": 2.0130110474074687,
    "inception_score_std": 0.09027920593902432,
    "fid_per_class": {
        "airplane": 1078.3334935964533,
        "automobile": 1168.1568641037134,
        "bird": 1276.923746747377,
        "cat": 1068.4324132529987,
        "deer": 1388.190137993096,
        "dog": 1133.8713804482902,
        "frog": 1614.704115565724,
        "horse": 1173.5453292559764,
        "ship": 1018.3077856817416,
        "truck": 991.1040123331079
    },
    "fid": 776.6012610305404,
    "wasserstein_distance": null,
    "g_loss": null,
    "g_cost": null,
    "d_loss_real": null,
    "d_loss_fake": null
}