{
    "epoch": 128,
    "avg_current_window": 1009.756939804164,
    "avg_prior_window": 1025.4108503940517,
    "inception_score_mean": 2.027199032955134,
    "inception_score_std": 0.12007285966786589,
    "fid_per_class": {
        "airplane": 1052.8096061515541,
        "automobile": 1126.7430635082505,
        "bird": 1250.5615888729699,
        "cat": 1190.4635813637083,
        "deer": 1412.1898936403763,
        "dog": 1110.2183838981982,
        "frog": 1855.4148535694171,
        "horse": 1248.9467458874217,
        "ship": 1013.4636602675032,
        "truck": 1015.1576071477405
    },
    "fid": 801.8897867870057,
    "wasserstein_distance": null,
    "g_loss": null,
    "g_cost": null,
    "d_loss_real": null,
    "d_loss_fake": null
}