{
    "epoch": 43,
    "avg_current_window": 1360.9971351812596,
    "avg_prior_window": 1441.4961376049105,
    "inception_score_mean": 2.0487089023613367,
    "inception_score_std": 0.19423467264620445,
    "fid_per_class": {
        "airplane": 1116.622381531505,
        "automobile": 1186.7767590681246,
        "bird": 1296.2496889858353,
        "cat": 1083.2347665480097,
        "deer": 1389.6899168983296,
        "dog": 1134.8333175954324,
        "frog": 1654.23343976092,
        "horse": 1352.8265378071258,
        "ship": 1128.2051168223002,
        "truck": 1191.7127871580558
    },
    "fid": 842.2507152006033,
    "wasserstein_distance": null,
    "g_loss": null,
    "g_cost": null,
    "d_loss_real": null,
    "d_loss_fake": null
}