{
    "epoch": 36,
    "avg_current_window": 1443.278385169388,
    "avg_prior_window": 1555.9111444786436,
    "inception_score_mean": 2.016774910690266,
    "inception_score_std": 0.20432843649072685,
    "fid_per_class": {
        "airplane": 1109.216748051216,
        "automobile": 1196.3878696809766,
        "bird": 1322.0540925046873,
        "cat": 1169.8328380758094,
        "deer": 1473.008913849947,
        "dog": 1185.5892691536296,
        "frog": 1695.179503223943,
        "horse": 1470.0985357096224,
        "ship": 1123.5946637961686,
        "truck": 1214.6621477434353
    },
    "fid": 913.9340240473406,
    "wasserstein_distance": null,
    "g_loss": null,
    "g_cost": null,
    "d_loss_real": null,
    "d_loss_fake": null
}