{
    "epoch": 38,
    "avg_current_window": 1417.3909595523733,
    "avg_prior_window": 1519.5928572794348,
    "inception_score_mean": 1.9715218831515542,
    "inception_score_std": 0.1499737535151457,
    "fid_per_class": {
        "airplane": 1107.8617448365967,
        "automobile": 1265.6695597321486,
        "bird": 1339.1793465481996,
        "cat": 1185.447196941744,
        "deer": 1472.0400169811908,
        "dog": 1197.2323785788528,
        "frog": 1719.6972049877113,
        "horse": 1405.3943494154576,
        "ship": 1137.3615738199692,
        "truck": 1201.4462051825703
    },
    "fid": 915.9967659964141,
    "wasserstein_distance": null,
    "g_loss": null,
    "g_cost": null,
    "d_loss_real": null,
    "d_loss_fake": null
}