{
    "epoch": 150,
    "avg_current_window": 978.0966028908654,
    "avg_prior_window": 990.5279002541218,
    "inception_score_mean": 2.094985983782234,
    "inception_score_std": 0.11461549913418023,
    "fid_per_class": {
        "airplane": 1048.1919443601894,
        "automobile": 1048.4087200037648,
        "bird": 1255.6000705170018,
        "cat": 1099.0943400547346,
        "deer": 1530.3349418326618,
        "dog": 1168.32071147492,
        "frog": 1797.1299623840546,
        "horse": 1265.0976028790847,
        "ship": 988.8352107532735,
        "truck": 1016.5548798192731
    },
    "fid": 801.7895317565684,
    "wasserstein_distance": null,
    "g_loss": null,
    "g_cost": null,
    "d_loss_real": null,
    "d_loss_fake": null
}