{
    "epoch": 239,
    "avg_current_window": 730.5885369230652,
    "avg_prior_window": 735.5784999906375,
    "inception_score_mean": 1.9636832458148568,
    "inception_score_std": 0.1357793333800029,
    "fid_per_class": {
        "airplane": 857.022676533063,
        "automobile": 1087.1171322272141,
        "bird": 1207.2203080582144,
        "cat": 967.3641560501553,
        "deer": 1283.1854191587445,
        "dog": 1045.2808555584547,
        "frog": 1286.822858601569,
        "horse": 1098.658153801483,
        "ship": 890.2427606814106,
        "truck": 1028.9897081061142
    },
    "fid": 664.0127823483215,
    "wasserstein_distance": null,
    "g_loss": null,
    "g_cost": null,
    "d_loss_real": null,
    "d_loss_fake": null
}