{
    "epoch": 53,
    "avg_current_window": 1061.391057618373,
    "avg_prior_window": 1113.5218724902031,
    "inception_score_mean": 1.988776034765801,
    "inception_score_std": 0.08753804717998162,
    "fid_per_class": {
        "airplane": 975.2453139518465,
        "automobile": 1213.0897748150373,
        "bird": 1284.8287093083504,
        "cat": 970.0160532977172,
        "deer": 1371.05768452323,
        "dog": 1093.0246727730123,
        "frog": 1328.9618484487826,
        "horse": 1319.5988203666202,
        "ship": 899.7358492420728,
        "truck": 1235.43328809448
    },
    "fid": 749.0972139514766,
    "wasserstein_distance": null,
    "g_loss": null,
    "g_cost": null,
    "d_loss_real": null,
    "d_loss_fake": null
}