{
    "epoch": 127,
    "avg_current_window": 826.8050893107421,
    "avg_prior_window": 839.504979433211,
    "inception_score_mean": 2.0932882021181536,
    "inception_score_std": 0.14706941098175882,
    "fid_per_class": {
        "airplane": 858.054642676661,
        "automobile": 1077.2311537132805,
        "bird": 1205.084942194453,
        "cat": 878.2067824124821,
        "deer": 1220.3257917220922,
        "dog": 973.730918792893,
        "frog": 1253.239717862616,
        "horse": 1172.994728515395,
        "ship": 822.3160095477009,
        "truck": 985.3831041340768
    },
    "fid": 617.4936196839637,
    "wasserstein_distance": null,
    "g_loss": null,
    "g_cost": null,
    "d_loss_real": null,
    "d_loss_fake": null
}