{
    "epoch": 112,
    "avg_current_window": 852.117701638533,
    "avg_prior_window": 867.9694752076437,
    "inception_score_mean": 2.055814337556911,
    "inception_score_std": 0.14611357095003272,
    "fid_per_class": {
        "airplane": 867.5020971129113,
        "automobile": 1106.423774794916,
        "bird": 1209.6601218003184,
        "cat": 959.6201327305196,
        "deer": 1240.0198089019782,
        "dog": 1066.375790635175,
        "frog": 1294.4824344759018,
        "horse": 1211.2831999991276,
        "ship": 783.0992663331097,
        "truck": 1056.9274122413271
    },
    "fid": 660.0093134972533,
    "wasserstein_distance": null,
    "g_loss": null,
    "g_cost": null,
    "d_loss_real": null,
    "d_loss_fake": null
}