{
    "epoch": 40,
    "avg_current_window": 1185.8560886875098,
    "avg_prior_window": 1270.835408378628,
    "inception_score_mean": 2.1967568111481093,
    "inception_score_std": 0.138945488962421,
    "fid_per_class": {
        "airplane": 983.0403382213065,
        "automobile": 1083.6750293123368,
        "bird": 1229.5003591365494,
        "cat": 870.9440316879159,
        "deer": 1276.1518586656193,
        "dog": 895.9164789919654,
        "frog": 1146.4575925177562,
        "horse": 1209.9318214413688,
        "ship": 834.1219913782226,
        "truck": 1195.5004788952238
    },
    "fid": 630.5249329329066,
    "wasserstein_distance": null,
    "g_loss": null,
    "g_cost": null,
    "d_loss_real": null,
    "d_loss_fake": null
}