{
    "epoch": 191,
    "avg_current_window": 759.6324503532621,
    "avg_prior_window": 766.7755570467824,
    "inception_score_mean": 2.0550156308634104,
    "inception_score_std": 0.1892495317148362,
    "fid_per_class": {
        "airplane": 815.691330382823,
        "automobile": 1091.5967322583856,
        "bird": 1163.5749643696272,
        "cat": 901.2924104568217,
        "deer": 1274.0019731896753,
        "dog": 1031.78118515393,
        "frog": 1174.6866134787872,
        "horse": 1089.5917104980797,
        "ship": 820.4015032188688,
        "truck": 990.8949256398719
    },
    "fid": 605.2415630160418,
    "wasserstein_distance": null,
    "g_loss": null,
    "g_cost": null,
    "d_loss_real": null,
    "d_loss_fake": null
}