{
    "epoch": 85,
    "avg_current_window": 916.8366250637011,
    "avg_prior_window": 940.0870716642943,
    "inception_score_mean": 1.9388838378180417,
    "inception_score_std": 0.10857034566271416,
    "fid_per_class": {
        "airplane": 891.45306686864,
        "automobile": 1124.7102436635769,
        "bird": 1244.627971241961,
        "cat": 958.7971388816345,
        "deer": 1333.4741770227843,
        "dog": 1111.6696287859018,
        "frog": 1285.0047880616746,
        "horse": 1153.971578631823,
        "ship": 785.8388904760632,
        "truck": 1046.8048612200532
    },
    "fid": 688.4840751053871,
    "wasserstein_distance": null,
    "g_loss": null,
    "g_cost": null,
    "d_loss_real": null,
    "d_loss_fake": null
}