{
    "epoch": 247,
    "avg_current_window": 727.0297948839451,
    "avg_prior_window": 731.9272869154848,
    "inception_score_mean": 2.0641996393015267,
    "inception_score_std": 0.11001133430915035,
    "fid_per_class": {
        "airplane": 865.573177514547,
        "automobile": 1065.0496324018095,
        "bird": 1158.8945757410677,
        "cat": 910.8968313525199,
        "deer": 1229.1868670769722,
        "dog": 1010.3636078684896,
        "frog": 1164.8767576627179,
        "horse": 1065.487655545373,
        "ship": 885.2794295004924,
        "truck": 983.7430593247866
    },
    "fid": 611.3479698125483,
    "wasserstein_distance": null,
    "g_loss": null,
    "g_cost": null,
    "d_loss_real": null,
    "d_loss_fake": null
}