{
    "epoch": 211,
    "avg_current_window": 746.4768934288961,
    "avg_prior_window": 752.547194452932,
    "inception_score_mean": 2.092427870850698,
    "inception_score_std": 0.1786664633686889,
    "fid_per_class": {
        "airplane": 827.7731901831362,
        "automobile": 1062.9364549799536,
        "bird": 1150.194272930268,
        "cat": 936.1474777065882,
        "deer": 1252.4170766460684,
        "dog": 1000.6984083441307,
        "frog": 1193.2820108784676,
        "horse": 1134.071979534038,
        "ship": 824.9877631294386,
        "truck": 1026.7671892809833
    },
    "fid": 615.9843503999515,
    "wasserstein_distance": null,
    "g_loss": null,
    "g_cost": null,
    "d_loss_real": null,
    "d_loss_fake": null
}