{
    "epoch": 243,
    "avg_current_window": 728.915240467273,
    "avg_prior_window": 733.6582366580361,
    "inception_score_mean": 2.053618625896441,
    "inception_score_std": 0.17692949811846895,
    "fid_per_class": {
        "airplane": 819.7456467469748,
        "automobile": 1049.2473570874502,
        "bird": 1156.7822925740381,
        "cat": 918.8802824021941,
        "deer": 1184.2513837256452,
        "dog": 1036.7491806222133,
        "frog": 1140.4230408523013,
        "horse": 1104.3414927318931,
        "ship": 844.3800307932308,
        "truck": 1013.238933776909
    },
    "fid": 614.6553969383856,
    "wasserstein_distance": null,
    "g_loss": null,
    "g_cost": null,
    "d_loss_real": null,
    "d_loss_fake": null
}