{
    "epoch": 141,
    "avg_current_window": 807.9241045716967,
    "avg_prior_window": 818.821628142482,
    "inception_score_mean": 2.001357784766713,
    "inception_score_std": 0.11929775632816347,
    "fid_per_class": {
        "airplane": 878.3132881982915,
        "automobile": 1071.3351453480184,
        "bird": 1136.616211288072,
        "cat": 919.2718322732471,
        "deer": 1196.738165056635,
        "dog": 1013.5674790413896,
        "frog": 1221.2970845070408,
        "horse": 1165.1475877001972,
        "ship": 927.6043313522324,
        "truck": 1046.3990888645176
    },
    "fid": 621.2911120257064,
    "wasserstein_distance": null,
    "g_loss": null,
    "g_cost": null,
    "d_loss_real": null,
    "d_loss_fake": null
}