{
    "epoch": 204,
    "avg_current_window": 750.7888865054646,
    "avg_prior_window": 757.2494009859288,
    "inception_score_mean": 2.050033154283006,
    "inception_score_std": 0.14766347545454786,
    "fid_per_class": {
        "airplane": 840.8497401776094,
        "automobile": 978.4196778508722,
        "bird": 1188.102284723236,
        "cat": 910.1063555214117,
        "deer": 1222.790866882548,
        "dog": 976.3941849526295,
        "frog": 1152.6892709837919,
        "horse": 1111.6094343151722,
        "ship": 895.3684801208252,
        "truck": 922.5046223578289
    },
    "fid": 589.6879772065224,
    "wasserstein_distance": null,
    "g_loss": null,
    "g_cost": null,
    "d_loss_real": null,
    "d_loss_fake": null
}