{
    "epoch": 219,
    "avg_current_window": 741.6677158406166,
    "avg_prior_window": 747.6969117904465,
    "inception_score_mean": 2.0448650599965315,
    "inception_score_std": 0.12830407010086134,
    "fid_per_class": {
        "airplane": 887.3089918659022,
        "automobile": 1053.9362656387555,
        "bird": 1204.2711647015217,
        "cat": 936.1201383378935,
        "deer": 1270.1377524154157,
        "dog": 1080.1023363159052,
        "frog": 1208.924309155809,
        "horse": 1089.8694407854505,
        "ship": 847.5318423217361,
        "truck": 1048.0965893772175
    },
    "fid": 641.0227362212426,
    "wasserstein_distance": null,
    "g_loss": null,
    "g_cost": null,
    "d_loss_real": null,
    "d_loss_fake": null
}