{
    "epoch": 156,
    "avg_current_window": 790.4258156515751,
    "avg_prior_window": 799.5469991144984,
    "inception_score_mean": 2.064851171913305,
    "inception_score_std": 0.1478724636193881,
    "fid_per_class": {
        "airplane": 810.3066521261983,
        "automobile": 1088.9457103446662,
        "bird": 1192.84966548633,
        "cat": 878.8625642345633,
        "deer": 1220.0556829399595,
        "dog": 1021.9831768879694,
        "frog": 1233.6754562893468,
        "horse": 1083.5333437948593,
        "ship": 816.6276913823096,
        "truck": 972.946506574559
    },
    "fid": 607.2213177757867,
    "wasserstein_distance": null,
    "g_loss": null,
    "g_cost": null,
    "d_loss_real": null,
    "d_loss_fake": null
}