{
    "epoch": 108,
    "avg_current_window": 859.9327208075729,
    "avg_prior_window": 877.1854898429295,
    "inception_score_mean": 2.013668170754765,
    "inception_score_std": 0.0964783573393086,
    "fid_per_class": {
        "airplane": 886.9339175587152,
        "automobile": 1040.9084653896753,
        "bird": 1229.1588713665278,
        "cat": 930.1037963625433,
        "deer": 1214.3336106238553,
        "dog": 997.2384291328514,
        "frog": 1244.251396030715,
        "horse": 1129.1786939582717,
        "ship": 802.8540338139846,
        "truck": 1019.7579343299136
    },
    "fid": 634.7671661320605,
    "wasserstein_distance": null,
    "g_loss": null,
    "g_cost": null,
    "d_loss_real": null,
    "d_loss_fake": null
}