{
    "epoch": 111,
    "avg_current_window": 853.8751985144131,
    "avg_prior_window": 870.236502088488,
    "inception_score_mean": 2.0192590517441937,
    "inception_score_std": 0.09892069828850478,
    "fid_per_class": {
        "airplane": 964.6257110144073,
        "automobile": 1122.2787489838054,
        "bird": 1202.117034160475,
        "cat": 893.8839208259266,
        "deer": 1277.837864916098,
        "dog": 1016.7728111675469,
        "frog": 1296.2698558832774,
        "horse": 1093.7298450482901,
        "ship": 862.8821268468519,
        "truck": 1084.6070480832782
    },
    "fid": 657.0355484158484,
    "wasserstein_distance": null,
    "g_loss": null,
    "g_cost": null,
    "d_loss_real": null,
    "d_loss_fake": null
}