{
    "epoch": 200,
    "avg_current_window": 753.4631539809992,
    "avg_prior_window": 760.1579169561688,
    "inception_score_mean": 2.049534328760906,
    "inception_score_std": 0.16808520359805237,
    "fid_per_class": {
        "airplane": 853.6401363017461,
        "automobile": 1104.3046983669394,
        "bird": 1179.4541370234756,
        "cat": 906.4172054670878,
        "deer": 1165.6436456693823,
        "dog": 1004.233923129859,
        "frog": 1227.030138722637,
        "horse": 1070.8244139155017,
        "ship": 856.6649863577452,
        "truck": 1042.0763531457872
    },
    "fid": 622.0909999942005,
    "wasserstein_distance": null,
    "g_loss": null,
    "g_cost": null,
    "d_loss_real": null,
    "d_loss_fake": null
}