{
    "epoch": 122,
    "avg_current_window": 834.1712555910655,
    "avg_prior_window": 848.4094176584872,
    "inception_score_mean": 2.038684723361686,
    "inception_score_std": 0.15140260871626535,
    "fid_per_class": {
        "airplane": 853.9332667204066,
        "automobile": 1100.8190138134519,
        "bird": 1181.7962063876216,
        "cat": 899.0914658486602,
        "deer": 1267.8515354579642,
        "dog": 1058.7094984993973,
        "frog": 1308.80775334829,
        "horse": 1143.247567321281,
        "ship": 841.1813202575144,
        "truck": 1048.8984252041578
    },
    "fid": 650.7143087417614,
    "wasserstein_distance": null,
    "g_loss": null,
    "g_cost": null,
    "d_loss_real": null,
    "d_loss_fake": null
}