{
    "epoch": 281,
    "avg_current_window": 713.2975343984394,
    "avg_prior_window": 717.0942183754092,
    "inception_score_mean": 2.049899930068751,
    "inception_score_std": 0.11533180594521235,
    "fid_per_class": {
        "airplane": 865.2133101542667,
        "automobile": 1028.1715427563458,
        "bird": 1165.159700492745,
        "cat": 946.4574195920798,
        "deer": 1212.588694346048,
        "dog": 1017.2308843869091,
        "frog": 1202.0163352954662,
        "horse": 1070.536451183692,
        "ship": 850.0751795383394,
        "truck": 1006.64283643717
    },
    "fid": 616.5486316187778,
    "wasserstein_distance": null,
    "g_loss": null,
    "g_cost": null,
    "d_loss_real": null,
    "d_loss_fake": null
}