{
    "epoch": 288,
    "avg_current_window": 710.6816601278908,
    "avg_prior_window": 714.6713207020732,
    "inception_score_mean": 2.0001466834288735,
    "inception_score_std": 0.11990577574082371,
    "fid_per_class": {
        "airplane": 847.8592987930924,
        "automobile": 1010.965563612677,
        "bird": 1212.009594581406,
        "cat": 915.9697675536361,
        "deer": 1230.3494126335993,
        "dog": 1080.752744213998,
        "frog": 1193.6826049059482,
        "horse": 1070.8422602304443,
        "ship": 857.9500339360724,
        "truck": 926.1594350983845
    },
    "fid": 624.1434198668385,
    "wasserstein_distance": null,
    "g_loss": null,
    "g_cost": null,
    "d_loss_real": null,
    "d_loss_fake": null
}