{
    "epoch": 44,
    "avg_current_window": 1137.3235207604787,
    "avg_prior_window": 1216.2626550641128,
    "inception_score_mean": 2.081960539100885,
    "inception_score_std": 0.2228929711400959,
    "fid_per_class": {
        "airplane": 890.9956218296744,
        "automobile": 1136.0912173080685,
        "bird": 1251.3753932654465,
        "cat": 890.1754510284095,
        "deer": 1304.15808596919,
        "dog": 967.0441520023343,
        "frog": 1113.3324772867506,
        "horse": 1189.4100556492172,
        "ship": 802.4636150279202,
        "truck": 1185.0089323134337
    },
    "fid": 641.2370296280571,
    "wasserstein_distance": null,
    "g_loss": null,
    "g_cost": null,
    "d_loss_real": null,
    "d_loss_fake": null
}