{
    "epoch": 98,
    "avg_current_window": 882.8029688216817,
    "avg_prior_window": 901.6856560188804,
    "inception_score_mean": 2.0027214485659686,
    "inception_score_std": 0.12911573493061182,
    "fid_per_class": {
        "airplane": 872.9110106360702,
        "automobile": 1104.223646798528,
        "bird": 1261.3273450130603,
        "cat": 960.9270722219268,
        "deer": 1347.4987978213594,
        "dog": 1067.6642485176833,
        "frog": 1351.9408871221906,
        "horse": 1227.1239401993807,
        "ship": 838.9805114416523,
        "truck": 1089.0481407860207
    },
    "fid": 691.8455634739748,
    "wasserstein_distance": null,
    "g_loss": null,
    "g_cost": null,
    "d_loss_real": null,
    "d_loss_fake": null
}