{
    "epoch": 74,
    "avg_current_window": 955.0616444983863,
    "avg_prior_window": 984.4405925955689,
    "inception_score_mean": 1.943023926347168,
    "inception_score_std": 0.19897249759807958,
    "fid_per_class": {
        "airplane": 879.5870741497451,
        "automobile": 1046.939632881832,
        "bird": 1237.6835600503566,
        "cat": 951.3596165384183,
        "deer": 1315.608582646682,
        "dog": 1087.3284369006894,
        "frog": 1287.537552916109,
        "horse": 1231.5512856949815,
        "ship": 759.0507321811674,
        "truck": 1034.606518358421
    },
    "fid": 674.2533526355758,
    "wasserstein_distance": null,
    "g_loss": null,
    "g_cost": null,
    "d_loss_real": null,
    "d_loss_fake": null
}