{
    "epoch": 142,
    "avg_current_window": 806.6097877227813,
    "avg_prior_window": 817.5103748811508,
    "inception_score_mean": 2.007131159725027,
    "inception_score_std": 0.14532285313096224,
    "fid_per_class": {
        "airplane": 883.0059065508898,
        "automobile": 1045.5646394748967,
        "bird": 1231.1842382497082,
        "cat": 943.1790781863169,
        "deer": 1285.4965372203333,
        "dog": 1022.8852685464124,
        "frog": 1294.5795366050143,
        "horse": 1135.4998482725553,
        "ship": 860.7134796535432,
        "truck": 1007.3089457318897
    },
    "fid": 657.6884550137268,
    "wasserstein_distance": null,
    "g_loss": null,
    "g_cost": null,
    "d_loss_real": null,
    "d_loss_fake": null
}