{
    "epoch": 92,
    "avg_current_window": 896.7278070474692,
    "avg_prior_window": 919.6001337751492,
    "inception_score_mean": 1.9967550775196266,
    "inception_score_std": 0.09809764644128804,
    "fid_per_class": {
        "airplane": 957.3553461245239,
        "automobile": 1118.630048027908,
        "bird": 1291.3194632976454,
        "cat": 922.3168137136054,
        "deer": 1263.6976337534218,
        "dog": 1051.9643538590035,
        "frog": 1352.1212465362248,
        "horse": 1149.478869647974,
        "ship": 950.6755724982673,
        "truck": 1037.3855798024515
    },
    "fid": 694.5889959745133,
    "wasserstein_distance": null,
    "g_loss": null,
    "g_cost": null,
    "d_loss_real": null,
    "d_loss_fake": null
}