{
    "epoch": 210,
    "avg_current_window": 747.1342223203608,
    "avg_prior_window": 753.1897611812734,
    "inception_score_mean": 2.0878054784153064,
    "inception_score_std": 0.15071019079102915,
    "fid_per_class": {
        "airplane": 859.0006886848394,
        "automobile": 1061.4432315555123,
        "bird": 1165.052290646976,
        "cat": 896.5916361508527,
        "deer": 1195.6899672474601,
        "dog": 1046.8717989868983,
        "frog": 1151.6925903385468,
        "horse": 1101.166563852447,
        "ship": 939.3571045160782,
        "truck": 1002.4157137267277
    },
    "fid": 608.4378262213228,
    "wasserstein_distance": null,
    "g_loss": null,
    "g_cost": null,
    "d_loss_real": null,
    "d_loss_fake": null
}