{
    "epoch": 87,
    "avg_current_window": 912.1672140664847,
    "avg_prior_window": 934.0067838404569,
    "inception_score_mean": 2.071897398590354,
    "inception_score_std": 0.20178677561561956,
    "fid_per_class": {
        "airplane": 851.8553990165843,
        "automobile": 1139.9338949781122,
        "bird": 1221.354306552426,
        "cat": 893.9459790833112,
        "deer": 1256.4488463301518,
        "dog": 985.8584510357641,
        "frog": 1234.1593116072754,
        "horse": 1148.423096278419,
        "ship": 874.2615857841006,
        "truck": 1081.74139037934
    },
    "fid": 646.6640146538059,
    "wasserstein_distance": null,
    "g_loss": null,
    "g_cost": null,
    "d_loss_real": null,
    "d_loss_fake": null
}