{
    "epoch": 265,
    "avg_current_window": 719.207848392296,
    "avg_prior_window": 723.7842858384681,
    "inception_score_mean": 2.1226878241096805,
    "inception_score_std": 0.18755716997564825,
    "fid_per_class": {
        "airplane": 826.8945655225594,
        "automobile": 1033.8550810934091,
        "bird": 1112.1392897356332,
        "cat": 857.7162530814817,
        "deer": 1152.9158089977868,
        "dog": 972.522701106857,
        "frog": 1108.9570789072309,
        "horse": 1011.629667989527,
        "ship": 800.2821838400434,
        "truck": 959.3852056240318
    },
    "fid": 557.5935947273567,
    "wasserstein_distance": null,
    "g_loss": null,
    "g_cost": null,
    "d_loss_real": null,
    "d_loss_fake": null
}