{
    "epoch": 115,
    "avg_current_window": 846.7264219849196,
    "avg_prior_window": 861.6377003190896,
    "inception_score_mean": 2.0409204293291503,
    "inception_score_std": 0.12237918417358828,
    "fid_per_class": {
        "airplane": 820.5094060471943,
        "automobile": 1048.3201096174557,
        "bird": 1150.3738714433428,
        "cat": 855.3236227045138,
        "deer": 1259.8268784675593,
        "dog": 986.7885696659333,
        "frog": 1266.9254548524152,
        "horse": 1166.85844666187,
        "ship": 777.7127707269046,
        "truck": 983.8177485218329
    },
    "fid": 611.6824833230003,
    "wasserstein_distance": null,
    "g_loss": null,
    "g_cost": null,
    "d_loss_real": null,
    "d_loss_fake": null
}