{
    "epoch": 35,
    "avg_current_window": 1248.991640187263,
    "avg_prior_window": 1353.9467169427191,
    "inception_score_mean": 1.977287542529081,
    "inception_score_std": 0.12845342058561,
    "fid_per_class": {
        "airplane": 934.9058409258646,
        "automobile": 1156.3271862796173,
        "bird": 1354.5136738300394,
        "cat": 1079.0908597432758,
        "deer": 1333.2837645669447,
        "dog": 1139.3414830393444,
        "frog": 1459.2389166347893,
        "horse": 1239.2978846655183,
        "ship": 888.0734058866664,
        "truck": 1094.139451438466
    },
    "fid": 764.5318866977691,
    "wasserstein_distance": null,
    "g_loss": null,
    "g_cost": null,
    "d_loss_real": null,
    "d_loss_fake": null
}