{
    "epoch": 255,
    "avg_current_window": 723.3015926209983,
    "avg_prior_window": 728.1298938718984,
    "inception_score_mean": 1.9954870726292413,
    "inception_score_std": 0.16654474581151735,
    "fid_per_class": {
        "airplane": 896.7483211115184,
        "automobile": 1029.1067071106609,
        "bird": 1172.9938109589548,
        "cat": 925.850248850133,
        "deer": 1290.5296677214114,
        "dog": 1063.2421428932755,
        "frog": 1208.22493964832,
        "horse": 1094.597383316473,
        "ship": 814.155541733315,
        "truck": 982.1193234680663
    },
    "fid": 637.6454261963823,
    "wasserstein_distance": null,
    "g_loss": null,
    "g_cost": null,
    "d_loss_real": null,
    "d_loss_fake": null
}