{
    "epoch": 75,
    "avg_current_window": 951.3175339402154,
    "avg_prior_window": 980.6754347783757,
    "inception_score_mean": 2.064727180435832,
    "inception_score_std": 0.1621639887891026,
    "fid_per_class": {
        "airplane": 868.6212033747449,
        "automobile": 1115.0601446048406,
        "bird": 1226.1488444186282,
        "cat": 926.8733153926464,
        "deer": 1248.5804610073274,
        "dog": 1005.5572180628168,
        "frog": 1282.219828050296,
        "horse": 1153.8869377437163,
        "ship": 860.3859030960818,
        "truck": 1079.3115625491328
    },
    "fid": 643.4037646431424,
    "wasserstein_distance": null,
    "g_loss": null,
    "g_cost": null,
    "d_loss_real": null,
    "d_loss_fake": null
}