{
    "epoch": 119,
    "avg_current_window": 839.2437789219825,
    "avg_prior_window": 854.1538467391732,
    "inception_score_mean": 2.062036378153843,
    "inception_score_std": 0.18259494898982345,
    "fid_per_class": {
        "airplane": 874.9404476223896,
        "automobile": 1050.850544295841,
        "bird": 1191.2538800673842,
        "cat": 897.899759398545,
        "deer": 1110.6587886451366,
        "dog": 951.781542376084,
        "frog": 1198.9291984980155,
        "horse": 1066.3712091634575,
        "ship": 894.5163884027806,
        "truck": 1026.2305711288845
    },
    "fid": 601.4046001111699,
    "wasserstein_distance": null,
    "g_loss": null,
    "g_cost": null,
    "d_loss_real": null,
    "d_loss_fake": null
}