{
    "epoch": 157,
    "avg_current_window": 789.258908021793,
    "avg_prior_window": 798.629161802939,
    "inception_score_mean": 1.9122962741641,
    "inception_score_std": 0.14178037820887998,
    "fid_per_class": {
        "airplane": 910.5047104232345,
        "automobile": 1092.1561697635987,
        "bird": 1204.0875360117197,
        "cat": 935.8513522670487,
        "deer": 1347.2843530966957,
        "dog": 1056.07488843659,
        "frog": 1281.296037776161,
        "horse": 1201.278529061449,
        "ship": 910.5617121340696,
        "truck": 1060.279711773429
    },
    "fid": 680.963246970332,
    "wasserstein_distance": null,
    "g_loss": null,
    "g_cost": null,
    "d_loss_real": null,
    "d_loss_fake": null
}