{
    "epoch": 164,
    "avg_current_window": 782.1578829429311,
    "avg_prior_window": 791.4053973426235,
    "inception_score_mean": 2.0581707695553817,
    "inception_score_std": 0.11081345613265954,
    "fid_per_class": {
        "airplane": 909.8373092193262,
        "automobile": 1076.8774361275628,
        "bird": 1163.0248598437395,
        "cat": 884.3174191497104,
        "deer": 1210.016950320636,
        "dog": 1000.9413948956028,
        "frog": 1222.2226456168619,
        "horse": 1103.5854890100413,
        "ship": 884.2533124492056,
        "truck": 1037.427831301542
    },
    "fid": 629.1441074803683,
    "wasserstein_distance": null,
    "g_loss": null,
    "g_cost": null,
    "d_loss_real": null,
    "d_loss_fake": null
}