{
    "epoch": 194,
    "avg_current_window": 757.4263270129816,
    "avg_prior_window": 764.3775599356394,
    "inception_score_mean": 2.0259410215274185,
    "inception_score_std": 0.1737348132547996,
    "fid_per_class": {
        "airplane": 891.3113262405337,
        "automobile": 1063.7205415112076,
        "bird": 1196.6521783504597,
        "cat": 906.7510505334736,
        "deer": 1240.5886809468193,
        "dog": 1058.6757528460566,
        "frog": 1287.5464706585208,
        "horse": 1117.3752622404877,
        "ship": 821.102762235655,
        "truck": 996.4842290196398
    },
    "fid": 641.8118479375,
    "wasserstein_distance": null,
    "g_loss": null,
    "g_cost": null,
    "d_loss_real": null,
    "d_loss_fake": null
}