{
    "epoch": 42,
    "avg_current_window": 1160.1879594618445,
    "avg_prior_window": 1242.404562652592,
    "inception_score_mean": 2.1083953182831383,
    "inception_score_std": 0.10735518963854151,
    "fid_per_class": {
        "airplane": 943.5875145660276,
        "automobile": 1094.1576143034663,
        "bird": 1304.990720534751,
        "cat": 1051.1821204456226,
        "deer": 1375.3293111558173,
        "dog": 1120.622957137613,
        "frog": 1405.0693868198941,
        "horse": 1277.0315747097125,
        "ship": 879.0447962748174,
        "truck": 1066.2042246780798
    },
    "fid": 714.4262871015062,
    "wasserstein_distance": null,
    "g_loss": null,
    "g_cost": null,
    "d_loss_real": null,
    "d_loss_fake": null
}