{
    "epoch": 149,
    "avg_current_window": 797.4810556082455,
    "avg_prior_window": 808.6868413132748,
    "inception_score_mean": 2.006301214190896,
    "inception_score_std": 0.15905005592152938,
    "fid_per_class": {
        "airplane": 861.9196658615554,
        "automobile": 1070.1880415044077,
        "bird": 1215.914854597944,
        "cat": 896.4570738551392,
        "deer": 1247.213041647012,
        "dog": 1075.0191742815302,
        "frog": 1325.2800854463699,
        "horse": 1089.913708925762,
        "ship": 899.0104318670045,
        "truck": 1026.4674316130213
    },
    "fid": 649.6349036760319,
    "wasserstein_distance": null,
    "g_loss": null,
    "g_cost": null,
    "d_loss_real": null,
    "d_loss_fake": null
}