{
    "epoch": 116,
    "avg_current_window": 844.7001811343858,
    "avg_prior_window": 859.7944376893307,
    "inception_score_mean": 1.9751717342286077,
    "inception_score_std": 0.13684925395299213,
    "fid_per_class": {
        "airplane": 929.4718695956817,
        "automobile": 1033.8435217984525,
        "bird": 1193.6454344796753,
        "cat": 918.8481197674411,
        "deer": 1240.9432868625659,
        "dog": 1093.413887362707,
        "frog": 1302.498913802214,
        "horse": 1218.531588301307,
        "ship": 899.667947537117,
        "truck": 1012.6171338475801
    },
    "fid": 666.6466113528359,
    "wasserstein_distance": null,
    "g_loss": null,
    "g_cost": null,
    "d_loss_real": null,
    "d_loss_fake": null
}