{
    "epoch": 140,
    "avg_current_window": 809.2962668521421,
    "avg_prior_window": 820.2642932203105,
    "inception_score_mean": 2.0832535737222293,
    "inception_score_std": 0.11926389241135171,
    "fid_per_class": {
        "airplane": 865.948433708411,
        "automobile": 1068.1881751628966,
        "bird": 1168.766343447469,
        "cat": 908.4073546277695,
        "deer": 1199.111255025685,
        "dog": 997.1502917454873,
        "frog": 1288.9881790921233,
        "horse": 1166.9643057054893,
        "ship": 832.0838295485574,
        "truck": 981.5815908900709
    },
    "fid": 615.8213853093524,
    "wasserstein_distance": null,
    "g_loss": null,
    "g_cost": null,
    "d_loss_real": null,
    "d_loss_fake": null
}