{
    "epoch": 272,
    "avg_current_window": 716.6645572302008,
    "avg_prior_window": 720.4734222916811,
    "inception_score_mean": 2.05118058279658,
    "inception_score_std": 0.13795577082217766,
    "fid_per_class": {
        "airplane": 874.6504478697129,
        "automobile": 1012.2858481495559,
        "bird": 1130.5238633534693,
        "cat": 914.5612209652189,
        "deer": 1216.0933143306174,
        "dog": 1043.2245622948722,
        "frog": 1087.2576070350467,
        "horse": 1088.9629406641639,
        "ship": 871.4059482402412,
        "truck": 1001.3709254675497
    },
    "fid": 598.5390890420988,
    "wasserstein_distance": null,
    "g_loss": null,
    "g_cost": null,
    "d_loss_real": null,
    "d_loss_fake": null
}