{
    "epoch": 202,
    "avg_current_window": 752.0200137535286,
    "avg_prior_window": 758.5106155625267,
    "inception_score_mean": 2.030559938119319,
    "inception_score_std": 0.12926668363123553,
    "fid_per_class": {
        "airplane": 832.2559804592302,
        "automobile": 1011.0135441212113,
        "bird": 1172.2937651807165,
        "cat": 878.8728151030718,
        "deer": 1238.849992654673,
        "dog": 1032.978356130161,
        "frog": 1213.644834694913,
        "horse": 1039.9281652215896,
        "ship": 795.3903735844467,
        "truck": 959.9239280381071
    },
    "fid": 579.7895025235615,
    "wasserstein_distance": null,
    "g_loss": null,
    "g_cost": null,
    "d_loss_real": null,
    "d_loss_fake": null
}