{
    "epoch": 197,
    "avg_current_window": 755.4098817041639,
    "avg_prior_window": 762.0825297433029,
    "inception_score_mean": 2.085137769791292,
    "inception_score_std": 0.16833332031316003,
    "fid_per_class": {
        "airplane": 806.3112743393715,
        "automobile": 1049.8415910651934,
        "bird": 1153.248463639186,
        "cat": 928.3807772006013,
        "deer": 1239.9877594035627,
        "dog": 994.4600309020794,
        "frog": 1213.6535562437928,
        "horse": 1111.078675675099,
        "ship": 844.3167453847661,
        "truck": 958.9919858869241
    },
    "fid": 610.8445700974415,
    "wasserstein_distance": null,
    "g_loss": null,
    "g_cost": null,
    "d_loss_real": null,
    "d_loss_fake": null
}