{
    "epoch": 262,
    "avg_current_window": 720.4505813047833,
    "avg_prior_window": 725.0219067762984,
    "inception_score_mean": 2.100018987117175,
    "inception_score_std": 0.10910774326094996,
    "fid_per_class": {
        "airplane": 814.755619419306,
        "automobile": 1050.9702263355143,
        "bird": 1165.953321942924,
        "cat": 884.3702777256472,
        "deer": 1162.0713451635575,
        "dog": 1054.9975671343343,
        "frog": 1150.6725201199145,
        "horse": 1041.3349892205301,
        "ship": 807.8913379761725,
        "truck": 927.20745813546
    },
    "fid": 588.0125897179837,
    "wasserstein_distance": null,
    "g_loss": null,
    "g_cost": null,
    "d_loss_real": null,
    "d_loss_fake": null
}