{
    "epoch": 88,
    "avg_current_window": 909.150132254977,
    "avg_prior_window": 930.7858368392472,
    "inception_score_mean": 2.0020884924810067,
    "inception_score_std": 0.11108201541689171,
    "fid_per_class": {
        "airplane": 880.43348745605,
        "automobile": 1110.4763848340297,
        "bird": 1248.2049937944118,
        "cat": 887.6967525243781,
        "deer": 1414.122067879677,
        "dog": 1048.877376910405,
        "frog": 1258.2890346092195,
        "horse": 1245.4687392565781,
        "ship": 857.8946436686454,
        "truck": 1041.9730143381448
    },
    "fid": 680.8290776940905,
    "wasserstein_distance": null,
    "g_loss": null,
    "g_cost": null,
    "d_loss_real": null,
    "d_loss_fake": null
}