{
    "epoch": 226,
    "avg_current_window": 737.3371422275284,
    "avg_prior_window": 743.3150230580957,
    "inception_score_mean": 2.031695330481709,
    "inception_score_std": 0.143905024302221,
    "fid_per_class": {
        "airplane": 819.1737533266573,
        "automobile": 1029.5833411731783,
        "bird": 1162.8406867067101,
        "cat": 925.1361109114982,
        "deer": 1192.7014575118164,
        "dog": 968.055647090859,
        "frog": 1155.1305230570576,
        "horse": 1041.9774920355176,
        "ship": 854.1540860455481,
        "truck": 960.1561251789469
    },
    "fid": 578.4257125598662,
    "wasserstein_distance": null,
    "g_loss": null,
    "g_cost": null,
    "d_loss_real": null,
    "d_loss_fake": null
}