{
    "epoch": 145,
    "avg_current_window": 803.1096906835281,
    "avg_prior_window": 813.6949910329232,
    "inception_score_mean": 2.0497354572760207,
    "inception_score_std": 0.1258880424876014,
    "fid_per_class": {
        "airplane": 860.9413864208252,
        "automobile": 1069.6489283144258,
        "bird": 1136.9733345594882,
        "cat": 861.8017706481356,
        "deer": 1079.2507729218387,
        "dog": 989.7888693040422,
        "frog": 1162.6911452861577,
        "horse": 1106.2489465341987,
        "ship": 827.5505760301941,
        "truck": 985.9266294113918
    },
    "fid": 582.1658007735873,
    "wasserstein_distance": null,
    "g_loss": null,
    "g_cost": null,
    "d_loss_real": null,
    "d_loss_fake": null
}