{
    "epoch": 183,
    "avg_current_window": 765.5669949919161,
    "avg_prior_window": 773.1830876059196,
    "inception_score_mean": 2.0452394656024153,
    "inception_score_std": 0.10008181648997685,
    "fid_per_class": {
        "airplane": 872.6484400918904,
        "automobile": 1067.4946094738098,
        "bird": 1190.3355664004512,
        "cat": 911.1747220823129,
        "deer": 1183.8898522399054,
        "dog": 946.3612823896674,
        "frog": 1128.7803237074163,
        "horse": 1121.5161074321682,
        "ship": 846.8258298539207,
        "truck": 1016.57159655683
    },
    "fid": 618.4122803319282,
    "wasserstein_distance": null,
    "g_loss": null,
    "g_cost": null,
    "d_loss_real": null,
    "d_loss_fake": null
}