{
    "epoch": 91,
    "avg_current_window": 900.0444942421615,
    "avg_prior_window": 922.7738095788857,
    "inception_score_mean": 2.081394749447036,
    "inception_score_std": 0.16983363688345665,
    "fid_per_class": {
        "airplane": 886.0510964497241,
        "automobile": 1062.7488385484478,
        "bird": 1160.2391973030892,
        "cat": 847.8125125533951,
        "deer": 1242.5223562812685,
        "dog": 960.2042017623529,
        "frog": 1200.9916074552375,
        "horse": 1133.6154189658903,
        "ship": 784.6461717818574,
        "truck": 993.7791594563
    },
    "fid": 594.9092723304823,
    "wasserstein_distance": null,
    "g_loss": null,
    "g_cost": null,
    "d_loss_real": null,
    "d_loss_fake": null
}