{
    "epoch": 152,
    "avg_current_window": 794.2868214887451,
    "avg_prior_window": 804.3034782653631,
    "inception_score_mean": 1.9805973747992436,
    "inception_score_std": 0.12657124950417487,
    "fid_per_class": {
        "airplane": 845.6780528405916,
        "automobile": 1116.1216473159157,
        "bird": 1197.0230361113263,
        "cat": 963.3414135300836,
        "deer": 1285.987603478107,
        "dog": 1015.959102124917,
        "frog": 1310.513366332132,
        "horse": 1144.1823337363608,
        "ship": 850.6087989394147,
        "truck": 1041.2593723339987
    },
    "fid": 660.0357277574791,
    "wasserstein_distance": null,
    "g_loss": null,
    "g_cost": null,
    "d_loss_real": null,
    "d_loss_fake": null
}