{
    "epoch": 109,
    "avg_current_window": 857.8669817738526,
    "avg_prior_window": 874.6391134696415,
    "inception_score_mean": 2.0177776023322327,
    "inception_score_std": 0.09493283327570415,
    "fid_per_class": {
        "airplane": 841.9037858875076,
        "automobile": 1088.5530646948728,
        "bird": 1275.6538803959604,
        "cat": 931.7128723268977,
        "deer": 1291.2684038499644,
        "dog": 981.3549554611782,
        "frog": 1312.3854278182598,
        "horse": 1185.3146501841306,
        "ship": 863.8825453140843,
        "truck": 1007.4423080124685
    },
    "fid": 656.3924545261061,
    "wasserstein_distance": null,
    "g_loss": null,
    "g_cost": null,
    "d_loss_real": null,
    "d_loss_fake": null
}