{
    "epoch": 107,
    "avg_current_window": 862.1034506671003,
    "avg_prior_window": 879.3450823801313,
    "inception_score_mean": 2.0027590545475147,
    "inception_score_std": 0.16123657849295603,
    "fid_per_class": {
        "airplane": 883.659990205116,
        "automobile": 1061.5345309921963,
        "bird": 1167.4797678991608,
        "cat": 898.865457867706,
        "deer": 1239.0860270894113,
        "dog": 1059.9884499292411,
        "frog": 1236.1321747168304,
        "horse": 1113.897624193935,
        "ship": 826.3539097003221,
        "truck": 1017.5090850058683
    },
    "fid": 627.6646258381371,
    "wasserstein_distance": null,
    "g_loss": null,
    "g_cost": null,
    "d_loss_real": null,
    "d_loss_fake": null
}