{
    "epoch": 144,
    "avg_current_window": 804.358367763059,
    "avg_prior_window": 815.1185421532367,
    "inception_score_mean": 1.9765074053590126,
    "inception_score_std": 0.15911873452766592,
    "fid_per_class": {
        "airplane": 864.0712944986294,
        "automobile": 1092.829125806589,
        "bird": 1227.9171261396928,
        "cat": 910.8463292192598,
        "deer": 1219.881735699464,
        "dog": 1057.985628193952,
        "frog": 1260.0674375765198,
        "horse": 1161.2076192566153,
        "ship": 836.7127286694633,
        "truck": 977.8056186400609
    },
    "fid": 623.3001912310834,
    "wasserstein_distance": null,
    "g_loss": null,
    "g_cost": null,
    "d_loss_real": null,
    "d_loss_fake": null
}