{
    "epoch": 123,
    "avg_current_window": 832.6797356979816,
    "avg_prior_window": 846.3560143365756,
    "inception_score_mean": 2.015173962315159,
    "inception_score_std": 0.12650418613979597,
    "fid_per_class": {
        "airplane": 846.9924412240724,
        "automobile": 1071.4707230940696,
        "bird": 1205.5472459179755,
        "cat": 921.798131683485,
        "deer": 1286.0004925949768,
        "dog": 994.7542026763406,
        "frog": 1277.4241158210248,
        "horse": 1098.9328311207973,
        "ship": 832.0532020947254,
        "truck": 1021.004093797806
    },
    "fid": 639.0984893045021,
    "wasserstein_distance": null,
    "g_loss": null,
    "g_cost": null,
    "d_loss_real": null,
    "d_loss_fake": null
}