{
    "epoch": 17,
    "avg_current_window": 1621.0005579265635,
    "avg_prior_window": 1857.0469008137316,
    "inception_score_mean": 1.5582501083572462,
    "inception_score_std": 0.16202860198414953,
    "fid_per_class": {
        "airplane": 1265.8921932531787,
        "automobile": 1398.2920201712475,
        "bird": 1788.0774071823726,
        "cat": 1795.0949015743054,
        "deer": 2092.6915603313732,
        "dog": 1907.5286953381787,
        "frog": 2169.4049106481316,
        "horse": 1847.041241026589,
        "ship": 1157.7440873455594,
        "truck": 1324.6291572318012
    },
    "fid": 1354.9064131791072,
    "wasserstein_distance": null,
    "g_loss": null,
    "g_cost": null,
    "d_loss_real": null,
    "d_loss_fake": null
}