{
    "epoch": 205,
    "avg_current_window": 750.0030284113234,
    "avg_prior_window": 756.5736089809702,
    "inception_score_mean": 1.9552298261779772,
    "inception_score_std": 0.1408632573474021,
    "fid_per_class": {
        "airplane": 817.4687382476868,
        "automobile": 1136.4293021753351,
        "bird": 1194.387515053303,
        "cat": 909.4948777058099,
        "deer": 1287.848479901963,
        "dog": 1004.9494204256785,
        "frog": 1242.4758150950536,
        "horse": 1109.9922258257934,
        "ship": 916.4925827109694,
        "truck": 1010.7759509383243
    },
    "fid": 653.2802178397654,
    "wasserstein_distance": null,
    "g_loss": null,
    "g_cost": null,
    "d_loss_real": null,
    "d_loss_fake": null
}