{
    "epoch": 65,
    "avg_current_window": 992.063858699044,
    "avg_prior_window": 1030.3654883815757,
    "inception_score_mean": 1.9471641009329843,
    "inception_score_std": 0.09445253424936306,
    "fid_per_class": {
        "airplane": 947.3332473699403,
        "automobile": 1121.3495598267025,
        "bird": 1247.9395613413867,
        "cat": 968.6070686084669,
        "deer": 1405.9966741826388,
        "dog": 1079.4195295523677,
        "frog": 1333.8059959389354,
        "horse": 1251.3537035434138,
        "ship": 886.5953423302296,
        "truck": 1079.750146906994
    },
    "fid": 717.9122049355635,
    "wasserstein_distance": null,
    "g_loss": null,
    "g_cost": null,
    "d_loss_real": null,
    "d_loss_fake": null
}