{
    "epoch": 163,
    "avg_current_window": 783.2651600537193,
    "avg_prior_window": 792.6559704837249,
    "inception_score_mean": 2.0960380774961687,
    "inception_score_std": 0.1462614520143999,
    "fid_per_class": {
        "airplane": 839.096843506409,
        "automobile": 1066.5018417408746,
        "bird": 1181.0188146141365,
        "cat": 860.0776009693235,
        "deer": 1259.922014809942,
        "dog": 1023.138273682969,
        "frog": 1277.694324494787,
        "horse": 1129.3219606169266,
        "ship": 789.4832489532143,
        "truck": 978.1591975249537
    },
    "fid": 601.6717138844467,
    "wasserstein_distance": null,
    "g_loss": null,
    "g_cost": null,
    "d_loss_real": null,
    "d_loss_fake": null
}