{
    "epoch": 230,
    "avg_current_window": 735.255556678642,
    "avg_prior_window": 740.6141961929841,
    "inception_score_mean": 2.073587440219181,
    "inception_score_std": 0.15357844572195328,
    "fid_per_class": {
        "airplane": 837.2909967837436,
        "automobile": 1025.2578810110942,
        "bird": 1171.3489386613642,
        "cat": 871.0339121007954,
        "deer": 1226.86466806518,
        "dog": 957.4388964713876,
        "frog": 1093.0591138723057,
        "horse": 1079.3378453339474,
        "ship": 814.082610624215,
        "truck": 1005.918097259598
    },
    "fid": 583.0129329765939,
    "wasserstein_distance": null,
    "g_loss": null,
    "g_cost": null,
    "d_loss_real": null,
    "d_loss_fake": null
}