{
    "epoch": 162,
    "avg_current_window": 784.246337315264,
    "avg_prior_window": 793.5962535438971,
    "inception_score_mean": 2.0535703970766788,
    "inception_score_std": 0.18006515500196849,
    "fid_per_class": {
        "airplane": 877.4286721672063,
        "automobile": 1075.1852086972735,
        "bird": 1208.3285484589512,
        "cat": 897.4565062995077,
        "deer": 1218.8278037264322,
        "dog": 968.7618236974827,
        "frog": 1255.5957565175245,
        "horse": 1105.56425994734,
        "ship": 874.7683183814218,
        "truck": 1008.7348724452153
    },
    "fid": 624.3144436834871,
    "wasserstein_distance": null,
    "g_loss": null,
    "g_cost": null,
    "d_loss_real": null,
    "d_loss_fake": null
}