{
    "epoch": 184,
    "avg_current_window": 764.7672411078944,
    "avg_prior_window": 772.4272531515531,
    "inception_score_mean": 2.01819491981779,
    "inception_score_std": 0.13209031461116452,
    "fid_per_class": {
        "airplane": 853.4935514337842,
        "automobile": 1123.0847913658758,
        "bird": 1211.683669037498,
        "cat": 940.8801599165082,
        "deer": 1303.3973876612176,
        "dog": 1018.9400776037601,
        "frog": 1223.3509643069149,
        "horse": 1114.4329313913595,
        "ship": 867.6471133724219,
        "truck": 1037.431450567843
    },
    "fid": 647.2729782097365,
    "wasserstein_distance": null,
    "g_loss": null,
    "g_cost": null,
    "d_loss_real": null,
    "d_loss_fake": null
}