{
    "epoch": 125,
    "avg_current_window": 829.5598874482096,
    "avg_prior_window": 842.5932164511386,
    "inception_score_mean": 1.9594705106091592,
    "inception_score_std": 0.06911782810539045,
    "fid_per_class": {
        "airplane": 939.7847703471457,
        "automobile": 1119.385514917219,
        "bird": 1207.0968127182518,
        "cat": 936.4312536478939,
        "deer": 1320.132426853035,
        "dog": 1047.2210673993102,
        "frog": 1352.8117078693783,
        "horse": 1210.9081358061637,
        "ship": 882.0126911118326,
        "truck": 1097.3684522209205
    },
    "fid": 699.7556404170817,
    "wasserstein_distance": null,
    "g_loss": null,
    "g_cost": null,
    "d_loss_real": null,
    "d_loss_fake": null
}