{
    "epoch": 94,
    "avg_current_window": 892.0932554229349,
    "avg_prior_window": 913.1107308182553,
    "inception_score_mean": 2.014094225226972,
    "inception_score_std": 0.19856712113737018,
    "fid_per_class": {
        "airplane": 877.8709964262894,
        "automobile": 1094.5173254465842,
        "bird": 1288.8282619289416,
        "cat": 937.8732972700091,
        "deer": 1364.2853328234469,
        "dog": 1094.1333476782493,
        "frog": 1373.6068286056739,
        "horse": 1197.1803987490557,
        "ship": 848.0177394789158,
        "truck": 1077.232327672448
    },
    "fid": 695.6703736253288,
    "wasserstein_distance": null,
    "g_loss": null,
    "g_cost": null,
    "d_loss_real": null,
    "d_loss_fake": null
}