{
    "epoch": 1,
    "avg_current_window": 3.0,
    "avg_prior_window": 8.0,
    "inception_score_mean": 1.0073898515322761,
    "inception_score_std": 0.0012020325128998897,
    "fid_per_class": {
        "airplane": 1963.7488975010633,
        "automobile": 1893.7691666160918,
        "bird": 2286.364065592876,
        "cat": 2347.449109029843,
        "deer": 2414.685985075405,
        "dog": 2438.3209440047567,
        "frog": 2544.0639291819098,
        "horse": 2123.8121599828,
        "ship": 1984.0506403075738,
        "truck": 1685.236848930163
    },
    "fid": 2098.2671185826594,
    "wasserstein_distance": null,
    "g_loss": null,
    "g_cost": null,
    "d_loss_real": null,
    "d_loss_fake": null
}