{
    "epoch": 224,
    "avg_current_window": 738.5864264560138,
    "avg_prior_window": 744.5947602982477,
    "inception_score_mean": 2.04032355370327,
    "inception_score_std": 0.11122561787548979,
    "fid_per_class": {
        "airplane": 876.8174005138278,
        "automobile": 1084.1546682505161,
        "bird": 1147.1781978830743,
        "cat": 885.6587228224104,
        "deer": 1211.7383875701591,
        "dog": 1025.3317355000079,
        "frog": 1161.4717317510622,
        "horse": 1111.531106013837,
        "ship": 813.7229729749516,
        "truck": 1024.893665808961
    },
    "fid": 602.9875682735584,
    "wasserstein_distance": null,
    "g_loss": null,
    "g_cost": null,
    "d_loss_real": null,
    "d_loss_fake": null
}