{
    "epoch": 242,
    "avg_current_window": 729.5210707640043,
    "avg_prior_window": 734.139521339033,
    "inception_score_mean": 2.047097048976307,
    "inception_score_std": 0.14199563097717666,
    "fid_per_class": {
        "airplane": 803.2534450619523,
        "automobile": 1025.2110575776428,
        "bird": 1159.9584334594997,
        "cat": 906.631490553309,
        "deer": 1171.9469670104031,
        "dog": 1056.8764356444508,
        "frog": 1115.8377238571697,
        "horse": 1027.377914222856,
        "ship": 842.0204657825274,
        "truck": 923.7427151569132
    },
    "fid": 582.3043086583035,
    "wasserstein_distance": null,
    "g_loss": null,
    "g_cost": null,
    "d_loss_real": null,
    "d_loss_fake": null
}