{
    "epoch": 251,
    "avg_current_window": 725.2289779600582,
    "avg_prior_window": 729.985200554205,
    "inception_score_mean": 2.063110718799853,
    "inception_score_std": 0.1738943620904206,
    "fid_per_class": {
        "airplane": 785.7578189219666,
        "automobile": 1060.948527232838,
        "bird": 1161.8682935344223,
        "cat": 911.7555612692937,
        "deer": 1272.0558772645836,
        "dog": 1019.4301832905289,
        "frog": 1151.8520431350917,
        "horse": 1119.758094498245,
        "ship": 878.2878944979535,
        "truck": 943.8274129765164
    },
    "fid": 593.5558253958363,
    "wasserstein_distance": null,
    "g_loss": null,
    "g_cost": null,
    "d_loss_real": null,
    "d_loss_fake": null
}