{
    "epoch": 20,
    "avg_current_window": 1551.6899279708668,
    "avg_prior_window": 1766.698224194935,
    "inception_score_mean": 1.6776226551735374,
    "inception_score_std": 0.08292965718645308,
    "fid_per_class": {
        "airplane": 1123.9504353614668,
        "automobile": 1260.8431624210625,
        "bird": 1582.863975067443,
        "cat": 1297.468742485713,
        "deer": 1620.8624615331455,
        "dog": 1635.6244718311073,
        "frog": 1946.3932883654306,
        "horse": 1573.7864659646925,
        "ship": 954.3986225154629,
        "truck": 1136.9817287049036
    },
    "fid": 1034.804359091403,
    "wasserstein_distance": null,
    "g_loss": null,
    "g_cost": null,
    "d_loss_real": null,
    "d_loss_fake": null
}