{
    "epoch": 170,
    "avg_current_window": 776.5188040220122,
    "avg_prior_window": 784.8290837101983,
    "inception_score_mean": 1.997633971129026,
    "inception_score_std": 0.14356495276919148,
    "fid_per_class": {
        "airplane": 876.3182610583858,
        "automobile": 1087.3154830330734,
        "bird": 1189.1855147228002,
        "cat": 927.9353173271047,
        "deer": 1231.7804226575713,
        "dog": 1009.998249525843,
        "frog": 1208.4676066462707,
        "horse": 1122.1678722869271,
        "ship": 863.6778901361397,
        "truck": 1046.7284433485618
    },
    "fid": 639.8816003942417,
    "wasserstein_distance": null,
    "g_loss": null,
    "g_cost": null,
    "d_loss_real": null,
    "d_loss_fake": null
}