{
    "epoch": 137,
    "avg_current_window": 812.8448279370625,
    "avg_prior_window": 824.7134618978138,
    "inception_score_mean": 2.06347286694806,
    "inception_score_std": 0.1177947574137177,
    "fid_per_class": {
        "airplane": 851.1827234224338,
        "automobile": 1052.7965130890602,
        "bird": 1230.1803340287975,
        "cat": 875.2570212958423,
        "deer": 1258.981481881633,
        "dog": 1027.0959395160992,
        "frog": 1169.796976218517,
        "horse": 1213.092448217481,
        "ship": 844.0053225157011,
        "truck": 1062.787037781006
    },
    "fid": 639.1799313400973,
    "wasserstein_distance": null,
    "g_loss": null,
    "g_cost": null,
    "d_loss_real": null,
    "d_loss_fake": null
}