{
    "epoch": 55,
    "avg_current_window": 1048.0007753301832,
    "avg_prior_window": 1097.4011435694906,
    "inception_score_mean": 2.0034193199705363,
    "inception_score_std": 0.14727195866811274,
    "fid_per_class": {
        "airplane": 873.6803907099521,
        "automobile": 1106.6766988640015,
        "bird": 1277.6173822857706,
        "cat": 955.3347731850513,
        "deer": 1343.793129690906,
        "dog": 1057.4261502989498,
        "frog": 1296.144060755645,
        "horse": 1266.3386781673669,
        "ship": 854.4124566710228,
        "truck": 1096.3075333761058
    },
    "fid": 692.5744279902224,
    "wasserstein_distance": null,
    "g_loss": null,
    "g_cost": null,
    "d_loss_real": null,
    "d_loss_fake": null
}