{
    "epoch": 72,
    "avg_current_window": 963.3164992493569,
    "avg_prior_window": 993.2480994695595,
    "inception_score_mean": 2.033726658431516,
    "inception_score_std": 0.16681946841308687,
    "fid_per_class": {
        "airplane": 831.9984725430538,
        "automobile": 1069.2215697470085,
        "bird": 1221.9023645000757,
        "cat": 900.3258831254357,
        "deer": 1273.5895215924802,
        "dog": 1008.9579403501456,
        "frog": 1198.4097156657647,
        "horse": 1150.9742656859112,
        "ship": 822.4366797893299,
        "truck": 1015.8370207956793
    },
    "fid": 623.3423262453192,
    "wasserstein_distance": null,
    "g_loss": null,
    "g_cost": null,
    "d_loss_real": null,
    "d_loss_fake": null
}