{
    "epoch": 147,
    "avg_current_window": 800.0262054263268,
    "avg_prior_window": 811.2413965609062,
    "inception_score_mean": 2.043191345334336,
    "inception_score_std": 0.13440853632052965,
    "fid_per_class": {
        "airplane": 903.3314507678899,
        "automobile": 1083.0068371858888,
        "bird": 1200.9249848539282,
        "cat": 918.2241023809087,
        "deer": 1207.4494192152424,
        "dog": 1020.2447523014084,
        "frog": 1247.0379034596963,
        "horse": 1144.1374304069454,
        "ship": 886.3601061624933,
        "truck": 1025.0441350618848
    },
    "fid": 628.7591073383237,
    "wasserstein_distance": null,
    "g_loss": null,
    "g_cost": null,
    "d_loss_real": null,
    "d_loss_fake": null
}