{
    "epoch": 186,
    "avg_current_window": 763.4147183456299,
    "avg_prior_window": 770.4243080016529,
    "inception_score_mean": 2.0691049808051063,
    "inception_score_std": 0.1348093342714979,
    "fid_per_class": {
        "airplane": 851.2794515511343,
        "automobile": 1145.1487894933498,
        "bird": 1128.2805618401685,
        "cat": 931.5407663136846,
        "deer": 1243.7857988908095,
        "dog": 963.7915559808077,
        "frog": 1143.3664043828837,
        "horse": 1166.227416529238,
        "ship": 866.5960245838831,
        "truck": 989.5125943398066
    },
    "fid": 625.1159984143854,
    "wasserstein_distance": null,
    "g_loss": null,
    "g_cost": null,
    "d_loss_real": null,
    "d_loss_fake": null
}