{
    "epoch": 49,
    "avg_current_window": 1090.7969363169339,
    "avg_prior_window": 1151.8970896156618,
    "inception_score_mean": 2.0348293557682764,
    "inception_score_std": 0.13723013287432073,
    "fid_per_class": {
        "airplane": 932.1091620521812,
        "automobile": 1204.9274198449148,
        "bird": 1245.7931014446472,
        "cat": 940.5965745233993,
        "deer": 1325.6317824568955,
        "dog": 1007.9511600531673,
        "frog": 1245.1703733764841,
        "horse": 1268.1729415328364,
        "ship": 884.4972102513896,
        "truck": 1224.2581256484518
    },
    "fid": 689.4878158769159,
    "wasserstein_distance": null,
    "g_loss": null,
    "g_cost": null,
    "d_loss_real": null,
    "d_loss_fake": null
}