{
    "epoch": 179,
    "avg_current_window": 768.8636290159424,
    "avg_prior_window": 776.7594306370509,
    "inception_score_mean": 2.037464477588083,
    "inception_score_std": 0.1616444293218109,
    "fid_per_class": {
        "airplane": 839.7556816652907,
        "automobile": 1107.1907305721898,
        "bird": 1217.6875983371594,
        "cat": 929.7920100729283,
        "deer": 1239.6982914183488,
        "dog": 1024.445451530977,
        "frog": 1257.02668951154,
        "horse": 1107.7328847647386,
        "ship": 833.3765954889038,
        "truck": 981.5922422468143
    },
    "fid": 637.8887202743238,
    "wasserstein_distance": null,
    "g_loss": null,
    "g_cost": null,
    "d_loss_real": null,
    "d_loss_fake": null
}