{
    "epoch": 62,
    "avg_current_window": 1008.3231141055271,
    "avg_prior_window": 1047.476850121896,
    "inception_score_mean": 1.9925820870816444,
    "inception_score_std": 0.1391421623185349,
    "fid_per_class": {
        "airplane": 840.5448187885397,
        "automobile": 1141.3290160874733,
        "bird": 1228.7806319305432,
        "cat": 934.5074379840945,
        "deer": 1315.2962918408143,
        "dog": 1055.6722011851227,
        "frog": 1240.2240739438598,
        "horse": 1273.7224800839645,
        "ship": 845.9378641822393,
        "truck": 1108.6221350685885
    },
    "fid": 665.4624088454077,
    "wasserstein_distance": null,
    "g_loss": null,
    "g_cost": null,
    "d_loss_real": null,
    "d_loss_fake": null
}