{
    "epoch": 148,
    "avg_current_window": 798.8689953041106,
    "avg_prior_window": 809.9832514537097,
    "inception_score_mean": 2.0753255762670455,
    "inception_score_std": 0.13329662701027867,
    "fid_per_class": {
        "airplane": 806.9312132252339,
        "automobile": 1017.7432867261973,
        "bird": 1189.8374995295944,
        "cat": 862.3809617196382,
        "deer": 1197.7681585752935,
        "dog": 1028.9666104853504,
        "frog": 1235.654409897953,
        "horse": 1059.7016889930578,
        "ship": 840.1470753786937,
        "truck": 965.373864051603
    },
    "fid": 592.0659806202033,
    "wasserstein_distance": null,
    "g_loss": null,
    "g_cost": null,
    "d_loss_real": null,
    "d_loss_fake": null
}