{
    "epoch": 23,
    "avg_current_window": 1469.128000612552,
    "avg_prior_window": 1667.359532170768,
    "inception_score_mean": 2.076300262900014,
    "inception_score_std": 0.09599571891931685,
    "fid_per_class": {
        "airplane": 1142.5613257988514,
        "automobile": 1199.6752763209777,
        "bird": 1497.8337423542407,
        "cat": 1264.3160770468517,
        "deer": 1713.4035863670006,
        "dog": 1428.7255975998603,
        "frog": 1882.9472891432565,
        "horse": 1528.0981399053517,
        "ship": 948.8451618612695,
        "truck": 1149.817297080618
    },
    "fid": 957.5344141832852,
    "wasserstein_distance": null,
    "g_loss": null,
    "g_cost": null,
    "d_loss_real": null,
    "d_loss_fake": null
}