{
    "epoch": 298,
    "avg_current_window": 707.5809424684534,
    "avg_prior_window": 711.1940867551815,
    "inception_score_mean": 2.1035936747656643,
    "inception_score_std": 0.1312373674292636,
    "fid_per_class": {
        "airplane": 825.0196752144973,
        "automobile": 1066.4803739236481,
        "bird": 1145.3054507421227,
        "cat": 888.5929098561912,
        "deer": 1200.1557806646274,
        "dog": 1009.9218795194197,
        "frog": 1160.513967020189,
        "horse": 1018.8436238292695,
        "ship": 808.756121834384,
        "truck": 953.6569466052451
    },
    "fid": 587.2826467155612,
    "wasserstein_distance": null,
    "g_loss": null,
    "g_cost": null,
    "d_loss_real": null,
    "d_loss_fake": null
}