{
    "epoch": 30,
    "avg_current_window": 1323.1962105245018,
    "avg_prior_window": 1459.9161278608665,
    "inception_score_mean": 1.8136854526870951,
    "inception_score_std": 0.15914823729324218,
    "fid_per_class": {
        "airplane": 1117.3742261483208,
        "automobile": 1234.8194971080807,
        "bird": 1471.3507151316412,
        "cat": 1163.0216054275488,
        "deer": 1527.148289097367,
        "dog": 1331.653894517517,
        "frog": 1767.9721123729205,
        "horse": 1392.1587334113183,
        "ship": 975.5411764117898,
        "truck": 1233.087406994694
    },
    "fid": 922.515192546515,
    "wasserstein_distance": null,
    "g_loss": null,
    "g_cost": null,
    "d_loss_real": null,
    "d_loss_fake": null
}