{
    "epoch": 78,
    "avg_current_window": 939.9736283236216,
    "avg_prior_window": 968.1446807243915,
    "inception_score_mean": 2.0334044994209015,
    "inception_score_std": 0.1372235840577064,
    "fid_per_class": {
        "airplane": 880.2292049662025,
        "automobile": 1082.2538672712933,
        "bird": 1178.0698274898948,
        "cat": 939.9838983294261,
        "deer": 1357.2244646888034,
        "dog": 1029.8953896967996,
        "frog": 1275.3620925321638,
        "horse": 1139.994505801771,
        "ship": 814.1102442763043,
        "truck": 970.3689457088395
    },
    "fid": 639.1804601194318,
    "wasserstein_distance": null,
    "g_loss": null,
    "g_cost": null,
    "d_loss_real": null,
    "d_loss_fake": null
}