{
    "epoch": 101,
    "avg_current_window": 875.6588428764591,
    "avg_prior_window": 894.8603559317374,
    "inception_score_mean": 2.032682180680223,
    "inception_score_std": 0.11696846768927426,
    "fid_per_class": {
        "airplane": 807.1791848346539,
        "automobile": 1034.750001046852,
        "bird": 1192.2803777223517,
        "cat": 882.6139918525328,
        "deer": 1226.549067638649,
        "dog": 1009.405932292664,
        "frog": 1283.235613857104,
        "horse": 1122.54608485592,
        "ship": 788.1011828629629,
        "truck": 996.1578889435112
    },
    "fid": 613.6895115461532,
    "wasserstein_distance": null,
    "g_loss": null,
    "g_cost": null,
    "d_loss_real": null,
    "d_loss_fake": null
}