{
    "epoch": 80,
    "avg_current_window": 932.4948818893783,
    "avg_prior_window": 959.8962508021239,
    "inception_score_mean": 2.0467117095035023,
    "inception_score_std": 0.09602704690634109,
    "fid_per_class": {
        "airplane": 767.1458714782458,
        "automobile": 1064.3241681993231,
        "bird": 1199.4291912886915,
        "cat": 894.9015623045838,
        "deer": 1312.4767084715943,
        "dog": 1051.5615903080643,
        "frog": 1155.710330348326,
        "horse": 1133.2152693711869,
        "ship": 766.0729916345896,
        "truck": 1050.009979937263
    },
    "fid": 607.37518199328,
    "wasserstein_distance": null,
    "g_loss": null,
    "g_cost": null,
    "d_loss_real": null,
    "d_loss_fake": null
}