{
    "epoch": 209,
    "avg_current_window": 747.7865671090982,
    "avg_prior_window": 753.6795138447122,
    "inception_score_mean": 2.0355362342157868,
    "inception_score_std": 0.1637915187102963,
    "fid_per_class": {
        "airplane": 824.3968325414706,
        "automobile": 1076.8007007675055,
        "bird": 1182.5864725678125,
        "cat": 910.978288628585,
        "deer": 1255.6570386952403,
        "dog": 987.0391412130962,
        "frog": 1153.1893251932245,
        "horse": 1148.683164362827,
        "ship": 803.5868398429839,
        "truck": 958.2557569845108
    },
    "fid": 610.7941614742357,
    "wasserstein_distance": null,
    "g_loss": null,
    "g_cost": null,
    "d_loss_real": null,
    "d_loss_fake": null
}