{
    "epoch": 283,
    "avg_current_window": 712.5662691581738,
    "avg_prior_window": 716.456113838534,
    "inception_score_mean": 2.0359525404372376,
    "inception_score_std": 0.15066803787439342,
    "fid_per_class": {
        "airplane": 805.7686207011851,
        "automobile": 1034.446525062455,
        "bird": 1178.2322385612852,
        "cat": 891.3381998122925,
        "deer": 1237.276021576962,
        "dog": 964.4683802490299,
        "frog": 1153.7074356746218,
        "horse": 1043.6875160987495,
        "ship": 831.9844435794369,
        "truck": 979.9265410761913
    },
    "fid": 595.7295869235636,
    "wasserstein_distance": null,
    "g_loss": null,
    "g_cost": null,
    "d_loss_real": null,
    "d_loss_fake": null
}