{
    "epoch": 133,
    "avg_current_window": 818.5126088008377,
    "avg_prior_window": 830.2589469552037,
    "inception_score_mean": 1.998281534296953,
    "inception_score_std": 0.13241793637807725,
    "fid_per_class": {
        "airplane": 945.3079303446634,
        "automobile": 1051.286396431963,
        "bird": 1174.5379413829344,
        "cat": 937.4461615394351,
        "deer": 1203.4256510118034,
        "dog": 1035.5950697737692,
        "frog": 1230.819949985115,
        "horse": 1120.4110887207817,
        "ship": 878.0295318007738,
        "truck": 992.6932273556904
    },
    "fid": 638.0537997556222,
    "wasserstein_distance": null,
    "g_loss": null,
    "g_cost": null,
    "d_loss_real": null,
    "d_loss_fake": null
}