{
    "epoch": 25,
    "avg_current_window": 1425.6649045853721,
    "avg_prior_window": 1603.430145925437,
    "inception_score_mean": 1.838891935268451,
    "inception_score_std": 0.08729679147591583,
    "fid_per_class": {
        "airplane": 1082.0388595567301,
        "automobile": 1272.9466455904326,
        "bird": 1382.9800260984562,
        "cat": 968.7659558966108,
        "deer": 1514.8469061326175,
        "dog": 1181.7907733467898,
        "frog": 1639.2985247904921,
        "horse": 1401.8698351844523,
        "ship": 947.2288241938014,
        "truck": 1175.1301095356964
    },
    "fid": 856.2805818873586,
    "wasserstein_distance": null,
    "g_loss": null,
    "g_cost": null,
    "d_loss_real": null,
    "d_loss_fake": null
}