{
    "epoch": 83,
    "avg_current_window": 922.7536900592467,
    "avg_prior_window": 948.1682496072041,
    "inception_score_mean": 1.9960659785242498,
    "inception_score_std": 0.16548984011214954,
    "fid_per_class": {
        "airplane": 904.8298210219392,
        "automobile": 1169.1242394644141,
        "bird": 1203.689318603943,
        "cat": 954.6364004966351,
        "deer": 1382.3114176907839,
        "dog": 995.1175359920583,
        "frog": 1248.239761952517,
        "horse": 1207.8443692766773,
        "ship": 812.2424795960421,
        "truck": 1063.5818205250748
    },
    "fid": 666.6681827400489,
    "wasserstein_distance": null,
    "g_loss": null,
    "g_cost": null,
    "d_loss_real": null,
    "d_loss_fake": null
}