{
    "epoch": 54,
    "avg_current_window": 1055.6078382912083,
    "avg_prior_window": 1104.8681162327891,
    "inception_score_mean": 2.0188761999221314,
    "inception_score_std": 0.17132269715399714,
    "fid_per_class": {
        "airplane": 861.9260470835981,
        "automobile": 1049.7827389715044,
        "bird": 1260.8147988957942,
        "cat": 862.6537326999869,
        "deer": 1336.8190175481595,
        "dog": 999.8270569168882,
        "frog": 1260.6091644151356,
        "horse": 1185.6514856902058,
        "ship": 862.1759310292192,
        "truck": 1072.510999416112
    },
    "fid": 637.2193754348249,
    "wasserstein_distance": null,
    "g_loss": null,
    "g_cost": null,
    "d_loss_real": null,
    "d_loss_fake": null
}