{
    "epoch": 59,
    "avg_current_window": 1454.1635856959267,
    "avg_prior_window": 1514.3848832250353,
    "inception_score_mean": 1.7084640501529875,
    "inception_score_std": 0.07983640398646037,
    "fid_per_class": {
        "airplane": 1081.7790626212934,
        "automobile": 1170.1590836133064,
        "bird": 1465.7312337494257,
        "cat": 1193.9884116559485,
        "deer": 1606.9407096944426,
        "dog": 1352.9240098233129,
        "frog": 1969.0345749175935,
        "horse": 1474.1069314037193,
        "ship": 1063.8537891102765,
        "truck": 1051.3511041412557
    },
    "fid": 999.1100748233713,
    "wasserstein_distance": null,
    "g_loss": null,
    "g_cost": null,
    "d_loss_real": null,
    "d_loss_fake": null
}