{
    "epoch": 104,
    "avg_current_window": 1220.0654002242595,
    "avg_prior_window": 1247.5975159939796,
    "inception_score_mean": 1.7366980513818213,
    "inception_score_std": 0.13477713487286708,
    "fid_per_class": {
        "airplane": 1000.7979055889855,
        "automobile": 1254.7849865720486,
        "bird": 1326.2674126745385,
        "cat": 1086.0284600634845,
        "deer": 1518.0384580643777,
        "dog": 1215.13692226049,
        "frog": 1741.6278618776619,
        "horse": 1359.0344362533208,
        "ship": 1066.089926684806,
        "truck": 1087.429312802509
    },
    "fid": 898.8854280993942,
    "wasserstein_distance": null,
    "g_loss": null,
    "g_cost": null,
    "d_loss_real": null,
    "d_loss_fake": null
}