{
    "epoch": 200,
    "avg_current_window": 1024.3230993053323,
    "avg_prior_window": 1033.4594968891927,
    "inception_score_mean": 1.909647280434698,
    "inception_score_std": 0.1267490994722247,
    "fid_per_class": {
        "airplane": 858.6622112076038,
        "automobile": 1118.7226550715832,
        "bird": 1231.1563599765564,
        "cat": 1008.7382518430584,
        "deer": 1392.5219394512571,
        "dog": 1019.2977512993539,
        "frog": 1451.71242765545,
        "horse": 1243.29518292117,
        "ship": 909.9568781726731,
        "truck": 978.6476375324054
    },
    "fid": 740.5464216121259,
    "wasserstein_distance": null,
    "g_loss": null,
    "g_cost": null,
    "d_loss_real": null,
    "d_loss_fake": null
}