{
    "epoch": 174,
    "avg_current_window": 1056.4745274238858,
    "avg_prior_window": 1069.2815342763693,
    "inception_score_mean": 1.8581558323912912,
    "inception_score_std": 0.12696799395480302,
    "fid_per_class": {
        "airplane": 894.0796721201245,
        "automobile": 1175.2839196038503,
        "bird": 1245.0375022384253,
        "cat": 995.2451694227595,
        "deer": 1396.2110979633337,
        "dog": 1166.8046609634484,
        "frog": 1526.8991808960966,
        "horse": 1280.9123939135188,
        "ship": 936.3650361076841,
        "truck": 1080.9176376691325
    },
    "fid": 801.4086959655732,
    "wasserstein_distance": null,
    "g_loss": null,
    "g_cost": null,
    "d_loss_real": null,
    "d_loss_fake": null
}