{
    "epoch": 97,
    "avg_current_window": 1246.395545819203,
    "avg_prior_window": 1276.2867678477614,
    "inception_score_mean": 1.7053923933400903,
    "inception_score_std": 0.09682232616704922,
    "fid_per_class": {
        "airplane": 1001.6980331235984,
        "automobile": 1188.016305944492,
        "bird": 1389.1468068325685,
        "cat": 1140.0978032178573,
        "deer": 1497.5429200798824,
        "dog": 1270.8479717211642,
        "frog": 1786.6028401492545,
        "horse": 1393.3312219319114,
        "ship": 965.7771369694266,
        "truck": 1079.0715553886885
    },
    "fid": 891.9306664041485,
    "wasserstein_distance": null,
    "g_loss": null,
    "g_cost": null,
    "d_loss_real": null,
    "d_loss_fake": null
}