{
    "epoch": 175,
    "avg_current_window": 1055.0170083869812,
    "avg_prior_window": 1067.6556717711378,
    "inception_score_mean": 1.819212380069565,
    "inception_score_std": 0.09059137899253115,
    "fid_per_class": {
        "airplane": 843.0374351065091,
        "automobile": 1142.8049775265292,
        "bird": 1238.270833017216,
        "cat": 958.9669016180947,
        "deer": 1355.1902114258241,
        "dog": 1163.4541445111456,
        "frog": 1470.3364894390418,
        "horse": 1222.2014707832652,
        "ship": 956.6956336027514,
        "truck": 1056.4518815508795
    },
    "fid": 750.1986196367161,
    "wasserstein_distance": null,
    "g_loss": null,
    "g_cost": null,
    "d_loss_real": null,
    "d_loss_fake": null
}