{
    "epoch": 25,
    "avg_current_window": 1868.0725256160806,
    "avg_prior_window": 2051.2127999454447,
    "inception_score_mean": 1.148762491088616,
    "inception_score_std": 0.034025481777433336,
    "fid_per_class": {
        "airplane": 1332.1081059029252,
        "automobile": 1513.4843216333377,
        "bird": 1237.530959448527,
        "cat": 1266.8218038978714,
        "deer": 1337.230185124221,
        "dog": 1486.3795815178532,
        "frog": 1655.8842108597928,
        "horse": 1510.3694951277866,
        "ship": 1289.774348719236,
        "truck": 1467.3367345515908
    },
    "fid": 1170.7517530051534,
    "wasserstein_distance": null,
    "g_loss": null,
    "g_cost": null,
    "d_loss_real": null,
    "d_loss_fake": null
}