{
    "epoch": 63,
    "avg_current_window": 1426.1606659706126,
    "avg_prior_window": 1479.2353716562013,
    "inception_score_mean": 1.6864660993428313,
    "inception_score_std": 0.09914750728486246,
    "fid_per_class": {
        "airplane": 1099.660143469112,
        "automobile": 1292.202894959694,
        "bird": 1491.442956280578,
        "cat": 1194.1414967502208,
        "deer": 1519.1727544430942,
        "dog": 1367.4519515473853,
        "frog": 1875.1844533588555,
        "horse": 1353.8811882200134,
        "ship": 1008.4501363669158,
        "truck": 1184.0426553454556
    },
    "fid": 983.4117805325453,
    "wasserstein_distance": null,
    "g_loss": null,
    "g_cost": null,
    "d_loss_real": null,
    "d_loss_fake": null
}