{
    "epoch": 30,
    "avg_current_window": 1749.9252709393609,
    "avg_prior_window": 1914.902595736287,
    "inception_score_mean": 1.3656329117545227,
    "inception_score_std": 0.08617553668143349,
    "fid_per_class": {
        "airplane": 1385.1176066518665,
        "automobile": 1333.343017062177,
        "bird": 1499.3619388747588,
        "cat": 1180.9427229258881,
        "deer": 1553.4369250777277,
        "dog": 1591.8039080717213,
        "frog": 1810.6178062648773,
        "horse": 1556.8049515590546,
        "ship": 1406.821115604691,
        "truck": 1309.6122195975486
    },
    "fid": 1210.3129216001885,
    "wasserstein_distance": null,
    "g_loss": null,
    "g_cost": null,
    "d_loss_real": null,
    "d_loss_fake": null
}