{
    "epoch": 11,
    "avg_current_window": 1695.2458138922518,
    "avg_prior_window": 1778.322752016438,
    "inception_score_mean": 1.0347901657051337,
    "inception_score_std": 0.00807784937968145,
    "fid_per_class": {
        "airplane": 1907.6277147525498,
        "automobile": 1845.5648694770366,
        "bird": 2152.4810092332254,
        "cat": 2134.869621306239,
        "deer": 2400.0033941598167,
        "dog": 2473.103495472725,
        "frog": 2337.8016944457836,
        "horse": 2280.4909689269334,
        "ship": 1824.2439377483547,
        "truck": 2159.8214737937187
    },
    "fid": 1983.472036837078,
    "wasserstein_distance": null,
    "g_loss": null,
    "g_cost": null,
    "d_loss_real": null,
    "d_loss_fake": null
}