{
    "epoch": 188,
    "avg_current_window": 1036.7304070809223,
    "avg_prior_window": 1047.6113363428494,
    "inception_score_mean": 1.8865987486425353,
    "inception_score_std": 0.1292389712577341,
    "fid_per_class": {
        "airplane": 998.3594101567418,
        "automobile": 1175.1793818502035,
        "bird": 1302.203111927187,
        "cat": 1146.8891693348269,
        "deer": 1538.5367688996193,
        "dog": 1205.3569343919603,
        "frog": 1630.6883185963084,
        "horse": 1406.9382089113392,
        "ship": 979.7015073926117,
        "truck": 1027.418932965391
    },
    "fid": 852.3906123108067,
    "wasserstein_distance": null,
    "g_loss": null,
    "g_cost": null,
    "d_loss_real": null,
    "d_loss_fake": null
}