{
    "epoch": 161,
    "avg_current_window": 1077.399039585341,
    "avg_prior_window": 1091.3870938899704,
    "inception_score_mean": 1.8324934383012899,
    "inception_score_std": 0.16871852957835304,
    "fid_per_class": {
        "airplane": 933.9665359626191,
        "automobile": 1174.0581280850815,
        "bird": 1191.2393487122713,
        "cat": 1038.8767116708884,
        "deer": 1431.6764060929927,
        "dog": 1062.7346001134001,
        "frog": 1650.3263627607942,
        "horse": 1329.304286360812,
        "ship": 965.1894900086863,
        "truck": 1121.6353701894727
    },
    "fid": 821.7653318547636,
    "wasserstein_distance": null,
    "g_loss": null,
    "g_cost": null,
    "d_loss_real": null,
    "d_loss_fake": null
}