{
    "epoch": 54,
    "avg_current_window": 1492.7638087451996,
    "avg_prior_window": 1553.995549161834,
    "inception_score_mean": 1.5360727405430148,
    "inception_score_std": 0.08080253751158403,
    "fid_per_class": {
        "airplane": 1181.3100920542888,
        "automobile": 1375.4257518645663,
        "bird": 1564.965106237516,
        "cat": 1344.042074277999,
        "deer": 1717.6516153719251,
        "dog": 1512.700263570855,
        "frog": 2080.738510238366,
        "horse": 1675.0198780678447,
        "ship": 1158.6353644849198,
        "truck": 1230.164463243365
    },
    "fid": 1167.538021911118,
    "wasserstein_distance": null,
    "g_loss": null,
    "g_cost": null,
    "d_loss_real": null,
    "d_loss_fake": null
}