{
    "epoch": 31,
    "avg_current_window": 1732.518420960678,
    "avg_prior_window": 1883.523943935213,
    "inception_score_mean": 1.316856610520524,
    "inception_score_std": 0.06758713433802885,
    "fid_per_class": {
        "airplane": 1472.3286937257592,
        "automobile": 1525.6360643902551,
        "bird": 1541.9286793504612,
        "cat": 1421.568739300737,
        "deer": 1716.0507067268045,
        "dog": 1715.9447979972433,
        "frog": 1976.3294581650857,
        "horse": 1625.2801276493105,
        "ship": 1373.29852575524,
        "truck": 1341.2811625852405
    },
    "fid": 1325.0951574681885,
    "wasserstein_distance": null,
    "g_loss": null,
    "g_cost": null,
    "d_loss_real": null,
    "d_loss_fake": null
}