{
    "epoch": 185,
    "avg_current_window": 1040.425688759563,
    "avg_prior_window": 1051.8311119314078,
    "inception_score_mean": 1.8881369140618411,
    "inception_score_std": 0.14821367452861783,
    "fid_per_class": {
        "airplane": 902.4005279119883,
        "automobile": 1158.8366830644482,
        "bird": 1263.8227400866554,
        "cat": 1208.4821529933517,
        "deer": 1493.5009284047073,
        "dog": 1234.1796525837617,
        "frog": 1587.2731160408116,
        "horse": 1368.7093084855162,
        "ship": 924.8881814672523,
        "truck": 1031.2999641567908
    },
    "fid": 844.4421320865114,
    "wasserstein_distance": null,
    "g_loss": null,
    "g_cost": null,
    "d_loss_real": null,
    "d_loss_fake": null
}