{
    "epoch": 107,
    "avg_current_window": 1210.2578518309374,
    "avg_prior_window": 1234.8906060768393,
    "inception_score_mean": 1.692662124015569,
    "inception_score_std": 0.07718701509670091,
    "fid_per_class": {
        "airplane": 994.0298602704247,
        "automobile": 1228.302070648374,
        "bird": 1397.339620945578,
        "cat": 1078.2864906976765,
        "deer": 1501.3172707780636,
        "dog": 1247.1228493490805,
        "frog": 1714.559757277905,
        "horse": 1384.6719433766516,
        "ship": 1022.7576611665154,
        "truck": 1146.5294026849785
    },
    "fid": 895.433102830554,
    "wasserstein_distance": null,
    "g_loss": null,
    "g_cost": null,
    "d_loss_real": null,
    "d_loss_fake": null
}