{
    "epoch": 179,
    "avg_current_window": 1048.790094456263,
    "avg_prior_window": 1061.080324527136,
    "inception_score_mean": 1.9589999321120568,
    "inception_score_std": 0.14631612517124626,
    "fid_per_class": {
        "airplane": 925.9869282695752,
        "automobile": 1208.9137488019887,
        "bird": 1293.1608859488315,
        "cat": 1061.8572626580817,
        "deer": 1436.9735610506361,
        "dog": 1121.3583915343363,
        "frog": 1530.9271063653437,
        "horse": 1322.7888344089524,
        "ship": 919.6036631219225,
        "truck": 1099.3295051448201
    },
    "fid": 799.1177478997131,
    "wasserstein_distance": null,
    "g_loss": null,
    "g_cost": null,
    "d_loss_real": null,
    "d_loss_fake": null
}