{
    "epoch": 22,
    "avg_current_window": 1939.8360059668667,
    "avg_prior_window": 2047.651627436431,
    "inception_score_mean": 1.2205033371897538,
    "inception_score_std": 0.054692082160099784,
    "fid_per_class": {
        "airplane": 1651.9061638234773,
        "automobile": 1563.8323637929766,
        "bird": 2238.1168885049724,
        "cat": 2215.3432883819078,
        "deer": 2503.595461251388,
        "dog": 2058.670186894027,
        "frog": 2451.1955021491162,
        "horse": 2309.8597607821257,
        "ship": 1548.0578882218952,
        "truck": 1278.6489076663158
    },
    "fid": 1674.3759124518247,
    "wasserstein_distance": null,
    "g_loss": null,
    "g_cost": null,
    "d_loss_real": null,
    "d_loss_fake": null
}