{
    "epoch": 68,
    "avg_current_window": 1390.1608176548086,
    "avg_prior_window": 1441.7703767727166,
    "inception_score_mean": 1.6593158138100592,
    "inception_score_std": 0.04570368551736313,
    "fid_per_class": {
        "airplane": 1122.539929181989,
        "automobile": 1290.6639189071498,
        "bird": 1445.1771252748592,
        "cat": 1081.376071023231,
        "deer": 1582.5588814700652,
        "dog": 1270.6197766144246,
        "frog": 1764.6051309886545,
        "horse": 1343.5632129272758,
        "ship": 1104.8701637969702,
        "truck": 1194.4136289663875
    },
    "fid": 987.0600267097445,
    "wasserstein_distance": null,
    "g_loss": null,
    "g_cost": null,
    "d_loss_real": null,
    "d_loss_fake": null
}