{
    "epoch": 148,
    "avg_current_window": 1102.7095402462567,
    "avg_prior_window": 1118.5413775341124,
    "inception_score_mean": 1.7526813147849372,
    "inception_score_std": 0.12665025158611207,
    "fid_per_class": {
        "airplane": 962.7875084140433,
        "automobile": 1210.2349896581986,
        "bird": 1271.472813258574,
        "cat": 1034.3633855651833,
        "deer": 1453.6631206320221,
        "dog": 1087.5619955822908,
        "frog": 1592.7666741487706,
        "horse": 1296.6510002869265,
        "ship": 1017.1722099587546,
        "truck": 1135.2235374502325
    },
    "fid": 829.3660717229407,
    "wasserstein_distance": null,
    "g_loss": null,
    "g_cost": null,
    "d_loss_real": null,
    "d_loss_fake": null
}