{
    "epoch": 142,
    "avg_current_window": 1114.6983389111315,
    "avg_prior_window": 1131.8505119518547,
    "inception_score_mean": 1.8029059302731376,
    "inception_score_std": 0.1437330278429032,
    "fid_per_class": {
        "airplane": 909.0672626925912,
        "automobile": 1200.66103847149,
        "bird": 1286.9883647352299,
        "cat": 1260.5163494599024,
        "deer": 1491.9582468028716,
        "dog": 1172.8760264253076,
        "frog": 1593.361632372895,
        "horse": 1299.0552912545058,
        "ship": 980.9931776540204,
        "truck": 1075.067153362814
    },
    "fid": 840.09025800573,
    "wasserstein_distance": null,
    "g_loss": null,
    "g_cost": null,
    "d_loss_real": null,
    "d_loss_fake": null
}