{
    "epoch": 8,
    "avg_current_window": 1584.0747916523187,
    "avg_prior_window": 1.0,
    "inception_score_mean": 1.1239016251960856,
    "inception_score_std": 0.06992120586631155,
    "fid_per_class": {
        "airplane": 2048.564050612294,
        "automobile": 1945.3763262180241,
        "bird": 2412.143331870262,
        "cat": 2167.687342625404,
        "deer": 2507.200672079342,
        "dog": 2464.9508167007525,
        "frog": 2685.697244644005,
        "horse": 2316.1594206301734,
        "ship": 2012.0216854058517,
        "truck": 2181.658655593418
    },
    "fid": 2033.8403172014362,
    "wasserstein_distance": null,
    "g_loss": null,
    "g_cost": null,
    "d_loss_real": null,
    "d_loss_fake": null
}