{
    "epoch": 98,
    "avg_current_window": 1242.7785572537432,
    "avg_prior_window": 1271.697337939966,
    "inception_score_mean": 1.6746018580307271,
    "inception_score_std": 0.08065371018450497,
    "fid_per_class": {
        "airplane": 1034.877425222339,
        "automobile": 1238.2182537623867,
        "bird": 1316.835551415378,
        "cat": 1096.8794579735602,
        "deer": 1399.8625560641544,
        "dog": 1187.1643299525967,
        "frog": 1617.9883213477765,
        "horse": 1326.666185197267,
        "ship": 965.4881838504987,
        "truck": 1094.9499736062976
    },
    "fid": 865.5109374526077,
    "wasserstein_distance": null,
    "g_loss": null,
    "g_cost": null,
    "d_loss_real": null,
    "d_loss_fake": null
}