{
    "epoch": 82,
    "avg_current_window": 1311.7818569786052,
    "avg_prior_window": 1350.3921795775593,
    "inception_score_mean": 1.6556221133137399,
    "inception_score_std": 0.12853911060381418,
    "fid_per_class": {
        "airplane": 1061.3426871214454,
        "automobile": 1307.6225694089337,
        "bird": 1471.0009995341463,
        "cat": 1121.0159937940332,
        "deer": 1563.4191711084434,
        "dog": 1181.8879385664636,
        "frog": 1672.512292248772,
        "horse": 1413.3194027044124,
        "ship": 1095.0905055941103,
        "truck": 1155.888932331583
    },
    "fid": 959.2605983420099,
    "wasserstein_distance": null,
    "g_loss": null,
    "g_cost": null,
    "d_loss_real": null,
    "d_loss_fake": null
}