{
    "epoch": 120,
    "avg_current_window": 1169.375115651027,
    "avg_prior_window": 1191.4541391626178,
    "inception_score_mean": 1.8664802948942605,
    "inception_score_std": 0.09606440283887477,
    "fid_per_class": {
        "airplane": 935.7433072703535,
        "automobile": 1124.5666381954347,
        "bird": 1234.2858467942601,
        "cat": 915.0554982451855,
        "deer": 1342.224303137827,
        "dog": 1120.3704032189567,
        "frog": 1616.0375547329045,
        "horse": 1201.955045456405,
        "ship": 919.1325236888576,
        "truck": 1090.1495506576716
    },
    "fid": 756.7937928709532,
    "wasserstein_distance": null,
    "g_loss": null,
    "g_cost": null,
    "d_loss_real": null,
    "d_loss_fake": null
}