{
    "epoch": 15,
    "avg_current_window": 1806.5722781139377,
    "avg_prior_window": 1864.7703952814768,
    "inception_score_mean": 1.0000039711828077,
    "inception_score_std": 3.7750496745080553e-06,
    "fid_per_class": {
        "airplane": 2179.6856945052214,
        "automobile": 2329.296690347898,
        "bird": 2551.5276880868905,
        "cat": 2658.260943170415,
        "deer": 2840.3447217690864,
        "dog": 2691.2458112839663,
        "frog": 2986.2109768178443,
        "horse": 2749.5719737719505,
        "ship": 2335.586483232322,
        "truck": 2384.542302304026
    },
    "fid": 2560.2087796839432,
    "wasserstein_distance": null,
    "g_loss": null,
    "g_cost": null,
    "d_loss_real": null,
    "d_loss_fake": null
}