{
    "epoch": 187,
    "avg_current_window": 1038.2969284920823,
    "avg_prior_window": 1048.9510762881077,
    "inception_score_mean": 1.9439828393281122,
    "inception_score_std": 0.10848834407766925,
    "fid_per_class": {
        "airplane": 885.339457877911,
        "automobile": 1119.4686530480612,
        "bird": 1159.2099353982574,
        "cat": 998.8301042322288,
        "deer": 1393.9931806129143,
        "dog": 1034.9300470786095,
        "frog": 1547.2459091900491,
        "horse": 1254.1595062831798,
        "ship": 982.9868748065883,
        "truck": 1022.9204940605662
    },
    "fid": 743.7909031939878,
    "wasserstein_distance": null,
    "g_loss": null,
    "g_cost": null,
    "d_loss_real": null,
    "d_loss_fake": null
}