{
    "epoch": 3,
    "avg_current_window": 623.3036626034714,
    "avg_prior_window": 1758.2569081485042,
    "inception_score_mean": 1.092046770448928,
    "inception_score_std": 0.017614465090864777,
    "fid_per_class": {
        "airplane": 1641.6215515791905,
        "automobile": 1977.018652533866,
        "bird": 2265.7114093366517,
        "cat": 2170.7662149226007,
        "deer": 2284.287636761273,
        "dog": 2138.668319981988,
        "frog": 2458.1098438137506,
        "horse": 2274.826063682491,
        "ship": 1640.9711799506956,
        "truck": 2125.2370796656205
    },
    "fid": 1865.8874787110192,
    "wasserstein_distance": null,
    "g_loss": null,
    "g_cost": null,
    "d_loss_real": null,
    "d_loss_fake": null
}