{
    "epoch": 27,
    "avg_current_window": 1813.7637978635385,
    "avg_prior_window": 2015.9440019874041,
    "inception_score_mean": 1.3039579315491174,
    "inception_score_std": 0.05573061379873848,
    "fid_per_class": {
        "airplane": 1236.3306780344074,
        "automobile": 1307.461125017798,
        "bird": 1330.4146037147314,
        "cat": 1075.0374403156666,
        "deer": 1481.522394624686,
        "dog": 1326.5411360360588,
        "frog": 1438.4524796355631,
        "horse": 1435.6902185801368,
        "ship": 1222.104852294388,
        "truck": 1165.621247269643
    },
    "fid": 972.1278738051321,
    "wasserstein_distance": null,
    "g_loss": null,
    "g_cost": null,
    "d_loss_real": null,
    "d_loss_fake": null
}