{
    "epoch": 132,
    "avg_current_window": 1137.8837587726673,
    "avg_prior_window": 1156.4935108671496,
    "inception_score_mean": 1.8451003627125668,
    "inception_score_std": 0.14134047278635237,
    "fid_per_class": {
        "airplane": 929.3157093607751,
        "automobile": 1234.5468757518784,
        "bird": 1304.284603042177,
        "cat": 1016.4425293639802,
        "deer": 1506.0895786785031,
        "dog": 1231.7611100786976,
        "frog": 1786.9613627467013,
        "horse": 1294.7320032301968,
        "ship": 967.4056393681884,
        "truck": 1118.540848727429
    },
    "fid": 842.7492629180606,
    "wasserstein_distance": null,
    "g_loss": null,
    "g_cost": null,
    "d_loss_real": null,
    "d_loss_fake": null
}