{
    "epoch": 121,
    "avg_current_window": 1165.9653526528446,
    "avg_prior_window": 1188.2463012148312,
    "inception_score_mean": 1.8188534530842801,
    "inception_score_std": 0.0718878616257531,
    "fid_per_class": {
        "airplane": 1084.7690671515813,
        "automobile": 1260.1217772363323,
        "bird": 1400.595421059392,
        "cat": 1075.2585273863833,
        "deer": 1579.8788674608884,
        "dog": 1262.7507734640963,
        "frog": 1806.511747241646,
        "horse": 1459.5984544036032,
        "ship": 1130.8126334395415,
        "truck": 1178.3175617396269
    },
    "fid": 971.1967628022884,
    "wasserstein_distance": null,
    "g_loss": null,
    "g_cost": null,
    "d_loss_real": null,
    "d_loss_fake": null
}