{
    "epoch": 189,
    "avg_current_window": 1035.7550642514507,
    "avg_prior_window": 1046.0801761984737,
    "inception_score_mean": 1.8333045034500426,
    "inception_score_std": 0.10885187987170096,
    "fid_per_class": {
        "airplane": 1055.7299918333808,
        "automobile": 1301.9507257570058,
        "bird": 1336.9219205660488,
        "cat": 1192.9404068843262,
        "deer": 1525.085221089817,
        "dog": 1214.1438977198547,
        "frog": 1795.3791850086031,
        "horse": 1408.9536775846889,
        "ship": 1055.0599370744258,
        "truck": 1080.7777510065403
    },
    "fid": 917.1481100461737,
    "wasserstein_distance": null,
    "g_loss": null,
    "g_cost": null,
    "d_loss_real": null,
    "d_loss_fake": null
}