{
    "epoch": 87,
    "avg_current_window": 1288.4281461126686,
    "avg_prior_window": 1323.4801569583858,
    "inception_score_mean": 1.7136906351908816,
    "inception_score_std": 0.14596690365678663,
    "fid_per_class": {
        "airplane": 975.2936699341367,
        "automobile": 1212.8799952245404,
        "bird": 1442.878626058378,
        "cat": 1099.8418478924928,
        "deer": 1496.801493158482,
        "dog": 1275.3765948364216,
        "frog": 1705.4540231835213,
        "horse": 1320.343707891691,
        "ship": 983.0185066749307,
        "truck": 1064.3567530249143
    },
    "fid": 888.0368255056416,
    "wasserstein_distance": null,
    "g_loss": null,
    "g_cost": null,
    "d_loss_real": null,
    "d_loss_fake": null
}