{
    "epoch": 180,
    "avg_current_window": 1047.4030258642824,
    "avg_prior_window": 1059.303857642048,
    "inception_score_mean": 1.8281388067325275,
    "inception_score_std": 0.1054680976695052,
    "fid_per_class": {
        "airplane": 901.4155923227902,
        "automobile": 1164.4031964853475,
        "bird": 1193.6283982785021,
        "cat": 1071.0898829934272,
        "deer": 1374.2897134406483,
        "dog": 1157.8433453638136,
        "frog": 1518.2792627470812,
        "horse": 1308.5820934795843,
        "ship": 940.8807709939199,
        "truck": 1042.7774645003055
    },
    "fid": 797.0554920825722,
    "wasserstein_distance": null,
    "g_loss": null,
    "g_cost": null,
    "d_loss_real": null,
    "d_loss_fake": null
}