{
    "epoch": 123,
    "avg_current_window": 1161.3878943350883,
    "avg_prior_window": 1182.2311604788144,
    "inception_score_mean": 1.8297926456723441,
    "inception_score_std": 0.1225359808401077,
    "fid_per_class": {
        "airplane": 977.8378962065935,
        "automobile": 1148.8667055500105,
        "bird": 1274.0721693870687,
        "cat": 962.241043124342,
        "deer": 1470.1371110999846,
        "dog": 1121.4204134135402,
        "frog": 1574.378729517837,
        "horse": 1252.2547531729442,
        "ship": 1010.4406810682638,
        "truck": 1088.544596942613
    },
    "fid": 803.9580361358788,
    "wasserstein_distance": null,
    "g_loss": null,
    "g_cost": null,
    "d_loss_real": null,
    "d_loss_fake": null
}