{
    "epoch": 45,
    "avg_current_window": 1563.8904167418666,
    "avg_prior_window": 1638.9391942374737,
    "inception_score_mean": 1.7036238985898564,
    "inception_score_std": 0.1289652502683272,
    "fid_per_class": {
        "airplane": 1180.960568982415,
        "automobile": 1281.6421639070445,
        "bird": 1612.2081748740638,
        "cat": 1268.7379645850006,
        "deer": 1707.1898826389365,
        "dog": 1457.49417104942,
        "frog": 2045.4107996995494,
        "horse": 1668.1835314703192,
        "ship": 1188.2158248409214,
        "truck": 1175.507755053682
    },
    "fid": 1137.3782581797693,
    "wasserstein_distance": null,
    "g_loss": null,
    "g_cost": null,
    "d_loss_real": null,
    "d_loss_fake": null
}