{
    "epoch": 50,
    "avg_current_window": 1522.9156381785974,
    "avg_prior_window": 1589.1654891458616,
    "inception_score_mean": 1.660166474762795,
    "inception_score_std": 0.06744479560716062,
    "fid_per_class": {
        "airplane": 1091.5096611763813,
        "automobile": 1377.5070778948755,
        "bird": 1707.2789772610888,
        "cat": 1466.9231266526026,
        "deer": 1898.7562202081187,
        "dog": 1807.09651709654,
        "frog": 2248.325840891517,
        "horse": 1684.6751914344813,
        "ship": 1152.422164087868,
        "truck": 1094.280614264827
    },
    "fid": 1228.8842562258349,
    "wasserstein_distance": null,
    "g_loss": null,
    "g_cost": null,
    "d_loss_real": null,
    "d_loss_fake": null
}