{
    "epoch": 193,
    "avg_current_window": 1031.9912589661815,
    "avg_prior_window": 1041.2643996995969,
    "inception_score_mean": 1.8649513727085356,
    "inception_score_std": 0.1329474780524838,
    "fid_per_class": {
        "airplane": 921.923203304012,
        "automobile": 1160.3542777178159,
        "bird": 1254.5011923118454,
        "cat": 1039.3788712043443,
        "deer": 1409.0212238626207,
        "dog": 1071.786368425948,
        "frog": 1570.706375307585,
        "horse": 1251.6751521399915,
        "ship": 979.2032337862474,
        "truck": 1040.4169624733381
    },
    "fid": 789.8712368757538,
    "wasserstein_distance": null,
    "g_loss": null,
    "g_cost": null,
    "d_loss_real": null,
    "d_loss_fake": null
}