{
    "epoch": 145,
    "avg_current_window": 1108.6879090138848,
    "avg_prior_window": 1124.8836249346252,
    "inception_score_mean": 1.865482226733477,
    "inception_score_std": 0.13322825941049907,
    "fid_per_class": {
        "airplane": 925.4401477519028,
        "automobile": 1126.329325301503,
        "bird": 1222.0904658705315,
        "cat": 1002.8470742856623,
        "deer": 1408.3739355628636,
        "dog": 1111.7944765884547,
        "frog": 1532.676273235595,
        "horse": 1200.3247406768137,
        "ship": 985.2385493583349,
        "truck": 1080.4618589504914
    },
    "fid": 789.3662128722867,
    "wasserstein_distance": null,
    "g_loss": null,
    "g_cost": null,
    "d_loss_real": null,
    "d_loss_fake": null
}