{
    "epoch": 90,
    "avg_current_window": 1275.1907865946912,
    "avg_prior_window": 1307.9314016141761,
    "inception_score_mean": 1.6727132564639366,
    "inception_score_std": 0.1443708474261273,
    "fid_per_class": {
        "airplane": 1034.345297755694,
        "automobile": 1224.6366810610195,
        "bird": 1465.9662306411742,
        "cat": 1067.2891099962044,
        "deer": 1516.8685991821192,
        "dog": 1242.7597094850007,
        "frog": 1700.5836213088332,
        "horse": 1375.3261841899016,
        "ship": 943.5919890124387,
        "truck": 1064.7506813620034
    },
    "fid": 906.2786330059413,
    "wasserstein_distance": null,
    "g_loss": null,
    "g_cost": null,
    "d_loss_real": null,
    "d_loss_fake": null
}