{
    "epoch": 177,
    "avg_current_window": 1051.6874254901888,
    "avg_prior_window": 1064.1892036501722,
    "inception_score_mean": 1.874363312029153,
    "inception_score_std": 0.13396439756102438,
    "fid_per_class": {
        "airplane": 947.2038497879909,
        "automobile": 1185.7949312405458,
        "bird": 1353.5782787810613,
        "cat": 1086.686346866877,
        "deer": 1460.5747876988942,
        "dog": 1103.3000491150854,
        "frog": 1551.9573780650926,
        "horse": 1299.0705182609363,
        "ship": 970.3538843334693,
        "truck": 1062.1060454955918
    },
    "fid": 840.8383132379088,
    "wasserstein_distance": null,
    "g_loss": null,
    "g_cost": null,
    "d_loss_real": null,
    "d_loss_fake": null
}