{
    "epoch": 116,
    "avg_current_window": 1181.1829827905262,
    "avg_prior_window": 1203.7774685860309,
    "inception_score_mean": 1.834272979998578,
    "inception_score_std": 0.13965694629688513,
    "fid_per_class": {
        "airplane": 966.6813062820692,
        "automobile": 1195.9444359524437,
        "bird": 1210.3967960470918,
        "cat": 1004.9151268552974,
        "deer": 1403.650216144094,
        "dog": 1159.7462229115495,
        "frog": 1649.1292337456207,
        "horse": 1287.597344773019,
        "ship": 941.4688126382309,
        "truck": 1116.8737381491849
    },
    "fid": 819.3449372193721,
    "wasserstein_distance": null,
    "g_loss": null,
    "g_cost": null,
    "d_loss_real": null,
    "d_loss_fake": null
}