{
    "epoch": 136,
    "avg_current_window": 1127.9037132306369,
    "avg_prior_window": 1146.5698943358175,
    "inception_score_mean": 1.8111205010752567,
    "inception_score_std": 0.10833588416471163,
    "fid_per_class": {
        "airplane": 987.0279408511756,
        "automobile": 1256.927216650234,
        "bird": 1249.7747182088317,
        "cat": 1082.8932356011287,
        "deer": 1501.3688377064702,
        "dog": 1204.96552069756,
        "frog": 1650.670097825101,
        "horse": 1303.59684059312,
        "ship": 1040.7553771679773,
        "truck": 1130.1872356823437
    },
    "fid": 834.4755226867699,
    "wasserstein_distance": null,
    "g_loss": null,
    "g_cost": null,
    "d_loss_real": null,
    "d_loss_fake": null
}