{
    "epoch": 182,
    "avg_current_window": 1044.441073328985,
    "avg_prior_window": 1056.437924435036,
    "inception_score_mean": 1.9139674973407643,
    "inception_score_std": 0.12836674994687458,
    "fid_per_class": {
        "airplane": 1008.20483606216,
        "automobile": 1254.0055875800817,
        "bird": 1309.1919932197775,
        "cat": 1007.0612628916745,
        "deer": 1478.659389946797,
        "dog": 1069.386503700978,
        "frog": 1519.1101018268496,
        "horse": 1291.7366049420468,
        "ship": 1061.699185545801,
        "truck": 1141.9808408383353
    },
    "fid": 820.820538560318,
    "wasserstein_distance": null,
    "g_loss": null,
    "g_cost": null,
    "d_loss_real": null,
    "d_loss_fake": null
}