{
    "epoch": 62,
    "avg_current_window": 1432.4740467891734,
    "avg_prior_window": 1488.8230702378346,
    "inception_score_mean": 1.7524373891159555,
    "inception_score_std": 0.11358345239898442,
    "fid_per_class": {
        "airplane": 1167.6053220801327,
        "automobile": 1246.629111455483,
        "bird": 1516.6432006804448,
        "cat": 1216.6518275924152,
        "deer": 1671.7276500547168,
        "dog": 1376.0243947547622,
        "frog": 1952.532367711704,
        "horse": 1372.4573422676701,
        "ship": 1104.8470013267574,
        "truck": 1081.968111797266
    },
    "fid": 1034.7310552198528,
    "wasserstein_distance": null,
    "g_loss": null,
    "g_cost": null,
    "d_loss_real": null,
    "d_loss_fake": null
}