{
    "epoch": 4,
    "avg_current_window": 1371.2638436674843,
    "avg_prior_window": 1757.2569081485042,
    "inception_score_mean": 1.102236944699402,
    "inception_score_std": 0.059137376211474885,
    "fid_per_class": {
        "airplane": 1550.9844017370824,
        "automobile": 1730.914698787008,
        "bird": 1950.5067708434372,
        "cat": 2108.688988581957,
        "deer": 2103.033193616853,
        "dog": 2014.1542162807825,
        "frog": 2305.4634422739587,
        "horse": 1953.8662963706433,
        "ship": 1463.278759265971,
        "truck": 1752.238957835353
    },
    "fid": 1668.8078205553788,
    "wasserstein_distance": null,
    "g_loss": null,
    "g_cost": null,
    "d_loss_real": null,
    "d_loss_fake": null
}