{
    "epoch": 51,
    "avg_current_window": 1517.1503169638374,
    "avg_prior_window": 1581.3751501653508,
    "inception_score_mean": 1.6475549727264784,
    "inception_score_std": 0.0979572899748571,
    "fid_per_class": {
        "airplane": 1118.3120371654968,
        "automobile": 1415.8549135377825,
        "bird": 1576.993238060746,
        "cat": 1359.8868960919892,
        "deer": 1851.7536216424494,
        "dog": 1547.8787499840525,
        "frog": 2209.057816593831,
        "horse": 1633.928394541956,
        "ship": 1119.9703595627998,
        "truck": 1163.859070901598
    },
    "fid": 1148.3226508184316,
    "wasserstein_distance": null,
    "g_loss": null,
    "g_cost": null,
    "d_loss_real": null,
    "d_loss_fake": null
}