{
    "epoch": 196,
    "avg_current_window": 1028.1867443540436,
    "avg_prior_window": 1038.1904740788498,
    "inception_score_mean": 1.812203306997692,
    "inception_score_std": 0.13019157888044394,
    "fid_per_class": {
        "airplane": 953.8548421621576,
        "automobile": 1194.7293574640044,
        "bird": 1381.2638015320365,
        "cat": 1089.587939713229,
        "deer": 1684.406647218757,
        "dog": 1189.1210693209684,
        "frog": 1771.5324309176483,
        "horse": 1360.3906457238718,
        "ship": 951.2956353021332,
        "truck": 1101.8957213554704
    },
    "fid": 875.8388608987249,
    "wasserstein_distance": null,
    "g_loss": null,
    "g_cost": null,
    "d_loss_real": null,
    "d_loss_fake": null
}