{
    "epoch": 13,
    "avg_current_window": 1737.0155767410643,
    "avg_prior_window": 1838.3048313024983,
    "inception_score_mean": 1.0677390830933198,
    "inception_score_std": 0.01614414181052881,
    "fid_per_class": {
        "airplane": 2002.4447768366258,
        "automobile": 2052.036626246346,
        "bird": 2373.2099452166917,
        "cat": 2254.3319988680255,
        "deer": 2374.9861772819363,
        "dog": 2434.310005244774,
        "frog": 2778.155411350219,
        "horse": 2246.175429818418,
        "ship": 2026.7446794213652,
        "truck": 2013.3841177491968
    },
    "fid": 2092.4409507743862,
    "wasserstein_distance": null,
    "g_loss": null,
    "g_cost": null,
    "d_loss_real": null,
    "d_loss_fake": null
}