{
    "epoch": 57,
    "avg_current_window": 1470.0014615585012,
    "avg_prior_window": 1531.1458872841356,
    "inception_score_mean": 1.6508858196471194,
    "inception_score_std": 0.13856866796584363,
    "fid_per_class": {
        "airplane": 1086.0732435915775,
        "automobile": 1267.938223679562,
        "bird": 1555.4253310704685,
        "cat": 1258.3950112112484,
        "deer": 1716.6416422027855,
        "dog": 1414.1904465807697,
        "frog": 2066.774256591314,
        "horse": 1547.7393571996524,
        "ship": 1085.357147953028,
        "truck": 1085.052084214873
    },
    "fid": 1072.8316947219996,
    "wasserstein_distance": null,
    "g_loss": null,
    "g_cost": null,
    "d_loss_real": null,
    "d_loss_fake": null
}