{
    "epoch": 150,
    "avg_current_window": 1098.9046057339185,
    "avg_prior_window": 1114.1318139302455,
    "inception_score_mean": 1.8752447495217144,
    "inception_score_std": 0.14066500661097647,
    "fid_per_class": {
        "airplane": 985.1376224654149,
        "automobile": 1188.1018666666612,
        "bird": 1184.2701207560267,
        "cat": 1045.8289931899662,
        "deer": 1389.8239135810284,
        "dog": 1145.7261241148844,
        "frog": 1532.590995091362,
        "horse": 1244.7595717313584,
        "ship": 1054.5854027653663,
        "truck": 1094.6384298723756
    },
    "fid": 812.4987403860132,
    "wasserstein_distance": null,
    "g_loss": null,
    "g_cost": null,
    "d_loss_real": null,
    "d_loss_fake": null
}