{
    "epoch": 195,
    "avg_current_window": 1029.3932612106648,
    "avg_prior_window": 1039.3781293475365,
    "inception_score_mean": 1.8777685530412902,
    "inception_score_std": 0.1126009988913131,
    "fid_per_class": {
        "airplane": 932.9319264929666,
        "automobile": 1206.6005947343053,
        "bird": 1236.4265181251349,
        "cat": 977.9598071844385,
        "deer": 1448.2443053072386,
        "dog": 1117.5703817215274,
        "frog": 1498.781134997833,
        "horse": 1304.7550287151187,
        "ship": 981.153537542034,
        "truck": 1144.1357925161387
    },
    "fid": 792.9159573129069,
    "wasserstein_distance": null,
    "g_loss": null,
    "g_cost": null,
    "d_loss_real": null,
    "d_loss_fake": null
}