{
    "epoch": 112,
    "avg_current_window": 1193.0294554736556,
    "avg_prior_window": 1218.626385502251,
    "inception_score_mean": 1.7910505703808883,
    "inception_score_std": 0.11643742942541922,
    "fid_per_class": {
        "airplane": 943.2083038627231,
        "automobile": 1198.4409193810068,
        "bird": 1195.250096810709,
        "cat": 1101.0279422949106,
        "deer": 1421.0264957077743,
        "dog": 1195.9127726951665,
        "frog": 1694.7481321577714,
        "horse": 1327.6897986595402,
        "ship": 940.7869312589619,
        "truck": 1061.0319056099736
    },
    "fid": 841.3865246506152,
    "wasserstein_distance": null,
    "g_loss": null,
    "g_cost": null,
    "d_loss_real": null,
    "d_loss_fake": null
}