{
    "epoch": 157,
    "avg_current_window": 1084.4355837378048,
    "avg_prior_window": 1099.4769377926807,
    "inception_score_mean": 1.8866189743344293,
    "inception_score_std": 0.1275317184888688,
    "fid_per_class": {
        "airplane": 951.6812846093205,
        "automobile": 1228.1736607783926,
        "bird": 1153.3225113503188,
        "cat": 980.1714172568986,
        "deer": 1453.3719869956694,
        "dog": 1083.8861485925288,
        "frog": 1429.4973122087522,
        "horse": 1242.0472281961506,
        "ship": 974.5244920628306,
        "truck": 1073.9926700240796
    },
    "fid": 773.4879840114105,
    "wasserstein_distance": null,
    "g_loss": null,
    "g_cost": null,
    "d_loss_real": null,
    "d_loss_fake": null
}