{
    "epoch": 92,
    "avg_current_window": 1266.7351879678888,
    "avg_prior_window": 1298.6354659460667,
    "inception_score_mean": 1.7611591693368722,
    "inception_score_std": 0.13463055583926517,
    "fid_per_class": {
        "airplane": 1061.0955458456597,
        "automobile": 1215.2418448643882,
        "bird": 1391.2384480696462,
        "cat": 1033.6487680871323,
        "deer": 1516.115860367954,
        "dog": 1165.127646438244,
        "frog": 1650.9663406903317,
        "horse": 1372.4271719021785,
        "ship": 957.1425276562015,
        "truck": 1134.0586602207268
    },
    "fid": 878.7453489482673,
    "wasserstein_distance": null,
    "g_loss": null,
    "g_cost": null,
    "d_loss_real": null,
    "d_loss_fake": null
}