{
    "epoch": 176,
    "avg_current_window": 1053.2850857236272,
    "avg_prior_window": 1065.6484672655588,
    "inception_score_mean": 1.9152259088844186,
    "inception_score_std": 0.14797205287430976,
    "fid_per_class": {
        "airplane": 902.2099842360759,
        "automobile": 1146.5832171382772,
        "bird": 1208.9155341385658,
        "cat": 941.2752323284012,
        "deer": 1416.783410239097,
        "dog": 1057.2505289677442,
        "frog": 1477.8061445824155,
        "horse": 1224.5885058676881,
        "ship": 971.2616621810155,
        "truck": 1081.758152034242
    },
    "fid": 770.4992244050258,
    "wasserstein_distance": null,
    "g_loss": null,
    "g_cost": null,
    "d_loss_real": null,
    "d_loss_fake": null
}