{
    "epoch": 183,
    "avg_current_window": 1043.2191031936372,
    "avg_prior_window": 1054.6821736386016,
    "inception_score_mean": 1.8436517211741261,
    "inception_score_std": 0.1401517293454049,
    "fid_per_class": {
        "airplane": 954.9701734491056,
        "automobile": 1224.7232427559145,
        "bird": 1163.6656767055,
        "cat": 987.976185477735,
        "deer": 1425.0057613139556,
        "dog": 1014.0884138648598,
        "frog": 1443.4962610498094,
        "horse": 1268.1114867461854,
        "ship": 972.9240029743939,
        "truck": 1138.8642725681398
    },
    "fid": 803.7786663058264,
    "wasserstein_distance": null,
    "g_loss": null,
    "g_cost": null,
    "d_loss_real": null,
    "d_loss_fake": null
}