{
    "epoch": 139,
    "avg_current_window": 1121.4712866775478,
    "avg_prior_window": 1139.3235629941007,
    "inception_score_mean": 1.8802826164679616,
    "inception_score_std": 0.18024938571080185,
    "fid_per_class": {
        "airplane": 1013.7711580588915,
        "automobile": 1220.6262685896,
        "bird": 1210.3076967217985,
        "cat": 991.8130736610608,
        "deer": 1349.5242409657023,
        "dog": 1124.5920942267592,
        "frog": 1410.0080990260292,
        "horse": 1323.5690141607738,
        "ship": 985.4637077040263,
        "truck": 1104.5748089565445
    },
    "fid": 770.8133885514067,
    "wasserstein_distance": null,
    "g_loss": null,
    "g_cost": null,
    "d_loss_real": null,
    "d_loss_fake": null
}