{
    "epoch": 73,
    "avg_current_window": 1362.1099489123114,
    "avg_prior_window": 1404.6764062828931,
    "inception_score_mean": 1.7284047658629287,
    "inception_score_std": 0.112509661896688,
    "fid_per_class": {
        "airplane": 1030.8083649497944,
        "automobile": 1270.2779244401704,
        "bird": 1362.9630115898353,
        "cat": 1101.3055504864,
        "deer": 1475.0387604854602,
        "dog": 1143.0436282873466,
        "frog": 1793.9036174990724,
        "horse": 1395.834445979934,
        "ship": 948.1598602096133,
        "truck": 1113.4933328583766
    },
    "fid": 915.3982829902869,
    "wasserstein_distance": null,
    "g_loss": null,
    "g_cost": null,
    "d_loss_real": null,
    "d_loss_fake": null
}