{
    "epoch": 135,
    "avg_current_window": 1130.8841291941444,
    "avg_prior_window": 1149.493675065818,
    "inception_score_mean": 1.9042480237917823,
    "inception_score_std": 0.08514076005816634,
    "fid_per_class": {
        "airplane": 874.4667952989826,
        "automobile": 1150.7080107820943,
        "bird": 1200.04819980216,
        "cat": 963.7995738171819,
        "deer": 1400.8082493949357,
        "dog": 1031.358632622172,
        "frog": 1502.0569626351912,
        "horse": 1228.1590979106277,
        "ship": 884.0944827790602,
        "truck": 966.0766624946416
    },
    "fid": 725.5475581571116,
    "wasserstein_distance": null,
    "g_loss": null,
    "g_cost": null,
    "d_loss_real": null,
    "d_loss_fake": null
}