{
    "epoch": 41,
    "avg_current_window": 1598.9650675487546,
    "avg_prior_window": 1684.9425634066383,
    "inception_score_mean": 1.7184524759231148,
    "inception_score_std": 0.10954478974903559,
    "fid_per_class": {
        "airplane": 1144.3242963785733,
        "automobile": 1274.4469336743741,
        "bird": 1531.1022722183814,
        "cat": 1286.5436786582172,
        "deer": 1771.8372494993712,
        "dog": 1449.4649081508815,
        "frog": 2082.301342785586,
        "horse": 1655.410579824786,
        "ship": 1102.911293620253,
        "truck": 1175.6942270065558
    },
    "fid": 1123.3181097745412,
    "wasserstein_distance": null,
    "g_loss": null,
    "g_cost": null,
    "d_loss_real": null,
    "d_loss_fake": null
}