{
    "epoch": 154,
    "avg_current_window": 1090.3001095204922,
    "avg_prior_window": 1106.2798044301194,
    "inception_score_mean": 1.8047878410864637,
    "inception_score_std": 0.14565533054483581,
    "fid_per_class": {
        "airplane": 903.5575987933519,
        "automobile": 1154.9492895485816,
        "bird": 1117.9222521992726,
        "cat": 1085.2870441999034,
        "deer": 1279.092986759811,
        "dog": 1154.6502672466895,
        "frog": 1388.1650682041802,
        "horse": 1193.39081679452,
        "ship": 883.8908110280147,
        "truck": 1075.632210787923
    },
    "fid": 746.5895304758494,
    "wasserstein_distance": null,
    "g_loss": null,
    "g_cost": null,
    "d_loss_real": null,
    "d_loss_fake": null
}