{
    "epoch": 75,
    "avg_current_window": 1350.0630847534908,
    "avg_prior_window": 1392.0334020657338,
    "inception_score_mean": 1.647831961045378,
    "inception_score_std": 0.12366724597991695,
    "fid_per_class": {
        "airplane": 1076.685478103316,
        "automobile": 1324.8954217441878,
        "bird": 1435.004769029823,
        "cat": 1179.476667456422,
        "deer": 1414.9937774209634,
        "dog": 1262.0776730098876,
        "frog": 1660.878002808211,
        "horse": 1344.7196308948799,
        "ship": 1110.62488340393,
        "truck": 1184.089597220242
    },
    "fid": 967.3570572414117,
    "wasserstein_distance": null,
    "g_loss": null,
    "g_cost": null,
    "d_loss_real": null,
    "d_loss_fake": null
}