{
    "epoch": 109,
    "avg_current_window": 1203.6263855964717,
    "avg_prior_window": 1228.7085293405999,
    "inception_score_mean": 1.7680270364909276,
    "inception_score_std": 0.12429621513521047,
    "fid_per_class": {
        "airplane": 888.5836339336452,
        "automobile": 1121.529337022355,
        "bird": 1172.793132910966,
        "cat": 1085.406627038643,
        "deer": 1445.7577764311823,
        "dog": 1229.0281549457306,
        "frog": 1719.7018302111358,
        "horse": 1293.8198185759688,
        "ship": 971.4820116645853,
        "truck": 1054.3956014627277
    },
    "fid": 814.733417197782,
    "wasserstein_distance": null,
    "g_loss": null,
    "g_cost": null,
    "d_loss_real": null,
    "d_loss_fake": null
}