{
    "epoch": 162,
    "avg_current_window": 1075.8210537351522,
    "avg_prior_window": 1089.3622587952025,
    "inception_score_mean": 1.8003216143288807,
    "inception_score_std": 0.12889280880508122,
    "fid_per_class": {
        "airplane": 935.6102345615167,
        "automobile": 1186.4722514276891,
        "bird": 1083.9824113374623,
        "cat": 1054.8152867321494,
        "deer": 1319.1254098612699,
        "dog": 1127.356106542846,
        "frog": 1413.9404707165277,
        "horse": 1238.999013879006,
        "ship": 1003.2876424281854,
        "truck": 1057.4218043147318
    },
    "fid": 756.9409384738298,
    "wasserstein_distance": null,
    "g_loss": null,
    "g_cost": null,
    "d_loss_real": null,
    "d_loss_fake": null
}