{
    "epoch": 116,
    "avg_current_window": 733.3052574587591,
    "avg_prior_window": 742.2774100965297,
    "inception_score_mean": 1.9838861921300623,
    "inception_score_std": 0.15945353461076262,
    "fid_per_class": {
        "airplane": 865.6411765897863,
        "automobile": 1095.138624284767,
        "bird": 1236.7416153797624,
        "cat": 996.735925652685,
        "deer": 1270.003738987546,
        "dog": 966.049002957161,
        "frog": 1283.8003634243241,
        "horse": 1020.6396956669334,
        "ship": 809.8895273294866,
        "truck": 1035.6297538637357
    },
    "fid": 655.5096101839745,
    "wasserstein_distance": null,
    "g_loss": null,
    "g_cost": null,
    "d_loss_real": null,
    "d_loss_fake": null
}