{
    "epoch": 106,
    "avg_current_window": 741.911288779703,
    "avg_prior_window": 752.4518212389688,
    "inception_score_mean": 2.0182653397716512,
    "inception_score_std": 0.11554077116436698,
    "fid_per_class": {
        "airplane": 924.7238571384148,
        "automobile": 1059.8796389641861,
        "bird": 1164.3694845142732,
        "cat": 922.7345690336913,
        "deer": 1217.0085109773977,
        "dog": 848.8371305135618,
        "frog": 1280.132350443009,
        "horse": 1085.493466758095,
        "ship": 871.4203742373784,
        "truck": 1064.607246572787
    },
    "fid": 636.8562174982123,
    "wasserstein_distance": null,
    "g_loss": null,
    "g_cost": null,
    "d_loss_real": null,
    "d_loss_fake": null
}