{
    "epoch": 58,
    "avg_current_window": 820.0740330006967,
    "avg_prior_window": 849.6800569466528,
    "inception_score_mean": 1.962566567442823,
    "inception_score_std": 0.1388522902704965,
    "fid_per_class": {
        "airplane": 835.0431496221634,
        "automobile": 1091.4769008504322,
        "bird": 1085.3822172059663,
        "cat": 950.1552406847578,
        "deer": 1214.1589275846984,
        "dog": 936.5067420272167,
        "frog": 1333.570398344141,
        "horse": 1087.6230564590228,
        "ship": 819.235607569391,
        "truck": 1118.9153951221856
    },
    "fid": 638.7623818046657,
    "wasserstein_distance": null,
    "g_loss": null,
    "g_cost": null,
    "d_loss_real": null,
    "d_loss_fake": null
}