{
    "epoch": 94,
    "avg_current_window": 751.9117161440215,
    "avg_prior_window": 766.5188723761662,
    "inception_score_mean": 1.941843118643281,
    "inception_score_std": 0.11801285451012243,
    "fid_per_class": {
        "airplane": 914.7240252468182,
        "automobile": 1140.5219392769384,
        "bird": 1167.4834538947111,
        "cat": 963.6869495597355,
        "deer": 1238.9075852246235,
        "dog": 895.6203812682235,
        "frog": 1255.6334781550113,
        "horse": 1128.9229065050552,
        "ship": 842.6497214906188,
        "truck": 1153.8211060985736
    },
    "fid": 657.9897817634743,
    "wasserstein_distance": null,
    "g_loss": null,
    "g_cost": null,
    "d_loss_real": null,
    "d_loss_fake": null
}