{
    "epoch": 59,
    "avg_current_window": 817.0009541668655,
    "avg_prior_window": 845.7839129906259,
    "inception_score_mean": 1.938081738217118,
    "inception_score_std": 0.13555514809097657,
    "fid_per_class": {
        "airplane": 841.0827691410841,
        "automobile": 1053.5215806569788,
        "bird": 1088.7833563418008,
        "cat": 944.7984427708606,
        "deer": 1293.2814533578767,
        "dog": 935.0620190783048,
        "frog": 1281.9468751581985,
        "horse": 1075.64126592695,
        "ship": 836.3754083264619,
        "truck": 976.7544827268504
    },
    "fid": 623.1518860731948,
    "wasserstein_distance": null,
    "g_loss": null,
    "g_cost": null,
    "d_loss_real": null,
    "d_loss_fake": null
}