{
    "epoch": 43,
    "avg_current_window": 879.3445031173694,
    "avg_prior_window": 924.483700006992,
    "inception_score_mean": 1.8283532786609897,
    "inception_score_std": 0.13553075717979382,
    "fid_per_class": {
        "airplane": 909.1310419873589,
        "automobile": 1197.2040358658364,
        "bird": 1216.2090518484335,
        "cat": 1069.9275247148844,
        "deer": 1354.9439360660479,
        "dog": 941.8507187071853,
        "frog": 1418.9083739564742,
        "horse": 1149.4687989695215,
        "ship": 838.9948196591562,
        "truck": 1133.7002594086061
    },
    "fid": 744.557733019606,
    "wasserstein_distance": null,
    "g_loss": null,
    "g_cost": null,
    "d_loss_real": null,
    "d_loss_fake": null
}