{
    "epoch": 40,
    "avg_current_window": 893.7662760246527,
    "avg_prior_window": 948.4851513103503,
    "inception_score_mean": 1.9843635045381878,
    "inception_score_std": 0.13209024297668298,
    "fid_per_class": {
        "airplane": 785.8741773105941,
        "automobile": 1143.1073741624741,
        "bird": 1121.5597218252753,
        "cat": 957.3221886047311,
        "deer": 1215.6923884218668,
        "dog": 924.2760216117003,
        "frog": 1321.323456599812,
        "horse": 1088.163678839687,
        "ship": 744.4654022381994,
        "truck": 1080.1672647950536
    },
    "fid": 617.3841042457378,
    "wasserstein_distance": null,
    "g_loss": null,
    "g_cost": null,
    "d_loss_real": null,
    "d_loss_fake": null
}