{
    "epoch": 62,
    "avg_current_window": 808.9912515723706,
    "avg_prior_window": 834.4612967375509,
    "inception_score_mean": 1.9214955150639637,
    "inception_score_std": 0.15190078179328628,
    "fid_per_class": {
        "airplane": 846.1874785556186,
        "automobile": 1060.692219295459,
        "bird": 1151.3542352002432,
        "cat": 986.8063570345216,
        "deer": 1259.5381191769457,
        "dog": 955.7356456914613,
        "frog": 1277.4495984191544,
        "horse": 1111.7731017097121,
        "ship": 742.5824432792592,
        "truck": 1080.4322891288293
    },
    "fid": 649.8797774568834,
    "wasserstein_distance": null,
    "g_loss": null,
    "g_cost": null,
    "d_loss_real": null,
    "d_loss_fake": null
}