{
    "epoch": 110,
    "avg_current_window": 737.1348659184666,
    "avg_prior_window": 748.9771105776049,
    "inception_score_mean": 1.9162758133816151,
    "inception_score_std": 0.08045389409004222,
    "fid_per_class": {
        "airplane": 878.3149851737703,
        "automobile": 1053.024476757149,
        "bird": 1157.9383494022622,
        "cat": 897.4418424663764,
        "deer": 1159.6187959781107,
        "dog": 884.3801612197517,
        "frog": 1201.6177586834522,
        "horse": 1070.1907973198906,
        "ship": 790.6576547617886,
        "truck": 994.2229079641488
    },
    "fid": 600.9305170203963,
    "wasserstein_distance": null,
    "g_loss": null,
    "g_cost": null,
    "d_loss_real": null,
    "d_loss_fake": null
}