{
    "epoch": 196,
    "avg_current_window": 696.0441651287018,
    "avg_prior_window": 700.5490972215143,
    "inception_score_mean": 1.894185729058055,
    "inception_score_std": 0.10918362594736007,
    "fid_per_class": {
        "airplane": 892.5574921254937,
        "automobile": 1067.7194326870042,
        "bird": 1240.6003849737604,
        "cat": 984.1993367325069,
        "deer": 1264.887402212607,
        "dog": 909.7421759131657,
        "frog": 1275.837197954616,
        "horse": 1116.2129637387895,
        "ship": 788.7288899246113,
        "truck": 975.1306545881043
    },
    "fid": 652.601411352492,
    "wasserstein_distance": null,
    "g_loss": null,
    "g_cost": null,
    "d_loss_real": null,
    "d_loss_fake": null
}