{
    "epoch": 91,
    "avg_current_window": 756.7658314387978,
    "avg_prior_window": 770.3904978412729,
    "inception_score_mean": 1.9771671914956594,
    "inception_score_std": 0.12345512525841532,
    "fid_per_class": {
        "airplane": 904.6643924881575,
        "automobile": 1074.533449300548,
        "bird": 1166.0369872930753,
        "cat": 962.6273132947642,
        "deer": 1251.7148291641874,
        "dog": 877.0146506720201,
        "frog": 1269.6007416154125,
        "horse": 1078.2540250945428,
        "ship": 888.6096878194764,
        "truck": 1103.423712018298
    },
    "fid": 642.4162338206155,
    "wasserstein_distance": null,
    "g_loss": null,
    "g_cost": null,
    "d_loss_real": null,
    "d_loss_fake": null
}