{
    "epoch": 96,
    "avg_current_window": 750.4492292735881,
    "avg_prior_window": 763.8253504917717,
    "inception_score_mean": 1.958013280495647,
    "inception_score_std": 0.12726610517069345,
    "fid_per_class": {
        "airplane": 885.3349143350649,
        "automobile": 1046.8522363824964,
        "bird": 1183.8122882745758,
        "cat": 949.3023932974081,
        "deer": 1251.5856010648445,
        "dog": 947.8032447650173,
        "frog": 1293.3028007718851,
        "horse": 1013.961981456024,
        "ship": 815.8270045398073,
        "truck": 1022.205428935107
    },
    "fid": 634.5979318129984,
    "wasserstein_distance": null,
    "g_loss": null,
    "g_cost": null,
    "d_loss_real": null,
    "d_loss_fake": null
}