{
    "epoch": 2,
    "avg_current_window": 1246.848803565171,
    "avg_prior_window": 2496.697607130342,
    "inception_score_mean": 1.1507383148918338,
    "inception_score_std": 0.04400349959114413,
    "fid_per_class": {
        "airplane": 2184.84853865852,
        "automobile": 2197.404424525113,
        "bird": 2511.1114292354187,
        "cat": 2727.5046991909553,
        "deer": 2877.76440392951,
        "dog": 2681.168336549767,
        "frog": 2742.052323575859,
        "horse": 2545.1636717911083,
        "ship": 2213.491774079351,
        "truck": 2575.933555886092
    },
    "fid": 2292.384572614613,
    "wasserstein_distance": null,
    "g_loss": null,
    "g_cost": null,
    "d_loss_real": null,
    "d_loss_fake": null
}