{
    "epoch": 100,
    "avg_current_window": 746.6869808004433,
    "avg_prior_window": 758.348694844889,
    "inception_score_mean": 1.9666734288757493,
    "inception_score_std": 0.1149125029913728,
    "fid_per_class": {
        "airplane": 859.0338064187288,
        "automobile": 1113.2675151751528,
        "bird": 1176.6667811032735,
        "cat": 963.7412680197122,
        "deer": 1251.7245854040673,
        "dog": 912.1622574859,
        "frog": 1233.215894624856,
        "horse": 1105.5613044954964,
        "ship": 836.1306111119598,
        "truck": 1006.8546547576515
    },
    "fid": 641.2333744042677,
    "wasserstein_distance": null,
    "g_loss": null,
    "g_cost": null,
    "d_loss_real": null,
    "d_loss_fake": null
}