{
    "epoch": 150,
    "avg_current_window": 712.7053000341598,
    "avg_prior_window": 719.6170599337595,
    "inception_score_mean": 1.9895490135922582,
    "inception_score_std": 0.13234084605460955,
    "fid_per_class": {
        "airplane": 857.5420790401067,
        "automobile": 1022.9499982302814,
        "bird": 1194.8137673591482,
        "cat": 1028.6469948994886,
        "deer": 1229.629043138049,
        "dog": 928.3597103831314,
        "frog": 1274.725251953131,
        "horse": 988.7906256557249,
        "ship": 786.240533078225,
        "truck": 981.4728240167951
    },
    "fid": 622.8402585160943,
    "wasserstein_distance": null,
    "g_loss": null,
    "g_cost": null,
    "d_loss_real": null,
    "d_loss_fake": null
}