{
    "epoch": 82,
    "avg_current_window": 767.83721036359,
    "avg_prior_window": 784.0834782285181,
    "inception_score_mean": 1.9221493431726582,
    "inception_score_std": 0.1516974325370193,
    "fid_per_class": {
        "airplane": 856.9298347467452,
        "automobile": 1082.8916139231892,
        "bird": 1209.722395392588,
        "cat": 1017.3029959751543,
        "deer": 1246.307364256419,
        "dog": 973.2008697285157,
        "frog": 1219.8612507715363,
        "horse": 1088.219842023253,
        "ship": 876.7533943179819,
        "truck": 1006.1033447337277
    },
    "fid": 662.7662092036483,
    "wasserstein_distance": null,
    "g_loss": null,
    "g_cost": null,
    "d_loss_real": null,
    "d_loss_fake": null
}