{
    "epoch": 138,
    "avg_current_window": 719.0611197093534,
    "avg_prior_window": 726.6982600134357,
    "inception_score_mean": 1.9579774782200523,
    "inception_score_std": 0.1345699554506591,
    "fid_per_class": {
        "airplane": 873.5390236549547,
        "automobile": 1112.4037296485021,
        "bird": 1213.188912460319,
        "cat": 969.5053261751816,
        "deer": 1207.7997844633614,
        "dog": 894.0449677567235,
        "frog": 1290.5482421214842,
        "horse": 1071.654074257953,
        "ship": 826.4504930417366,
        "truck": 979.3146460454864
    },
    "fid": 636.4999916513231,
    "wasserstein_distance": null,
    "g_loss": null,
    "g_cost": null,
    "d_loss_real": null,
    "d_loss_fake": null
}