{
    "epoch": 84,
    "avg_current_window": 765.2940869913954,
    "avg_prior_window": 780.8824764622822,
    "inception_score_mean": 1.9076026509965973,
    "inception_score_std": 0.13035970036528255,
    "fid_per_class": {
        "airplane": 891.0577786206056,
        "automobile": 1148.45710042881,
        "bird": 1191.232668169848,
        "cat": 951.2040550954962,
        "deer": 1219.4510024481208,
        "dog": 889.7336858242514,
        "frog": 1243.8764378728968,
        "horse": 1091.2471242928707,
        "ship": 840.9616218646324,
        "truck": 1045.5518966894067
    },
    "fid": 653.7135084140616,
    "wasserstein_distance": null,
    "g_loss": null,
    "g_cost": null,
    "d_loss_real": null,
    "d_loss_fake": null
}