{
    "epoch": 152,
    "avg_current_window": 711.7463221861293,
    "avg_prior_window": 718.3553714641866,
    "inception_score_mean": 1.9688646140471917,
    "inception_score_std": 0.14679714301590924,
    "fid_per_class": {
        "airplane": 825.3675901208496,
        "automobile": 1012.06233506486,
        "bird": 1177.033793866657,
        "cat": 982.6190037685169,
        "deer": 1319.6164983129224,
        "dog": 898.9266952865561,
        "frog": 1196.2927116820972,
        "horse": 1056.259688458525,
        "ship": 752.2160312866865,
        "truck": 1004.4069133664643
    },
    "fid": 614.0038132329017,
    "wasserstein_distance": null,
    "g_loss": null,
    "g_cost": null,
    "d_loss_real": null,
    "d_loss_fake": null
}