{
    "epoch": 194,
    "avg_current_window": 696.3457875172105,
    "avg_prior_window": 701.4232661279567,
    "inception_score_mean": 1.941313334535262,
    "inception_score_std": 0.12413588635019408,
    "fid_per_class": {
        "airplane": 858.2736424316126,
        "automobile": 1104.6338331145794,
        "bird": 1149.4177979116482,
        "cat": 959.4893550904542,
        "deer": 1227.5520350925822,
        "dog": 944.0495407670842,
        "frog": 1249.2302992698878,
        "horse": 1106.5228896785948,
        "ship": 759.3121089816245,
        "truck": 981.4427737068387
    },
    "fid": 649.1689315219882,
    "wasserstein_distance": null,
    "g_loss": null,
    "g_cost": null,
    "d_loss_real": null,
    "d_loss_fake": null
}