{
    "epoch": 124,
    "avg_current_window": 727.1133950946879,
    "avg_prior_window": 736.3999027819325,
    "inception_score_mean": 1.9738669506280366,
    "inception_score_std": 0.08244686277924185,
    "fid_per_class": {
        "airplane": 870.5739318695589,
        "automobile": 1086.210446053673,
        "bird": 1128.1600594738234,
        "cat": 944.5533530425828,
        "deer": 1152.5601479212826,
        "dog": 909.7616829734823,
        "frog": 1130.4439802650372,
        "horse": 1025.7497119451261,
        "ship": 803.0347484580276,
        "truck": 1001.1505452628928
    },
    "fid": 604.5821285094869,
    "wasserstein_distance": null,
    "g_loss": null,
    "g_cost": null,
    "d_loss_real": null,
    "d_loss_fake": null
}