{
    "epoch": 130,
    "avg_current_window": 723.1557233574406,
    "avg_prior_window": 731.783162932173,
    "inception_score_mean": 2.018940469349786,
    "inception_score_std": 0.09162047168853854,
    "fid_per_class": {
        "airplane": 876.811455088315,
        "automobile": 1082.4958107196667,
        "bird": 1210.600373804331,
        "cat": 1021.1952154452092,
        "deer": 1293.5377599250191,
        "dog": 973.8483293197961,
        "frog": 1357.5160956532013,
        "horse": 1083.1069419617259,
        "ship": 819.1924393584683,
        "truck": 1011.2788893577507
    },
    "fid": 671.257494055021,
    "wasserstein_distance": null,
    "g_loss": null,
    "g_cost": null,
    "d_loss_real": null,
    "d_loss_fake": null
}