{
    "epoch": 42,
    "avg_current_window": 884.3520751703301,
    "avg_prior_window": 932.4664854355285,
    "inception_score_mean": 1.9134157506394491,
    "inception_score_std": 0.15742660364409425,
    "fid_per_class": {
        "airplane": 933.3992684897422,
        "automobile": 1222.6005667712827,
        "bird": 1187.7688051514137,
        "cat": 929.935810195685,
        "deer": 1267.5983529037153,
        "dog": 903.6440552178294,
        "frog": 1334.8915224250145,
        "horse": 1123.41560653746,
        "ship": 846.404813765826,
        "truck": 1136.5897540796332
    },
    "fid": 669.0264768930239,
    "wasserstein_distance": null,
    "g_loss": null,
    "g_cost": null,
    "d_loss_real": null,
    "d_loss_fake": null
}