{
    "epoch": 3,
    "avg_current_window": 765.1281908715376,
    "avg_prior_window": 2495.697607130342,
    "inception_score_mean": 1.3503565681666028,
    "inception_score_std": 0.07651934889753031,
    "fid_per_class": {
        "airplane": 1944.1833900772115,
        "automobile": 2064.6721176301576,
        "bird": 2140.0172506746867,
        "cat": 2418.7975694513266,
        "deer": 2469.531425881451,
        "dog": 2193.7262969118365,
        "frog": 2375.6297317198105,
        "horse": 2317.0195871345304,
        "ship": 1965.120726923643,
        "truck": 1798.5777473982275
    },
    "fid": 1870.3226641793467,
    "wasserstein_distance": null,
    "g_loss": null,
    "g_cost": null,
    "d_loss_real": null,
    "d_loss_fake": null
}