{
    "epoch": 160,
    "avg_current_window": 708.8365902138132,
    "avg_prior_window": 714.6689508550595,
    "inception_score_mean": 1.9590525519946773,
    "inception_score_std": 0.11446350735510254,
    "fid_per_class": {
        "airplane": 820.0296447997396,
        "automobile": 1041.0723708075288,
        "bird": 1219.3255042838696,
        "cat": 1005.9078640598975,
        "deer": 1267.4471395091632,
        "dog": 944.556577488071,
        "frog": 1234.2760450032906,
        "horse": 1113.6308559282318,
        "ship": 790.5700684510068,
        "truck": 988.8335649637074
    },
    "fid": 653.0670502552764,
    "wasserstein_distance": null,
    "g_loss": null,
    "g_cost": null,
    "d_loss_real": null,
    "d_loss_fake": null
}