{
    "epoch": 118,
    "avg_current_window": 731.8253488339906,
    "avg_prior_window": 741.0994952502954,
    "inception_score_mean": 2.0040790591137627,
    "inception_score_std": 0.1385138120772257,
    "fid_per_class": {
        "airplane": 843.9756708630698,
        "automobile": 1092.3756144192098,
        "bird": 1172.344317991136,
        "cat": 960.1919080124396,
        "deer": 1155.8959063324803,
        "dog": 893.5741641803046,
        "frog": 1223.1824851575461,
        "horse": 1007.5455109588117,
        "ship": 735.0604668637368,
        "truck": 1039.9092374020452
    },
    "fid": 592.0552868621803,
    "wasserstein_distance": null,
    "g_loss": null,
    "g_cost": null,
    "d_loss_real": null,
    "d_loss_fake": null
}