{
    "epoch": 148,
    "avg_current_window": 713.5016189542936,
    "avg_prior_window": 720.541357828914,
    "inception_score_mean": 1.9557160289696665,
    "inception_score_std": 0.09954814179176712,
    "fid_per_class": {
        "airplane": 875.3924815013168,
        "automobile": 1093.207639056785,
        "bird": 1236.937229081385,
        "cat": 952.6112515579351,
        "deer": 1248.527962640051,
        "dog": 945.4667887834134,
        "frog": 1376.582160378513,
        "horse": 1110.315291306463,
        "ship": 776.7456472579275,
        "truck": 1009.3484399135907
    },
    "fid": 660.9939571084524,
    "wasserstein_distance": null,
    "g_loss": null,
    "g_cost": null,
    "d_loss_real": null,
    "d_loss_fake": null
}