{
    "epoch": 139,
    "avg_current_window": 718.4671547592956,
    "avg_prior_window": 725.7690234002597,
    "inception_score_mean": 2.0643412441536055,
    "inception_score_std": 0.15997251453978314,
    "fid_per_class": {
        "airplane": 884.0747687644371,
        "automobile": 1007.9392565210474,
        "bird": 1221.3204541849682,
        "cat": 947.3942708297138,
        "deer": 1254.0627251340666,
        "dog": 936.7044935390618,
        "frog": 1266.6280018165646,
        "horse": 1077.1860592867943,
        "ship": 822.575215779851,
        "truck": 985.006001754048
    },
    "fid": 631.5363567049266,
    "wasserstein_distance": null,
    "g_loss": null,
    "g_cost": null,
    "d_loss_real": null,
    "d_loss_fake": null
}