{
    "epoch": 137,
    "avg_current_window": 719.2705147427798,
    "avg_prior_window": 727.6207707206609,
    "inception_score_mean": 1.986423737926561,
    "inception_score_std": 0.13853109574202546,
    "fid_per_class": {
        "airplane": 925.7176578889043,
        "automobile": 1078.8727812728966,
        "bird": 1242.4532545574766,
        "cat": 1026.3836399061395,
        "deer": 1268.631199863646,
        "dog": 975.5878686713172,
        "frog": 1366.5858168526279,
        "horse": 1124.4991134054799,
        "ship": 842.5391349219601,
        "truck": 1018.1318976136964
    },
    "fid": 690.3740001299317,
    "wasserstein_distance": null,
    "g_loss": null,
    "g_cost": null,
    "d_loss_real": null,
    "d_loss_fake": null
}