{
    "epoch": 170,
    "avg_current_window": 705.4396668203586,
    "avg_prior_window": 711.0602185742894,
    "inception_score_mean": 1.965132746098695,
    "inception_score_std": 0.20608707834559414,
    "fid_per_class": {
        "airplane": 822.0128453092009,
        "automobile": 1054.4348562304326,
        "bird": 1206.425686116989,
        "cat": 973.1960032544403,
        "deer": 1165.5454274436854,
        "dog": 912.7571123826989,
        "frog": 1217.1114659449413,
        "horse": 1081.2344404964174,
        "ship": 758.9833998544088,
        "truck": 1001.3014751917672
    },
    "fid": 620.0432921336613,
    "wasserstein_distance": null,
    "g_loss": null,
    "g_cost": null,
    "d_loss_real": null,
    "d_loss_fake": null
}