{
    "epoch": 88,
    "avg_current_window": 760.5672175737152,
    "avg_prior_window": 774.5144976780387,
    "inception_score_mean": 2.026346398598415,
    "inception_score_std": 0.18069649468180543,
    "fid_per_class": {
        "airplane": 849.6072571857422,
        "automobile": 1069.3096290601095,
        "bird": 1134.1949101918872,
        "cat": 956.7357079930509,
        "deer": 1172.2027317454572,
        "dog": 897.6610906453986,
        "frog": 1267.3330259287768,
        "horse": 985.4100118599283,
        "ship": 826.8410457214534,
        "truck": 1015.0739153424834
    },
    "fid": 619.2251201283858,
    "wasserstein_distance": null,
    "g_loss": null,
    "g_cost": null,
    "d_loss_real": null,
    "d_loss_fake": null
}