{
    "epoch": 15,
    "avg_current_window": 1219.2862861846415,
    "avg_prior_window": 1481.9762389210687,
    "inception_score_mean": 1.6616439231323905,
    "inception_score_std": 0.09811921756904815,
    "fid_per_class": {
        "airplane": 1070.2439854076063,
        "automobile": 1395.8239105357293,
        "bird": 1261.4469869751902,
        "cat": 1059.8351186637042,
        "deer": 1287.140527992574,
        "dog": 1008.789605596287,
        "frog": 1380.797770846898,
        "horse": 1222.4266186757163,
        "ship": 893.3169337049284,
        "truck": 1218.5268489421342
    },
    "fid": 788.6367775703295,
    "wasserstein_distance": null,
    "g_loss": null,
    "g_cost": null,
    "d_loss_real": null,
    "d_loss_fake": null
}