{
    "epoch": 17,
    "avg_current_window": 1169.567154907397,
    "avg_prior_window": 1381.04992213314,
    "inception_score_mean": 1.6726037773861844,
    "inception_score_std": 0.09801049914774361,
    "fid_per_class": {
        "airplane": 1025.0186255556005,
        "automobile": 1328.7828533069255,
        "bird": 1310.9465132018504,
        "cat": 998.7341037073487,
        "deer": 1401.3991193757436,
        "dog": 1025.9123746421255,
        "frog": 1416.2235810014954,
        "horse": 1339.0154696779323,
        "ship": 913.486884545422,
        "truck": 1249.0007007737452
    },
    "fid": 815.6714026589751,
    "wasserstein_distance": null,
    "g_loss": null,
    "g_cost": null,
    "d_loss_real": null,
    "d_loss_fake": null
}