{
    "epoch": 38,
    "avg_current_window": 907.9278937135409,
    "avg_prior_window": 964.5557584503687,
    "inception_score_mean": 1.9445759497357014,
    "inception_score_std": 0.16909482666683356,
    "fid_per_class": {
        "airplane": 854.1458963671987,
        "automobile": 1153.8583041454485,
        "bird": 1084.5124592272275,
        "cat": 930.7793065202857,
        "deer": 1237.5896911619732,
        "dog": 891.1049438885984,
        "frog": 1218.3790257273774,
        "horse": 1086.7531337196378,
        "ship": 773.3308780127729,
        "truck": 1050.788117060295
    },
    "fid": 629.1206391511381,
    "wasserstein_distance": null,
    "g_loss": null,
    "g_cost": null,
    "d_loss_real": null,
    "d_loss_fake": null
}