{
    "epoch": 141,
    "avg_current_window": 717.3228900504174,
    "avg_prior_window": 724.5592685276532,
    "inception_score_mean": 2.0143258769030576,
    "inception_score_std": 0.08089042879498824,
    "fid_per_class": {
        "airplane": 874.6277764575248,
        "automobile": 1113.1932794529612,
        "bird": 1192.9480836960297,
        "cat": 957.644288412436,
        "deer": 1237.587277455955,
        "dog": 931.8840536526523,
        "frog": 1285.0832311288136,
        "horse": 1020.6623398797722,
        "ship": 826.8286275861715,
        "truck": 1035.3285699579199
    },
    "fid": 640.376893915852,
    "wasserstein_distance": null,
    "g_loss": null,
    "g_cost": null,
    "d_loss_real": null,
    "d_loss_fake": null
}