{
    "epoch": 119,
    "avg_current_window": 730.6508104980929,
    "avg_prior_window": 740.4891106996541,
    "inception_score_mean": 1.9622360401188448,
    "inception_score_std": 0.20067920727352712,
    "fid_per_class": {
        "airplane": 853.0626383307236,
        "automobile": 1069.6911666023145,
        "bird": 1199.6300655183188,
        "cat": 1050.5607318219588,
        "deer": 1278.518012419746,
        "dog": 1006.3679401339609,
        "frog": 1375.1077204333665,
        "horse": 1119.1407642114991,
        "ship": 775.114471498112,
        "truck": 993.237656866441
    },
    "fid": 684.1419817769072,
    "wasserstein_distance": null,
    "g_loss": null,
    "g_cost": null,
    "d_loss_real": null,
    "d_loss_fake": null
}