{
    "epoch": 186,
    "avg_current_window": 699.5197754637878,
    "avg_prior_window": 704.4681868398357,
    "inception_score_mean": 2.0297853390321543,
    "inception_score_std": 0.14865866546496456,
    "fid_per_class": {
        "airplane": 790.4161181885115,
        "automobile": 1043.5644982741737,
        "bird": 1129.5354557696405,
        "cat": 955.2306753993644,
        "deer": 1052.648076342203,
        "dog": 858.7611667399967,
        "frog": 1151.8666903853687,
        "horse": 1005.50238885594,
        "ship": 756.2219975210508,
        "truck": 975.1719664809394
    },
    "fid": 576.6982504830632,
    "wasserstein_distance": null,
    "g_loss": null,
    "g_cost": null,
    "d_loss_real": null,
    "d_loss_fake": null
}