{
    "epoch": 19,
    "avg_current_window": 1130.2816464207376,
    "avg_prior_window": 1306.378163769259,
    "inception_score_mean": 1.6116759392956168,
    "inception_score_std": 0.07543166830639386,
    "fid_per_class": {
        "airplane": 965.173454470205,
        "automobile": 1290.1006047927485,
        "bird": 1221.1126774072798,
        "cat": 1058.2373762626412,
        "deer": 1262.7108368778977,
        "dog": 1054.1720009135558,
        "frog": 1351.2606750736077,
        "horse": 1191.2211158319583,
        "ship": 837.8154751663858,
        "truck": 1179.0333652134946
    },
    "fid": 767.709207617535,
    "wasserstein_distance": null,
    "g_loss": null,
    "g_cost": null,
    "d_loss_real": null,
    "d_loss_fake": null
}