{
    "epoch": 165,
    "avg_current_window": 707.1234327731831,
    "avg_prior_window": 712.9182592779086,
    "inception_score_mean": 1.997078794426501,
    "inception_score_std": 0.13587627498509333,
    "fid_per_class": {
        "airplane": 841.4517289367532,
        "automobile": 1030.7714900417711,
        "bird": 1210.1440759273075,
        "cat": 1046.5191840692796,
        "deer": 1255.1284699474352,
        "dog": 964.1939402401664,
        "frog": 1319.618827951626,
        "horse": 1050.6201619541832,
        "ship": 800.4166396151068,
        "truck": 952.1232735721678
    },
    "fid": 649.5696571825238,
    "wasserstein_distance": null,
    "g_loss": null,
    "g_cost": null,
    "d_loss_real": null,
    "d_loss_fake": null
}