{
    "epoch": 112,
    "avg_current_window": 735.6499332206678,
    "avg_prior_window": 746.2599797213059,
    "inception_score_mean": 1.9315988847479075,
    "inception_score_std": 0.16933925786000736,
    "fid_per_class": {
        "airplane": 860.198491947487,
        "automobile": 1025.5815210255373,
        "bird": 1223.5772277753636,
        "cat": 968.882732585334,
        "deer": 1247.3305434671245,
        "dog": 924.6952349525101,
        "frog": 1279.1354186615533,
        "horse": 1108.5919804054206,
        "ship": 816.7766702796212,
        "truck": 1016.571093554126
    },
    "fid": 660.799533270361,
    "wasserstein_distance": null,
    "g_loss": null,
    "g_cost": null,
    "d_loss_real": null,
    "d_loss_fake": null
}