{
    "epoch": 20,
    "avg_current_window": 1112.1530244805776,
    "avg_prior_window": 1271.862071355997,
    "inception_score_mean": 1.6924164582742107,
    "inception_score_std": 0.12911300224505667,
    "fid_per_class": {
        "airplane": 919.0054088007965,
        "automobile": 1314.4650516798386,
        "bird": 1171.825133152565,
        "cat": 955.5524227418014,
        "deer": 1263.9108408188324,
        "dog": 1062.951815718595,
        "frog": 1315.1549696011175,
        "horse": 1116.3398692693959,
        "ship": 832.3128043885712,
        "truck": 1131.2063048957243
    },
    "fid": 712.7850009760109,
    "wasserstein_distance": null,
    "g_loss": null,
    "g_cost": null,
    "d_loss_real": null,
    "d_loss_fake": null
}