{
    "epoch": 190,
    "avg_current_window": 697.7315647272833,
    "avg_prior_window": 703.3009634392678,
    "inception_score_mean": 2.0125770661341607,
    "inception_score_std": 0.18909147348687608,
    "fid_per_class": {
        "airplane": 796.0334776827573,
        "automobile": 944.3406173206631,
        "bird": 1165.1434235647744,
        "cat": 913.4067194251131,
        "deer": 1172.9391004421323,
        "dog": 895.2617870211433,
        "frog": 1226.26559758059,
        "horse": 964.9331099862185,
        "ship": 798.6320161015855,
        "truck": 966.1475363841089
    },
    "fid": 582.8884092279112,
    "wasserstein_distance": null,
    "g_loss": null,
    "g_cost": null,
    "d_loss_real": null,
    "d_loss_fake": null
}