{
    "epoch": 154,
    "avg_current_window": 710.9419901473286,
    "avg_prior_window": 717.488557081369,
    "inception_score_mean": 2.095171407441491,
    "inception_score_std": 0.13239475131502862,
    "fid_per_class": {
        "airplane": 887.8470734318033,
        "automobile": 1079.1926230451725,
        "bird": 1224.0262925856196,
        "cat": 976.9547861263275,
        "deer": 1199.8909313840534,
        "dog": 900.3903839943969,
        "frog": 1301.9774723465648,
        "horse": 1040.8070322037709,
        "ship": 731.2735157194165,
        "truck": 1030.967520376796
    },
    "fid": 630.97910173861,
    "wasserstein_distance": null,
    "g_loss": null,
    "g_cost": null,
    "d_loss_real": null,
    "d_loss_fake": null
}