{
    "epoch": 63,
    "avg_current_window": 806.4656726181565,
    "avg_prior_window": 831.0871775145702,
    "inception_score_mean": 1.919823026958199,
    "inception_score_std": 0.15376301768245507,
    "fid_per_class": {
        "airplane": 857.122818761584,
        "automobile": 1115.547513957929,
        "bird": 1156.0979842262132,
        "cat": 964.5823254717914,
        "deer": 1257.280015696693,
        "dog": 902.9402894832879,
        "frog": 1262.5865308688265,
        "horse": 1065.1966113752858,
        "ship": 819.8569388336117,
        "truck": 1002.0103677930013
    },
    "fid": 628.8020596680774,
    "wasserstein_distance": null,
    "g_loss": null,
    "g_cost": null,
    "d_loss_real": null,
    "d_loss_fake": null
}