{
    "epoch": 136,
    "avg_current_window": 719.4741934093273,
    "avg_prior_window": 728.040470243381,
    "inception_score_mean": 1.9761274928457304,
    "inception_score_std": 0.10779998528343422,
    "fid_per_class": {
        "airplane": 908.6967253259074,
        "automobile": 1082.9215981473883,
        "bird": 1189.4621137123868,
        "cat": 1057.9294435870306,
        "deer": 1305.2379027084585,
        "dog": 945.6605688510626,
        "frog": 1407.6686966345255,
        "horse": 1090.2875243436324,
        "ship": 826.8920201923149,
        "truck": 1017.7841656035422
    },
    "fid": 691.5702160923181,
    "wasserstein_distance": null,
    "g_loss": null,
    "g_cost": null,
    "d_loss_real": null,
    "d_loss_fake": null
}