{
    "epoch": 145,
    "avg_current_window": 715.1903873139303,
    "avg_prior_window": 722.4466249793489,
    "inception_score_mean": 2.0064067174732596,
    "inception_score_std": 0.05701517991443022,
    "fid_per_class": {
        "airplane": 852.0432786249484,
        "automobile": 1100.320842632773,
        "bird": 1209.127750297504,
        "cat": 963.4850881858729,
        "deer": 1266.6387113408102,
        "dog": 931.1913535496118,
        "frog": 1256.8220951015455,
        "horse": 1066.6604089691725,
        "ship": 855.6674643902033,
        "truck": 1012.1317084439345
    },
    "fid": 641.8675298752391,
    "wasserstein_distance": null,
    "g_loss": null,
    "g_cost": null,
    "d_loss_real": null,
    "d_loss_fake": null
}