{
    "epoch": 125,
    "avg_current_window": 726.1331449620062,
    "avg_prior_window": 735.5556444866431,
    "inception_score_mean": 1.9585467463922772,
    "inception_score_std": 0.1625337460565144,
    "fid_per_class": {
        "airplane": 908.1969363390963,
        "automobile": 1142.4981084536612,
        "bird": 1264.2393189209893,
        "cat": 1042.7298295365363,
        "deer": 1387.0663904650733,
        "dog": 934.8214849408707,
        "frog": 1342.6747062597606,
        "horse": 1138.9751482701301,
        "ship": 787.4728937005732,
        "truck": 1063.4945774699613
    },
    "fid": 706.252246270845,
    "wasserstein_distance": null,
    "g_loss": null,
    "g_cost": null,
    "d_loss_real": null,
    "d_loss_fake": null
}