{
    "epoch": 155,
    "avg_current_window": 710.4261005446917,
    "avg_prior_window": 716.8575684242671,
    "inception_score_mean": 1.980476285507785,
    "inception_score_std": 0.12360077427229611,
    "fid_per_class": {
        "airplane": 873.2135343170992,
        "automobile": 1078.339176969099,
        "bird": 1208.078350422484,
        "cat": 1013.0024724164405,
        "deer": 1290.2229586589788,
        "dog": 917.7672340651303,
        "frog": 1236.7335590040861,
        "horse": 1157.7893558867677,
        "ship": 791.0954069094573,
        "truck": 974.3224481527869
    },
    "fid": 657.6417981069952,
    "wasserstein_distance": null,
    "g_loss": null,
    "g_cost": null,
    "d_loss_real": null,
    "d_loss_fake": null
}