{
    "epoch": 187,
    "avg_current_window": 698.8629758649604,
    "avg_prior_window": 703.9064861181254,
    "inception_score_mean": 1.97762748279195,
    "inception_score_std": 0.14296815745165778,
    "fid_per_class": {
        "airplane": 870.7676255969226,
        "automobile": 1053.6925725280798,
        "bird": 1189.849743053492,
        "cat": 991.2712942626274,
        "deer": 1246.2816484859777,
        "dog": 949.0956826308054,
        "frog": 1169.303726662089,
        "horse": 1091.8695718696504,
        "ship": 845.0539298543181,
        "truck": 957.880775326842
    },
    "fid": 644.9416155599242,
    "wasserstein_distance": null,
    "g_loss": null,
    "g_cost": null,
    "d_loss_real": null,
    "d_loss_fake": null
}