{
    "epoch": 69,
    "avg_current_window": 792.3033117055544,
    "avg_prior_window": 813.5174409691678,
    "inception_score_mean": 1.9515150002374568,
    "inception_score_std": 0.11381930291402294,
    "fid_per_class": {
        "airplane": 835.7704096229381,
        "automobile": 1048.8485260949437,
        "bird": 1218.3412410323126,
        "cat": 980.7454958050686,
        "deer": 1254.5502573868184,
        "dog": 879.7437220444452,
        "frog": 1300.1977879258193,
        "horse": 997.9961572533252,
        "ship": 745.1641439431845,
        "truck": 1123.383199789643
    },
    "fid": 634.7056965831853,
    "wasserstein_distance": null,
    "g_loss": null,
    "g_cost": null,
    "d_loss_real": null,
    "d_loss_fake": null
}