{
    "epoch": 199,
    "avg_current_window": 695.2814047798615,
    "avg_prior_window": 699.692019122994,
    "inception_score_mean": 1.9973915322759392,
    "inception_score_std": 0.09231990447927063,
    "fid_per_class": {
        "airplane": 814.5924609029025,
        "automobile": 1000.0582580186082,
        "bird": 1121.7168781153932,
        "cat": 989.2493409021017,
        "deer": 1303.889026287061,
        "dog": 921.5172981034361,
        "frog": 1221.2680454711442,
        "horse": 1090.6234600640023,
        "ship": 813.7861674374403,
        "truck": 899.9658329504567
    },
    "fid": 624.6176280215226,
    "wasserstein_distance": null,
    "g_loss": null,
    "g_cost": null,
    "d_loss_real": null,
    "d_loss_fake": null
}