{
    "epoch": 181,
    "avg_current_window": 701.1841529120925,
    "avg_prior_window": 706.8759508917827,
    "inception_score_mean": 1.9957077369149687,
    "inception_score_std": 0.1441033845932296,
    "fid_per_class": {
        "airplane": 856.7749695684848,
        "automobile": 994.196275580094,
        "bird": 1167.1654034368735,
        "cat": 944.8763499079124,
        "deer": 1163.4967523419155,
        "dog": 863.3378431598638,
        "frog": 1185.591208418668,
        "horse": 993.9677213705106,
        "ship": 813.7835697887865,
        "truck": 1015.3761530041555
    },
    "fid": 594.4101409215048,
    "wasserstein_distance": null,
    "g_loss": null,
    "g_cost": null,
    "d_loss_real": null,
    "d_loss_fake": null
}