{
    "epoch": 95,
    "avg_current_window": 750.9230642031737,
    "avg_prior_window": 765.1743406770067,
    "inception_score_mean": 1.8869117408749254,
    "inception_score_std": 0.1275228852725518,
    "fid_per_class": {
        "airplane": 914.9993347044397,
        "automobile": 1100.6975757938399,
        "bird": 1237.623093897715,
        "cat": 1026.816654632106,
        "deer": 1384.7235367737967,
        "dog": 982.4254841330899,
        "frog": 1366.4680264796261,
        "horse": 1140.4265030713198,
        "ship": 868.7701079583125,
        "truck": 1048.0838177966245
    },
    "fid": 705.4349109629568,
    "wasserstein_distance": null,
    "g_loss": null,
    "g_cost": null,
    "d_loss_real": null,
    "d_loss_fake": null
}