{
    "epoch": 166,
    "avg_current_window": 706.7767232816732,
    "avg_prior_window": 712.5176187224079,
    "inception_score_mean": 1.9101071274605612,
    "inception_score_std": 0.0930865013973232,
    "fid_per_class": {
        "airplane": 921.154650874362,
        "automobile": 1050.0437819132821,
        "bird": 1241.278072506832,
        "cat": 979.328254924056,
        "deer": 1305.4083056023105,
        "dog": 936.8263693009487,
        "frog": 1298.3761273975715,
        "horse": 1053.7028734453452,
        "ship": 812.5601824683183,
        "truck": 1020.0516608594385
    },
    "fid": 672.3071406567695,
    "wasserstein_distance": null,
    "g_loss": null,
    "g_cost": null,
    "d_loss_real": null,
    "d_loss_fake": null
}