{
    "epoch": 156,
    "avg_current_window": 710.0877396316296,
    "avg_prior_window": 716.4598739886865,
    "inception_score_mean": 1.947702658553015,
    "inception_score_std": 0.09608528972436177,
    "fid_per_class": {
        "airplane": 868.7752721048023,
        "automobile": 1083.0088592990205,
        "bird": 1178.9781525932385,
        "cat": 997.659164482151,
        "deer": 1273.1738266562288,
        "dog": 921.6347175798558,
        "frog": 1220.314663541443,
        "horse": 1064.3518279424163,
        "ship": 837.8124998224986,
        "truck": 1008.8957518268516
    },
    "fid": 647.4345951647862,
    "wasserstein_distance": null,
    "g_loss": null,
    "g_cost": null,
    "d_loss_real": null,
    "d_loss_fake": null
}