{
    "epoch": 10,
    "avg_current_window": 1391.6431136516667,
    "avg_prior_window": 1933.3120908798942,
    "inception_score_mean": 1.5967190812659298,
    "inception_score_std": 0.08227535480598228,
    "fid_per_class": {
        "airplane": 1068.5874539337344,
        "automobile": 1204.3490641953244,
        "bird": 1385.3791495749338,
        "cat": 1180.1254734423087,
        "deer": 1360.3406681458162,
        "dog": 1353.033345603167,
        "frog": 1446.5163169825405,
        "horse": 1293.9391281275557,
        "ship": 874.2367323553051,
        "truck": 1171.6996715863202
    },
    "fid": 903.3312526940197,
    "wasserstein_distance": null,
    "g_loss": null,
    "g_cost": null,
    "d_loss_real": null,
    "d_loss_fake": null
}