{
    "epoch": 1,
    "avg_current_window": 3.0,
    "avg_prior_window": 8.0,
    "inception_score_mean": 1.0997289596816833,
    "inception_score_std": 0.02134353075099601,
    "fid_per_class": {
        "airplane": 2189.6750547738666,
        "automobile": 2209.48375236829,
        "bird": 2748.4407380148577,
        "cat": 2727.3308720192726,
        "deer": 3152.314971424814,
        "dog": 2686.9734823815784,
        "frog": 2944.597681851394,
        "horse": 2764.764378166764,
        "ship": 2281.3246847896266,
        "truck": 2192.726382698789
    },
    "fid": 2489.697607130342,
    "wasserstein_distance": null,
    "g_loss": null,
    "g_cost": null,
    "d_loss_real": null,
    "d_loss_fake": null
}