{
    "epoch": 5,
    "avg_current_window": 1661.1241421772988,
    "avg_prior_window": 2493.697607130342,
    "inception_score_mean": 1.3665578170016395,
    "inception_score_std": 0.04373170214296615,
    "fid_per_class": {
        "airplane": 1632.423405066491,
        "automobile": 1935.7656297919189,
        "bird": 1270.9509471721287,
        "cat": 1669.4571670619218,
        "deer": 1498.8082199234836,
        "dog": 1624.6198553950994,
        "frog": 1484.538984699019,
        "horse": 1690.291828051979,
        "ship": 1726.4852600570025,
        "truck": 1750.3013585729536
    },
    "fid": 1360.9397435129752,
    "wasserstein_distance": null,
    "g_loss": null,
    "g_cost": null,
    "d_loss_real": null,
    "d_loss_fake": null
}