{
    "epoch": 16,
    "avg_current_window": 1192.370691896247,
    "avg_prior_window": 1424.8185317316543,
    "inception_score_mean": 1.6883074919513006,
    "inception_score_std": 0.10094809566266207,
    "fid_per_class": {
        "airplane": 975.1185054652279,
        "automobile": 1398.6221891420687,
        "bird": 1287.4160657942161,
        "cat": 1010.9078782977631,
        "deer": 1331.170943255995,
        "dog": 1104.7341796228839,
        "frog": 1442.1712125370723,
        "horse": 1220.2989708230862,
        "ship": 919.5157084866066,
        "truck": 1141.9505373761335
    },
    "fid": 804.710563085796,
    "wasserstein_distance": null,
    "g_loss": null,
    "g_cost": null,
    "d_loss_real": null,
    "d_loss_fake": null
}