{
    "epoch": 78,
    "avg_current_window": 774.0311259435371,
    "avg_prior_window": 792.0283565210362,
    "inception_score_mean": 1.96015318718135,
    "inception_score_std": 0.14053864030172214,
    "fid_per_class": {
        "airplane": 880.429706978677,
        "automobile": 1154.6364481938117,
        "bird": 1186.5488536320954,
        "cat": 1006.6079040787996,
        "deer": 1269.2769105394657,
        "dog": 946.2183484898487,
        "frog": 1346.0735815417988,
        "horse": 1094.2264982798604,
        "ship": 797.822920388254,
        "truck": 1082.3277024426554
    },
    "fid": 681.2829896406195,
    "wasserstein_distance": null,
    "g_loss": null,
    "g_cost": null,
    "d_loss_real": null,
    "d_loss_fake": null
}