{
    "epoch": 103,
    "avg_current_window": 744.1218749733545,
    "avg_prior_window": 755.3675367959916,
    "inception_score_mean": 1.9359201784099036,
    "inception_score_std": 0.12817074863671007,
    "fid_per_class": {
        "airplane": 960.2844297851382,
        "automobile": 1105.954591492181,
        "bird": 1197.0920940430915,
        "cat": 1018.4535235294193,
        "deer": 1331.754551542667,
        "dog": 924.1572934157882,
        "frog": 1367.3737787330756,
        "horse": 1141.0639760547492,
        "ship": 807.5259272931158,
        "truck": 966.7505702009391
    },
    "fid": 684.3431515407275,
    "wasserstein_distance": null,
    "g_loss": null,
    "g_cost": null,
    "d_loss_real": null,
    "d_loss_fake": null
}