{
    "epoch": 53,
    "avg_current_window": 837.8088208803961,
    "avg_prior_window": 871.6694705855506,
    "inception_score_mean": 1.8846888237663262,
    "inception_score_std": 0.1251300021293574,
    "fid_per_class": {
        "airplane": 894.9900389746871,
        "automobile": 1030.2568083314297,
        "bird": 1118.780981280725,
        "cat": 948.233543031146,
        "deer": 1226.4394508365892,
        "dog": 912.4174244824583,
        "frog": 1263.4097531234042,
        "horse": 1103.3901299915265,
        "ship": 806.5395720052854,
        "truck": 1046.2639279293178
    },
    "fid": 629.1755115116056,
    "wasserstein_distance": null,
    "g_loss": null,
    "g_cost": null,
    "d_loss_real": null,
    "d_loss_fake": null
}