{
    "epoch": 133,
    "avg_current_window": 722.1499378580994,
    "avg_prior_window": 729.4758196774537,
    "inception_score_mean": 1.944629527081257,
    "inception_score_std": 0.09477088268190681,
    "fid_per_class": {
        "airplane": 856.617412476003,
        "automobile": 1022.9505124291725,
        "bird": 1171.0476754342849,
        "cat": 937.475490484622,
        "deer": 1269.0533325888352,
        "dog": 906.601336228958,
        "frog": 1199.505875861806,
        "horse": 997.573693431367,
        "ship": 803.0219097853095,
        "truck": 904.3105451424236
    },
    "fid": 604.9268466597257,
    "wasserstein_distance": null,
    "g_loss": null,
    "g_cost": null,
    "d_loss_real": null,
    "d_loss_fake": null
}