{
    "epoch": 35,
    "avg_current_window": 929.0566339899989,
    "avg_prior_window": 996.480548465476,
    "inception_score_mean": 1.9620978580699304,
    "inception_score_std": 0.13747682185349747,
    "fid_per_class": {
        "airplane": 847.0134644432721,
        "automobile": 1192.5465820342772,
        "bird": 1178.6979035303448,
        "cat": 977.4204836876895,
        "deer": 1266.0107170120064,
        "dog": 931.6684680103454,
        "frog": 1295.145013596246,
        "horse": 1180.5532802253933,
        "ship": 802.8096806875742,
        "truck": 1143.583213818676
    },
    "fid": 679.9981062123004,
    "wasserstein_distance": null,
    "g_loss": null,
    "g_cost": null,
    "d_loss_real": null,
    "d_loss_fake": null
}