{
    "epoch": 149,
    "avg_current_window": 713.1492185392208,
    "avg_prior_window": 720.1569872258326,
    "inception_score_mean": 1.9969130309833427,
    "inception_score_std": 0.1494746886039384,
    "fid_per_class": {
        "airplane": 903.4954813465907,
        "automobile": 1126.7932932739595,
        "bird": 1192.6886018727857,
        "cat": 922.7446465041035,
        "deer": 1218.2497907660168,
        "dog": 863.4042050892074,
        "frog": 1228.1125861907483,
        "horse": 1030.2841443078955,
        "ship": 818.9792695848905,
        "truck": 1070.0983954314531
    },
    "fid": 646.5614427800708,
    "wasserstein_distance": null,
    "g_loss": null,
    "g_cost": null,
    "d_loss_real": null,
    "d_loss_fake": null
}