{
    "epoch": 25,
    "avg_current_window": 1034.8838884454717,
    "avg_prior_window": 1147.7922745293781,
    "inception_score_mean": 1.81650377186078,
    "inception_score_std": 0.10808118134422763,
    "fid_per_class": {
        "airplane": 907.9363954259227,
        "automobile": 1164.8800685398294,
        "bird": 1177.7826818867195,
        "cat": 966.460987831077,
        "deer": 1285.6311678883037,
        "dog": 940.4497056641366,
        "frog": 1378.8137936023288,
        "horse": 1101.7669015794806,
        "ship": 788.038231341774,
        "truck": 999.1370871261156
    },
    "fid": 673.3147911620576,
    "wasserstein_distance": null,
    "g_loss": null,
    "g_cost": null,
    "d_loss_real": null,
    "d_loss_fake": null
}