{
    "epoch": 134,
    "avg_current_window": 721.2751386700519,
    "avg_prior_window": 728.7615816780409,
    "inception_score_mean": 1.9612913996824912,
    "inception_score_std": 0.08387818869611857,
    "fid_per_class": {
        "airplane": 844.5935265073174,
        "automobile": 1072.8794317222714,
        "bird": 1213.6205699145523,
        "cat": 949.4585005632806,
        "deer": 1204.3248925750156,
        "dog": 896.8916133632556,
        "frog": 1188.2177887652701,
        "horse": 1014.683929599959,
        "ship": 760.1142598530465,
        "truck": 951.3333709869362
    },
    "fid": 602.1805538478478,
    "wasserstein_distance": null,
    "g_loss": null,
    "g_cost": null,
    "d_loss_real": null,
    "d_loss_fake": null
}