{
    "epoch": 26,
    "avg_current_window": 1020.977384703802,
    "avg_prior_window": 1131.7810842191561,
    "inception_score_mean": 1.8421891967803994,
    "inception_score_std": 0.12129666477984342,
    "fid_per_class": {
        "airplane": 917.63856883108,
        "automobile": 1102.0562095861656,
        "bird": 1184.9345210341723,
        "cat": 954.6372220638099,
        "deer": 1314.21544857023,
        "dog": 916.3380537049095,
        "frog": 1284.247899494772,
        "horse": 1191.6426340170551,
        "ship": 809.217032511561,
        "truck": 1092.309863497713
    },
    "fid": 683.3731396706953,
    "wasserstein_distance": null,
    "g_loss": null,
    "g_cost": null,
    "d_loss_real": null,
    "d_loss_fake": null
}