{
    "epoch": 41,
    "avg_current_window": 887.025247444679,
    "avg_prior_window": 939.3217073544043,
    "inception_score_mean": 1.8438643968402801,
    "inception_score_std": 0.07046205209515051,
    "fid_per_class": {
        "airplane": 898.0459362086565,
        "automobile": 1219.6340085991774,
        "bird": 1206.8005795426227,
        "cat": 1095.5559432290495,
        "deer": 1383.8564483121188,
        "dog": 1013.1851637992245,
        "frog": 1462.5491763410664,
        "horse": 1228.1095831590098,
        "ship": 778.8742936749645,
        "truck": 1159.005748180553
    },
    "fid": 774.7520119220196,
    "wasserstein_distance": null,
    "g_loss": null,
    "g_cost": null,
    "d_loss_real": null,
    "d_loss_fake": null
}