{
    "epoch": 65,
    "avg_current_window": 801.0017880311806,
    "avg_prior_window": 825.2096419014163,
    "inception_score_mean": 1.9224742891361193,
    "inception_score_std": 0.12888008365799605,
    "fid_per_class": {
        "airplane": 890.4165881964558,
        "automobile": 1113.8379694727628,
        "bird": 1191.0691604591943,
        "cat": 963.9761304577193,
        "deer": 1292.6477970478065,
        "dog": 959.2721284147931,
        "frog": 1278.4537320370457,
        "horse": 1103.3355974031513,
        "ship": 850.0685450521008,
        "truck": 1012.0224647807195
    },
    "fid": 673.3498429325824,
    "wasserstein_distance": null,
    "g_loss": null,
    "g_cost": null,
    "d_loss_real": null,
    "d_loss_fake": null
}