{
    "epoch": 157,
    "avg_current_window": 709.6886750171911,
    "avg_prior_window": 715.7858209573984,
    "inception_score_mean": 2.0464257754872723,
    "inception_score_std": 0.09781471931321012,
    "fid_per_class": {
        "airplane": 933.7960478639958,
        "automobile": 1060.4025238980669,
        "bird": 1214.2458698700593,
        "cat": 1002.8922310796687,
        "deer": 1316.51633401112,
        "dog": 902.5116887019772,
        "frog": 1328.5640596401877,
        "horse": 1060.4841997241242,
        "ship": 751.3328146947854,
        "truck": 995.604154803051
    },
    "fid": 662.2088903340209,
    "wasserstein_distance": null,
    "g_loss": null,
    "g_cost": null,
    "d_loss_real": null,
    "d_loss_fake": null
}