{
    "epoch": 81,
    "avg_current_window": 769.3928703884022,
    "avg_prior_window": 786.2443156713354,
    "inception_score_mean": 1.9190728358009395,
    "inception_score_std": 0.1037422595613472,
    "fid_per_class": {
        "airplane": 907.6739872780676,
        "automobile": 1105.4804367916593,
        "bird": 1226.3085542878523,
        "cat": 953.970461984123,
        "deer": 1208.5855546141074,
        "dog": 867.8190953477224,
        "frog": 1347.0272072333564,
        "horse": 975.2687721282553,
        "ship": 838.3627194332004,
        "truck": 1037.3614000204307
    },
    "fid": 641.8287483537955,
    "wasserstein_distance": null,
    "g_loss": null,
    "g_cost": null,
    "d_loss_real": null,
    "d_loss_fake": null
}