{
    "epoch": 5,
    "avg_current_window": 1534.8619744045222,
    "avg_prior_window": 1674.4629408791297,
    "inception_score_mean": 1.2233671201699954,
    "inception_score_std": 0.03864468893756227,
    "fid_per_class": {
        "airplane": 1649.1660624378235,
        "automobile": 1909.203636734886,
        "bird": 2363.5351200872374,
        "cat": 2322.845330669119,
        "deer": 2723.022059843869,
        "dog": 2382.0438540097884,
        "frog": 2694.5457898423733,
        "horse": 2194.785142713055,
        "ship": 1647.0345573131594,
        "truck": 1926.370111040494
    },
    "fid": 1957.6648402491853,
    "wasserstein_distance": null,
    "g_loss": null,
    "g_cost": null,
    "d_loss_real": null,
    "d_loss_fake": null
}