{
    "epoch": 29,
    "avg_current_window": 1817.7981884362798,
    "avg_prior_window": 1972.5308133186775,
    "inception_score_mean": 1.3581505956114381,
    "inception_score_std": 0.04639521842402634,
    "fid_per_class": {
        "airplane": 1467.5921470819808,
        "automobile": 1580.9919580454953,
        "bird": 1718.338015333493,
        "cat": 1408.316093948381,
        "deer": 1776.4241406988522,
        "dog": 1624.7946451295552,
        "frog": 1965.502657843584,
        "horse": 1531.2374775143342,
        "ship": 1355.391076824309,
        "truck": 1461.5559707590874
    },
    "fid": 1330.3600558533892,
    "wasserstein_distance": null,
    "g_loss": null,
    "g_cost": null,
    "d_loss_real": null,
    "d_loss_fake": null
}