{
    "epoch": 156,
    "avg_current_window": 1121.9585746243156,
    "avg_prior_window": 1136.1885591976811,
    "inception_score_mean": 1.8691946328566929,
    "inception_score_std": 0.1425855947475951,
    "fid_per_class": {
        "airplane": 1026.6457597028989,
        "automobile": 1114.3935799191179,
        "bird": 1290.7045060377995,
        "cat": 956.5823289912064,
        "deer": 1342.7713991859287,
        "dog": 1150.9508416606054,
        "frog": 1487.7833464701234,
        "horse": 1174.8829898251176,
        "ship": 987.928757847674,
        "truck": 1154.1945154776813
    },
    "fid": 770.0110196119413,
    "wasserstein_distance": null,
    "g_loss": null,
    "g_cost": null,
    "d_loss_real": null,
    "d_loss_fake": null
}