{
    "epoch": 23,
    "avg_current_window": 1930.6642734655125,
    "avg_prior_window": 2158.6213810221275,
    "inception_score_mean": 1.1993857961893062,
    "inception_score_std": 0.028436808637617467,
    "fid_per_class": {
        "airplane": 1594.2351109046647,
        "automobile": 1634.7897307923358,
        "bird": 1640.5702150657517,
        "cat": 1457.6494223792597,
        "deer": 1660.4518614673605,
        "dog": 1648.7422566126106,
        "frog": 1945.2530292235037,
        "horse": 1657.0627868582096,
        "ship": 1483.0304509215591,
        "truck": 1471.9192249711987
    },
    "fid": 1406.0828730259454,
    "wasserstein_distance": null,
    "g_loss": null,
    "g_cost": null,
    "d_loss_real": null,
    "d_loss_fake": null
}