{
    "epoch": 140,
    "avg_current_window": 1148.6094385225726,
    "avg_prior_window": 1165.7541299864486,
    "inception_score_mean": 1.8290421395990932,
    "inception_score_std": 0.11456624520497032,
    "fid_per_class": {
        "airplane": 1099.9902988009676,
        "automobile": 1176.948925545836,
        "bird": 1456.6766540515046,
        "cat": 1130.451163658318,
        "deer": 1495.9990989754892,
        "dog": 1186.1027048567857,
        "frog": 1844.3476216474278,
        "horse": 1321.2796065679613,
        "ship": 1022.6165801065786,
        "truck": 1181.2624433498045
    },
    "fid": 907.1103743614178,
    "wasserstein_distance": null,
    "g_loss": null,
    "g_cost": null,
    "d_loss_real": null,
    "d_loss_fake": null
}