{
    "epoch": 200,
    "avg_current_window": 1057.4305182923472,
    "avg_prior_window": 1068.2587694013926,
    "inception_score_mean": 1.8558065569441449,
    "inception_score_std": 0.09422309301964182,
    "fid_per_class": {
        "airplane": 917.968624391041,
        "automobile": 1123.5680671800048,
        "bird": 1265.3777528046596,
        "cat": 1004.6084742775303,
        "deer": 1460.9158568297028,
        "dog": 1078.4010006538429,
        "frog": 1505.3579606534486,
        "horse": 1135.9211329504212,
        "ship": 923.3945244909902,
        "truck": 1055.72200143515
    },
    "fid": 743.9437926774763,
    "wasserstein_distance": null,
    "g_loss": null,
    "g_cost": null,
    "d_loss_real": null,
    "d_loss_fake": null
}