{
    "epoch": 67,
    "avg_current_window": 1388.8198694070963,
    "avg_prior_window": 1435.0271662429864,
    "inception_score_mean": 1.7583770313217617,
    "inception_score_std": 0.12241652610880008,
    "fid_per_class": {
        "airplane": 1106.38157971388,
        "automobile": 1274.7553555778054,
        "bird": 1444.012147708273,
        "cat": 1156.637444552292,
        "deer": 1617.4967904245989,
        "dog": 1375.6726061281734,
        "frog": 1953.8482255736726,
        "horse": 1456.082979317724,
        "ship": 1099.7337105723204,
        "truck": 1192.9423953238775
    },
    "fid": 1001.3679810889289,
    "wasserstein_distance": null,
    "g_loss": null,
    "g_cost": null,
    "d_loss_real": null,
    "d_loss_fake": null
}