{
    "epoch": 75,
    "avg_current_window": 1351.2543497683753,
    "avg_prior_window": 1387.4033312753143,
    "inception_score_mean": 1.7165210195012357,
    "inception_score_std": 0.16673338804055898,
    "fid_per_class": {
        "airplane": 1123.8748920488708,
        "automobile": 1294.4748479328975,
        "bird": 1339.661875338876,
        "cat": 1079.2903714696886,
        "deer": 1371.2355121656049,
        "dog": 1185.8940486770286,
        "frog": 1785.802362959887,
        "horse": 1420.0839093848663,
        "ship": 1060.4204233497558,
        "truck": 1199.6317204131624
    },
    "fid": 926.7207301872846,
    "wasserstein_distance": null,
    "g_loss": null,
    "g_cost": null,
    "d_loss_real": null,
    "d_loss_fake": null
}