{
    "epoch": 182,
    "avg_current_window": 1081.1514212588233,
    "avg_prior_window": 1092.717920445459,
    "inception_score_mean": 1.7993340797189117,
    "inception_score_std": 0.14710525481591694,
    "fid_per_class": {
        "airplane": 1128.4504592034975,
        "automobile": 1203.6296290585256,
        "bird": 1350.9807740590445,
        "cat": 1065.5728114011613,
        "deer": 1516.3758075632288,
        "dog": 1165.6517053709326,
        "frog": 1602.878127813922,
        "horse": 1376.4172632003415,
        "ship": 1009.2359671798213,
        "truck": 1168.9876700943898
    },
    "fid": 885.2072016507279,
    "wasserstein_distance": null,
    "g_loss": null,
    "g_cost": null,
    "d_loss_real": null,
    "d_loss_fake": null
}