{
    "epoch": 43,
    "avg_current_window": 1614.2833429442649,
    "avg_prior_window": 1707.363677605487,
    "inception_score_mean": 1.67794499945248,
    "inception_score_std": 0.1096794120836214,
    "fid_per_class": {
        "airplane": 1186.2415612354234,
        "automobile": 1228.6121051631578,
        "bird": 1469.793738551772,
        "cat": 1292.0715809787298,
        "deer": 1660.3151410313958,
        "dog": 1439.668545255106,
        "frog": 1894.1246258563808,
        "horse": 1524.3290116367511,
        "ship": 1091.6693622858647,
        "truck": 1244.9422892843354
    },
    "fid": 1077.0339427092424,
    "wasserstein_distance": null,
    "g_loss": null,
    "g_cost": null,
    "d_loss_real": null,
    "d_loss_fake": null
}