{
    "epoch": 61,
    "avg_current_window": 1427.2792421861625,
    "avg_prior_window": 1487.783626115168,
    "inception_score_mean": 1.7846490609880934,
    "inception_score_std": 0.12723270145315774,
    "fid_per_class": {
        "airplane": 1109.8439170494696,
        "automobile": 1281.8691193095647,
        "bird": 1297.4989040523533,
        "cat": 1018.7420283973181,
        "deer": 1420.3019232630074,
        "dog": 1190.0348552435414,
        "frog": 1742.102965687917,
        "horse": 1388.177814394102,
        "ship": 1020.2533279611312,
        "truck": 1244.9562612104705
    },
    "fid": 904.683728144485,
    "wasserstein_distance": null,
    "g_loss": null,
    "g_cost": null,
    "d_loss_real": null,
    "d_loss_fake": null
}