{
    "epoch": 134,
    "avg_current_window": 1160.9166916194617,
    "avg_prior_window": 1177.4448253444416,
    "inception_score_mean": 1.8400364579443107,
    "inception_score_std": 0.16427289679877727,
    "fid_per_class": {
        "airplane": 1046.7815850305979,
        "automobile": 1125.9147430951416,
        "bird": 1379.5121088358185,
        "cat": 1071.4988739534817,
        "deer": 1494.0012657597135,
        "dog": 1310.9818071966038,
        "frog": 1779.9861660327526,
        "horse": 1285.7719357642611,
        "ship": 1004.8545613627472,
        "truck": 1066.5708728054037
    },
    "fid": 872.3827875495446,
    "wasserstein_distance": null,
    "g_loss": null,
    "g_cost": null,
    "d_loss_real": null,
    "d_loss_fake": null
}