{
    "epoch": 133,
    "avg_current_window": 1162.8582321553886,
    "avg_prior_window": 1179.4955204613702,
    "inception_score_mean": 1.9088752719487292,
    "inception_score_std": 0.1692698479575272,
    "fid_per_class": {
        "airplane": 1011.6999779736037,
        "automobile": 1264.6222825037562,
        "bird": 1481.8700030533264,
        "cat": 1012.914545875313,
        "deer": 1553.226998496975,
        "dog": 1215.357650104315,
        "frog": 1969.1848783485361,
        "horse": 1353.6758853374877,
        "ship": 959.1679532495812,
        "truck": 1160.4282953356249
    },
    "fid": 902.6918003411874,
    "wasserstein_distance": null,
    "g_loss": null,
    "g_cost": null,
    "d_loss_real": null,
    "d_loss_fake": null
}