{
    "epoch": 27,
    "avg_current_window": 1851.9585348211788,
    "avg_prior_window": 2018.4217404412177,
    "inception_score_mean": 1.416196809908286,
    "inception_score_std": 0.07325259504203047,
    "fid_per_class": {
        "airplane": 1478.7896554586673,
        "automobile": 1501.3394413761932,
        "bird": 1539.2313684068597,
        "cat": 1326.5299021077137,
        "deer": 1760.8271811788711,
        "dog": 1503.565028585707,
        "frog": 1897.1631927710969,
        "horse": 1542.2646857247587,
        "ship": 1313.9875596468542,
        "truck": 1375.6893932196901
    },
    "fid": 1246.3903257845336,
    "wasserstein_distance": null,
    "g_loss": null,
    "g_cost": null,
    "d_loss_real": null,
    "d_loss_fake": null
}