{
    "epoch": 60,
    "avg_current_window": 1434.8657292570815,
    "avg_prior_window": 1498.4703162863964,
    "inception_score_mean": 1.739772925580191,
    "inception_score_std": 0.13551827589101623,
    "fid_per_class": {
        "airplane": 1114.9098286888232,
        "automobile": 1316.97652993054,
        "bird": 1425.9698962871912,
        "cat": 1059.9983840989585,
        "deer": 1540.3083541538435,
        "dog": 1153.8906672116104,
        "frog": 1840.3063078181938,
        "horse": 1446.1733916456126,
        "ship": 1035.1752662862982,
        "truck": 1283.8371965057647
    },
    "fid": 972.0900179310242,
    "wasserstein_distance": null,
    "g_loss": null,
    "g_cost": null,
    "d_loss_real": null,
    "d_loss_fake": null
}