{
    "epoch": 71,
    "avg_current_window": 1367.862439285521,
    "avg_prior_window": 1409.8625947011433,
    "inception_score_mean": 1.6784681256840681,
    "inception_score_std": 0.1655351310059191,
    "fid_per_class": {
        "airplane": 1181.327229000221,
        "automobile": 1419.2732608775898,
        "bird": 1440.3057187931154,
        "cat": 1166.8832751321142,
        "deer": 1572.584504861502,
        "dog": 1325.1518539192402,
        "frog": 1931.6371267754112,
        "horse": 1519.2528272046611,
        "ship": 1167.593903949548,
        "truck": 1272.5581882595734
    },
    "fid": 1058.473671071365,
    "wasserstein_distance": null,
    "g_loss": null,
    "g_cost": null,
    "d_loss_real": null,
    "d_loss_fake": null
}