{
    "epoch": 127,
    "avg_current_window": 1175.013567716168,
    "avg_prior_window": 1193.0423782558742,
    "inception_score_mean": 1.7416465369435936,
    "inception_score_std": 0.08979929172785066,
    "fid_per_class": {
        "airplane": 1156.9668544311994,
        "automobile": 1276.0443163969258,
        "bird": 1447.2756157089611,
        "cat": 1102.071966473241,
        "deer": 1544.0035388675606,
        "dog": 1219.2274546078384,
        "frog": 1861.186631533072,
        "horse": 1369.3178603405606,
        "ship": 1082.7432262547934,
        "truck": 1249.2562665330502
    },
    "fid": 970.21277018472,
    "wasserstein_distance": null,
    "g_loss": null,
    "g_cost": null,
    "d_loss_real": null,
    "d_loss_fake": null
}