{
    "epoch": 151,
    "avg_current_window": 1130.6002886094811,
    "avg_prior_window": 1144.8319731702777,
    "inception_score_mean": 1.8751329732742448,
    "inception_score_std": 0.10045118321398895,
    "fid_per_class": {
        "airplane": 1075.5513422230233,
        "automobile": 1208.3188463425458,
        "bird": 1314.2887388624192,
        "cat": 1013.411487273661,
        "deer": 1443.640218189612,
        "dog": 1128.5584971195342,
        "frog": 1682.1048940258352,
        "horse": 1325.6367330916496,
        "ship": 1004.4451710658016,
        "truck": 1185.8306580478502
    },
    "fid": 843.8288588182127,
    "wasserstein_distance": null,
    "g_loss": null,
    "g_cost": null,
    "d_loss_real": null,
    "d_loss_fake": null
}