{
    "epoch": 192,
    "avg_current_window": 1068.4185095821201,
    "avg_prior_window": 1079.3878690166055,
    "inception_score_mean": 1.8767439901958594,
    "inception_score_std": 0.1405681407776461,
    "fid_per_class": {
        "airplane": 1045.5978825089353,
        "automobile": 1202.4081043634537,
        "bird": 1382.5262359712785,
        "cat": 1003.434851807747,
        "deer": 1600.8551352153936,
        "dog": 1150.0413575064745,
        "frog": 1625.095950766905,
        "horse": 1354.4640299596556,
        "ship": 1053.1498805948104,
        "truck": 1090.1626340777434
    },
    "fid": 883.4000541842092,
    "wasserstein_distance": null,
    "g_loss": null,
    "g_cost": null,
    "d_loss_real": null,
    "d_loss_fake": null
}