{
    "epoch": 169,
    "avg_current_window": 1100.2949774005172,
    "avg_prior_window": 1113.4568070586445,
    "inception_score_mean": 1.821260960160076,
    "inception_score_std": 0.11219819270989673,
    "fid_per_class": {
        "airplane": 1030.5518252012005,
        "automobile": 1196.0038144736527,
        "bird": 1374.2733124753327,
        "cat": 998.3954874046299,
        "deer": 1534.6588506427613,
        "dog": 1101.9394337439992,
        "frog": 1606.4298796958763,
        "horse": 1336.3165171701592,
        "ship": 975.6439313221567,
        "truck": 1139.9612051990443
    },
    "fid": 848.791283908575,
    "wasserstein_distance": null,
    "g_loss": null,
    "g_cost": null,
    "d_loss_real": null,
    "d_loss_fake": null
}