{
    "epoch": 85,
    "avg_current_window": 1304.6856226933103,
    "avg_prior_window": 1338.4387938113819,
    "inception_score_mean": 1.7368306415302777,
    "inception_score_std": 0.13544030352296113,
    "fid_per_class": {
        "airplane": 1153.1535173069399,
        "automobile": 1262.9798234638274,
        "bird": 1326.2437592394244,
        "cat": 1115.797038916979,
        "deer": 1460.1075994039848,
        "dog": 1266.2822399190204,
        "frog": 1807.0653651410112,
        "horse": 1352.546220367089,
        "ship": 1078.634568390972,
        "truck": 1243.1942013910507
    },
    "fid": 947.0191120285681,
    "wasserstein_distance": null,
    "g_loss": null,
    "g_cost": null,
    "d_loss_real": null,
    "d_loss_fake": null
}