{
    "epoch": 163,
    "avg_current_window": 1110.9679733992225,
    "avg_prior_window": 1124.3141201151388,
    "inception_score_mean": 1.9172764152616177,
    "inception_score_std": 0.11618513516194738,
    "fid_per_class": {
        "airplane": 966.6859078993955,
        "automobile": 1149.7337584978673,
        "bird": 1248.9863910060978,
        "cat": 887.6408608061951,
        "deer": 1380.1271354824953,
        "dog": 1023.8079804494906,
        "frog": 1441.1112171470422,
        "horse": 1180.445308647428,
        "ship": 984.6880589054313,
        "truck": 1035.4190920333156
    },
    "fid": 729.9636316655883,
    "wasserstein_distance": null,
    "g_loss": null,
    "g_cost": null,
    "d_loss_real": null,
    "d_loss_fake": null
}