{
    "epoch": 31,
    "avg_current_window": 1787.1278523333447,
    "avg_prior_window": 1923.1877092373782,
    "inception_score_mean": 1.3239999797418047,
    "inception_score_std": 0.03851911864486568,
    "fid_per_class": {
        "airplane": 1373.4151965745054,
        "automobile": 1487.057404387537,
        "bird": 1601.8161123091386,
        "cat": 1365.8750958806927,
        "deer": 1641.8710074008054,
        "dog": 1545.235228533203,
        "frog": 1801.7197779385413,
        "horse": 1559.0693781124844,
        "ship": 1310.9336627708208,
        "truck": 1414.975599185565
    },
    "fid": 1246.6490506031096,
    "wasserstein_distance": null,
    "g_loss": null,
    "g_cost": null,
    "d_loss_real": null,
    "d_loss_fake": null
}