{
    "epoch": 30,
    "avg_current_window": 1801.5502506835169,
    "avg_prior_window": 1949.9791430758994,
    "inception_score_mean": 1.2625371387783695,
    "inception_score_std": 0.02892400194460194,
    "fid_per_class": {
        "airplane": 1486.6776253532444,
        "automobile": 1457.5054032419077,
        "bird": 1706.8911319638773,
        "cat": 1498.8624357839988,
        "deer": 1808.7083589738202,
        "dog": 1699.859872739129,
        "frog": 1934.1873317301101,
        "horse": 1653.4619888503255,
        "ship": 1431.3290632301462,
        "truck": 1448.2889970135536
    },
    "fid": 1354.4559018281775,
    "wasserstein_distance": null,
    "g_loss": null,
    "g_cost": null,
    "d_loss_real": null,
    "d_loss_fake": null
}