{
    "epoch": 13,
    "avg_current_window": 2007.5758349725452,
    "avg_prior_window": 1930.0214643723252,
    "inception_score_mean": 1.0019329702425777,
    "inception_score_std": 0.0015456955006770356,
    "fid_per_class": {
        "airplane": 2178.1512804568124,
        "automobile": 2488.6851821214245,
        "bird": 2627.7187750976254,
        "cat": 2783.0821532034597,
        "deer": 2969.6824717652744,
        "dog": 2715.1673938899285,
        "frog": 2816.844777518014,
        "horse": 2623.060212911949,
        "ship": 2405.0728901072735,
        "truck": 2421.1170956486453
    },
    "fid": 2572.235325598797,
    "wasserstein_distance": null,
    "g_loss": null,
    "g_cost": null,
    "d_loss_real": null,
    "d_loss_fake": null
}