{
    "epoch": 146,
    "avg_current_window": 1138.953254932008,
    "avg_prior_window": 1153.542056550647,
    "inception_score_mean": 1.8745474027564917,
    "inception_score_std": 0.11686473833050527,
    "fid_per_class": {
        "airplane": 1061.7734454191589,
        "automobile": 1240.6196601906045,
        "bird": 1346.7666712184414,
        "cat": 1027.5220767651251,
        "deer": 1471.6495986211635,
        "dog": 1128.6475506896297,
        "frog": 1784.9739689159744,
        "horse": 1242.426887650139,
        "ship": 1081.5904747791997,
        "truck": 1127.4966173381276
    },
    "fid": 858.2928627874106,
    "wasserstein_distance": null,
    "g_loss": null,
    "g_cost": null,
    "d_loss_real": null,
    "d_loss_fake": null
}