{
    "epoch": 32,
    "avg_current_window": 1770.2378897792748,
    "avg_prior_window": 1898.1211394798652,
    "inception_score_mean": 1.3644036132576496,
    "inception_score_std": 0.0635072998524135,
    "fid_per_class": {
        "airplane": 1398.584021784754,
        "automobile": 1491.5427885067124,
        "bird": 1644.1855049021638,
        "cat": 1399.2743259411577,
        "deer": 1662.3177799569385,
        "dog": 1541.147092993997,
        "frog": 1960.8248803635317,
        "horse": 1584.4167381542195,
        "ship": 1323.0176078341055,
        "truck": 1399.6024165671104
    },
    "fid": 1278.8467207296126,
    "wasserstein_distance": null,
    "g_loss": null,
    "g_cost": null,
    "d_loss_real": null,
    "d_loss_fake": null
}