{
    "epoch": 34,
    "avg_current_window": 1741.1930865108607,
    "avg_prior_window": 1863.6726731208794,
    "inception_score_mean": 1.5784843588352366,
    "inception_score_std": 0.09510647953597196,
    "fid_per_class": {
        "airplane": 1274.2836522473135,
        "automobile": 1257.9439477810333,
        "bird": 1463.5787924983872,
        "cat": 1269.4493413528921,
        "deer": 1559.7875939314433,
        "dog": 1397.142166308932,
        "frog": 1748.706087585002,
        "horse": 1484.4639793253189,
        "ship": 1187.9487874095985,
        "truck": 1223.826208759086
    },
    "fid": 1077.6665718575216,
    "wasserstein_distance": null,
    "g_loss": null,
    "g_cost": null,
    "d_loss_real": null,
    "d_loss_fake": null
}