{
    "epoch": 64,
    "avg_current_window": 1405.7674098360121,
    "avg_prior_window": 1459.1854873800828,
    "inception_score_mean": 1.6734703470874266,
    "inception_score_std": 0.08511559619410475,
    "fid_per_class": {
        "airplane": 1154.1358726511094,
        "automobile": 1349.531271814371,
        "bird": 1441.7317406764062,
        "cat": 1139.2567148083183,
        "deer": 1569.4146377349189,
        "dog": 1283.0520760948643,
        "frog": 1858.0077442669058,
        "horse": 1536.659273978437,
        "ship": 1055.2606313593792,
        "truck": 1283.959924942872
    },
    "fid": 1020.6230808443242,
    "wasserstein_distance": null,
    "g_loss": null,
    "g_cost": null,
    "d_loss_real": null,
    "d_loss_fake": null
}