{
    "epoch": 26,
    "avg_current_window": 1874.9799452652878,
    "avg_prior_window": 2042.8123478652594,
    "inception_score_mean": 1.3838999924139892,
    "inception_score_std": 0.06838780179121044,
    "fid_per_class": {
        "airplane": 1467.0501298231047,
        "automobile": 1389.0020627279462,
        "bird": 1573.260789553531,
        "cat": 1332.5643077413984,
        "deer": 1638.6357335226398,
        "dog": 1620.3567983829807,
        "frog": 1931.116795387876,
        "horse": 1532.3454341003558,
        "ship": 1365.7556018011492,
        "truck": 1323.4278033936948
    },
    "fid": 1253.4018632743491,
    "wasserstein_distance": null,
    "g_loss": null,
    "g_cost": null,
    "d_loss_real": null,
    "d_loss_fake": null
}