{
    "epoch": 45,
    "avg_current_window": 1593.2731282841933,
    "avg_prior_window": 1681.2210865298662,
    "inception_score_mean": 1.6944603481338494,
    "inception_score_std": 0.14993394938961083,
    "fid_per_class": {
        "airplane": 1208.2048033405727,
        "automobile": 1340.5781380113942,
        "bird": 1600.4802690134802,
        "cat": 1262.0211256096889,
        "deer": 1899.6312234259867,
        "dog": 1434.8772713081814,
        "frog": 2095.365923297215,
        "horse": 1526.170894495976,
        "ship": 1148.412278114388,
        "truck": 1217.6657863253567
    },
    "fid": 1143.236158178346,
    "wasserstein_distance": null,
    "g_loss": null,
    "g_cost": null,
    "d_loss_real": null,
    "d_loss_fake": null
}