{
    "epoch": 100,
    "avg_current_window": 1247.2091782769699,
    "avg_prior_window": 1273.5651040879022,
    "inception_score_mean": 1.854919807621418,
    "inception_score_std": 0.16528131012668074,
    "fid_per_class": {
        "airplane": 1022.3785794687544,
        "automobile": 1206.5372275275781,
        "bird": 1380.8379405730752,
        "cat": 1023.4615434205389,
        "deer": 1450.6929218982818,
        "dog": 1266.3044636207505,
        "frog": 1880.2498519251365,
        "horse": 1325.9086707727556,
        "ship": 1023.7294862871461,
        "truck": 1205.3706429004683
    },
    "fid": 886.7133790759469,
    "wasserstein_distance": null,
    "g_loss": null,
    "g_cost": null,
    "d_loss_real": null,
    "d_loss_fake": null
}