{
    "epoch": 77,
    "avg_current_window": 1341.1700886527335,
    "avg_prior_window": 1377.8932490666975,
    "inception_score_mean": 1.6790291215520643,
    "inception_score_std": 0.09674414649957531,
    "fid_per_class": {
        "airplane": 1138.438377300577,
        "automobile": 1357.5649877301703,
        "bird": 1408.7921097006524,
        "cat": 1063.0168055749782,
        "deer": 1557.4209018561287,
        "dog": 1138.0615017726209,
        "frog": 1871.0610976758944,
        "horse": 1460.4725382229713,
        "ship": 1082.5969478466209,
        "truck": 1278.1608628625618
    },
    "fid": 964.9697862952169,
    "wasserstein_distance": null,
    "g_loss": null,
    "g_cost": null,
    "d_loss_real": null,
    "d_loss_fake": null
}