{
    "epoch": 166,
    "avg_current_window": 1105.2053039398638,
    "avg_prior_window": 1119.7380096222598,
    "inception_score_mean": 1.875179283254963,
    "inception_score_std": 0.12032430761203125,
    "fid_per_class": {
        "airplane": 1011.7276269853089,
        "automobile": 1204.944372446882,
        "bird": 1336.978354204452,
        "cat": 998.0130983633812,
        "deer": 1544.140763513202,
        "dog": 1164.9844437235167,
        "frog": 1712.8591215002061,
        "horse": 1337.2805908974728,
        "ship": 1031.5755756761807,
        "truck": 1102.7979364251742
    },
    "fid": 838.8147654381308,
    "wasserstein_distance": null,
    "g_loss": null,
    "g_cost": null,
    "d_loss_real": null,
    "d_loss_fake": null
}