{
    "epoch": 165,
    "avg_current_window": 1106.708583985562,
    "avg_prior_window": 1120.8572965402238,
    "inception_score_mean": 1.8251043927007362,
    "inception_score_std": 0.13530239041478248,
    "fid_per_class": {
        "airplane": 1028.8596233587764,
        "automobile": 1219.2771707558165,
        "bird": 1360.494452774247,
        "cat": 1002.2213786646123,
        "deer": 1591.3739283418097,
        "dog": 1189.8603959697975,
        "frog": 1665.1138186366047,
        "horse": 1316.2150725417232,
        "ship": 978.6991912575232,
        "truck": 1161.5357671462943
    },
    "fid": 857.1640963996741,
    "wasserstein_distance": null,
    "g_loss": null,
    "g_cost": null,
    "d_loss_real": null,
    "d_loss_fake": null
}