{
    "epoch": 54,
    "avg_current_window": 1491.5150666303246,
    "avg_prior_window": 1566.9130966248429,
    "inception_score_mean": 1.8779996239311436,
    "inception_score_std": 0.09018223625716977,
    "fid_per_class": {
        "airplane": 1151.476377455525,
        "automobile": 1231.8722049551839,
        "bird": 1314.0018039946717,
        "cat": 1026.3045791865025,
        "deer": 1427.9701391202568,
        "dog": 1102.1126100396068,
        "frog": 1650.2680664238007,
        "horse": 1376.2521551615023,
        "ship": 1041.080804962892,
        "truck": 1146.0242450806627
    },
    "fid": 875.8990059848994,
    "wasserstein_distance": null,
    "g_loss": null,
    "g_cost": null,
    "d_loss_real": null,
    "d_loss_fake": null
}