{
    "epoch": 114,
    "avg_current_window": 1205.127405941611,
    "avg_prior_window": 1227.88507954401,
    "inception_score_mean": 1.9088757104071696,
    "inception_score_std": 0.1270836086698717,
    "fid_per_class": {
        "airplane": 1049.580487943585,
        "automobile": 1134.7665769624314,
        "bird": 1399.6537954645257,
        "cat": 997.2732833166585,
        "deer": 1528.0103483047837,
        "dog": 1144.1582006715823,
        "frog": 1829.8033715468434,
        "horse": 1307.451103688521,
        "ship": 1058.646830422881,
        "truck": 1114.9006284640054
    },
    "fid": 851.4154189251462,
    "wasserstein_distance": null,
    "g_loss": null,
    "g_cost": null,
    "d_loss_real": null,
    "d_loss_fake": null
}