{
    "epoch": 102,
    "avg_current_window": 1240.338652953235,
    "avg_prior_window": 1266.698526823595,
    "inception_score_mean": 1.7016627519513468,
    "inception_score_std": 0.11902565305003272,
    "fid_per_class": {
        "airplane": 1039.1902171081606,
        "automobile": 1253.4772666514536,
        "bird": 1405.3984887883275,
        "cat": 1047.147030116295,
        "deer": 1479.2331843181469,
        "dog": 1175.5681668419802,
        "frog": 1814.0957404143583,
        "horse": 1354.0144038809167,
        "ship": 1017.1955940142961,
        "truck": 1226.1800709036029
    },
    "fid": 908.8712214890543,
    "wasserstein_distance": null,
    "g_loss": null,
    "g_cost": null,
    "d_loss_real": null,
    "d_loss_fake": null
}