{
    "epoch": 12,
    "avg_current_window": 1958.8811571323974,
    "avg_prior_window": 1915.7335523276913,
    "inception_score_mean": 1.000162935670804,
    "inception_score_std": 1.459784891386968e-05,
    "fid_per_class": {
        "airplane": 2227.2672329362267,
        "automobile": 2554.868955168061,
        "bird": 2601.7988134622983,
        "cat": 2624.005578622715,
        "deer": 2989.5964502439674,
        "dog": 2579.120595745161,
        "frog": 2769.3761234500344,
        "horse": 2684.5404794258156,
        "ship": 2481.724958820206,
        "truck": 2509.03064596724
    },
    "fid": 2591.91196905432,
    "wasserstein_distance": null,
    "g_loss": null,
    "g_cost": null,
    "d_loss_real": null,
    "d_loss_fake": null
}