{
    "epoch": 167,
    "avg_current_window": 1103.6101510147037,
    "avg_prior_window": 1117.825800395514,
    "inception_score_mean": 1.8312041525099887,
    "inception_score_std": 0.11355711654678807,
    "fid_per_class": {
        "airplane": 1027.1417828256158,
        "automobile": 1114.4511749471794,
        "bird": 1273.4353757748208,
        "cat": 975.8099034469102,
        "deer": 1435.6002900649748,
        "dog": 1090.1828671223573,
        "frog": 1508.3597537658304,
        "horse": 1236.9593857193038,
        "ship": 1000.752745005232,
        "truck": 1131.913965355235
    },
    "fid": 794.7151798098857,
    "wasserstein_distance": null,
    "g_loss": null,
    "g_cost": null,
    "d_loss_real": null,
    "d_loss_fake": null
}