{
    "epoch": 137,
    "avg_current_window": 1154.7797098463009,
    "avg_prior_window": 1171.667764217172,
    "inception_score_mean": 1.770647630363492,
    "inception_score_std": 0.1056752492229274,
    "fid_per_class": {
        "airplane": 1070.7924952114072,
        "automobile": 1271.241826358973,
        "bird": 1410.8569366726138,
        "cat": 1072.6495060747252,
        "deer": 1516.007451381864,
        "dog": 1261.1966492860406,
        "frog": 1826.686795416452,
        "horse": 1338.5887958290434,
        "ship": 994.8512922011787,
        "truck": 1194.012588479456
    },
    "fid": 919.5794950140341,
    "wasserstein_distance": null,
    "g_loss": null,
    "g_cost": null,
    "d_loss_real": null,
    "d_loss_fake": null
}