{
    "epoch": 191,
    "avg_current_window": 1070.2929367858776,
    "avg_prior_window": 1080.4847995393925,
    "inception_score_mean": 1.9283305212896764,
    "inception_score_std": 0.09411559909779428,
    "fid_per_class": {
        "airplane": 961.6272648226185,
        "automobile": 1071.1654191017933,
        "bird": 1188.2174045021661,
        "cat": 899.2621792792611,
        "deer": 1315.329725010695,
        "dog": 955.9319404637163,
        "frog": 1399.5924066844505,
        "horse": 1150.6038416339768,
        "ship": 929.9043857465055,
        "truck": 996.3108108617341
    },
    "fid": 710.4029136644264,
    "wasserstein_distance": null,
    "g_loss": null,
    "g_cost": null,
    "d_loss_real": null,
    "d_loss_fake": null
}