{
    "epoch": 37,
    "avg_current_window": 1692.5524901280062,
    "avg_prior_window": 1810.2018498020752,
    "inception_score_mean": 1.6781455280339248,
    "inception_score_std": 0.13321910698076384,
    "fid_per_class": {
        "airplane": 1267.0658172749722,
        "automobile": 1323.991386271714,
        "bird": 1575.0011293141547,
        "cat": 1270.7367847633627,
        "deer": 1810.4094747040676,
        "dog": 1405.3524890537078,
        "frog": 1827.7715272831697,
        "horse": 1550.8858418244067,
        "ship": 1093.9932621514506,
        "truck": 1250.1446359616364
    },
    "fid": 1106.7030043818313,
    "wasserstein_distance": null,
    "g_loss": null,
    "g_cost": null,
    "d_loss_real": null,
    "d_loss_fake": null
}