{
    "epoch": 183,
    "avg_current_window": 1080.0806878183419,
    "avg_prior_window": 1090.9180309169287,
    "inception_score_mean": 1.817993921213591,
    "inception_score_std": 0.13830708321673882,
    "fid_per_class": {
        "airplane": 994.0841073307028,
        "automobile": 1197.5464759527601,
        "bird": 1337.73816267227,
        "cat": 968.6884037901018,
        "deer": 1504.2192074144896,
        "dog": 1137.580943351054,
        "frog": 1538.7544811603045,
        "horse": 1317.5718839102783,
        "ship": 979.5351889208957,
        "truck": 1127.2517922879047
    },
    "fid": 804.2855505419617,
    "wasserstein_distance": null,
    "g_loss": null,
    "g_cost": null,
    "d_loss_real": null,
    "d_loss_fake": null
}