{
    "epoch": 50,
    "avg_current_window": 1535.574834692346,
    "avg_prior_window": 1618.678376243712,
    "inception_score_mean": 1.8633468125171144,
    "inception_score_std": 0.1666759666716916,
    "fid_per_class": {
        "airplane": 1139.5385891981402,
        "automobile": 1206.4091302186275,
        "bird": 1461.1753563079947,
        "cat": 1055.6448006055937,
        "deer": 1620.9704590464016,
        "dog": 1238.851488211094,
        "frog": 1852.8403996434777,
        "horse": 1439.0628221549446,
        "ship": 1082.9901411392634,
        "truck": 1140.9392580921299
    },
    "fid": 965.8876682234106,
    "wasserstein_distance": null,
    "g_loss": null,
    "g_cost": null,
    "d_loss_real": null,
    "d_loss_fake": null
}