{
    "epoch": 39,
    "avg_current_window": 1663.585121769449,
    "avg_prior_window": 1772.8891621537289,
    "inception_score_mean": 1.7375978385880253,
    "inception_score_std": 0.16918906048769689,
    "fid_per_class": {
        "airplane": 1313.7219118535254,
        "automobile": 1256.7477951101018,
        "bird": 1581.782874614195,
        "cat": 1324.3765177891746,
        "deer": 1867.7997821250658,
        "dog": 1408.9131336176467,
        "frog": 2051.656545807969,
        "horse": 1536.580701626603,
        "ship": 1092.4803072679613,
        "truck": 1214.727928634737
    },
    "fid": 1128.267387302869,
    "wasserstein_distance": null,
    "g_loss": null,
    "g_cost": null,
    "d_loss_real": null,
    "d_loss_fake": null
}