{
    "epoch": 198,
    "avg_current_window": 1060.010238115693,
    "avg_prior_window": 1071.367946386343,
    "inception_score_mean": 1.8120278813457222,
    "inception_score_std": 0.1761436887527705,
    "fid_per_class": {
        "airplane": 961.261340273593,
        "automobile": 1136.283286989139,
        "bird": 1236.466957411133,
        "cat": 1005.764407138482,
        "deer": 1411.2665546929309,
        "dog": 1074.443574059681,
        "frog": 1523.3613936445752,
        "horse": 1264.382511057812,
        "ship": 984.9767364160573,
        "truck": 1102.97683265997
    },
    "fid": 777.6240712929111,
    "wasserstein_distance": null,
    "g_loss": null,
    "g_cost": null,
    "d_loss_real": null,
    "d_loss_fake": null
}