{
    "epoch": 189,
    "avg_current_window": 1072.516888342837,
    "avg_prior_window": 1083.5897693527418,
    "inception_score_mean": 1.803352025537593,
    "inception_score_std": 0.13633569851029928,
    "fid_per_class": {
        "airplane": 956.0922144569345,
        "automobile": 1192.3005472900613,
        "bird": 1324.841783982173,
        "cat": 1070.141398431697,
        "deer": 1441.8147204262953,
        "dog": 1171.9100240143428,
        "frog": 1551.854497582261,
        "horse": 1253.3997374776889,
        "ship": 898.3474220026742,
        "truck": 1089.3691802893836
    },
    "fid": 824.6129713659159,
    "wasserstein_distance": null,
    "g_loss": null,
    "g_cost": null,
    "d_loss_real": null,
    "d_loss_fake": null
}