{
    "epoch": 94,
    "avg_current_window": 1267.0622271855434,
    "avg_prior_window": 1297.5841590800028,
    "inception_score_mean": 1.7166309258982935,
    "inception_score_std": 0.13483174782601406,
    "fid_per_class": {
        "airplane": 1021.9200328285486,
        "automobile": 1303.1398833815597,
        "bird": 1396.9805798112297,
        "cat": 1066.8547606283253,
        "deer": 1630.3555451154198,
        "dog": 1268.5764196489308,
        "frog": 1999.7773333178548,
        "horse": 1430.8937712912802,
        "ship": 1018.4507851132962,
        "truck": 1201.436856266363
    },
    "fid": 948.0558331254645,
    "wasserstein_distance": null,
    "g_loss": null,
    "g_cost": null,
    "d_loss_real": null,
    "d_loss_fake": null
}