{
    "epoch": 68,
    "avg_current_window": 1383.1220475200646,
    "avg_prior_window": 1428.0811782461076,
    "inception_score_mean": 1.7016481519853799,
    "inception_score_std": 0.1212686837125505,
    "fid_per_class": {
        "airplane": 1177.2935620733629,
        "automobile": 1225.6960585283173,
        "bird": 1478.1171264743962,
        "cat": 1152.9961870761713,
        "deer": 1557.1529441614516,
        "dog": 1294.8098506860783,
        "frog": 1954.0681431935195,
        "horse": 1475.5524982641646,
        "ship": 1131.715547400756,
        "truck": 1188.1924773771686
    },
    "fid": 1005.7768740638021,
    "wasserstein_distance": null,
    "g_loss": null,
    "g_cost": null,
    "d_loss_real": null,
    "d_loss_fake": null
}