{
    "epoch": 197,
    "avg_current_window": 1061.3189497498672,
    "avg_prior_window": 1073.019551530996,
    "inception_score_mean": 1.8848426281804582,
    "inception_score_std": 0.14831512641381964,
    "fid_per_class": {
        "airplane": 995.2994657912694,
        "automobile": 1204.0266196204425,
        "bird": 1286.4831487597746,
        "cat": 1018.5417632888227,
        "deer": 1481.5596231165273,
        "dog": 1079.71228481452,
        "frog": 1468.8511495239002,
        "horse": 1254.6408648941779,
        "ship": 938.265561874548,
        "truck": 1093.1646010569757
    },
    "fid": 802.1940461833442,
    "wasserstein_distance": null,
    "g_loss": null,
    "g_cost": null,
    "d_loss_real": null,
    "d_loss_fake": null
}