{
    "epoch": 46,
    "avg_current_window": 1583.4897158905878,
    "avg_prior_window": 1665.7812180964656,
    "inception_score_mean": 1.8151437851392092,
    "inception_score_std": 0.12150703785016073,
    "fid_per_class": {
        "airplane": 1172.1876136817605,
        "automobile": 1236.4320734289151,
        "bird": 1374.08518148631,
        "cat": 1120.1519994296434,
        "deer": 1728.8538507857957,
        "dog": 1205.2947038124498,
        "frog": 1856.5580872786252,
        "horse": 1479.9224754657398,
        "ship": 1080.3408095509185,
        "truck": 1191.5004976050766
    },
    "fid": 996.68936505692,
    "wasserstein_distance": null,
    "g_loss": null,
    "g_cost": null,
    "d_loss_real": null,
    "d_loss_fake": null
}