{
    "epoch": 181,
    "avg_current_window": 1082.2368987240993,
    "avg_prior_window": 1094.117028647088,
    "inception_score_mean": 1.8137078884204765,
    "inception_score_std": 0.13323543266610124,
    "fid_per_class": {
        "airplane": 1059.7430384652819,
        "automobile": 1165.9351814423353,
        "bird": 1400.7671070012943,
        "cat": 1032.2512258057914,
        "deer": 1534.8724142408664,
        "dog": 1148.997880810774,
        "frog": 1537.8124991260265,
        "horse": 1387.1519199359757,
        "ship": 1095.23406343938,
        "truck": 1099.0343190849069
    },
    "fid": 884.6800000438889,
    "wasserstein_distance": null,
    "g_loss": null,
    "g_cost": null,
    "d_loss_real": null,
    "d_loss_fake": null
}