{
    "epoch": 188,
    "avg_current_window": 1073.6464441814107,
    "avg_prior_window": 1084.475690826768,
    "inception_score_mean": 1.768870965153047,
    "inception_score_std": 0.14306175857818182,
    "fid_per_class": {
        "airplane": 995.0376602364809,
        "automobile": 1177.1622244439004,
        "bird": 1366.7775368401467,
        "cat": 1045.1564582015885,
        "deer": 1589.5782238771826,
        "dog": 1175.6211212224703,
        "frog": 1673.9817019200755,
        "horse": 1305.552265315129,
        "ship": 977.6689054317485,
        "truck": 1089.3428059309106
    },
    "fid": 860.1603906909705,
    "wasserstein_distance": null,
    "g_loss": null,
    "g_cost": null,
    "d_loss_real": null,
    "d_loss_fake": null
}