{
    "epoch": 184,
    "avg_current_window": 1078.5818012027094,
    "avg_prior_window": 1089.229269178722,
    "inception_score_mean": 1.7378517286202346,
    "inception_score_std": 0.15100394712907728,
    "fid_per_class": {
        "airplane": 1011.2416098879692,
        "automobile": 1289.3664362662068,
        "bird": 1376.5733073513586,
        "cat": 1123.1377465181122,
        "deer": 1521.9290335344356,
        "dog": 1283.455465789491,
        "frog": 1642.9239571878636,
        "horse": 1356.3088009960939,
        "ship": 983.0836095038107,
        "truck": 1237.3906410734003
    },
    "fid": 921.4661396059786,
    "wasserstein_distance": null,
    "g_loss": null,
    "g_cost": null,
    "d_loss_real": null,
    "d_loss_fake": null
}