{
    "epoch": 101,
    "avg_current_window": 1243.6399129383458,
    "avg_prior_window": 1270.5763675960097,
    "inception_score_mean": 1.6754591176440563,
    "inception_score_std": 0.10141714414115224,
    "fid_per_class": {
        "airplane": 1107.7474099791048,
        "automobile": 1250.05955468621,
        "bird": 1409.9139039319434,
        "cat": 959.8223673304478,
        "deer": 1482.7129388066514,
        "dog": 1170.1463877633055,
        "frog": 1747.9279413327936,
        "horse": 1431.4965659189204,
        "ship": 1043.241406169394,
        "truck": 1235.7842870192244
    },
    "fid": 906.9113944570435,
    "wasserstein_distance": null,
    "g_loss": null,
    "g_cost": null,
    "d_loss_real": null,
    "d_loss_fake": null
}