{
    "epoch": 93,
    "avg_current_window": 1271.800638214033,
    "avg_prior_window": 1302.2563520861256,
    "inception_score_mean": 1.844550819249751,
    "inception_score_std": 0.12711296615296278,
    "fid_per_class": {
        "airplane": 1022.4266258191903,
        "automobile": 1164.438818267672,
        "bird": 1288.0838059898822,
        "cat": 1005.3779485761225,
        "deer": 1432.7054599676924,
        "dog": 1153.3063412785473,
        "frog": 1803.4718151388774,
        "horse": 1291.328718634889,
        "ship": 1018.6605755750786,
        "truck": 1169.39536309003
    },
    "fid": 826.3900015360159,
    "wasserstein_distance": null,
    "g_loss": null,
    "g_cost": null,
    "d_loss_real": null,
    "d_loss_fake": null
}