{
    "epoch": 139,
    "avg_current_window": 1151.0963478738975,
    "avg_prior_window": 1167.427010929533,
    "inception_score_mean": 1.8700352974654504,
    "inception_score_std": 0.09557313280700157,
    "fid_per_class": {
        "airplane": 1104.6994421703407,
        "automobile": 1206.1068132495027,
        "bird": 1278.4857828280135,
        "cat": 943.672009407002,
        "deer": 1400.9805855599634,
        "dog": 1155.4023766190367,
        "frog": 1573.6005114852196,
        "horse": 1198.4488120368878,
        "ship": 1080.4868445183529,
        "truck": 1173.5381966917973
    },
    "fid": 802.9290386884156,
    "wasserstein_distance": null,
    "g_loss": null,
    "g_cost": null,
    "d_loss_real": null,
    "d_loss_fake": null
}