{
    "epoch": 17,
    "avg_current_window": 2097.913125033778,
    "avg_prior_window": 2174.8738212202575,
    "inception_score_mean": 1.2454516940791773,
    "inception_score_std": 0.025755532898169807,
    "fid_per_class": {
        "airplane": 1533.3429758151788,
        "automobile": 1843.9234908804992,
        "bird": 1995.383237147837,
        "cat": 1860.3569162395424,
        "deer": 2300.5657027915113,
        "dog": 1961.7886393320164,
        "frog": 2245.6125023823706,
        "horse": 1846.0239125990058,
        "ship": 1544.5862090669634,
        "truck": 1489.6986138809089
    },
    "fid": 1582.3794391710721,
    "wasserstein_distance": null,
    "g_loss": null,
    "g_cost": null,
    "d_loss_real": null,
    "d_loss_fake": null
}