{
    "epoch": 143,
    "avg_current_window": 1143.259778607891,
    "avg_prior_window": 1159.4376257570416,
    "inception_score_mean": 1.8046924762548222,
    "inception_score_std": 0.15199006173931776,
    "fid_per_class": {
        "airplane": 1096.437805176016,
        "automobile": 1218.1525173078705,
        "bird": 1422.2998351645788,
        "cat": 1032.5712953142815,
        "deer": 1585.7843753673337,
        "dog": 1223.8763721482846,
        "frog": 1888.0645609393678,
        "horse": 1334.8308074452605,
        "ship": 1052.8887801268656,
        "truck": 1186.5191300289523
    },
    "fid": 912.6179214510641,
    "wasserstein_distance": null,
    "g_loss": null,
    "g_cost": null,
    "d_loss_real": null,
    "d_loss_fake": null
}