{
    "epoch": 118,
    "avg_current_window": 1194.639549682277,
    "avg_prior_window": 1215.7922502419792,
    "inception_score_mean": 1.773890493893426,
    "inception_score_std": 0.13590771279538427,
    "fid_per_class": {
        "airplane": 1111.7721406836536,
        "automobile": 1203.3095481487665,
        "bird": 1351.2269075746192,
        "cat": 1036.8754125673959,
        "deer": 1451.082471891004,
        "dog": 1198.8911024359359,
        "frog": 1832.910237952703,
        "horse": 1362.0232817695612,
        "ship": 1036.8731515899558,
        "truck": 1160.4983062907636
    },
    "fid": 897.0517622530791,
    "wasserstein_distance": null,
    "g_loss": null,
    "g_cost": null,
    "d_loss_real": null,
    "d_loss_fake": null
}