{
    "epoch": 16,
    "avg_current_window": 2089.5373545805714,
    "avg_prior_window": 2136.9612623262515,
    "inception_score_mean": 1.0511736409463965,
    "inception_score_std": 0.01862153190996137,
    "fid_per_class": {
        "airplane": 1828.2947790423098,
        "automobile": 2006.1452442159118,
        "bird": 2589.144332872518,
        "cat": 2388.0814260407506,
        "deer": 2790.0490914576876,
        "dog": 2595.594932168165,
        "frog": 2930.801042162597,
        "horse": 2401.219896838679,
        "ship": 1929.6718379681543,
        "truck": 1949.5079487296214
    },
    "fid": 2231.925452285091,
    "wasserstein_distance": null,
    "g_loss": null,
    "g_cost": null,
    "d_loss_real": null,
    "d_loss_fake": null
}