{
    "epoch": 170,
    "avg_current_window": 1098.815543909388,
    "avg_prior_window": 1111.9035179031357,
    "inception_score_mean": 2.0154281627599775,
    "inception_score_std": 0.17797314460479385,
    "fid_per_class": {
        "airplane": 932.2967848276037,
        "automobile": 1100.1113253617218,
        "bird": 1365.2504112932186,
        "cat": 981.5416604142342,
        "deer": 1441.982061337733,
        "dog": 1116.4722286823865,
        "frog": 1653.037995400468,
        "horse": 1227.8280467282991,
        "ship": 966.8832555893971,
        "truck": 984.2142664334367
    },
    "fid": 778.1585998770754,
    "wasserstein_distance": null,
    "g_loss": null,
    "g_cost": null,
    "d_loss_real": null,
    "d_loss_fake": null
}