{
    "epoch": 36,
    "avg_current_window": 1707.016763290717,
    "avg_prior_window": 1827.3423378366708,
    "inception_score_mean": 1.499974499700748,
    "inception_score_std": 0.12212238221306532,
    "fid_per_class": {
        "airplane": 1263.0247219480336,
        "automobile": 1321.3334994752352,
        "bird": 1522.6041115375106,
        "cat": 1379.1438391854667,
        "deer": 1728.8748588455046,
        "dog": 1538.1748126288253,
        "frog": 1920.8454078464667,
        "horse": 1583.0006611411193,
        "ship": 1101.759272019321,
        "truck": 1257.2949904292557
    },
    "fid": 1171.8386562704109,
    "wasserstein_distance": null,
    "g_loss": null,
    "g_cost": null,
    "d_loss_real": null,
    "d_loss_fake": null
}