{
    "epoch": 81,
    "avg_current_window": 1321.9148580853152,
    "avg_prior_window": 1358.8170635034276,
    "inception_score_mean": 1.7412661714155195,
    "inception_score_std": 0.13510713464594573,
    "fid_per_class": {
        "airplane": 1107.9247893198835,
        "automobile": 1253.7308389959599,
        "bird": 1383.284370312556,
        "cat": 1039.2894552234734,
        "deer": 1526.1812350447128,
        "dog": 1215.453853400842,
        "frog": 1883.4808560437225,
        "horse": 1478.8683153737607,
        "ship": 1083.7632241857693,
        "truck": 1209.8061922409945
    },
    "fid": 948.3161379343529,
    "wasserstein_distance": null,
    "g_loss": null,
    "g_cost": null,
    "d_loss_real": null,
    "d_loss_fake": null
}