{
    "epoch": 131,
    "avg_current_window": 1166.0214754778276,
    "avg_prior_window": 1184.3390722218517,
    "inception_score_mean": 1.7965550466488978,
    "inception_score_std": 0.15593725951020265,
    "fid_per_class": {
        "airplane": 1188.036814189217,
        "automobile": 1194.0684398061603,
        "bird": 1470.4425454142406,
        "cat": 1146.1344522117276,
        "deer": 1601.806543732242,
        "dog": 1341.9039147720403,
        "frog": 1946.6968427863712,
        "horse": 1368.9962656700784,
        "ship": 1137.9649260197136,
        "truck": 1160.6128437958632
    },
    "fid": 978.3015589816812,
    "wasserstein_distance": null,
    "g_loss": null,
    "g_cost": null,
    "d_loss_real": null,
    "d_loss_fake": null
}