{
    "epoch": 195,
    "avg_current_window": 1064.2405804167174,
    "avg_prior_window": 1075.926057505803,
    "inception_score_mean": 1.8231856315975854,
    "inception_score_std": 0.1402781445207881,
    "fid_per_class": {
        "airplane": 946.858608198563,
        "automobile": 1135.893097740177,
        "bird": 1222.8493229752316,
        "cat": 987.1110860611436,
        "deer": 1344.1196197308213,
        "dog": 1057.585835614291,
        "frog": 1536.9778431944274,
        "horse": 1283.2648311834462,
        "ship": 1009.966891990071,
        "truck": 1041.4296058398852
    },
    "fid": 783.5468520116686,
    "wasserstein_distance": null,
    "g_loss": null,
    "g_cost": null,
    "d_loss_real": null,
    "d_loss_fake": null
}