{
    "epoch": 84,
    "avg_current_window": 1309.9232816674157,
    "avg_prior_window": 1343.5342441310106,
    "inception_score_mean": 1.7576085604584435,
    "inception_score_std": 0.1310993977484381,
    "fid_per_class": {
        "airplane": 1100.009799811043,
        "automobile": 1241.4309968578214,
        "bird": 1269.801538757791,
        "cat": 985.4305470047266,
        "deer": 1342.3168729650588,
        "dog": 1122.2843514089805,
        "frog": 1697.0437441878887,
        "horse": 1378.5028240568167,
        "ship": 1075.8095597704003,
        "truck": 1199.8349688522335
    },
    "fid": 864.7222688684504,
    "wasserstein_distance": null,
    "g_loss": null,
    "g_cost": null,
    "d_loss_real": null,
    "d_loss_fake": null
}