{
    "epoch": 121,
    "avg_current_window": 1186.7426009017743,
    "avg_prior_window": 1207.0005424429496,
    "inception_score_mean": 1.7654089976801781,
    "inception_score_std": 0.09569028355646415,
    "fid_per_class": {
        "airplane": 1053.2734924343868,
        "automobile": 1217.4891151991737,
        "bird": 1451.383816979519,
        "cat": 1099.7158922612432,
        "deer": 1781.9033216946536,
        "dog": 1360.3694026105277,
        "frog": 2083.528629169542,
        "horse": 1473.6820616237235,
        "ship": 1041.1155651712875,
        "truck": 1201.386933509183
    },
    "fid": 993.1220779182145,
    "wasserstein_distance": null,
    "g_loss": null,
    "g_cost": null,
    "d_loss_real": null,
    "d_loss_fake": null
}