{
    "epoch": 18,
    "avg_current_window": 2069.2723647080725,
    "avg_prior_window": 2205.4400907878376,
    "inception_score_mean": 1.3357398375687528,
    "inception_score_std": 0.04759567006708737,
    "fid_per_class": {
        "airplane": 1647.0636550947227,
        "automobile": 1601.9775420838728,
        "bird": 2020.4325901817624,
        "cat": 1775.4279741222404,
        "deer": 2230.2625253815277,
        "dog": 1952.3360668099097,
        "frog": 2299.3925786905374,
        "horse": 2002.9741451511386,
        "ship": 1564.8624026460666,
        "truck": 1438.0209533157358
    },
    "fid": 1608.2822936529885,
    "wasserstein_distance": null,
    "g_loss": null,
    "g_cost": null,
    "d_loss_real": null,
    "d_loss_fake": null
}