{
    "epoch": 76,
    "avg_current_window": 1345.6683810896766,
    "avg_prior_window": 1382.7705191597656,
    "inception_score_mean": 1.659969137113856,
    "inception_score_std": 0.11061996248613216,
    "fid_per_class": {
        "airplane": 1163.9468100072324,
        "automobile": 1322.2554934038278,
        "bird": 1464.2830592938622,
        "cat": 1089.4257054448638,
        "deer": 1563.3172386291315,
        "dog": 1181.0226016810527,
        "frog": 1895.0403734459637,
        "horse": 1505.4474757289815,
        "ship": 1084.9798916029367,
        "truck": 1292.766741261435
    },
    "fid": 999.2998634450694,
    "wasserstein_distance": null,
    "g_loss": null,
    "g_cost": null,
    "d_loss_real": null,
    "d_loss_fake": null
}