{
    "epoch": 13,
    "avg_current_window": 1879.2937477682246,
    "avg_prior_window": 1980.5747165756554,
    "inception_score_mean": 1.1154279156072113,
    "inception_score_std": 0.08017630446383768,
    "fid_per_class": {
        "airplane": 2408.1408436707434,
        "automobile": 2253.6969645639965,
        "bird": 2462.948623878271,
        "cat": 2421.865656556064,
        "deer": 2456.6772064515008,
        "dog": 2385.0412049917104,
        "frog": 2575.200524828191,
        "horse": 2629.2810597700254,
        "ship": 2232.9514992505465,
        "truck": 2259.658123105213
    },
    "fid": 2197.0323978709866,
    "wasserstein_distance": null,
    "g_loss": null,
    "g_cost": null,
    "d_loss_real": null,
    "d_loss_fake": null
}