{
    "epoch": 145,
    "avg_current_window": 938.0829949611696,
    "avg_prior_window": 951.9418960690484,
    "inception_score_mean": 1.9410404778344827,
    "inception_score_std": 0.09639314261796467,
    "fid_per_class": {
        "airplane": 967.5196856830962,
        "automobile": 1014.2069220178857,
        "bird": 1171.8270624460902,
        "cat": 910.5084326970791,
        "deer": 1114.4069049260177,
        "dog": 948.6871228674815,
        "frog": 1351.7148512325641,
        "horse": 1121.7609328565031,
        "ship": 836.0657855061809,
        "truck": 1009.4826357569866
    },
    "fid": 645.225779387901,
    "wasserstein_distance": null,
    "g_loss": null,
    "g_cost": null,
    "d_loss_real": null,
    "d_loss_fake": null
}