{
    "epoch": 199,
    "avg_current_window": 868.565263079295,
    "avg_prior_window": 877.1199295751558,
    "inception_score_mean": 1.9574212509232118,
    "inception_score_std": 0.1075061518753721,
    "fid_per_class": {
        "airplane": 912.2258368329892,
        "automobile": 1107.7247189799482,
        "bird": 1144.8617845831839,
        "cat": 914.8754964613977,
        "deer": 1173.010083237627,
        "dog": 993.4202734843574,
        "frog": 1354.2622730045696,
        "horse": 1143.5290771122939,
        "ship": 914.7352633367723,
        "truck": 1048.0765579951085
    },
    "fid": 664.716003964427,
    "wasserstein_distance": null,
    "g_loss": null,
    "g_cost": null,
    "d_loss_real": null,
    "d_loss_fake": null
}