{
    "epoch": 175,
    "avg_current_window": 894.0543384523553,
    "avg_prior_window": 904.3939335451232,
    "inception_score_mean": 1.903871016282715,
    "inception_score_std": 0.10322158991013239,
    "fid_per_class": {
        "airplane": 950.858491939491,
        "automobile": 1111.497428078941,
        "bird": 1211.5178335348571,
        "cat": 943.2744705148255,
        "deer": 1238.9506557485852,
        "dog": 927.9247415250231,
        "frog": 1362.4778432561175,
        "horse": 1152.6141650606014,
        "ship": 926.7480980382613,
        "truck": 1068.4599804396385
    },
    "fid": 690.2813414256126,
    "wasserstein_distance": null,
    "g_loss": null,
    "g_cost": null,
    "d_loss_real": null,
    "d_loss_fake": null
}