{
    "epoch": 83,
    "avg_current_window": 1115.7539720546456,
    "avg_prior_window": 1151.2208264781698,
    "inception_score_mean": 1.7968376196590554,
    "inception_score_std": 0.11532341859643995,
    "fid_per_class": {
        "airplane": 1003.4827324583866,
        "automobile": 1097.325584449974,
        "bird": 1188.9989420850209,
        "cat": 891.143546582912,
        "deer": 1274.8561233803575,
        "dog": 964.8580326459953,
        "frog": 1366.0315978897572,
        "horse": 1173.4723985275537,
        "ship": 856.0217343128252,
        "truck": 1091.7826653099792
    },
    "fid": 702.7287159268935,
    "wasserstein_distance": null,
    "g_loss": null,
    "g_cost": null,
    "d_loss_real": null,
    "d_loss_fake": null
}