{
    "epoch": 43,
    "avg_current_window": 1482.7869556476426,
    "avg_prior_window": 1585.1891984655335,
    "inception_score_mean": 1.7435742911282106,
    "inception_score_std": 0.11713868115156291,
    "fid_per_class": {
        "airplane": 1100.1932378015144,
        "automobile": 1224.040051483753,
        "bird": 1312.9215596826284,
        "cat": 1104.292780536078,
        "deer": 1378.421691554044,
        "dog": 1150.0214400716588,
        "frog": 1562.601283669169,
        "horse": 1335.0775576583474,
        "ship": 907.7715072630302,
        "truck": 1202.6460197685774
    },
    "fid": 863.2523316589734,
    "wasserstein_distance": null,
    "g_loss": null,
    "g_cost": null,
    "d_loss_real": null,
    "d_loss_fake": null
}