{
    "epoch": 3,
    "avg_current_window": 641.3191219720799,
    "avg_prior_window": 1989.4187089014533,
    "inception_score_mean": 1.2755039021450256,
    "inception_score_std": 0.03583003414752426,
    "fid_per_class": {
        "airplane": 1759.0650921925476,
        "automobile": 1797.9474175487294,
        "bird": 2092.363536611593,
        "cat": 2203.940273040287,
        "deer": 2315.4321946265545,
        "dog": 2035.7213549301155,
        "frog": 2232.2227248942154,
        "horse": 2190.638697264775,
        "ship": 1845.6599796137548,
        "truck": 1780.155064553596
    },
    "fid": 1780.0383160908686,
    "wasserstein_distance": null,
    "g_loss": null,
    "g_cost": null,
    "d_loss_real": null,
    "d_loss_fake": null
}