{
    "epoch": 198,
    "avg_current_window": 869.5330270940067,
    "avg_prior_window": 878.0168549245357,
    "inception_score_mean": 1.9581797988937608,
    "inception_score_std": 0.12669468271239598,
    "fid_per_class": {
        "airplane": 989.4299160674682,
        "automobile": 1127.3619741849454,
        "bird": 1155.2069531296065,
        "cat": 918.6462597461443,
        "deer": 1205.942884545143,
        "dog": 937.5351200506492,
        "frog": 1299.783952538166,
        "horse": 1164.1985234991225,
        "ship": 918.3687461972087,
        "truck": 1039.8209903172285
    },
    "fid": 676.9479881663934,
    "wasserstein_distance": null,
    "g_loss": null,
    "g_cost": null,
    "d_loss_real": null,
    "d_loss_fake": null
}