{
    "epoch": 148,
    "avg_current_window": 932.8646414427483,
    "avg_prior_window": 946.2265500363233,
    "inception_score_mean": 1.9288679510566245,
    "inception_score_std": 0.1037165546173493,
    "fid_per_class": {
        "airplane": 977.7682623191677,
        "automobile": 1039.3232582686273,
        "bird": 1123.711573493847,
        "cat": 906.3120735078993,
        "deer": 1108.1775815496994,
        "dog": 982.7775314338037,
        "frog": 1342.5776378947696,
        "horse": 1159.655493041328,
        "ship": 816.4076305445196,
        "truck": 1009.768447781955
    },
    "fid": 645.7436373010305,
    "wasserstein_distance": null,
    "g_loss": null,
    "g_cost": null,
    "d_loss_real": null,
    "d_loss_fake": null
}