{
    "epoch": 139,
    "avg_current_window": 948.8532987310458,
    "avg_prior_window": 963.3223514821041,
    "inception_score_mean": 1.900356042074358,
    "inception_score_std": 0.06584271074412958,
    "fid_per_class": {
        "airplane": 994.2439756525171,
        "automobile": 1150.6153220301503,
        "bird": 1236.306005222696,
        "cat": 956.1493650532909,
        "deer": 1241.9310534913916,
        "dog": 979.1271487728415,
        "frog": 1426.6051013113997,
        "horse": 1194.416840447403,
        "ship": 891.5384595287112,
        "truck": 1060.0808492531623
    },
    "fid": 713.5835619537181,
    "wasserstein_distance": null,
    "g_loss": null,
    "g_cost": null,
    "d_loss_real": null,
    "d_loss_fake": null
}