{
    "epoch": 101,
    "avg_current_window": 1040.6079944859334,
    "avg_prior_window": 1066.3275044196328,
    "inception_score_mean": 1.7904619104932826,
    "inception_score_std": 0.12696171951139176,
    "fid_per_class": {
        "airplane": 939.6990826194627,
        "automobile": 1116.8780843365325,
        "bird": 1216.784954364675,
        "cat": 906.8689440797928,
        "deer": 1251.9702159876638,
        "dog": 949.2726417778698,
        "frog": 1355.80237484162,
        "horse": 1092.7452565934427,
        "ship": 807.065820744299,
        "truck": 1017.3195848540599
    },
    "fid": 673.0649685127366,
    "wasserstein_distance": null,
    "g_loss": null,
    "g_cost": null,
    "d_loss_real": null,
    "d_loss_fake": null
}