{
    "epoch": 2,
    "avg_current_window": 993.7093544507267,
    "avg_prior_window": 1990.4187089014533,
    "inception_score_mean": 1.358707707389761,
    "inception_score_std": 0.07064071100660026,
    "fid_per_class": {
        "airplane": 1779.5201182970045,
        "automobile": 2008.20050802062,
        "bird": 2236.8620121843924,
        "cat": 2217.5575446133607,
        "deer": 2406.806541918732,
        "dog": 2172.6879007833977,
        "frog": 2460.439048681248,
        "horse": 2317.070708915251,
        "ship": 2032.653324596332,
        "truck": 1896.359718329014
    },
    "fid": 1920.9573659162395,
    "wasserstein_distance": null,
    "g_loss": null,
    "g_cost": null,
    "d_loss_real": null,
    "d_loss_fake": null
}