{
    "epoch": 53,
    "avg_current_window": 1345.621109834881,
    "avg_prior_window": 1423.5314785387548,
    "inception_score_mean": 1.8154431624089102,
    "inception_score_std": 0.13620632064226879,
    "fid_per_class": {
        "airplane": 997.9157067996573,
        "automobile": 1176.743219528536,
        "bird": 1279.195268246878,
        "cat": 1013.8893144038301,
        "deer": 1261.601903721368,
        "dog": 1085.1468711981393,
        "frog": 1457.7743309667635,
        "horse": 1283.8347214508603,
        "ship": 864.386322635342,
        "truck": 1110.6077630208824
    },
    "fid": 774.1569120337713,
    "wasserstein_distance": null,
    "g_loss": null,
    "g_cost": null,
    "d_loss_real": null,
    "d_loss_fake": null
}