{
    "epoch": 64,
    "avg_current_window": 1241.1696632571284,
    "avg_prior_window": 1297.8105551901542,
    "inception_score_mean": 1.7810899085611869,
    "inception_score_std": 0.1742310332511374,
    "fid_per_class": {
        "airplane": 973.3829156846118,
        "automobile": 1108.2317087394943,
        "bird": 1251.9678319587968,
        "cat": 986.7678234518862,
        "deer": 1269.2075270766577,
        "dog": 991.3302510682956,
        "frog": 1398.9226423151995,
        "horse": 1143.9898519919475,
        "ship": 851.1765039908016,
        "truck": 1077.7637668776179
    },
    "fid": 720.710287495474,
    "wasserstein_distance": null,
    "g_loss": null,
    "g_cost": null,
    "d_loss_real": null,
    "d_loss_fake": null
}