{
    "epoch": 176,
    "avg_current_window": 892.8965373328851,
    "avg_prior_window": 903.0803102724611,
    "inception_score_mean": 1.8581732069601773,
    "inception_score_std": 0.07957717913277938,
    "fid_per_class": {
        "airplane": 959.4271226917574,
        "automobile": 1121.3897231784604,
        "bird": 1133.2135205968766,
        "cat": 919.1006182157683,
        "deer": 1225.2572893069976,
        "dog": 952.2026479712338,
        "frog": 1351.8011968349874,
        "horse": 1095.2800849803482,
        "ship": 877.1607183463606,
        "truck": 1042.2862519125015
    },
    "fid": 685.5781170337038,
    "wasserstein_distance": null,
    "g_loss": null,
    "g_cost": null,
    "d_loss_real": null,
    "d_loss_fake": null
}