{
    "epoch": 14,
    "avg_current_window": 1901.9893656327076,
    "avg_prior_window": 2007.8411423843256,
    "inception_score_mean": 1.0600154165851543,
    "inception_score_std": 0.012892376884562028,
    "fid_per_class": {
        "airplane": 1855.9106105176672,
        "automobile": 1991.3740176955648,
        "bird": 2133.9417536706083,
        "cat": 2196.3461359019298,
        "deer": 2292.0371631271764,
        "dog": 2158.0178412134887,
        "frog": 2374.8227183674344,
        "horse": 2111.2738283956273,
        "ship": 2104.8560726551336,
        "truck": 2184.5172385359024
    },
    "fid": 1889.0876661093598,
    "wasserstein_distance": null,
    "g_loss": null,
    "g_cost": null,
    "d_loss_real": null,
    "d_loss_fake": null
}