{
    "epoch": 19,
    "avg_current_window": 1963.743853745061,
    "avg_prior_window": 2036.9241989262334,
    "inception_score_mean": 1.1326535261175352,
    "inception_score_std": 0.04137185004721245,
    "fid_per_class": {
        "airplane": 1858.751993809725,
        "automobile": 1799.0355122969395,
        "bird": 2271.872441188456,
        "cat": 2078.4329744794977,
        "deer": 2444.714349863539,
        "dog": 2261.6384059160546,
        "frog": 2559.006315803461,
        "horse": 2257.362714385292,
        "ship": 1903.6833583724874,
        "truck": 1755.0108955920373
    },
    "fid": 1940.1087928426662,
    "wasserstein_distance": null,
    "g_loss": null,
    "g_cost": null,
    "d_loss_real": null,
    "d_loss_fake": null
}