{
    "epoch": 5,
    "avg_current_window": 1583.1267435772484,
    "avg_prior_window": 1987.4187089014533,
    "inception_score_mean": 1.210517255623588,
    "inception_score_std": 0.04366916684610938,
    "fid_per_class": {
        "airplane": 1662.4498663529137,
        "automobile": 1906.2344798134984,
        "bird": 2263.8018051750432,
        "cat": 2214.821656461347,
        "deer": 2385.189855785652,
        "dog": 2270.0368219800603,
        "frog": 2562.748499188653,
        "horse": 2292.656623240254,
        "ship": 1942.8325158483387,
        "truck": 1865.3280626051144
    },
    "fid": 1958.4706642432852,
    "wasserstein_distance": null,
    "g_loss": null,
    "g_cost": null,
    "d_loss_real": null,
    "d_loss_fake": null
}