{
    "epoch": 192,
    "avg_current_window": 875.5137981706531,
    "avg_prior_window": 884.4198594260214,
    "inception_score_mean": 1.979767432008348,
    "inception_score_std": 0.14531306101668154,
    "fid_per_class": {
        "airplane": 947.6899904604926,
        "automobile": 1119.8881385617124,
        "bird": 1195.756089503387,
        "cat": 943.6059722395214,
        "deer": 1231.7424420699865,
        "dog": 939.4287422791074,
        "frog": 1347.3749075302148,
        "horse": 1162.2640161563768,
        "ship": 835.5814806380696,
        "truck": 1060.7946782042454
    },
    "fid": 679.8493061825084,
    "wasserstein_distance": null,
    "g_loss": null,
    "g_cost": null,
    "d_loss_real": null,
    "d_loss_fake": null
}