{
    "epoch": 162,
    "avg_current_window": 910.9542291812503,
    "avg_prior_window": 922.4106221840736,
    "inception_score_mean": 1.9096041735448062,
    "inception_score_std": 0.123651204357007,
    "fid_per_class": {
        "airplane": 908.7566515871728,
        "automobile": 1130.9013818282847,
        "bird": 1170.0048384977283,
        "cat": 923.9056372935099,
        "deer": 1155.7717045466165,
        "dog": 899.5056830328595,
        "frog": 1367.348162570253,
        "horse": 1103.0994551630408,
        "ship": 835.3462223842054,
        "truck": 1053.5912394861843
    },
    "fid": 660.69493507419,
    "wasserstein_distance": null,
    "g_loss": null,
    "g_cost": null,
    "d_loss_real": null,
    "d_loss_fake": null
}