{
    "epoch": 59,
    "avg_current_window": 1285.2026053831041,
    "avg_prior_window": 1348.1827839935065,
    "inception_score_mean": 1.7643897196455949,
    "inception_score_std": 0.16821412532945054,
    "fid_per_class": {
        "airplane": 948.7610316825746,
        "automobile": 1151.4823838547288,
        "bird": 1270.8733451540368,
        "cat": 968.0434462774954,
        "deer": 1324.3302219820198,
        "dog": 1011.6205690307455,
        "frog": 1476.535316529411,
        "horse": 1238.7374082140564,
        "ship": 875.7773830972797,
        "truck": 1059.3883221253595
    },
    "fid": 743.8690386159577,
    "wasserstein_distance": null,
    "g_loss": null,
    "g_cost": null,
    "d_loss_real": null,
    "d_loss_fake": null
}