{
    "epoch": 191,
    "avg_current_window": 876.5558486147427,
    "avg_prior_window": 885.3136805597072,
    "inception_score_mean": 1.9980363468967237,
    "inception_score_std": 0.17140402418466827,
    "fid_per_class": {
        "airplane": 915.7605804014696,
        "automobile": 1090.895162392467,
        "bird": 1192.4315828304177,
        "cat": 909.20807874012,
        "deer": 1273.8974088872549,
        "dog": 968.3426661673493,
        "frog": 1439.7836298815678,
        "horse": 1124.5585445421473,
        "ship": 910.2356937858309,
        "truck": 1008.9446477933449
    },
    "fid": 676.482163349542,
    "wasserstein_distance": null,
    "g_loss": null,
    "g_cost": null,
    "d_loss_real": null,
    "d_loss_fake": null
}