{
    "epoch": 61,
    "avg_current_window": 1266.1964677233586,
    "avg_prior_window": 1327.4073146389635,
    "inception_score_mean": 1.8563360441563355,
    "inception_score_std": 0.1316143147130052,
    "fid_per_class": {
        "airplane": 1005.6866469378003,
        "automobile": 1228.5254333100693,
        "bird": 1251.2401706043606,
        "cat": 970.8882248032381,
        "deer": 1343.0890359327034,
        "dog": 975.8717906758634,
        "frog": 1404.8885785424525,
        "horse": 1229.0801517136633,
        "ship": 847.8825991952226,
        "truck": 1113.8038430008019
    },
    "fid": 735.8537548317213,
    "wasserstein_distance": null,
    "g_loss": null,
    "g_cost": null,
    "d_loss_real": null,
    "d_loss_fake": null
}