{
    "epoch": 169,
    "avg_current_window": 901.3908174875203,
    "avg_prior_window": 912.3954772609754,
    "inception_score_mean": 1.926531979068421,
    "inception_score_std": 0.1315651852580868,
    "fid_per_class": {
        "airplane": 1011.1106637200869,
        "automobile": 1143.4680393718484,
        "bird": 1189.4266942807824,
        "cat": 976.8849905640237,
        "deer": 1323.1318574395227,
        "dog": 936.1125189838012,
        "frog": 1420.9088685254796,
        "horse": 1173.632069412555,
        "ship": 864.9860427251043,
        "truck": 1075.1953967074671
    },
    "fid": 730.3194938004116,
    "wasserstein_distance": null,
    "g_loss": null,
    "g_cost": null,
    "d_loss_real": null,
    "d_loss_fake": null
}