{
    "epoch": 116,
    "avg_current_window": 995.9958431103566,
    "avg_prior_window": 1015.4358783439719,
    "inception_score_mean": 1.8312389397740372,
    "inception_score_std": 0.10773993311102613,
    "fid_per_class": {
        "airplane": 977.6562900411533,
        "automobile": 1161.3729188471311,
        "bird": 1221.5848668542717,
        "cat": 918.2684994709582,
        "deer": 1282.3311821870816,
        "dog": 957.0496495315128,
        "frog": 1400.7663238156774,
        "horse": 1134.6809809050237,
        "ship": 852.0732505098268,
        "truck": 1034.068791872264
    },
    "fid": 713.4506563341773,
    "wasserstein_distance": null,
    "g_loss": null,
    "g_cost": null,
    "d_loss_real": null,
    "d_loss_fake": null
}