{
    "epoch": 171,
    "avg_current_window": 899.1050801325786,
    "avg_prior_window": 909.5192020506627,
    "inception_score_mean": 1.9148810294041234,
    "inception_score_std": 0.14159601188134574,
    "fid_per_class": {
        "airplane": 959.0082575170959,
        "automobile": 1141.6391543380373,
        "bird": 1163.9744613596797,
        "cat": 986.4204564773169,
        "deer": 1243.8913545280132,
        "dog": 922.9096621233753,
        "frog": 1367.6930281163764,
        "horse": 1169.8117629981612,
        "ship": 823.8338706060985,
        "truck": 1017.2843466348168
    },
    "fid": 679.7643539199211,
    "wasserstein_distance": null,
    "g_loss": null,
    "g_cost": null,
    "d_loss_real": null,
    "d_loss_fake": null
}