{
    "epoch": 168,
    "avg_current_window": 902.876851445182,
    "avg_prior_window": 913.6566822261359,
    "inception_score_mean": 1.9821893208043448,
    "inception_score_std": 0.1760085035189573,
    "fid_per_class": {
        "airplane": 942.0192799201567,
        "automobile": 1100.80769383706,
        "bird": 1167.0404794935685,
        "cat": 911.1308846557641,
        "deer": 1221.3484123388507,
        "dog": 936.8574847713483,
        "frog": 1359.572326146126,
        "horse": 1081.6762365028617,
        "ship": 885.3085210556254,
        "truck": 963.8759037875622
    },
    "fid": 651.7371126003509,
    "wasserstein_distance": null,
    "g_loss": null,
    "g_cost": null,
    "d_loss_real": null,
    "d_loss_fake": null
}