{
    "epoch": 55,
    "avg_current_window": 1323.670369739079,
    "avg_prior_window": 1397.4598322849931,
    "inception_score_mean": 1.8507447920008784,
    "inception_score_std": 0.1598119524370155,
    "fid_per_class": {
        "airplane": 1054.7739365606124,
        "automobile": 1143.3728682957465,
        "bird": 1280.1650608132602,
        "cat": 961.041144445245,
        "deer": 1234.8689533880968,
        "dog": 992.1144191986409,
        "frog": 1453.7923301334774,
        "horse": 1177.8715146130605,
        "ship": 832.4329369409334,
        "truck": 1151.1686739986694
    },
    "fid": 744.500568836607,
    "wasserstein_distance": null,
    "g_loss": null,
    "g_cost": null,
    "d_loss_real": null,
    "d_loss_fake": null
}