{
    "epoch": 95,
    "avg_current_window": 1062.9378715459234,
    "avg_prior_window": 1091.3104735938387,
    "inception_score_mean": 1.7634701552525054,
    "inception_score_std": 0.15632822871337895,
    "fid_per_class": {
        "airplane": 982.9806479463812,
        "automobile": 1081.4354106293667,
        "bird": 1275.6553236398636,
        "cat": 907.7860687491266,
        "deer": 1293.5874446869154,
        "dog": 957.0955249530164,
        "frog": 1425.2107755144507,
        "horse": 1148.95371901456,
        "ship": 824.3176859796329,
        "truck": 1050.478631677302
    },
    "fid": 709.3090678293966,
    "wasserstein_distance": null,
    "g_loss": null,
    "g_cost": null,
    "d_loss_real": null,
    "d_loss_fake": null
}