{
    "epoch": 102,
    "avg_current_window": 1037.0046314861963,
    "avg_prior_window": 1062.29255789485,
    "inception_score_mean": 1.824289536446268,
    "inception_score_std": 0.08183233560593989,
    "fid_per_class": {
        "airplane": 952.7934814276575,
        "automobile": 1116.2907246905215,
        "bird": 1209.308182315229,
        "cat": 893.2893714079285,
        "deer": 1251.7591587772192,
        "dog": 938.1369161907652,
        "frog": 1384.1840009441044,
        "horse": 1098.0368114091611,
        "ship": 830.2554345368391,
        "truck": 1042.0384580351465
    },
    "fid": 675.7045305606403,
    "wasserstein_distance": null,
    "g_loss": null,
    "g_cost": null,
    "d_loss_real": null,
    "d_loss_fake": null
}