{
    "epoch": 160,
    "avg_current_window": 913.2600989922091,
    "avg_prior_window": 925.6027244373166,
    "inception_score_mean": 1.9391155217029152,
    "inception_score_std": 0.10962408937273617,
    "fid_per_class": {
        "airplane": 960.3305394193083,
        "automobile": 1110.4036157679209,
        "bird": 1258.7987909476058,
        "cat": 956.0417770293227,
        "deer": 1260.6128289656328,
        "dog": 944.367081006458,
        "frog": 1400.9946123605055,
        "horse": 1148.3337566682685,
        "ship": 870.8670655882818,
        "truck": 1037.5385402002928
    },
    "fid": 696.1712816996253,
    "wasserstein_distance": null,
    "g_loss": null,
    "g_cost": null,
    "d_loss_real": null,
    "d_loss_fake": null
}