{
    "epoch": 186,
    "avg_current_window": 881.5963451482705,
    "avg_prior_window": 890.8233320943992,
    "inception_score_mean": 1.991731499567614,
    "inception_score_std": 0.1443761558489894,
    "fid_per_class": {
        "airplane": 942.1000686429074,
        "automobile": 1165.575432329207,
        "bird": 1192.850053912975,
        "cat": 937.6812967879648,
        "deer": 1207.1107104855575,
        "dog": 899.8601444256038,
        "frog": 1368.2395504848676,
        "horse": 1103.6061816464116,
        "ship": 914.9789620378922,
        "truck": 999.334358714585
    },
    "fid": 691.4243865272251,
    "wasserstein_distance": null,
    "g_loss": null,
    "g_cost": null,
    "d_loss_real": null,
    "d_loss_fake": null
}