{
    "epoch": 184,
    "avg_current_window": 883.6334703711692,
    "avg_prior_window": 893.1699669499029,
    "inception_score_mean": 1.9263846938784996,
    "inception_score_std": 0.1158040361205016,
    "fid_per_class": {
        "airplane": 971.789037189711,
        "automobile": 1148.3068835249737,
        "bird": 1153.5572223077259,
        "cat": 906.9514225208528,
        "deer": 1311.6174461406715,
        "dog": 965.5921061799326,
        "frog": 1468.2671496795438,
        "horse": 1197.055808759501,
        "ship": 942.1571609701289,
        "truck": 1072.6708126615897
    },
    "fid": 704.4737128796804,
    "wasserstein_distance": null,
    "g_loss": null,
    "g_cost": null,
    "d_loss_real": null,
    "d_loss_fake": null
}