{
    "epoch": 133,
    "avg_current_window": 959.9203799795653,
    "avg_prior_window": 975.5146464049989,
    "inception_score_mean": 1.8761739398062125,
    "inception_score_std": 0.12172894406885061,
    "fid_per_class": {
        "airplane": 1033.1001832565446,
        "automobile": 1141.4344034812823,
        "bird": 1242.4680338476778,
        "cat": 943.4696263840567,
        "deer": 1258.3424880485895,
        "dog": 941.1602328255897,
        "frog": 1498.350214649972,
        "horse": 1189.7853673015468,
        "ship": 856.7960755337583,
        "truck": 1056.3898167001482
    },
    "fid": 730.7622602855724,
    "wasserstein_distance": null,
    "g_loss": null,
    "g_cost": null,
    "d_loss_real": null,
    "d_loss_fake": null
}