{
    "epoch": 78,
    "avg_current_window": 1142.6378732392511,
    "avg_prior_window": 1182.9246113131494,
    "inception_score_mean": 1.858658419993216,
    "inception_score_std": 0.15150488558332031,
    "fid_per_class": {
        "airplane": 898.650687311886,
        "automobile": 1073.9013896562758,
        "bird": 1200.7363949585192,
        "cat": 917.0440774027697,
        "deer": 1259.3361050082153,
        "dog": 1042.8446778303633,
        "frog": 1384.7912119302432,
        "horse": 1134.0750257611128,
        "ship": 742.7719420273444,
        "truck": 1031.3779539912166
    },
    "fid": 669.4703526356636,
    "wasserstein_distance": null,
    "g_loss": null,
    "g_cost": null,
    "d_loss_real": null,
    "d_loss_fake": null
}