{
    "epoch": 119,
    "avg_current_window": 988.752206179942,
    "avg_prior_window": 1007.2741396573502,
    "inception_score_mean": 1.8528334884672457,
    "inception_score_std": 0.08428885691821564,
    "fid_per_class": {
        "airplane": 986.9029738679268,
        "automobile": 1214.9739806150335,
        "bird": 1216.4454814067233,
        "cat": 964.2134586923222,
        "deer": 1289.2177757894997,
        "dog": 1004.7137104732037,
        "frog": 1481.7440962836736,
        "horse": 1124.9903520518344,
        "ship": 843.9945253855983,
        "truck": 1090.4728794631812
    },
    "fid": 729.1979740037979,
    "wasserstein_distance": null,
    "g_loss": null,
    "g_cost": null,
    "d_loss_real": null,
    "d_loss_fake": null
}