{
    "epoch": 74,
    "avg_current_window": 1166.9391435927014,
    "avg_prior_window": 1212.153925330296,
    "inception_score_mean": 1.8207203625832904,
    "inception_score_std": 0.12288795851225494,
    "fid_per_class": {
        "airplane": 983.0855873574253,
        "automobile": 1115.5127211283016,
        "bird": 1220.7962379643473,
        "cat": 905.5639285706657,
        "deer": 1285.5522666807778,
        "dog": 947.2736961202472,
        "frog": 1388.8475951288597,
        "horse": 1201.989125761219,
        "ship": 796.9732471905357,
        "truck": 1039.7242844943485
    },
    "fid": 699.9772563689061,
    "wasserstein_distance": null,
    "g_loss": null,
    "g_cost": null,
    "d_loss_real": null,
    "d_loss_fake": null
}