{
    "epoch": 63,
    "avg_current_window": 1249.8579082839613,
    "avg_prior_window": 1307.3612709931576,
    "inception_score_mean": 1.8056315520305202,
    "inception_score_std": 0.16348668372092962,
    "fid_per_class": {
        "airplane": 919.788440673251,
        "automobile": 1152.503898655676,
        "bird": 1188.2344469091397,
        "cat": 948.9904076035086,
        "deer": 1221.8314689380306,
        "dog": 954.8324985993463,
        "frog": 1332.0668480779957,
        "horse": 1184.0439000766573,
        "ship": 869.2083504381267,
        "truck": 1018.5481527841678
    },
    "fid": 693.8102265666528,
    "wasserstein_distance": null,
    "g_loss": null,
    "g_cost": null,
    "d_loss_real": null,
    "d_loss_fake": null
}