{
    "epoch": 161,
    "avg_current_window": 911.9117212450502,
    "avg_prior_window": 923.903151474075,
    "inception_score_mean": 1.8771238341480074,
    "inception_score_std": 0.11733792411282924,
    "fid_per_class": {
        "airplane": 1002.7626702767533,
        "automobile": 1219.3206611713472,
        "bird": 1242.5637689010912,
        "cat": 973.1700314428956,
        "deer": 1281.7202457384294,
        "dog": 965.6226052513225,
        "frog": 1428.13769824605,
        "horse": 1197.1253048530768,
        "ship": 907.9474979659901,
        "truck": 1110.0520603538075
    },
    "fid": 756.7980069094525,
    "wasserstein_distance": null,
    "g_loss": null,
    "g_cost": null,
    "d_loss_real": null,
    "d_loss_fake": null
}