{
    "epoch": 12,
    "avg_current_window": 1854.9032626615563,
    "avg_prior_window": 1960.7279531058437,
    "inception_score_mean": 1.0862378896527833,
    "inception_score_std": 0.023778499805748542,
    "fid_per_class": {
        "airplane": 2242.213598736358,
        "automobile": 2173.774909390121,
        "bird": 2440.0759958783115,
        "cat": 2298.5967473906994,
        "deer": 2434.6408327490312,
        "dog": 2464.713032507246,
        "frog": 2550.4519353770756,
        "horse": 2605.3735818881214,
        "ship": 2050.5386227886233,
        "truck": 2061.8379816223296
    },
    "fid": 2171.9795690482474,
    "wasserstein_distance": null,
    "g_loss": null,
    "g_cost": null,
    "d_loss_real": null,
    "d_loss_fake": null
}