{
    "epoch": 109,
    "avg_current_window": 1015.0020749933229,
    "avg_prior_window": 1037.4714011453448,
    "inception_score_mean": 1.838377505646071,
    "inception_score_std": 0.06572859111021431,
    "fid_per_class": {
        "airplane": 957.2003583346786,
        "automobile": 1121.2954006350406,
        "bird": 1195.9044496198,
        "cat": 913.826599241308,
        "deer": 1311.5985396197361,
        "dog": 972.8144238658944,
        "frog": 1446.044737631191,
        "horse": 1167.4456409224115,
        "ship": 845.5725047206327,
        "truck": 1022.2839951785132
    },
    "fid": 718.5010874744478,
    "wasserstein_distance": null,
    "g_loss": null,
    "g_cost": null,
    "d_loss_real": null,
    "d_loss_fake": null
}