{
    "epoch": 16,
    "avg_current_window": 1920.7360794472122,
    "avg_prior_window": 2023.530831994425,
    "inception_score_mean": 1.001737918794274,
    "inception_score_std": 0.0014474677525271654,
    "fid_per_class": {
        "airplane": 2235.793823467433,
        "automobile": 2351.1886695751946,
        "bird": 2580.4926322105466,
        "cat": 2547.1978191004505,
        "deer": 2946.7139493815525,
        "dog": 2631.7525867089726,
        "frog": 3093.1154186686235,
        "horse": 2714.61034344551,
        "ship": 2549.5985501697655,
        "truck": 2382.663970980841
    },
    "fid": 2534.6284752263587,
    "wasserstein_distance": null,
    "g_loss": null,
    "g_cost": null,
    "d_loss_real": null,
    "d_loss_fake": null
}