{
    "epoch": 90,
    "avg_current_window": 1083.5619802529318,
    "avg_prior_window": 1114.5797852811302,
    "inception_score_mean": 1.8311886388555094,
    "inception_score_std": 0.14946319213010575,
    "fid_per_class": {
        "airplane": 961.9268135592458,
        "automobile": 1086.561718703324,
        "bird": 1285.0556189318384,
        "cat": 896.8060630548314,
        "deer": 1265.582077998512,
        "dog": 953.6935701888137,
        "frog": 1423.657952581762,
        "horse": 1155.5735586047012,
        "ship": 809.0167813714277,
        "truck": 1053.3335114528
    },
    "fid": 697.364400681601,
    "wasserstein_distance": null,
    "g_loss": null,
    "g_cost": null,
    "d_loss_real": null,
    "d_loss_fake": null
}