{
    "epoch": 44,
    "avg_current_window": 1468.7066232842635,
    "avg_prior_window": 1567.7010000434311,
    "inception_score_mean": 1.892045767686182,
    "inception_score_std": 0.15260571390474342,
    "fid_per_class": {
        "airplane": 1019.2994434020511,
        "automobile": 1210.8253881168562,
        "bird": 1190.9673452884049,
        "cat": 978.7834628525258,
        "deer": 1153.7621959585979,
        "dog": 985.1077944762449,
        "frog": 1394.2669870683462,
        "horse": 1211.3763901568718,
        "ship": 857.595402259665,
        "truck": 1126.3005360208426
    },
    "fid": 721.7570421709801,
    "wasserstein_distance": null,
    "g_loss": null,
    "g_cost": null,
    "d_loss_real": null,
    "d_loss_fake": null
}