{
    "epoch": 177,
    "avg_current_window": 891.7252468227204,
    "avg_prior_window": 901.9792412789272,
    "inception_score_mean": 1.9688114157500543,
    "inception_score_std": 0.14110277098186774,
    "fid_per_class": {
        "airplane": 965.5778137141297,
        "automobile": 1121.5144604798659,
        "bird": 1170.0448216411096,
        "cat": 941.4843986130061,
        "deer": 1243.189862326014,
        "dog": 993.7196056263717,
        "frog": 1468.7685390746078,
        "horse": 1156.9775472830556,
        "ship": 866.7888081599323,
        "truck": 1043.3739499691496
    },
    "fid": 685.8834104913283,
    "wasserstein_distance": null,
    "g_loss": null,
    "g_cost": null,
    "d_loss_real": null,
    "d_loss_fake": null
}