{
    "epoch": 26,
    "avg_current_window": 1834.063622185303,
    "avg_prior_window": 2043.735592594303,
    "inception_score_mean": 1.4803972433341865,
    "inception_score_std": 0.08332394865820297,
    "fid_per_class": {
        "airplane": 1090.3249549342981,
        "automobile": 1256.4608799548744,
        "bird": 1254.9853102108543,
        "cat": 1155.994756181462,
        "deer": 1233.6574115531225,
        "dog": 1334.9996346703372,
        "frog": 1634.4004771680566,
        "horse": 1246.6804142522728,
        "ship": 949.0002098877975,
        "truck": 1078.2925969244052
    },
    "fid": 898.9559777433926,
    "wasserstein_distance": null,
    "g_loss": null,
    "g_cost": null,
    "d_loss_real": null,
    "d_loss_fake": null
}