{
    "epoch": 87,
    "avg_current_window": 1096.7495181164156,
    "avg_prior_window": 1129.3607278114096,
    "inception_score_mean": 1.7928106960438235,
    "inception_score_std": 0.12740936334478387,
    "fid_per_class": {
        "airplane": 1007.3384281336669,
        "automobile": 1127.5440139351817,
        "bird": 1206.9163150563838,
        "cat": 918.3673543645873,
        "deer": 1281.0768673295229,
        "dog": 937.8609218347482,
        "frog": 1375.1123550933432,
        "horse": 1194.4794522485502,
        "ship": 843.8002317459722,
        "truck": 1088.1379686404948
    },
    "fid": 709.9786424422892,
    "wasserstein_distance": null,
    "g_loss": null,
    "g_cost": null,
    "d_loss_real": null,
    "d_loss_fake": null
}