{
    "epoch": 18,
    "avg_current_window": 1959.6718160070357,
    "avg_prior_window": 2048.2962399121466,
    "inception_score_mean": 1.1241992915681696,
    "inception_score_std": 0.04007691114102997,
    "fid_per_class": {
        "airplane": 1811.1605371952255,
        "automobile": 2132.3947468272745,
        "bird": 2373.033034540381,
        "cat": 2371.5809398016945,
        "deer": 2461.8390972277402,
        "dog": 2345.5692445034038,
        "frog": 2663.094965154902,
        "horse": 2458.241895678476,
        "ship": 2012.9105036545286,
        "truck": 2052.8651054921374
    },
    "fid": 2037.0405330295198,
    "wasserstein_distance": null,
    "g_loss": null,
    "g_cost": null,
    "d_loss_real": null,
    "d_loss_fake": null
}