{
    "epoch": 158,
    "avg_current_window": 916.5725802715162,
    "avg_prior_window": 928.8825036464075,
    "inception_score_mean": 1.9637311484543318,
    "inception_score_std": 0.1593840876062289,
    "fid_per_class": {
        "airplane": 949.889889781869,
        "automobile": 1098.0348358212993,
        "bird": 1152.5888557700284,
        "cat": 890.7851506550046,
        "deer": 1173.8566208838438,
        "dog": 853.5696428766284,
        "frog": 1284.3308799248778,
        "horse": 1099.3169301634084,
        "ship": 843.888841340734,
        "truck": 1007.7232318774459
    },
    "fid": 636.0690176467161,
    "wasserstein_distance": null,
    "g_loss": null,
    "g_cost": null,
    "d_loss_real": null,
    "d_loss_fake": null
}