{
    "epoch": 100,
    "avg_current_window": 1044.2537031836137,
    "avg_prior_window": 1070.4042827862327,
    "inception_score_mean": 1.8064769465377086,
    "inception_score_std": 0.13824025961418332,
    "fid_per_class": {
        "airplane": 938.5365185111668,
        "automobile": 1054.3300141313423,
        "bird": 1229.2688298173557,
        "cat": 912.4430137293289,
        "deer": 1225.3718654856634,
        "dog": 905.144834933653,
        "frog": 1399.1854585060582,
        "horse": 1160.0324781261784,
        "ship": 836.4531536977323,
        "truck": 1027.560690340084
    },
    "fid": 676.0371247179182,
    "wasserstein_distance": null,
    "g_loss": null,
    "g_cost": null,
    "d_loss_real": null,
    "d_loss_fake": null
}