{
    "epoch": 30,
    "avg_current_window": 1724.7575861781006,
    "avg_prior_window": 1907.426167072715,
    "inception_score_mean": 1.4627317272722313,
    "inception_score_std": 0.05548804891586735,
    "fid_per_class": {
        "airplane": 1127.8636266181513,
        "automobile": 1264.7114698672867,
        "bird": 1301.5048474093585,
        "cat": 1264.2498689787335,
        "deer": 1338.1619707271334,
        "dog": 1431.161960800002,
        "frog": 1756.879179931508,
        "horse": 1288.588009137701,
        "ship": 1006.390498314552,
        "truck": 1162.635675285218
    },
    "fid": 979.6618309431145,
    "wasserstein_distance": null,
    "g_loss": null,
    "g_cost": null,
    "d_loss_real": null,
    "d_loss_fake": null
}