{
    "epoch": 172,
    "avg_current_window": 897.8298433522724,
    "avg_prior_window": 908.2832996574285,
    "inception_score_mean": 1.9467804263782014,
    "inception_score_std": 0.11363027404706402,
    "fid_per_class": {
        "airplane": 1014.752543752438,
        "automobile": 1166.1529914324885,
        "bird": 1161.5847476892297,
        "cat": 946.0045003368602,
        "deer": 1203.2478904484526,
        "dog": 972.8939153967982,
        "frog": 1329.3155605286297,
        "horse": 1194.414792266019,
        "ship": 893.2324474125671,
        "truck": 1096.156897917237
    },
    "fid": 713.6964433846216,
    "wasserstein_distance": null,
    "g_loss": null,
    "g_cost": null,
    "d_loss_real": null,
    "d_loss_fake": null
}