{
    "epoch": 17,
    "avg_current_window": 1956.8473968459855,
    "avg_prior_window": 2035.9015600822433,
    "inception_score_mean": 1.0376332889137794,
    "inception_score_std": 0.019850150041179914,
    "fid_per_class": {
        "airplane": 1683.2057393073526,
        "automobile": 2035.6868913876597,
        "bird": 2279.542879270362,
        "cat": 2300.733435909678,
        "deer": 2514.523725670244,
        "dog": 2371.9031747296394,
        "frog": 2617.7967659460483,
        "horse": 2388.105584646971,
        "ship": 1706.7491922664574,
        "truck": 1953.6917040271605
    },
    "fid": 2007.6869417448916,
    "wasserstein_distance": null,
    "g_loss": null,
    "g_cost": null,
    "d_loss_real": null,
    "d_loss_fake": null
}