{
    "epoch": 123,
    "avg_current_window": 980.1295969353491,
    "avg_prior_window": 997.1314621645178,
    "inception_score_mean": 1.9050780730359556,
    "inception_score_std": 0.10566580998869197,
    "fid_per_class": {
        "airplane": 941.1774827395006,
        "automobile": 1082.2295120739705,
        "bird": 1288.5989548279153,
        "cat": 898.9261309738636,
        "deer": 1196.8025280580123,
        "dog": 995.9039664185226,
        "frog": 1396.6590283403434,
        "horse": 1171.137937365762,
        "ship": 830.5221787626302,
        "truck": 1022.0609139568651
    },
    "fid": 686.2448133056403,
    "wasserstein_distance": null,
    "g_loss": null,
    "g_cost": null,
    "d_loss_real": null,
    "d_loss_fake": null
}