{
    "epoch": 122,
    "avg_current_window": 982.1183110041374,
    "avg_prior_window": 999.033852279453,
    "inception_score_mean": 1.9201477099868653,
    "inception_score_std": 0.12644296126265214,
    "fid_per_class": {
        "airplane": 995.1135550900408,
        "automobile": 1148.3689174037415,
        "bird": 1274.052516375742,
        "cat": 967.3958246818305,
        "deer": 1260.0455144647726,
        "dog": 939.7496648454985,
        "frog": 1443.3265060704387,
        "horse": 1175.9657904848414,
        "ship": 846.1456040456508,
        "truck": 1060.1583945766756
    },
    "fid": 737.5064805431937,
    "wasserstein_distance": null,
    "g_loss": null,
    "g_cost": null,
    "d_loss_real": null,
    "d_loss_fake": null
}