{
    "epoch": 159,
    "avg_current_window": 914.8084069216746,
    "avg_prior_window": 927.0686332652878,
    "inception_score_mean": 1.9869148645319004,
    "inception_score_std": 0.20027543542647172,
    "fid_per_class": {
        "airplane": 948.4804986030937,
        "automobile": 1075.8340339174042,
        "bird": 1169.5965610227713,
        "cat": 907.5064456989896,
        "deer": 1222.72516179664,
        "dog": 980.6780651499258,
        "frog": 1317.6288972920806,
        "horse": 1127.78052100365,
        "ship": 861.3678802156294,
        "truck": 1069.245711300524
    },
    "fid": 667.0791382071809,
    "wasserstein_distance": null,
    "g_loss": null,
    "g_cost": null,
    "d_loss_real": null,
    "d_loss_fake": null
}