{
    "epoch": 47,
    "avg_current_window": 1422.624684427096,
    "avg_prior_window": 1518.0914069725864,
    "inception_score_mean": 1.8161104127861072,
    "inception_score_std": 0.1276247329001229,
    "fid_per_class": {
        "airplane": 1056.8615722816448,
        "automobile": 1164.3606526727194,
        "bird": 1258.967635075146,
        "cat": 958.2276725855693,
        "deer": 1239.1715770641001,
        "dog": 1046.6258923595883,
        "frog": 1446.4519068473273,
        "horse": 1246.5147963349664,
        "ship": 941.2542636081137,
        "truck": 1115.0062404474234
    },
    "fid": 753.390970550285,
    "wasserstein_distance": null,
    "g_loss": null,
    "g_cost": null,
    "d_loss_real": null,
    "d_loss_fake": null
}