{
    "epoch": 58,
    "avg_current_window": 1295.429068702776,
    "avg_prior_window": 1360.2278440241973,
    "inception_score_mean": 1.8009283716929023,
    "inception_score_std": 0.17397193898391633,
    "fid_per_class": {
        "airplane": 959.2347375152468,
        "automobile": 1110.1060548337678,
        "bird": 1186.3853129754548,
        "cat": 957.9881091951443,
        "deer": 1218.1909398624057,
        "dog": 938.6739697533725,
        "frog": 1363.8894646618207,
        "horse": 1163.0715828687178,
        "ship": 834.725571659548,
        "truck": 1059.8005057672035
    },
    "fid": 692.0677328421331,
    "wasserstein_distance": null,
    "g_loss": null,
    "g_cost": null,
    "d_loss_real": null,
    "d_loss_fake": null
}