{
    "epoch": 88,
    "avg_current_window": 1092.3543945292097,
    "avg_prior_window": 1124.2205830899095,
    "inception_score_mean": 1.9097270850336947,
    "inception_score_std": 0.12678274744226514,
    "fid_per_class": {
        "airplane": 973.1278464804125,
        "automobile": 1053.0873318889012,
        "bird": 1189.968202058591,
        "cat": 903.1903385401029,
        "deer": 1251.7108927806894,
        "dog": 942.7533715025978,
        "frog": 1437.73679634145,
        "horse": 1148.0680400764954,
        "ship": 748.4976538859178,
        "truck": 1023.4109122496803
    },
    "fid": 665.5542862875385,
    "wasserstein_distance": null,
    "g_loss": null,
    "g_cost": null,
    "d_loss_real": null,
    "d_loss_fake": null
}