{
    "epoch": 174,
    "avg_current_window": 895.5390435678673,
    "avg_prior_window": 905.7122346105996,
    "inception_score_mean": 1.9017517693917523,
    "inception_score_std": 0.10971811110582648,
    "fid_per_class": {
        "airplane": 910.9880030339688,
        "automobile": 1057.5337285090577,
        "bird": 1155.5434882103077,
        "cat": 927.1566879752418,
        "deer": 1089.4642960356807,
        "dog": 930.508973714411,
        "frog": 1304.987520807478,
        "horse": 1093.6542344839709,
        "ship": 898.4138762978746,
        "truck": 1012.8960850257145
    },
    "fid": 635.7156483532663,
    "wasserstein_distance": null,
    "g_loss": null,
    "g_cost": null,
    "d_loss_real": null,
    "d_loss_fake": null
}