{
    "epoch": 142,
    "avg_current_window": 943.4619136157646,
    "avg_prior_window": 957.7181827206998,
    "inception_score_mean": 1.9384777868694463,
    "inception_score_std": 0.10529540643684569,
    "fid_per_class": {
        "airplane": 970.4512263533711,
        "automobile": 1123.8782774275078,
        "bird": 1226.1535168070222,
        "cat": 1010.0194759275155,
        "deer": 1197.2167735619814,
        "dog": 985.0010408916928,
        "frog": 1514.8344641464575,
        "horse": 1210.9143669318196,
        "ship": 835.7804752995954,
        "truck": 999.1544828428214
    },
    "fid": 722.2049378303327,
    "wasserstein_distance": null,
    "g_loss": null,
    "g_cost": null,
    "d_loss_real": null,
    "d_loss_fake": null
}