{
    "epoch": 137,
    "avg_current_window": 952.2499396182398,
    "avg_prior_window": 967.1925040703195,
    "inception_score_mean": 1.843408613269514,
    "inception_score_std": 0.1077980388743707,
    "fid_per_class": {
        "airplane": 995.8248796742724,
        "automobile": 1182.5557058502663,
        "bird": 1227.4017784293512,
        "cat": 1022.5829034778462,
        "deer": 1276.1069065948925,
        "dog": 928.7340166163845,
        "frog": 1512.386469248896,
        "horse": 1191.0135983593086,
        "ship": 849.076091720697,
        "truck": 1090.7478773017197
    },
    "fid": 749.149305037021,
    "wasserstein_distance": null,
    "g_loss": null,
    "g_cost": null,
    "d_loss_real": null,
    "d_loss_fake": null
}