{
    "epoch": 6,
    "avg_current_window": 1645.6840636882546,
    "avg_prior_window": 3.0,
    "inception_score_mean": 1.184940291853222,
    "inception_score_std": 0.02346196104842806,
    "fid_per_class": {
        "airplane": 1901.8100778923408,
        "automobile": 2131.049602873896,
        "bird": 2316.787081577439,
        "cat": 2361.729872918206,
        "deer": 2622.322544789703,
        "dog": 2396.808746363269,
        "frog": 2701.636433275565,
        "horse": 2456.002668912016,
        "ship": 2125.1641373300245,
        "truck": 2076.9243133799714
    },
    "fid": 2116.3924306427193,
    "wasserstein_distance": null,
    "g_loss": null,
    "g_cost": null,
    "d_loss_real": null,
    "d_loss_fake": null
}