{
    "epoch": 181,
    "avg_current_window": 887.1923522935774,
    "avg_prior_window": 896.791867543304,
    "inception_score_mean": 1.9427157225134999,
    "inception_score_std": 0.10322655545367215,
    "fid_per_class": {
        "airplane": 947.2617093722895,
        "automobile": 1105.4024318821444,
        "bird": 1167.6798671702936,
        "cat": 891.437941623694,
        "deer": 1214.3277202040024,
        "dog": 943.238092494965,
        "frog": 1291.2414357359376,
        "horse": 1137.5841588698488,
        "ship": 900.1049242307719,
        "truck": 998.2145069515293
    },
    "fid": 657.2073439487496,
    "wasserstein_distance": null,
    "g_loss": null,
    "g_cost": null,
    "d_loss_real": null,
    "d_loss_fake": null
}