{
    "epoch": 141,
    "avg_current_window": 945.1905351040197,
    "avg_prior_window": 959.2517774095503,
    "inception_score_mean": 1.8618543143876098,
    "inception_score_std": 0.12329663247722938,
    "fid_per_class": {
        "airplane": 942.4888608612191,
        "automobile": 1114.190748720011,
        "bird": 1188.6152950195449,
        "cat": 989.7994234303003,
        "deer": 1215.4638211477186,
        "dog": 951.8894876143281,
        "frog": 1422.0736402672458,
        "horse": 1145.467107268596,
        "ship": 821.4208331785592,
        "truck": 1062.1654982829832
    },
    "fid": 699.7262837717977,
    "wasserstein_distance": null,
    "g_loss": null,
    "g_cost": null,
    "d_loss_real": null,
    "d_loss_fake": null
}