{
    "epoch": 37,
    "avg_current_window": 1578.6509717646104,
    "avg_prior_window": 1708.0906577275402,
    "inception_score_mean": 1.6872740854999069,
    "inception_score_std": 0.11110138228534264,
    "fid_per_class": {
        "airplane": 1111.0339710657436,
        "automobile": 1170.6811492362563,
        "bird": 1419.2534991221314,
        "cat": 1137.6492036419447,
        "deer": 1497.0045731289854,
        "dog": 1277.2396726111672,
        "frog": 1674.3467738022914,
        "horse": 1340.8323625674673,
        "ship": 998.3583486819757,
        "truck": 1046.5469701469247
    },
    "fid": 891.6358763338537,
    "wasserstein_distance": null,
    "g_loss": null,
    "g_cost": null,
    "d_loss_real": null,
    "d_loss_fake": null
}