{
    "epoch": 82,
    "avg_current_window": 1120.9483173178464,
    "avg_prior_window": 1157.477326138462,
    "inception_score_mean": 1.8086884574119182,
    "inception_score_std": 0.1397959211611558,
    "fid_per_class": {
        "airplane": 965.0762761438638,
        "automobile": 1085.000803952595,
        "bird": 1189.3280846123314,
        "cat": 910.0163438280183,
        "deer": 1258.3176562359556,
        "dog": 982.6582441855305,
        "frog": 1354.33681290388,
        "horse": 1206.1972174984646,
        "ship": 806.9033706961862,
        "truck": 1019.8395739217509
    },
    "fid": 689.8176604721883,
    "wasserstein_distance": null,
    "g_loss": null,
    "g_cost": null,
    "d_loss_real": null,
    "d_loss_fake": null
}