{
    "epoch": 157,
    "avg_current_window": 918.0184180251955,
    "avg_prior_window": 930.4894469469727,
    "inception_score_mean": 1.9128848926943207,
    "inception_score_std": 0.1407924362732264,
    "fid_per_class": {
        "airplane": 906.9468226097488,
        "automobile": 1068.5340607813062,
        "bird": 1234.9989086543428,
        "cat": 980.3501898224806,
        "deer": 1204.4645042130228,
        "dog": 999.6697900233213,
        "frog": 1454.061243460819,
        "horse": 1137.8032746820916,
        "ship": 816.8160883803093,
        "truck": 1029.628283302868
    },
    "fid": 689.5760529438613,
    "wasserstein_distance": null,
    "g_loss": null,
    "g_cost": null,
    "d_loss_real": null,
    "d_loss_fake": null
}