{
    "epoch": 1,
    "avg_current_window": 3.0,
    "avg_prior_window": 8.0,
    "inception_score_mean": 1.23508623909806,
    "inception_score_std": 0.017435155469871733,
    "fid_per_class": {
        "airplane": 1807.2710494948187,
        "automobile": 1874.4800351676604,
        "bird": 2230.706681000126,
        "cat": 2180.2613245075754,
        "deer": 2464.071318077178,
        "dog": 2220.5437576949853,
        "frog": 2544.1344145037783,
        "horse": 2351.2870120472458,
        "ship": 2002.6291416860302,
        "truck": 1868.6189129993559
    },
    "fid": 1983.4187089014533,
    "wasserstein_distance": null,
    "g_loss": null,
    "g_cost": null,
    "d_loss_real": null,
    "d_loss_fake": null
}