{
    "epoch": 54,
    "avg_current_window": 1335.0384395052306,
    "avg_prior_window": 1410.2037798314009,
    "inception_score_mean": 1.8923573865164798,
    "inception_score_std": 0.19951214585599342,
    "fid_per_class": {
        "airplane": 1024.9677849496657,
        "automobile": 1187.3298546319063,
        "bird": 1245.9859700384584,
        "cat": 971.0726304636578,
        "deer": 1189.0612718934415,
        "dog": 916.9828745358918,
        "frog": 1360.1037113206544,
        "horse": 1182.6158989262472,
        "ship": 810.5456877315768,
        "truck": 1119.7639460134192
    },
    "fid": 709.7946023668899,
    "wasserstein_distance": null,
    "g_loss": null,
    "g_cost": null,
    "d_loss_real": null,
    "d_loss_fake": null
}