{
    "epoch": 48,
    "avg_current_window": 1408.682315387996,
    "avg_prior_window": 1502.8625912676187,
    "inception_score_mean": 1.8640697102673802,
    "inception_score_std": 0.17642091101486174,
    "fid_per_class": {
        "airplane": 1040.9800763247247,
        "automobile": 1223.7078314907585,
        "bird": 1189.1807000445249,
        "cat": 942.8426246943134,
        "deer": 1270.1926866715855,
        "dog": 929.3949073964768,
        "frog": 1338.7791401938732,
        "horse": 1212.6813357732308,
        "ship": 904.0288963991745,
        "truck": 1105.9958838417588
    },
    "fid": 712.759831236433,
    "wasserstein_distance": null,
    "g_loss": null,
    "g_cost": null,
    "d_loss_real": null,
    "d_loss_fake": null
}