{
    "epoch": 113,
    "avg_current_window": 1003.9605538391745,
    "avg_prior_window": 1024.4002423543723,
    "inception_score_mean": 1.8566482375198792,
    "inception_score_std": 0.11901640731208497,
    "fid_per_class": {
        "airplane": 980.476974617565,
        "automobile": 1179.7504403138919,
        "bird": 1277.7461307007031,
        "cat": 890.3968617480593,
        "deer": 1287.2908965194038,
        "dog": 958.6357249451514,
        "frog": 1402.7554584194502,
        "horse": 1193.6226083890479,
        "ship": 797.4688651038807,
        "truck": 1032.7317920515488
    },
    "fid": 706.6326812131695,
    "wasserstein_distance": null,
    "g_loss": null,
    "g_cost": null,
    "d_loss_real": null,
    "d_loss_fake": null
}