{
    "epoch": 151,
    "avg_current_window": 928.1150677109728,
    "avg_prior_window": 940.7121653672255,
    "inception_score_mean": 1.978788230635444,
    "inception_score_std": 0.13734419380418653,
    "fid_per_class": {
        "airplane": 970.0426628222297,
        "automobile": 1088.2491649094013,
        "bird": 1141.6380968198937,
        "cat": 931.837134858754,
        "deer": 1174.0973638998166,
        "dog": 929.5052122488154,
        "frog": 1384.455269784019,
        "horse": 1096.5066399719517,
        "ship": 829.9167336597477,
        "truck": 1020.672412210039
    },
    "fid": 633.3930601942416,
    "wasserstein_distance": null,
    "g_loss": null,
    "g_cost": null,
    "d_loss_real": null,
    "d_loss_fake": null
}