{
    "epoch": 167,
    "avg_current_window": 904.0729792838922,
    "avg_prior_window": 915.0325929780046,
    "inception_score_mean": 1.915875121937707,
    "inception_score_std": 0.08643207018029338,
    "fid_per_class": {
        "airplane": 994.8879153794719,
        "automobile": 1136.3239348815184,
        "bird": 1186.4016616911806,
        "cat": 947.5255382093624,
        "deer": 1195.2898102145643,
        "dog": 948.2261982110364,
        "frog": 1403.9097239933785,
        "horse": 1206.8741129928821,
        "ship": 884.211978886659,
        "truck": 985.2238339850483
    },
    "fid": 703.1235023805524,
    "wasserstein_distance": null,
    "g_loss": null,
    "g_cost": null,
    "d_loss_real": null,
    "d_loss_fake": null
}