{
    "epoch": 68,
    "avg_current_window": 1209.2079636851302,
    "avg_prior_window": 1260.8707690231145,
    "inception_score_mean": 1.7781833706759478,
    "inception_score_std": 0.12567490375239837,
    "fid_per_class": {
        "airplane": 893.7189776074133,
        "automobile": 1141.639596275439,
        "bird": 1208.8532080828795,
        "cat": 907.8594791262209,
        "deer": 1312.685694818633,
        "dog": 960.8353126627758,
        "frog": 1359.2622320946732,
        "horse": 1144.019130265489,
        "ship": 845.4023908061274,
        "truck": 1021.5471457515343
    },
    "fid": 688.0982824114262,
    "wasserstein_distance": null,
    "g_loss": null,
    "g_cost": null,
    "d_loss_real": null,
    "d_loss_fake": null
}