{
    "epoch": 51,
    "avg_current_window": 1370.0586591029344,
    "avg_prior_window": 1453.5513080015983,
    "inception_score_mean": 1.8672730037929726,
    "inception_score_std": 0.18815490265865262,
    "fid_per_class": {
        "airplane": 1020.5830867357797,
        "automobile": 1187.794581301645,
        "bird": 1211.6012794533522,
        "cat": 931.4992021620789,
        "deer": 1146.9838031156894,
        "dog": 957.2791333850249,
        "frog": 1348.227202259283,
        "horse": 1154.2798337110733,
        "ship": 841.5682408986419,
        "truck": 1145.415645559964
    },
    "fid": 687.9408648649735,
    "wasserstein_distance": null,
    "g_loss": null,
    "g_cost": null,
    "d_loss_real": null,
    "d_loss_fake": null
}