{
    "epoch": 68,
    "avg_current_window": 972.9075527922678,
    "avg_prior_window": 1003.7568915613954,
    "inception_score_mean": 1.851098969175649,
    "inception_score_std": 0.12257809107354271,
    "fid_per_class": {
        "airplane": 872.9780775110613,
        "automobile": 1012.7050286432118,
        "bird": 1218.771710996589,
        "cat": 990.2687411547454,
        "deer": 1340.5910634365441,
        "dog": 1008.8885654925355,
        "frog": 1334.5457306241112,
        "horse": 1149.0876737027784,
        "ship": 810.7272337403477,
        "truck": 946.0006608143716
    },
    "fid": 675.7177959726097,
    "wasserstein_distance": null,
    "g_loss": null,
    "g_cost": null,
    "d_loss_real": null,
    "d_loss_fake": null
}