{
    "epoch": 100,
    "avg_current_window": 879.7586782000026,
    "avg_prior_window": 897.3824105385635,
    "inception_score_mean": 1.8650971266815017,
    "inception_score_std": 0.14822600868621705,
    "fid_per_class": {
        "airplane": 905.6745494157676,
        "automobile": 1151.1896837068634,
        "bird": 1157.627757835851,
        "cat": 969.5406172599501,
        "deer": 1236.7656482830555,
        "dog": 950.703492764165,
        "frog": 1224.76175773796,
        "horse": 1159.3371557783396,
        "ship": 823.6810823453359,
        "truck": 1063.8809358389099
    },
    "fid": 665.7751911955265,
    "wasserstein_distance": null,
    "g_loss": null,
    "g_cost": null,
    "d_loss_real": null,
    "d_loss_fake": null
}