{
    "epoch": 94,
    "avg_current_window": 893.0518139067309,
    "avg_prior_window": 912.8604288389275,
    "inception_score_mean": 1.9680884901413365,
    "inception_score_std": 0.16221529095771436,
    "fid_per_class": {
        "airplane": 825.2228584140757,
        "automobile": 998.4647129809016,
        "bird": 1184.7281306423179,
        "cat": 976.901714686354,
        "deer": 1279.4240215458399,
        "dog": 946.4988452917221,
        "frog": 1244.8558345923443,
        "horse": 1117.5994764496393,
        "ship": 828.892028894301,
        "truck": 984.1985455885664
    },
    "fid": 636.7308811915494,
    "wasserstein_distance": null,
    "g_loss": null,
    "g_cost": null,
    "d_loss_real": null,
    "d_loss_fake": null
}