{
    "epoch": 80,
    "avg_current_window": 930.4977865724395,
    "avg_prior_window": 955.7301202437872,
    "inception_score_mean": 1.8855228698839404,
    "inception_score_std": 0.13146558168357775,
    "fid_per_class": {
        "airplane": 898.6245711303859,
        "automobile": 1088.7346999917893,
        "bird": 1199.1621449072356,
        "cat": 925.9862350696762,
        "deer": 1317.619222834199,
        "dog": 955.1671709586448,
        "frog": 1258.1807975161532,
        "horse": 1105.7504797673516,
        "ship": 885.9093333821816,
        "truck": 977.9171945902176
    },
    "fid": 660.0276871418217,
    "wasserstein_distance": null,
    "g_loss": null,
    "g_cost": null,
    "d_loss_real": null,
    "d_loss_fake": null
}