{
    "epoch": 12,
    "avg_current_window": 1751.1874106906168,
    "avg_prior_window": 2090.3540601571153,
    "inception_score_mean": 1.3964573963284328,
    "inception_score_std": 0.03150621797707022,
    "fid_per_class": {
        "airplane": 1192.1751583431674,
        "automobile": 1417.4584944862784,
        "bird": 1188.444589410355,
        "cat": 1271.3631085494158,
        "deer": 1357.5682150440407,
        "dog": 1454.050928828253,
        "frog": 1502.2052554593956,
        "horse": 1414.1869625244713,
        "ship": 1205.290316996156,
        "truck": 1362.445937920834
    },
    "fid": 1046.1719413689889,
    "wasserstein_distance": null,
    "g_loss": null,
    "g_cost": null,
    "d_loss_real": null,
    "d_loss_fake": null
}