{
    "epoch": 31,
    "avg_current_window": 1283.1377519902212,
    "avg_prior_window": 1404.1146297728098,
    "inception_score_mean": 1.7120932628446544,
    "inception_score_std": 0.13515127899768378,
    "fid_per_class": {
        "airplane": 1009.0395408015188,
        "automobile": 1266.3210767636353,
        "bird": 1264.0482781832616,
        "cat": 953.8562207847673,
        "deer": 1343.8959404079296,
        "dog": 1131.739510162101,
        "frog": 1372.8323286963275,
        "horse": 1250.3829044009692,
        "ship": 979.0378281448959,
        "truck": 1221.944423606167
    },
    "fid": 773.7849807497529,
    "wasserstein_distance": null,
    "g_loss": null,
    "g_cost": null,
    "d_loss_real": null,
    "d_loss_fake": null
}