{
    "epoch": 86,
    "avg_current_window": 913.2570725935024,
    "avg_prior_window": 935.7095380924422,
    "inception_score_mean": 1.880216751139816,
    "inception_score_std": 0.1504424630669108,
    "fid_per_class": {
        "airplane": 861.4207267435389,
        "automobile": 1009.99694569623,
        "bird": 1170.0814601668533,
        "cat": 945.8600898102153,
        "deer": 1253.7094782824704,
        "dog": 1029.682605297547,
        "frog": 1241.7994564467785,
        "horse": 1160.7981399076505,
        "ship": 844.6996551333258,
        "truck": 972.2275023431621
    },
    "fid": 666.900817690897,
    "wasserstein_distance": null,
    "g_loss": null,
    "g_cost": null,
    "d_loss_real": null,
    "d_loss_fake": null
}