{
    "epoch": 7,
    "avg_current_window": 1784.495334688574,
    "avg_prior_window": 2.0,
    "inception_score_mean": 1.2707035603492067,
    "inception_score_std": 0.06908940494302944,
    "fid_per_class": {
        "airplane": 1884.2530776462052,
        "automobile": 2161.2073299442795,
        "bird": 2411.728286101081,
        "cat": 2384.810864321505,
        "deer": 2964.054492631684,
        "dog": 2524.349037578133,
        "frog": 2827.9113815406763,
        "horse": 2533.664056732189,
        "ship": 1915.6218538825894,
        "truck": 2019.7623658412272
    },
    "fid": 2141.011078279789,
    "wasserstein_distance": null,
    "g_loss": null,
    "g_cost": null,
    "d_loss_real": null,
    "d_loss_fake": null
}