{
    "epoch": 60,
    "avg_current_window": 1009.5643919030754,
    "avg_prior_window": 1049.5156268494698,
    "inception_score_mean": 1.8924441379883319,
    "inception_score_std": 0.11996205983917167,
    "fid_per_class": {
        "airplane": 879.1045678641635,
        "automobile": 1047.1704778171288,
        "bird": 1169.9019386127595,
        "cat": 940.7716959096456,
        "deer": 1239.2426838237295,
        "dog": 982.5753074122514,
        "frog": 1297.7057248163983,
        "horse": 1088.6634297226738,
        "ship": 822.8453393283736,
        "truck": 1052.0282988670583
    },
    "fid": 643.7583174755637,
    "wasserstein_distance": null,
    "g_loss": null,
    "g_cost": null,
    "d_loss_real": null,
    "d_loss_fake": null
}