{
    "epoch": 28,
    "avg_current_window": 1333.1826191902276,
    "avg_prior_window": 1469.3622627898692,
    "inception_score_mean": 1.6681283553078785,
    "inception_score_std": 0.10050474293641777,
    "fid_per_class": {
        "airplane": 1066.09446171125,
        "automobile": 1354.6831214429749,
        "bird": 1372.4756103042673,
        "cat": 1069.6489647333487,
        "deer": 1414.0221421432489,
        "dog": 1169.9047530969008,
        "frog": 1480.1273953252262,
        "horse": 1299.9465564327988,
        "ship": 1001.0873129177126,
        "truck": 1153.7746963390327
    },
    "fid": 853.5009810815957,
    "wasserstein_distance": null,
    "g_loss": null,
    "g_cost": null,
    "d_loss_real": null,
    "d_loss_fake": null
}