{
    "epoch": 81,
    "avg_current_window": 927.1586495424318,
    "avg_prior_window": 952.855296815579,
    "inception_score_mean": 1.866964225385513,
    "inception_score_std": 0.1651725597223587,
    "fid_per_class": {
        "airplane": 944.3976098819641,
        "automobile": 1037.793533663669,
        "bird": 1237.4323714742927,
        "cat": 950.3112783536894,
        "deer": 1365.2779317776035,
        "dog": 985.7062585734778,
        "frog": 1351.501115616619,
        "horse": 1096.4210589084778,
        "ship": 872.9551949218544,
        "truck": 1044.6470224042798
    },
    "fid": 692.6219725508372,
    "wasserstein_distance": null,
    "g_loss": null,
    "g_cost": null,
    "d_loss_real": null,
    "d_loss_fake": null
}