{
    "epoch": 29,
    "avg_current_window": 1316.6418730485507,
    "avg_prior_window": 1445.7715686371428,
    "inception_score_mean": 1.7209818636717737,
    "inception_score_std": 0.10895991753127424,
    "fid_per_class": {
        "airplane": 999.3680342930538,
        "automobile": 1250.3767124969731,
        "bird": 1245.7272726912995,
        "cat": 1014.4756756168326,
        "deer": 1394.5556114686387,
        "dog": 1098.0303952598483,
        "frog": 1453.2054502893643,
        "horse": 1269.4921849331545,
        "ship": 973.5557020022857,
        "truck": 1143.8424024177762
    },
    "fid": 805.0334558894396,
    "wasserstein_distance": null,
    "g_loss": null,
    "g_cost": null,
    "d_loss_real": null,
    "d_loss_fake": null
}