{
    "epoch": 11,
    "avg_current_window": 1784.9528787822173,
    "avg_prior_window": 2081.9112238033363,
    "inception_score_mean": 1.3584999464541003,
    "inception_score_std": 0.040944493869119795,
    "fid_per_class": {
        "airplane": 1564.5658504744013,
        "automobile": 1830.6572056745445,
        "bird": 1335.9926531660508,
        "cat": 1593.991247364333,
        "deer": 1502.9995619490803,
        "dog": 1664.0834396576317,
        "frog": 1691.98555529455,
        "horse": 1820.94079884634,
        "ship": 1508.25929233025,
        "truck": 1769.1217500300604
    },
    "fid": 1379.7672616830077,
    "wasserstein_distance": null,
    "g_loss": null,
    "g_cost": null,
    "d_loss_real": null,
    "d_loss_fake": null
}