{
    "epoch": 74,
    "avg_current_window": 950.3844478854363,
    "avg_prior_window": 979.1707523581256,
    "inception_score_mean": 1.902789002606643,
    "inception_score_std": 0.1329476242383083,
    "fid_per_class": {
        "airplane": 882.8238702318129,
        "automobile": 1077.5950819719283,
        "bird": 1172.8209125465314,
        "cat": 1000.9645839603312,
        "deer": 1305.7581506652214,
        "dog": 1050.146618516026,
        "frog": 1256.7224930050927,
        "horse": 1136.7337144255973,
        "ship": 870.1551949583944,
        "truck": 1044.551568541172
    },
    "fid": 690.1671210660184,
    "wasserstein_distance": null,
    "g_loss": null,
    "g_cost": null,
    "d_loss_real": null,
    "d_loss_fake": null
}