{
    "epoch": 45,
    "avg_current_window": 1112.9276085887514,
    "avg_prior_window": 1182.381886761834,
    "inception_score_mean": 1.8014519428041116,
    "inception_score_std": 0.13419450966167187,
    "fid_per_class": {
        "airplane": 849.2765288105094,
        "automobile": 1140.5789719013326,
        "bird": 1216.555451434074,
        "cat": 968.658217118802,
        "deer": 1275.316335642321,
        "dog": 1048.1091441427707,
        "frog": 1391.9642835730403,
        "horse": 1181.1479784160626,
        "ship": 842.2864422265334,
        "truck": 1093.8481238990116
    },
    "fid": 700.2542485992374,
    "wasserstein_distance": null,
    "g_loss": null,
    "g_cost": null,
    "d_loss_real": null,
    "d_loss_fake": null
}