{
    "epoch": 79,
    "avg_current_window": 933.635565518071,
    "avg_prior_window": 959.7110306025446,
    "inception_score_mean": 1.8836701199946781,
    "inception_score_std": 0.1442588738114384,
    "fid_per_class": {
        "airplane": 904.5019668840312,
        "automobile": 1053.3350331349002,
        "bird": 1233.0465133145335,
        "cat": 991.2506873639958,
        "deer": 1388.449829410269,
        "dog": 983.2108939514471,
        "frog": 1296.672371171409,
        "horse": 1146.6421807389104,
        "ship": 837.08784785575,
        "truck": 996.7243048526577
    },
    "fid": 682.6132498675577,
    "wasserstein_distance": null,
    "g_loss": null,
    "g_cost": null,
    "d_loss_real": null,
    "d_loss_fake": null
}