{
    "epoch": 18,
    "avg_current_window": 1560.7497517507845,
    "avg_prior_window": 1790.6480367007405,
    "inception_score_mean": 1.677625223635399,
    "inception_score_std": 0.0572343179806264,
    "fid_per_class": {
        "airplane": 1045.6451934179518,
        "automobile": 1102.364311407368,
        "bird": 1624.828624260924,
        "cat": 1276.7478968949986,
        "deer": 1718.5299534880687,
        "dog": 1420.7048303844253,
        "frog": 1777.7967495133898,
        "horse": 1467.7355416082614,
        "ship": 929.7275892168868,
        "truck": 1017.3510066597713
    },
    "fid": 1007.0762820613467,
    "wasserstein_distance": null,
    "g_loss": null,
    "g_cost": null,
    "d_loss_real": null,
    "d_loss_fake": null
}