{
    "epoch": 77,
    "avg_current_window": 940.4805527010909,
    "avg_prior_window": 966.830938780864,
    "inception_score_mean": 1.8841273599806445,
    "inception_score_std": 0.1711078886942337,
    "fid_per_class": {
        "airplane": 903.938144591585,
        "automobile": 1034.5882387408792,
        "bird": 1159.5289035082724,
        "cat": 987.7761985133845,
        "deer": 1360.2759571915535,
        "dog": 1026.678117658622,
        "frog": 1231.9831222719808,
        "horse": 1086.5508789655357,
        "ship": 772.0823563265852,
        "truck": 989.1608914978308
    },
    "fid": 670.9003314810195,
    "wasserstein_distance": null,
    "g_loss": null,
    "g_cost": null,
    "d_loss_real": null,
    "d_loss_fake": null
}