{
    "epoch": 2,
    "avg_current_window": 1164.5997978616406,
    "avg_prior_window": 2332.199595723281,
    "inception_score_mean": 1.1513092362929411,
    "inception_score_std": 0.019450740786306965,
    "fid_per_class": {
        "airplane": 1707.9931593164856,
        "automobile": 1731.5370440373772,
        "bird": 1449.4632949646907,
        "cat": 1487.63872628613,
        "deer": 1768.5755093373864,
        "dog": 1596.9900193660396,
        "frog": 1758.2958207487504,
        "horse": 1647.0669766032156,
        "ship": 1873.6101775757365,
        "truck": 1711.381530540738
    },
    "fid": 1447.1796529476148,
    "wasserstein_distance": null,
    "g_loss": null,
    "g_cost": null,
    "d_loss_real": null,
    "d_loss_fake": null
}