{
    "epoch": 76,
    "avg_current_window": 943.1547239247899,
    "avg_prior_window": 971.095209575581,
    "inception_score_mean": 1.8001973343320359,
    "inception_score_std": 0.11385107570367496,
    "fid_per_class": {
        "airplane": 917.8349187656507,
        "automobile": 1181.3727088330004,
        "bird": 1187.7212646535882,
        "cat": 1013.8489475843617,
        "deer": 1372.67396485888,
        "dog": 1006.8965545985675,
        "frog": 1376.508009970645,
        "horse": 1168.6773918799427,
        "ship": 894.1266438797877,
        "truck": 1161.3127933716694
    },
    "fid": 737.2435396999683,
    "wasserstein_distance": null,
    "g_loss": null,
    "g_cost": null,
    "d_loss_real": null,
    "d_loss_fake": null
}