{
    "epoch": 41,
    "avg_current_window": 1153.5433041578867,
    "avg_prior_window": 1233.9962475209204,
    "inception_score_mean": 1.7422565655641153,
    "inception_score_std": 0.12032954113308222,
    "fid_per_class": {
        "airplane": 921.3224843516763,
        "automobile": 1225.9017314998553,
        "bird": 1203.255372954686,
        "cat": 969.9414173833925,
        "deer": 1254.6211202492748,
        "dog": 1023.15338270006,
        "frog": 1299.1136205012572,
        "horse": 1206.9720357342533,
        "ship": 842.8405440482126,
        "truck": 1074.939335996311
    },
    "fid": 693.8283262037048,
    "wasserstein_distance": null,
    "g_loss": null,
    "g_cost": null,
    "d_loss_real": null,
    "d_loss_fake": null
}