{
    "epoch": 67,
    "avg_current_window": 977.3259164230333,
    "avg_prior_window": 1008.6883396588936,
    "inception_score_mean": 1.8839252836920017,
    "inception_score_std": 0.0870758737070005,
    "fid_per_class": {
        "airplane": 891.7559128496866,
        "automobile": 1059.5450996875654,
        "bird": 1214.405176769808,
        "cat": 939.6550785242679,
        "deer": 1337.9690858718593,
        "dog": 972.0787033281442,
        "frog": 1290.2570976439472,
        "horse": 1111.2177637516033,
        "ship": 833.2919651245047,
        "truck": 1013.7005187249238
    },
    "fid": 676.877189530981,
    "wasserstein_distance": null,
    "g_loss": null,
    "g_cost": null,
    "d_loss_real": null,
    "d_loss_fake": null
}