{
    "epoch": 26,
    "avg_current_window": 1368.951953614655,
    "avg_prior_window": 1525.5712073033228,
    "inception_score_mean": 1.7697668767431203,
    "inception_score_std": 0.110221643475204,
    "fid_per_class": {
        "airplane": 1066.0997391759697,
        "automobile": 1145.5304425804184,
        "bird": 1482.848067675004,
        "cat": 1122.3902110627891,
        "deer": 1675.2307287847761,
        "dog": 1338.514625194121,
        "frog": 1657.5898872807543,
        "horse": 1331.3424076350414,
        "ship": 943.3482323042646,
        "truck": 1056.1140339041278
    },
    "fid": 914.2295801120281,
    "wasserstein_distance": null,
    "g_loss": null,
    "g_cost": null,
    "d_loss_real": null,
    "d_loss_fake": null
}