{
    "epoch": 8,
    "avg_current_window": 1829.059802637476,
    "avg_prior_window": 1.0,
    "inception_score_mean": 1.0598599087040126,
    "inception_score_std": 0.014657580200506318,
    "fid_per_class": {
        "airplane": 1891.136452559738,
        "automobile": 2006.301938371314,
        "bird": 2222.158398402346,
        "cat": 2305.1328062652747,
        "deer": 2482.415345652069,
        "dog": 2301.1808307110896,
        "frog": 2484.0489462302003,
        "horse": 2316.127267105625,
        "ship": 1960.784786560875,
        "truck": 2061.3708879963933
    },
    "fid": 2081.42814594025,
    "wasserstein_distance": null,
    "g_loss": null,
    "g_cost": null,
    "d_loss_real": null,
    "d_loss_fake": null
}