{
    "epoch": 47,
    "avg_current_window": 1094.8876007017072,
    "avg_prior_window": 1159.3915742357992,
    "inception_score_mean": 1.880527871748298,
    "inception_score_std": 0.11314622363869736,
    "fid_per_class": {
        "airplane": 942.0488324224439,
        "automobile": 1172.8449976453917,
        "bird": 1177.3734521762542,
        "cat": 901.3952127405322,
        "deer": 1144.0381700657126,
        "dog": 952.495063745851,
        "frog": 1241.6609448555514,
        "horse": 1088.3327869786954,
        "ship": 844.2494370462446,
        "truck": 1025.4689035118
    },
    "fid": 647.6877153475499,
    "wasserstein_distance": null,
    "g_loss": null,
    "g_cost": null,
    "d_loss_real": null,
    "d_loss_fake": null
}