{
    "epoch": 48,
    "avg_current_window": 1085.5709364234956,
    "avg_prior_window": 1149.5767476167428,
    "inception_score_mean": 1.7596425676700496,
    "inception_score_std": 0.07134415080907622,
    "fid_per_class": {
        "airplane": 897.3648150604843,
        "automobile": 1105.3155381934828,
        "bird": 1249.968672726108,
        "cat": 994.456199766965,
        "deer": 1313.1350371784984,
        "dog": 1023.6799210066931,
        "frog": 1409.0022537107911,
        "horse": 1220.2165401955845,
        "ship": 823.8338029775857,
        "truck": 1012.0826036596864
    },
    "fid": 721.5872885885922,
    "wasserstein_distance": null,
    "g_loss": null,
    "g_cost": null,
    "d_loss_real": null,
    "d_loss_fake": null
}