{
    "epoch": 3,
    "avg_current_window": 483.3932176492049,
    "avg_prior_window": 2331.199595723281,
    "inception_score_mean": 1.0287611152450953,
    "inception_score_std": 0.009101011320031905,
    "fid_per_class": {
        "airplane": 2331.0779489578713,
        "automobile": 2510.7944452914508,
        "bird": 2737.280117230388,
        "cat": 2805.0969652439358,
        "deer": 3217.290210818741,
        "dog": 2857.8542350133853,
        "frog": 3012.6219808598253,
        "horse": 2900.6586469837425,
        "ship": 2575.2780887034232,
        "truck": 2489.946973452844
    },
    "fid": 2649.0069355771648,
    "wasserstein_distance": null,
    "g_loss": null,
    "g_cost": null,
    "d_loss_real": null,
    "d_loss_fake": null
}