{
    "epoch": 82,
    "avg_current_window": 924.2984461644857,
    "avg_prior_window": 949.1935440190263,
    "inception_score_mean": 1.837245496034739,
    "inception_score_std": 0.13985020545830948,
    "fid_per_class": {
        "airplane": 866.6179605826153,
        "automobile": 1041.6780177341352,
        "bird": 1297.5009410960574,
        "cat": 1020.3113109888031,
        "deer": 1451.8458861913148,
        "dog": 1091.315097024276,
        "frog": 1322.5595880927042,
        "horse": 1226.8988959198182,
        "ship": 881.909078463244,
        "truck": 970.5344946451106
    },
    "fid": 728.3278477488878,
    "wasserstein_distance": null,
    "g_loss": null,
    "g_cost": null,
    "d_loss_real": null,
    "d_loss_fake": null
}