{
    "epoch": 50,
    "avg_current_window": 1071.1966414573346,
    "avg_prior_window": 1128.488814113179,
    "inception_score_mean": 1.8151631400763368,
    "inception_score_std": 0.09276108874158147,
    "fid_per_class": {
        "airplane": 846.0330700990684,
        "automobile": 1102.0231283045462,
        "bird": 1253.6154335692556,
        "cat": 956.5381472475706,
        "deer": 1366.3296984544795,
        "dog": 1029.8190464258269,
        "frog": 1382.067598110932,
        "horse": 1252.7582926596879,
        "ship": 902.8177308204994,
        "truck": 1058.6251351819628
    },
    "fid": 724.286985360518,
    "wasserstein_distance": null,
    "g_loss": null,
    "g_cost": null,
    "d_loss_real": null,
    "d_loss_fake": null
}