{
    "epoch": 49,
    "avg_current_window": 1078.1426987125792,
    "avg_prior_window": 1138.2214178748593,
    "inception_score_mean": 1.7995238979689006,
    "inception_score_std": 0.11094223244033347,
    "fid_per_class": {
        "airplane": 893.4001323595619,
        "automobile": 1131.5777378712003,
        "bird": 1213.2799789989017,
        "cat": 972.7795840449223,
        "deer": 1351.201399107848,
        "dog": 1066.8755959983123,
        "frog": 1398.5827075875518,
        "horse": 1196.5674243711787,
        "ship": 929.7220275425414,
        "truck": 1091.517025936002
    },
    "fid": 730.8398359503508,
    "wasserstein_distance": null,
    "g_loss": null,
    "g_cost": null,
    "d_loss_real": null,
    "d_loss_fake": null
}