{
    "epoch": 33,
    "avg_current_window": 1251.733440896405,
    "avg_prior_window": 1363.664797085999,
    "inception_score_mean": 1.755609504143687,
    "inception_score_std": 0.06754857201562732,
    "fid_per_class": {
        "airplane": 1001.1150034449885,
        "automobile": 1198.117345267365,
        "bird": 1248.4667187483262,
        "cat": 984.9224522472266,
        "deer": 1329.9481541170219,
        "dog": 1093.145606616481,
        "frog": 1430.1831021844412,
        "horse": 1251.826634817337,
        "ship": 949.6474932943909,
        "truck": 1155.9850465905558
    },
    "fid": 792.0006290321988,
    "wasserstein_distance": null,
    "g_loss": null,
    "g_cost": null,
    "d_loss_real": null,
    "d_loss_fake": null
}