{
    "epoch": 64,
    "avg_current_window": 988.0731901307486,
    "avg_prior_window": 1026.6756527827886,
    "inception_score_mean": 1.7878311579955237,
    "inception_score_std": 0.13106767549578568,
    "fid_per_class": {
        "airplane": 937.6152462989442,
        "automobile": 1153.8638641402508,
        "bird": 1235.4047965258062,
        "cat": 1036.437292874408,
        "deer": 1386.9875835604753,
        "dog": 1088.343692843111,
        "frog": 1373.6757922058541,
        "horse": 1227.1429254547397,
        "ship": 898.838618349713,
        "truck": 1136.7089842934663
    },
    "fid": 761.3701649232833,
    "wasserstein_distance": null,
    "g_loss": null,
    "g_cost": null,
    "d_loss_real": null,
    "d_loss_fake": null
}