{
    "epoch": 14,
    "avg_current_window": 1662.7446055078306,
    "avg_prior_window": 2030.189424272456,
    "inception_score_mean": 1.5488005527083297,
    "inception_score_std": 0.1008955263353268,
    "fid_per_class": {
        "airplane": 1185.4116325432265,
        "automobile": 1337.2697097721668,
        "bird": 1587.1313130889675,
        "cat": 1578.401568695809,
        "deer": 1639.819036336803,
        "dog": 1626.3455485712939,
        "frog": 1799.3541117641457,
        "horse": 1516.1446313040283,
        "ship": 1136.974115558881,
        "truck": 1162.4590938710376
    },
    "fid": 1172.9005359227704,
    "wasserstein_distance": null,
    "g_loss": null,
    "g_cost": null,
    "d_loss_real": null,
    "d_loss_fake": null
}