{
    "epoch": 19,
    "avg_current_window": 1531.6090428197613,
    "avg_prior_window": 1746.5232152165997,
    "inception_score_mean": 1.5055561569355878,
    "inception_score_std": 0.11805128994264742,
    "fid_per_class": {
        "airplane": 1068.528879676505,
        "automobile": 1255.1831307455236,
        "bird": 1426.4320391716524,
        "cat": 1221.5066606451264,
        "deer": 1532.3738561692926,
        "dog": 1331.9779496747965,
        "frog": 1580.0523988630339,
        "horse": 1411.8735815291805,
        "ship": 1018.9812295579259,
        "truck": 1131.0883201209344
    },
    "fid": 983.6051270694348,
    "wasserstein_distance": null,
    "g_loss": null,
    "g_cost": null,
    "d_loss_real": null,
    "d_loss_fake": null
}