{
    "epoch": 84,
    "avg_current_window": 919.1390173816128,
    "avg_prior_window": 942.2762395670273,
    "inception_score_mean": 1.8079945441042935,
    "inception_score_std": 0.11602338077244781,
    "fid_per_class": {
        "airplane": 873.1887465358561,
        "automobile": 1058.9075014261634,
        "bird": 1188.822213122696,
        "cat": 950.3007110964706,
        "deer": 1279.4545485581048,
        "dog": 945.2023224103795,
        "frog": 1237.4222823945104,
        "horse": 1171.9731276231835,
        "ship": 846.901813319229,
        "truck": 997.3642196706846
    },
    "fid": 655.4023130982262,
    "wasserstein_distance": null,
    "g_loss": null,
    "g_cost": null,
    "d_loss_real": null,
    "d_loss_fake": null
}