{
    "epoch": 25,
    "avg_current_window": 1387.940705891657,
    "avg_prior_window": 1560.4619462445548,
    "inception_score_mean": 1.7789209700712985,
    "inception_score_std": 0.09628596352870579,
    "fid_per_class": {
        "airplane": 1013.2015388052625,
        "automobile": 1205.4961227538056,
        "bird": 1456.0623044643557,
        "cat": 1136.368000287655,
        "deer": 1598.5621098025622,
        "dog": 1387.3477436593396,
        "frog": 1507.151727532622,
        "horse": 1313.2061906815065,
        "ship": 961.4877031395087,
        "truck": 1113.8191281635864
    },
    "fid": 894.2331466896101,
    "wasserstein_distance": null,
    "g_loss": null,
    "g_cost": null,
    "d_loss_real": null,
    "d_loss_fake": null
}