{
    "epoch": 54,
    "avg_current_window": 1043.4257708412079,
    "avg_prior_window": 1093.0577974054436,
    "inception_score_mean": 1.7827757536927802,
    "inception_score_std": 0.1318696440802987,
    "fid_per_class": {
        "airplane": 900.003598471335,
        "automobile": 1112.5374480683645,
        "bird": 1267.7541322548363,
        "cat": 1001.8748317121571,
        "deer": 1413.0397935855447,
        "dog": 1071.3415048815075,
        "frog": 1406.4276589098747,
        "horse": 1197.380893834592,
        "ship": 837.2555184144726,
        "truck": 1094.902618341223
    },
    "fid": 728.228578602891,
    "wasserstein_distance": null,
    "g_loss": null,
    "g_cost": null,
    "d_loss_real": null,
    "d_loss_fake": null
}