{
    "epoch": 42,
    "avg_current_window": 1142.597709444692,
    "avg_prior_window": 1219.2100604219409,
    "inception_score_mean": 1.7305936763648955,
    "inception_score_std": 0.13275514262150367,
    "fid_per_class": {
        "airplane": 883.8951457611399,
        "automobile": 1117.714812185409,
        "bird": 1192.1290535210167,
        "cat": 966.5331923428098,
        "deer": 1330.2063974206726,
        "dog": 967.594932792899,
        "frog": 1369.0075632756118,
        "horse": 1207.0594780803995,
        "ship": 880.6116381687839,
        "truck": 1049.3871079792025
    },
    "fid": 705.342321226495,
    "wasserstein_distance": null,
    "g_loss": null,
    "g_cost": null,
    "d_loss_real": null,
    "d_loss_fake": null
}