{
    "epoch": 17,
    "avg_current_window": 1600.3192721140701,
    "avg_prior_window": 1838.3684058046993,
    "inception_score_mean": 1.610490875566697,
    "inception_score_std": 0.0530796579578603,
    "fid_per_class": {
        "airplane": 984.8991820550352,
        "automobile": 1144.860400654329,
        "bird": 1326.7454757954451,
        "cat": 1199.0262880463235,
        "deer": 1358.99219388205,
        "dog": 1279.6541777658456,
        "frog": 1488.9603110252706,
        "horse": 1319.4486124903488,
        "ship": 895.6209600999576,
        "truck": 1022.0835725471761
    },
    "fid": 888.0679055749285,
    "wasserstein_distance": null,
    "g_loss": null,
    "g_cost": null,
    "d_loss_real": null,
    "d_loss_fake": null
}