{
    "epoch": 9,
    "avg_current_window": 1857.1007296711177,
    "avg_prior_window": 2072.7568425078753,
    "inception_score_mean": 1.2307653351791188,
    "inception_score_std": 0.04223552322940858,
    "fid_per_class": {
        "airplane": 1652.345719618462,
        "automobile": 1827.1476978849348,
        "bird": 1457.6511506250527,
        "cat": 1798.3534345501728,
        "deer": 1726.3044508565874,
        "dog": 1797.2028160638772,
        "frog": 1759.5201735101625,
        "horse": 1918.6571206525502,
        "ship": 1733.2503906455627,
        "truck": 1958.7384947567648
    },
    "fid": 1557.7982514120463,
    "wasserstein_distance": null,
    "g_loss": null,
    "g_cost": null,
    "d_loss_real": null,
    "d_loss_fake": null
}