{
    "epoch": 58,
    "avg_current_window": 1020.5625365990282,
    "avg_prior_window": 1063.113049536325,
    "inception_score_mean": 1.8717360372388334,
    "inception_score_std": 0.13648159852321928,
    "fid_per_class": {
        "airplane": 894.7416573584022,
        "automobile": 1054.2387801252416,
        "bird": 1237.6076449032832,
        "cat": 958.498686074445,
        "deer": 1380.468561521645,
        "dog": 1033.6650626513272,
        "frog": 1288.927666961972,
        "horse": 1123.9805869685688,
        "ship": 905.9460493958137,
        "truck": 1068.2370150227084
    },
    "fid": 700.1194957996393,
    "wasserstein_distance": null,
    "g_loss": null,
    "g_cost": null,
    "d_loss_real": null,
    "d_loss_fake": null
}