{
    "epoch": 127,
    "avg_current_window": 713.8091163752098,
    "avg_prior_window": 721.3888309601846,
    "inception_score_mean": 2.0416881941537,
    "inception_score_std": 0.09286751514299858,
    "fid_per_class": {
        "airplane": 809.6667607722936,
        "automobile": 1107.9366556381835,
        "bird": 1196.6781819637627,
        "cat": 936.7546753223739,
        "deer": 1179.5358357401053,
        "dog": 933.4354130873483,
        "frog": 1200.256858009895,
        "horse": 1043.644562254269,
        "ship": 919.5361264915947,
        "truck": 1040.1255312860123
    },
    "fid": 634.7708308280885,
    "wasserstein_distance": null,
    "g_loss": null,
    "g_cost": null,
    "d_loss_real": null,
    "d_loss_fake": null
}