{
    "epoch": 35,
    "avg_current_window": 850.4897834690158,
    "avg_prior_window": 900.390109051329,
    "inception_score_mean": 1.8250340863407406,
    "inception_score_std": 0.1325634023854907,
    "fid_per_class": {
        "airplane": 907.0122875904112,
        "automobile": 1171.232387385001,
        "bird": 1188.6083645515562,
        "cat": 876.9292098367189,
        "deer": 1224.5812078637298,
        "dog": 904.0980720517824,
        "frog": 1176.870173327044,
        "horse": 1146.9180772266334,
        "ship": 901.0209394074352,
        "truck": 1166.43758418689
    },
    "fid": 664.0210708978177,
    "wasserstein_distance": null,
    "g_loss": null,
    "g_cost": null,
    "d_loss_real": null,
    "d_loss_fake": null
}