{
    "epoch": 176,
    "avg_current_window": 695.1054926033586,
    "avg_prior_window": 700.0515052939803,
    "inception_score_mean": 2.0163897799068957,
    "inception_score_std": 0.09500580879195476,
    "fid_per_class": {
        "airplane": 832.4822263484277,
        "automobile": 1056.9184044723597,
        "bird": 1217.6803844887795,
        "cat": 948.6535266607407,
        "deer": 1323.997481001102,
        "dog": 944.3107206145341,
        "frog": 1264.2337927293281,
        "horse": 1172.5515722482596,
        "ship": 836.5536403484604,
        "truck": 998.9016367405827
    },
    "fid": 653.3877001018358,
    "wasserstein_distance": null,
    "g_loss": null,
    "g_cost": null,
    "d_loss_real": null,
    "d_loss_fake": null
}