{
    "epoch": 193,
    "avg_current_window": 689.97987275493,
    "avg_prior_window": 694.8979328484395,
    "inception_score_mean": 1.9944635153243602,
    "inception_score_std": 0.10216424966340817,
    "fid_per_class": {
        "airplane": 847.9949315861502,
        "automobile": 1043.0688266299517,
        "bird": 1187.6972769197923,
        "cat": 914.8241775779718,
        "deer": 1208.082031876805,
        "dog": 958.816634392678,
        "frog": 1257.3807947766172,
        "horse": 1070.6818133102543,
        "ship": 873.3375756811861,
        "truck": 951.7375699426293
    },
    "fid": 632.3641858031276,
    "wasserstein_distance": null,
    "g_loss": null,
    "g_cost": null,
    "d_loss_real": null,
    "d_loss_fake": null
}