{
    "epoch": 108,
    "avg_current_window": 724.2297498044614,
    "avg_prior_window": 734.5418842365955,
    "inception_score_mean": 2.026794755854507,
    "inception_score_std": 0.13074181537059343,
    "fid_per_class": {
        "airplane": 877.2984244990407,
        "automobile": 1117.453894461059,
        "bird": 1252.7954913586907,
        "cat": 919.1557732365851,
        "deer": 1274.2321705611437,
        "dog": 1001.2334080566901,
        "frog": 1281.1510740397907,
        "horse": 1129.5297430212709,
        "ship": 853.8848464690442,
        "truck": 1038.9254805050018
    },
    "fid": 674.8344388139554,
    "wasserstein_distance": null,
    "g_loss": null,
    "g_cost": null,
    "d_loss_real": null,
    "d_loss_fake": null
}