{
    "epoch": 68,
    "avg_current_window": 760.674465912483,
    "avg_prior_window": 779.2222144016606,
    "inception_score_mean": 1.885625403006383,
    "inception_score_std": 0.1305737540650632,
    "fid_per_class": {
        "airplane": 895.1620200643938,
        "automobile": 1103.7511632778785,
        "bird": 1241.2412448026207,
        "cat": 941.2382634152623,
        "deer": 1244.103521660719,
        "dog": 884.336246107178,
        "frog": 1303.6473975864487,
        "horse": 1123.2922661141413,
        "ship": 937.4369678483057,
        "truck": 1020.7698832536413
    },
    "fid": 657.602587406499,
    "wasserstein_distance": null,
    "g_loss": null,
    "g_cost": null,
    "d_loss_real": null,
    "d_loss_fake": null
}