{
    "epoch": 109,
    "avg_current_window": 723.7765818137228,
    "avg_prior_window": 733.4479016427189,
    "inception_score_mean": 1.9944007209845627,
    "inception_score_std": 0.1322648783152393,
    "fid_per_class": {
        "airplane": 856.4428533731927,
        "automobile": 1106.0710264858144,
        "bird": 1209.3066863914905,
        "cat": 906.9955363058826,
        "deer": 1177.68670269605,
        "dog": 979.7264548009096,
        "frog": 1241.5004956816367,
        "horse": 1126.8864082237237,
        "ship": 885.0719632744367,
        "truck": 1015.0606543241015
    },
    "fid": 652.4583319681653,
    "wasserstein_distance": null,
    "g_loss": null,
    "g_cost": null,
    "d_loss_real": null,
    "d_loss_fake": null
}