{
    "epoch": 2,
    "avg_current_window": 1195.2971838079284,
    "avg_prior_window": 2393.5943676158568,
    "inception_score_mean": 1.320537026512961,
    "inception_score_std": 0.028908589973561986,
    "fid_per_class": {
        "airplane": 1497.5472518202514,
        "automobile": 1707.323929578803,
        "bird": 1506.8154899888407,
        "cat": 1785.3499893858725,
        "deer": 1741.7835207393052,
        "dog": 1841.9352313481588,
        "frog": 1934.3805303924642,
        "horse": 1926.0802131453004,
        "ship": 1537.1384657721296,
        "truck": 1573.7836748219245
    },
    "fid": 1454.6674988793216,
    "wasserstein_distance": null,
    "g_loss": null,
    "g_cost": null,
    "d_loss_real": null,
    "d_loss_fake": null
}