{
    "epoch": 80,
    "avg_current_window": 746.9253471526695,
    "avg_prior_window": 760.0238179017858,
    "inception_score_mean": 1.903409400959346,
    "inception_score_std": 0.13176605451985993,
    "fid_per_class": {
        "airplane": 849.8504550104683,
        "automobile": 1105.346134863076,
        "bird": 1222.3216252157822,
        "cat": 899.833185644268,
        "deer": 1268.0524259426181,
        "dog": 862.2611177625108,
        "frog": 1353.374061786576,
        "horse": 1119.6471365521925,
        "ship": 987.8784719932783,
        "truck": 1151.4561075794195
    },
    "fid": 676.0822889257292,
    "wasserstein_distance": null,
    "g_loss": null,
    "g_cost": null,
    "d_loss_real": null,
    "d_loss_fake": null
}