{
    "epoch": 10,
    "avg_current_window": 1146.372040086956,
    "avg_prior_window": 1489.104920021764,
    "inception_score_mean": 1.5485820639713777,
    "inception_score_std": 0.06297485907762126,
    "fid_per_class": {
        "airplane": 1078.1125183227848,
        "automobile": 1444.1589483508646,
        "bird": 1470.0358571352099,
        "cat": 1254.3524078242563,
        "deer": 1491.4832478361138,
        "dog": 1387.6323859001495,
        "frog": 1638.4038475931725,
        "horse": 1387.8779213337325,
        "ship": 1044.5628455607348,
        "truck": 1209.4974035394803
    },
    "fid": 991.9066016399506,
    "wasserstein_distance": null,
    "g_loss": null,
    "g_cost": null,
    "d_loss_real": null,
    "d_loss_fake": null
}