{
    "epoch": 84,
    "avg_current_window": 742.4267338750569,
    "avg_prior_window": 756.3800983824501,
    "inception_score_mean": 1.999085237353895,
    "inception_score_std": 0.12580380432804586,
    "fid_per_class": {
        "airplane": 889.1961348616061,
        "automobile": 1123.5135949952232,
        "bird": 1205.8484932888832,
        "cat": 925.3725119411637,
        "deer": 1245.8448354545608,
        "dog": 916.3714080443395,
        "frog": 1254.3955957839994,
        "horse": 1048.5921127474794,
        "ship": 906.0234960625928,
        "truck": 1037.6542618535243
    },
    "fid": 651.1131456293815,
    "wasserstein_distance": null,
    "g_loss": null,
    "g_cost": null,
    "d_loss_real": null,
    "d_loss_fake": null
}