{
    "epoch": 79,
    "avg_current_window": 748.0466587306984,
    "avg_prior_window": 761.615427037792,
    "inception_score_mean": 1.9507020606590657,
    "inception_score_std": 0.13981679901183927,
    "fid_per_class": {
        "airplane": 868.952839049987,
        "automobile": 1098.5081162427418,
        "bird": 1240.9135797726042,
        "cat": 872.9514846876875,
        "deer": 1365.7650028859646,
        "dog": 940.8239008411745,
        "frog": 1287.7859505445515,
        "horse": 1098.0282728758484,
        "ship": 906.0152323790577,
        "truck": 1052.220761060823
    },
    "fid": 658.3417324883869,
    "wasserstein_distance": null,
    "g_loss": null,
    "g_cost": null,
    "d_loss_real": null,
    "d_loss_fake": null
}