{
    "epoch": 116,
    "avg_current_window": 719.1962467703518,
    "avg_prior_window": 727.899542882533,
    "inception_score_mean": 1.9929002216372182,
    "inception_score_std": 0.1242598248456485,
    "fid_per_class": {
        "airplane": 939.9217281724798,
        "automobile": 1098.6594766365838,
        "bird": 1235.017778246354,
        "cat": 970.8687332860941,
        "deer": 1169.9518061591912,
        "dog": 948.9934425594035,
        "frog": 1249.975620474087,
        "horse": 1004.6090613872493,
        "ship": 910.4086813140956,
        "truck": 1074.8492143183505
    },
    "fid": 659.2051047829373,
    "wasserstein_distance": null,
    "g_loss": null,
    "g_cost": null,
    "d_loss_real": null,
    "d_loss_fake": null
}