{
    "epoch": 65,
    "avg_current_window": 765.1298033091865,
    "avg_prior_window": 784.6688157399453,
    "inception_score_mean": 1.9685137408977025,
    "inception_score_std": 0.15605430161509046,
    "fid_per_class": {
        "airplane": 862.1633403515871,
        "automobile": 1048.5316624871352,
        "bird": 1244.4670398805465,
        "cat": 930.2762891502542,
        "deer": 1300.8171441330737,
        "dog": 900.0597938647363,
        "frog": 1321.1892197452667,
        "horse": 1093.369041516201,
        "ship": 904.3578085598165,
        "truck": 1072.3297069210666
    },
    "fid": 657.8561469568042,
    "wasserstein_distance": null,
    "g_loss": null,
    "g_cost": null,
    "d_loss_real": null,
    "d_loss_fake": null
}