{
    "epoch": 128,
    "avg_current_window": 713.1916297693729,
    "avg_prior_window": 721.2069435066833,
    "inception_score_mean": 2.007432466955097,
    "inception_score_std": 0.1117900513601258,
    "fid_per_class": {
        "airplane": 888.5117713260831,
        "automobile": 1113.75863783175,
        "bird": 1325.0222700570343,
        "cat": 991.1224333598815,
        "deer": 1355.336045392069,
        "dog": 1011.5567136186323,
        "frog": 1390.7778665534884,
        "horse": 1147.03113348641,
        "ship": 891.3265761489232,
        "truck": 1035.7621434954658
    },
    "fid": 725.818543348181,
    "wasserstein_distance": null,
    "g_loss": null,
    "g_cost": null,
    "d_loss_real": null,
    "d_loss_fake": null
}