{
    "epoch": 102,
    "avg_current_window": 728.9960867390428,
    "avg_prior_window": 739.2985351030331,
    "inception_score_mean": 1.9576679908644627,
    "inception_score_std": 0.04677446128914906,
    "fid_per_class": {
        "airplane": 905.7666109208336,
        "automobile": 1096.508273995968,
        "bird": 1247.6829116461677,
        "cat": 929.555929749454,
        "deer": 1274.900045737658,
        "dog": 940.6694629388677,
        "frog": 1279.9716856944515,
        "horse": 1110.2507691869646,
        "ship": 918.2627236188174,
        "truck": 1074.6615184679054
    },
    "fid": 671.0274911875612,
    "wasserstein_distance": null,
    "g_loss": null,
    "g_cost": null,
    "d_loss_real": null,
    "d_loss_fake": null
}