{
    "epoch": 23,
    "avg_current_window": 928.0396731231599,
    "avg_prior_window": 1026.4639432350677,
    "inception_score_mean": 1.8078262566766994,
    "inception_score_std": 0.12257415994796832,
    "fid_per_class": {
        "airplane": 890.7151937996039,
        "automobile": 1203.150492029246,
        "bird": 1221.570660415151,
        "cat": 954.4725321668601,
        "deer": 1121.4480440008913,
        "dog": 993.9969908455886,
        "frog": 1239.9667623085186,
        "horse": 1142.3838959733177,
        "ship": 851.6543459069395,
        "truck": 1156.1568683494124
    },
    "fid": 666.9823365478444,
    "wasserstein_distance": null,
    "g_loss": null,
    "g_cost": null,
    "d_loss_real": null,
    "d_loss_fake": null
}