{
    "epoch": 51,
    "avg_current_window": 794.9862578577008,
    "avg_prior_window": 824.0155630478238,
    "inception_score_mean": 1.9560099764941565,
    "inception_score_std": 0.11238989694928417,
    "fid_per_class": {
        "airplane": 861.5142562990384,
        "automobile": 1183.6273982507878,
        "bird": 1190.693932202945,
        "cat": 886.1727980340816,
        "deer": 1151.517889554861,
        "dog": 949.3738984113309,
        "frog": 1231.2753554747271,
        "horse": 1134.4917111479745,
        "ship": 931.1183774850836,
        "truck": 1104.0702907801797
    },
    "fid": 662.0255506067779,
    "wasserstein_distance": null,
    "g_loss": null,
    "g_cost": null,
    "d_loss_real": null,
    "d_loss_fake": null
}