{
    "epoch": 129,
    "avg_current_window": 713.2895128203714,
    "avg_prior_window": 720.376235746078,
    "inception_score_mean": 1.9265843248576826,
    "inception_score_std": 0.06974390072246701,
    "fid_per_class": {
        "airplane": 846.2444619973471,
        "automobile": 1118.3241522701087,
        "bird": 1187.0581251732183,
        "cat": 941.5607710783021,
        "deer": 1252.9015760162752,
        "dog": 977.6413743132658,
        "frog": 1268.639284596953,
        "horse": 1075.2521567315894,
        "ship": 903.5510411724943,
        "truck": 1018.106154177515
    },
    "fid": 655.7044367340371,
    "wasserstein_distance": null,
    "g_loss": null,
    "g_cost": null,
    "d_loss_real": null,
    "d_loss_fake": null
}