{
    "epoch": 104,
    "avg_current_window": 727.4789815035513,
    "avg_prior_window": 737.6556511753702,
    "inception_score_mean": 1.994947511320484,
    "inception_score_std": 0.16229795863309068,
    "fid_per_class": {
        "airplane": 897.7806533051107,
        "automobile": 1042.0298133853212,
        "bird": 1138.0392307943314,
        "cat": 927.8923953205766,
        "deer": 1156.466926681427,
        "dog": 933.0498550487919,
        "frog": 1181.0694640635556,
        "horse": 1063.0032871095398,
        "ship": 853.2116968745381,
        "truck": 1030.6676206619422
    },
    "fid": 620.7676944734206,
    "wasserstein_distance": null,
    "g_loss": null,
    "g_cost": null,
    "d_loss_real": null,
    "d_loss_fake": null
}