{
    "epoch": 73,
    "avg_current_window": 753.2715029331814,
    "avg_prior_window": 770.3450921978728,
    "inception_score_mean": 1.893624763455426,
    "inception_score_std": 0.13382047938144143,
    "fid_per_class": {
        "airplane": 917.2552089710283,
        "automobile": 1140.4383942951517,
        "bird": 1239.7515858508232,
        "cat": 899.853863319825,
        "deer": 1250.35722520254,
        "dog": 898.7276178337139,
        "frog": 1249.6390380415407,
        "horse": 1142.8113573964274,
        "ship": 922.7763655345528,
        "truck": 1076.211140328031
    },
    "fid": 669.8923639482005,
    "wasserstein_distance": null,
    "g_loss": null,
    "g_cost": null,
    "d_loss_real": null,
    "d_loss_fake": null
}