{
    "epoch": 107,
    "avg_current_window": 725.0561265557409,
    "avg_prior_window": 735.5747876330385,
    "inception_score_mean": 1.939361937393652,
    "inception_score_std": 0.10875980649281121,
    "fid_per_class": {
        "airplane": 812.4913278901112,
        "automobile": 1038.09927932572,
        "bird": 1255.0601686366406,
        "cat": 895.5186245435561,
        "deer": 1141.63985467763,
        "dog": 919.7185187784776,
        "frog": 1252.5630991519065,
        "horse": 1087.2348062802744,
        "ship": 940.5923953969213,
        "truck": 995.5667488469799
    },
    "fid": 635.8074374175567,
    "wasserstein_distance": null,
    "g_loss": null,
    "g_cost": null,
    "d_loss_real": null,
    "d_loss_fake": null
}