{
    "epoch": 115,
    "avg_current_window": 719.8945830053894,
    "avg_prior_window": 728.8557432722594,
    "inception_score_mean": 2.016520294115218,
    "inception_score_std": 0.11364053240646954,
    "fid_per_class": {
        "airplane": 823.8367790493828,
        "automobile": 1134.1754008813264,
        "bird": 1212.1335776766352,
        "cat": 899.0188067458394,
        "deer": 1176.075821020088,
        "dog": 972.5322274393269,
        "frog": 1295.0388579309283,
        "horse": 1063.1102603586996,
        "ship": 849.3777261902112,
        "truck": 1010.0601179289918
    },
    "fid": 638.8875797410263,
    "wasserstein_distance": null,
    "g_loss": null,
    "g_cost": null,
    "d_loss_real": null,
    "d_loss_fake": null
}