{
    "epoch": 101,
    "avg_current_window": 729.6978670528947,
    "avg_prior_window": 739.5727610534869,
    "inception_score_mean": 1.9692675962018598,
    "inception_score_std": 0.15280801991763715,
    "fid_per_class": {
        "airplane": 833.19611861469,
        "automobile": 1074.4625623316565,
        "bird": 1164.877291026117,
        "cat": 920.4409036031104,
        "deer": 1268.6814968377994,
        "dog": 924.8497193804615,
        "frog": 1339.943865088144,
        "horse": 1128.6463787634316,
        "ship": 887.9124940822907,
        "truck": 1057.9409053681502
    },
    "fid": 658.1162750400017,
    "wasserstein_distance": null,
    "g_loss": null,
    "g_cost": null,
    "d_loss_real": null,
    "d_loss_fake": null
}