{
    "epoch": 17,
    "avg_current_window": 997.4818601983151,
    "avg_prior_window": 1161.8277358231737,
    "inception_score_mean": 1.7055247961621904,
    "inception_score_std": 0.12247073908228583,
    "fid_per_class": {
        "airplane": 959.9399221805777,
        "automobile": 1272.64447719153,
        "bird": 1280.6298253194361,
        "cat": 973.4992306029385,
        "deer": 1294.8227113399073,
        "dog": 995.6019846829385,
        "frog": 1358.1016660884366,
        "horse": 1234.507329535345,
        "ship": 898.4271846367035,
        "truck": 1136.283654654238
    },
    "fid": 752.7260507121173,
    "wasserstein_distance": null,
    "g_loss": null,
    "g_cost": null,
    "d_loss_real": null,
    "d_loss_fake": null
}