{
    "epoch": 98,
    "avg_current_window": 731.754672499941,
    "avg_prior_window": 741.4396679358481,
    "inception_score_mean": 1.9681054962818691,
    "inception_score_std": 0.08640375429901966,
    "fid_per_class": {
        "airplane": 841.0350059498908,
        "automobile": 1027.69852176178,
        "bird": 1219.9570955727866,
        "cat": 922.0861176601298,
        "deer": 1325.5607901426426,
        "dog": 906.8773699236501,
        "frog": 1289.544164129883,
        "horse": 1141.0518293141913,
        "ship": 852.2651804541428,
        "truck": 1030.1521242550536
    },
    "fid": 649.5106603521112,
    "wasserstein_distance": null,
    "g_loss": null,
    "g_cost": null,
    "d_loss_real": null,
    "d_loss_fake": null
}