{
    "epoch": 180,
    "avg_current_window": 693.9477936377557,
    "avg_prior_window": 699.0775239896634,
    "inception_score_mean": 1.9364554618853105,
    "inception_score_std": 0.11933464222234728,
    "fid_per_class": {
        "airplane": 845.1211080492682,
        "automobile": 1121.247409916573,
        "bird": 1181.5813594120332,
        "cat": 917.4167563207945,
        "deer": 1221.7708024740327,
        "dog": 967.322143857087,
        "frog": 1288.6940581904544,
        "horse": 1088.3143416323785,
        "ship": 925.8475311647969,
        "truck": 994.84254296791
    },
    "fid": 652.2447289248973,
    "wasserstein_distance": null,
    "g_loss": null,
    "g_cost": null,
    "d_loss_real": null,
    "d_loss_fake": null
}