{
    "epoch": 126,
    "avg_current_window": 714.2318634750126,
    "avg_prior_window": 722.1008973345612,
    "inception_score_mean": 2.0159248201835616,
    "inception_score_std": 0.08401557749596265,
    "fid_per_class": {
        "airplane": 813.2997079291438,
        "automobile": 1091.3839298976025,
        "bird": 1217.8722190253561,
        "cat": 927.9811569427234,
        "deer": 1250.07206718445,
        "dog": 998.5503627038935,
        "frog": 1370.9448858651526,
        "horse": 1121.2424130190275,
        "ship": 825.3125207835441,
        "truck": 961.3397010391925
    },
    "fid": 660.5429818000628,
    "wasserstein_distance": null,
    "g_loss": null,
    "g_cost": null,
    "d_loss_real": null,
    "d_loss_fake": null
}