{
    "epoch": 137,
    "avg_current_window": 709.4103966777839,
    "avg_prior_window": 716.8240022536953,
    "inception_score_mean": 1.9588046422724807,
    "inception_score_std": 0.0692161272657687,
    "fid_per_class": {
        "airplane": 817.4328753529212,
        "automobile": 1106.0792111857731,
        "bird": 1216.3971436658485,
        "cat": 951.4838363528902,
        "deer": 1214.8994250946212,
        "dog": 951.3284444428268,
        "frog": 1218.6248225576658,
        "horse": 1130.0967411817574,
        "ship": 827.897037268779,
        "truck": 1010.053796555859
    },
    "fid": 639.115099363733,
    "wasserstein_distance": null,
    "g_loss": null,
    "g_cost": null,
    "d_loss_real": null,
    "d_loss_fake": null
}