{
    "epoch": 52,
    "avg_current_window": 792.4293211797984,
    "avg_prior_window": 819.5231841930445,
    "inception_score_mean": 1.9977996526867206,
    "inception_score_std": 0.1269089678368067,
    "fid_per_class": {
        "airplane": 833.614401694784,
        "automobile": 1167.5231544973049,
        "bird": 1119.084353373803,
        "cat": 857.7773704528446,
        "deer": 1154.9354659099636,
        "dog": 948.8899121513487,
        "frog": 1196.6273516997055,
        "horse": 1077.9662455023804,
        "ship": 863.6849387659654,
        "truck": 1009.3235701644605
    },
    "fid": 611.1755083090735,
    "wasserstein_distance": null,
    "g_loss": null,
    "g_cost": null,
    "d_loss_real": null,
    "d_loss_fake": null
}