{
    "epoch": 120,
    "avg_current_window": 717.2036055904395,
    "avg_prior_window": 725.4501271770505,
    "inception_score_mean": 1.9717891976382393,
    "inception_score_std": 0.14263055819723341,
    "fid_per_class": {
        "airplane": 885.4524840745157,
        "automobile": 1134.2915090921358,
        "bird": 1289.021653614518,
        "cat": 996.1277349840957,
        "deer": 1391.8795198927492,
        "dog": 1014.4294315705467,
        "frog": 1398.1006630875313,
        "horse": 1175.7649764422238,
        "ship": 855.5779999233328,
        "truck": 1009.4013218506909
    },
    "fid": 714.6072629637232,
    "wasserstein_distance": null,
    "g_loss": null,
    "g_cost": null,
    "d_loss_real": null,
    "d_loss_fake": null
}