{
    "epoch": 161,
    "avg_current_window": 699.3185548334147,
    "avg_prior_window": 705.6191005811539,
    "inception_score_mean": 1.993478704637114,
    "inception_score_std": 0.18349130079089976,
    "fid_per_class": {
        "airplane": 852.7569667399279,
        "automobile": 1076.3717180218255,
        "bird": 1221.45988562622,
        "cat": 947.263166016983,
        "deer": 1294.8076106070164,
        "dog": 969.9813086461484,
        "frog": 1344.906828183272,
        "horse": 1084.6259970673,
        "ship": 824.4063155931225,
        "truck": 1005.3735673818944
    },
    "fid": 658.3755669442218,
    "wasserstein_distance": null,
    "g_loss": null,
    "g_cost": null,
    "d_loss_real": null,
    "d_loss_fake": null
}