{
    "epoch": 199,
    "avg_current_window": 688.5940515183615,
    "avg_prior_window": 693.2020947332222,
    "inception_score_mean": 2.0214884788662824,
    "inception_score_std": 0.12815211750533617,
    "fid_per_class": {
        "airplane": 794.4580333019271,
        "automobile": 1048.446819582476,
        "bird": 1163.6525475671954,
        "cat": 928.152858729063,
        "deer": 1249.6753324562765,
        "dog": 941.0615196708061,
        "frog": 1182.1797693970298,
        "horse": 1088.8220994717299,
        "ship": 872.0346803119602,
        "truck": 975.1135836693799
    },
    "fid": 624.8220931340466,
    "wasserstein_distance": null,
    "g_loss": null,
    "g_cost": null,
    "d_loss_real": null,
    "d_loss_fake": null
}