{
    "epoch": 48,
    "avg_current_window": 802.449784522356,
    "avg_prior_window": 835.0823604350383,
    "inception_score_mean": 1.8992827388373907,
    "inception_score_std": 0.11518315632538202,
    "fid_per_class": {
        "airplane": 934.6249500333091,
        "automobile": 1185.923190900397,
        "bird": 1235.6121374801155,
        "cat": 907.0646601090086,
        "deer": 1302.356991600293,
        "dog": 974.881018387066,
        "frog": 1331.6928026992382,
        "horse": 1210.7740507347212,
        "ship": 874.5474297207777,
        "truck": 1065.5326485346243
    },
    "fid": 692.4376032034628,
    "wasserstein_distance": null,
    "g_loss": null,
    "g_cost": null,
    "d_loss_real": null,
    "d_loss_fake": null
}