{
    "epoch": 168,
    "avg_current_window": 697.0788450506876,
    "avg_prior_window": 702.3176449798221,
    "inception_score_mean": 1.959057913189207,
    "inception_score_std": 0.11688217528020284,
    "fid_per_class": {
        "airplane": 894.2024222838586,
        "automobile": 1094.5669897823698,
        "bird": 1175.7925237231852,
        "cat": 884.7700769239642,
        "deer": 1255.0021124496404,
        "dog": 1011.4690948408056,
        "frog": 1241.6404058391486,
        "horse": 1050.7789187199146,
        "ship": 890.6488317775409,
        "truck": 1013.2758183492467
    },
    "fid": 645.322886519662,
    "wasserstein_distance": null,
    "g_loss": null,
    "g_cost": null,
    "d_loss_real": null,
    "d_loss_fake": null
}