{
    "epoch": 58,
    "avg_current_window": 776.9278146084747,
    "avg_prior_window": 802.443487017877,
    "inception_score_mean": 1.9909787169568738,
    "inception_score_std": 0.13762745910733187,
    "fid_per_class": {
        "airplane": 903.2564150328121,
        "automobile": 1000.9094516318592,
        "bird": 1240.791754845708,
        "cat": 934.5926173020571,
        "deer": 1353.990914671693,
        "dog": 1046.8375755634916,
        "frog": 1373.239343252169,
        "horse": 1134.1624225154098,
        "ship": 821.1224827415072,
        "truck": 953.3255481570554
    },
    "fid": 672.6788270535055,
    "wasserstein_distance": null,
    "g_loss": null,
    "g_cost": null,
    "d_loss_real": null,
    "d_loss_fake": null
}