{
    "epoch": 191,
    "avg_current_window": 690.9438308606055,
    "avg_prior_window": 695.5798627128404,
    "inception_score_mean": 2.0555285675564927,
    "inception_score_std": 0.08723295978247822,
    "fid_per_class": {
        "airplane": 798.164688242905,
        "automobile": 1100.6127216335644,
        "bird": 1202.4696444965302,
        "cat": 933.3042654164266,
        "deer": 1287.2326547014918,
        "dog": 902.5189158414701,
        "frog": 1165.2239105140964,
        "horse": 1043.5853096749813,
        "ship": 889.0192775281188,
        "truck": 1037.1585109096281
    },
    "fid": 634.5652363446655,
    "wasserstein_distance": null,
    "g_loss": null,
    "g_cost": null,
    "d_loss_real": null,
    "d_loss_fake": null
}