{
    "epoch": 3,
    "avg_current_window": 485.88916629310717,
    "avg_prior_window": 2392.5943676158568,
    "inception_score_mean": 1.216845140452917,
    "inception_score_std": 0.0675233878170781,
    "fid_per_class": {
        "airplane": 1659.6904365031705,
        "automobile": 1665.69590529391,
        "bird": 1396.6360198122393,
        "cat": 1492.2606529245995,
        "deer": 1617.392666848239,
        "dog": 1571.9255375021642,
        "frog": 1693.8928810019427,
        "horse": 1770.7615977116436,
        "ship": 1798.8091760420245,
        "truck": 1759.245031633229
    },
    "fid": 1376.8696674091814,
    "wasserstein_distance": null,
    "g_loss": null,
    "g_cost": null,
    "d_loss_real": null,
    "d_loss_fake": null
}