{
    "epoch": 93,
    "avg_current_window": 734.6126701727521,
    "avg_prior_window": 745.2892413932431,
    "inception_score_mean": 1.9889222900558632,
    "inception_score_std": 0.08990586594601523,
    "fid_per_class": {
        "airplane": 793.0515596019366,
        "automobile": 1087.7082533124114,
        "bird": 1246.1476275470898,
        "cat": 906.4620095848821,
        "deer": 1189.8018414474222,
        "dog": 904.323139912084,
        "frog": 1241.1113498297814,
        "horse": 1094.1089239936532,
        "ship": 915.0596172460193,
        "truck": 984.3743152018089
    },
    "fid": 634.9107919679268,
    "wasserstein_distance": null,
    "g_loss": null,
    "g_cost": null,
    "d_loss_real": null,
    "d_loss_fake": null
}