{
    "epoch": 133,
    "avg_current_window": 711.4343481014118,
    "avg_prior_window": 718.8620871392806,
    "inception_score_mean": 1.9853988371489026,
    "inception_score_std": 0.13948463174235737,
    "fid_per_class": {
        "airplane": 861.9739299963071,
        "automobile": 1057.7985788266335,
        "bird": 1256.5042752069526,
        "cat": 992.1698576407698,
        "deer": 1282.5114697543424,
        "dog": 954.936381744549,
        "frog": 1410.956321805133,
        "horse": 1120.678172778113,
        "ship": 862.2158335775237,
        "truck": 1081.4781389814814
    },
    "fid": 689.9625432538837,
    "wasserstein_distance": null,
    "g_loss": null,
    "g_cost": null,
    "d_loss_real": null,
    "d_loss_fake": null
}