{
    "epoch": 178,
    "avg_current_window": 694.7430631731303,
    "avg_prior_window": 699.4835211286676,
    "inception_score_mean": 2.0476135246369855,
    "inception_score_std": 0.15282521292089704,
    "fid_per_class": {
        "airplane": 852.698188158111,
        "automobile": 984.882635430366,
        "bird": 1177.2935911144373,
        "cat": 950.404102586584,
        "deer": 1256.1857774529544,
        "dog": 1010.6871487060915,
        "frog": 1209.388235075823,
        "horse": 982.3254170476553,
        "ship": 875.4438110070694,
        "truck": 954.7266605751436
    },
    "fid": 613.4432480679812,
    "wasserstein_distance": null,
    "g_loss": null,
    "g_cost": null,
    "d_loss_real": null,
    "d_loss_fake": null
}