{
    "epoch": 162,
    "avg_current_window": 699.0658203402716,
    "avg_prior_window": 705.1950105408249,
    "inception_score_mean": 2.000216617439156,
    "inception_score_std": 0.1355462277207833,
    "fid_per_class": {
        "airplane": 855.47314497651,
        "automobile": 1027.3990864339316,
        "bird": 1161.666411539214,
        "cat": 866.9428791450368,
        "deer": 1164.2481700850803,
        "dog": 883.8490191056635,
        "frog": 1145.6222276821813,
        "horse": 1053.33032629651,
        "ship": 893.8865272709045,
        "truck": 978.9724539074706
    },
    "fid": 591.1340155366069,
    "wasserstein_distance": null,
    "g_loss": null,
    "g_cost": null,
    "d_loss_real": null,
    "d_loss_fake": null
}