{
    "epoch": 197,
    "avg_current_window": 689.0624016514266,
    "avg_prior_window": 693.5735179255286,
    "inception_score_mean": 1.9718246355917681,
    "inception_score_std": 0.10684666768458612,
    "fid_per_class": {
        "airplane": 900.9523061284851,
        "automobile": 1113.355850069945,
        "bird": 1163.570931053705,
        "cat": 877.8259856541647,
        "deer": 1142.524162030477,
        "dog": 928.5805076470521,
        "frog": 1166.6323971369382,
        "horse": 1092.2554775688425,
        "ship": 971.67495246516,
        "truck": 987.4568637597882
    },
    "fid": 637.4963740257705,
    "wasserstein_distance": null,
    "g_loss": null,
    "g_cost": null,
    "d_loss_real": null,
    "d_loss_fake": null
}