{
    "epoch": 19,
    "avg_current_window": 972.4395251700643,
    "avg_prior_window": 1104.7118557311157,
    "inception_score_mean": 1.6654954840739868,
    "inception_score_std": 0.1095413022538806,
    "fid_per_class": {
        "airplane": 929.4572601721682,
        "automobile": 1236.97570304061,
        "bird": 1326.269051983778,
        "cat": 998.9783746418608,
        "deer": 1361.1865672055194,
        "dog": 1150.7679592817028,
        "frog": 1329.40663096242,
        "horse": 1272.5662542878836,
        "ship": 856.7017874323992,
        "truck": 1101.1382112255355
    },
    "fid": 789.434397747375,
    "wasserstein_distance": null,
    "g_loss": null,
    "g_cost": null,
    "d_loss_real": null,
    "d_loss_fake": null
}