{
    "epoch": 74,
    "avg_current_window": 752.1447578117627,
    "avg_prior_window": 768.4621704059806,
    "inception_score_mean": 1.9871918173575758,
    "inception_score_std": 0.10181747597320855,
    "fid_per_class": {
        "airplane": 915.197460903134,
        "automobile": 1104.1676998841992,
        "bird": 1291.842480716811,
        "cat": 924.5398857047142,
        "deer": 1371.4102030054337,
        "dog": 956.1333698950054,
        "frog": 1399.354419493055,
        "horse": 1150.0081313740573,
        "ship": 895.2501107442387,
        "truck": 1047.7002782762684
    },
    "fid": 700.8295227261626,
    "wasserstein_distance": null,
    "g_loss": null,
    "g_cost": null,
    "d_loss_real": null,
    "d_loss_fake": null
}