{
    "epoch": 90,
    "avg_current_window": 735.9851271155179,
    "avg_prior_window": 748.7060527526498,
    "inception_score_mean": 1.990186879522724,
    "inception_score_std": 0.11292834992338856,
    "fid_per_class": {
        "airplane": 905.5951362464991,
        "automobile": 1079.5803337069476,
        "bird": 1249.2690817830162,
        "cat": 968.76740573239,
        "deer": 1370.0696881738456,
        "dog": 986.3242311310928,
        "frog": 1396.2886512140208,
        "horse": 1171.2707388468698,
        "ship": 970.167581466723,
        "truck": 1056.2861904782224
    },
    "fid": 707.9217663974412,
    "wasserstein_distance": null,
    "g_loss": null,
    "g_cost": null,
    "d_loss_real": null,
    "d_loss_fake": null
}