{
    "epoch": 170,
    "avg_current_window": 696.4427432957077,
    "avg_prior_window": 702.0730123230915,
    "inception_score_mean": 1.9912978472711576,
    "inception_score_std": 0.06411284814432039,
    "fid_per_class": {
        "airplane": 893.6167937135183,
        "automobile": 1099.7673153027008,
        "bird": 1283.144673836528,
        "cat": 965.7218550794613,
        "deer": 1381.1714789007085,
        "dog": 961.1451256154282,
        "frog": 1262.2122285182852,
        "horse": 1168.4807781255695,
        "ship": 919.9917274342088,
        "truck": 989.6622203956824
    },
    "fid": 690.1812192227457,
    "wasserstein_distance": null,
    "g_loss": null,
    "g_cost": null,
    "d_loss_real": null,
    "d_loss_fake": null
}