{
    "epoch": 5,
    "avg_current_window": 1259.0255355909262,
    "avg_prior_window": 2390.5943676158568,
    "inception_score_mean": 1.5055141411308948,
    "inception_score_std": 0.06762447117150812,
    "fid_per_class": {
        "airplane": 1176.2548106469771,
        "automobile": 1622.9879353582237,
        "bird": 1458.3165034288388,
        "cat": 1509.4678369295946,
        "deer": 1457.2141199062041,
        "dog": 1454.9853482969743,
        "frog": 1603.1850069685247,
        "horse": 1479.529130965771,
        "ship": 1269.3217974329482,
        "truck": 1312.6721576639125
    },
    "fid": 1150.396922154188,
    "wasserstein_distance": null,
    "g_loss": null,
    "g_cost": null,
    "d_loss_real": null,
    "d_loss_fake": null
}