{
    "epoch": 192,
    "avg_current_window": 690.6501923475017,
    "avg_prior_window": 695.4370561378555,
    "inception_score_mean": 2.075309868524834,
    "inception_score_std": 0.15756490545212118,
    "fid_per_class": {
        "airplane": 790.7282665990865,
        "automobile": 1020.9238690715226,
        "bird": 1118.6475842861346,
        "cat": 862.8324461605068,
        "deer": 1151.3500823762201,
        "dog": 921.6972099570205,
        "frog": 1093.5615502019755,
        "horse": 998.577002332011,
        "ship": 773.5354458593215,
        "truck": 905.6534357155407
    },
    "fid": 561.2785109811609,
    "wasserstein_distance": null,
    "g_loss": null,
    "g_cost": null,
    "d_loss_real": null,
    "d_loss_fake": null
}