{
    "epoch": 45,
    "avg_current_window": 812.5563981338345,
    "avg_prior_window": 847.8131685220554,
    "inception_score_mean": 1.941727188144678,
    "inception_score_std": 0.11436409805189003,
    "fid_per_class": {
        "airplane": 935.9211190091582,
        "automobile": 1186.8950645335744,
        "bird": 1190.610595923296,
        "cat": 934.7753431832903,
        "deer": 1220.2276837790455,
        "dog": 982.9156975136218,
        "frog": 1340.1360796462552,
        "horse": 1204.2353466415038,
        "ship": 906.8635425345194,
        "truck": 1163.838422073292
    },
    "fid": 709.8989988523286,
    "wasserstein_distance": null,
    "g_loss": null,
    "g_cost": null,
    "d_loss_real": null,
    "d_loss_fake": null
}