{
    "epoch": 114,
    "avg_current_window": 720.2279491121046,
    "avg_prior_window": 729.7624380703115,
    "inception_score_mean": 1.9644459590990144,
    "inception_score_std": 0.13885727650233334,
    "fid_per_class": {
        "airplane": 918.0124846046791,
        "automobile": 1099.330131980402,
        "bird": 1234.8776545173532,
        "cat": 938.7114105222113,
        "deer": 1296.6972899432549,
        "dog": 980.6901560374472,
        "frog": 1315.2420387695097,
        "horse": 1095.9176037762336,
        "ship": 926.3147687616122,
        "truck": 1007.8769285061967
    },
    "fid": 681.8908468398654,
    "wasserstein_distance": null,
    "g_loss": null,
    "g_cost": null,
    "d_loss_real": null,
    "d_loss_fake": null
}