{
    "epoch": 159,
    "avg_current_window": 700.2509529955674,
    "avg_prior_window": 707.2061549180538,
    "inception_score_mean": 1.9809510310475011,
    "inception_score_std": 0.11122299705255119,
    "fid_per_class": {
        "airplane": 887.455101757867,
        "automobile": 1053.8924797683414,
        "bird": 1198.4874215280443,
        "cat": 897.8864347353933,
        "deer": 1218.2816478106968,
        "dog": 968.3791760491084,
        "frog": 1186.1892046185515,
        "horse": 1023.5113903967341,
        "ship": 879.3969898485329,
        "truck": 982.4417336701471
    },
    "fid": 621.3971338246853,
    "wasserstein_distance": null,
    "g_loss": null,
    "g_cost": null,
    "d_loss_real": null,
    "d_loss_fake": null
}