{
    "epoch": 47,
    "avg_current_window": 806.4833170255297,
    "avg_prior_window": 839.7428968745158,
    "inception_score_mean": 1.9498263366075996,
    "inception_score_std": 0.1988207174181145,
    "fid_per_class": {
        "airplane": 865.7297951396297,
        "automobile": 1120.5246702136026,
        "bird": 1181.4680859564623,
        "cat": 870.8249897823308,
        "deer": 1145.3443737361495,
        "dog": 896.0337782109971,
        "frog": 1204.8357715192024,
        "horse": 1076.5562846700648,
        "ship": 837.3541742488703,
        "truck": 1035.1460152499158
    },
    "fid": 612.8737568731938,
    "wasserstein_distance": null,
    "g_loss": null,
    "g_cost": null,
    "d_loss_real": null,
    "d_loss_fake": null
}