{
    "epoch": 175,
    "avg_current_window": 695.1618213384928,
    "avg_prior_window": 700.5026328205474,
    "inception_score_mean": 1.9528063746658624,
    "inception_score_std": 0.11851261947282501,
    "fid_per_class": {
        "airplane": 831.7303164812399,
        "automobile": 1115.9877754079334,
        "bird": 1265.968728157348,
        "cat": 927.942362229878,
        "deer": 1381.996851725802,
        "dog": 983.9989697626913,
        "frog": 1358.6931375868057,
        "horse": 1127.6369975167172,
        "ship": 877.9495516362243,
        "truck": 1020.5222004053587
    },
    "fid": 685.2479639548678,
    "wasserstein_distance": null,
    "g_loss": null,
    "g_cost": null,
    "d_loss_real": null,
    "d_loss_fake": null
}