{
    "epoch": 20,
    "avg_current_window": 963.2892687989299,
    "avg_prior_window": 1080.3268616797552,
    "inception_score_mean": 1.6979333504862737,
    "inception_score_std": 0.13405636194849352,
    "fid_per_class": {
        "airplane": 940.6747463910033,
        "automobile": 1202.4788481530368,
        "bird": 1242.7737441614809,
        "cat": 955.3355708483729,
        "deer": 1189.1830148074027,
        "dog": 1103.1586834827704,
        "frog": 1214.8811927649026,
        "horse": 1176.0184026837824,
        "ship": 879.8037068495582,
        "truck": 1149.939636385452
    },
    "fid": 703.9959547318152,
    "wasserstein_distance": null,
    "g_loss": null,
    "g_cost": null,
    "d_loss_real": null,
    "d_loss_fake": null
}