{
    "epoch": 131,
    "avg_current_window": 712.6577884305594,
    "avg_prior_window": 719.4742680924734,
    "inception_score_mean": 2.0254001476347385,
    "inception_score_std": 0.13221940717906625,
    "fid_per_class": {
        "airplane": 855.7063158504819,
        "automobile": 1057.1423048354075,
        "bird": 1242.4635370905294,
        "cat": 893.8417448545557,
        "deer": 1118.3509745246179,
        "dog": 973.1598799239326,
        "frog": 1198.9484768146351,
        "horse": 1056.1135940822917,
        "ship": 893.9680508001729,
        "truck": 1023.6506767786009
    },
    "fid": 630.311535725511,
    "wasserstein_distance": null,
    "g_loss": null,
    "g_cost": null,
    "d_loss_real": null,
    "d_loss_fake": null
}