{
    "epoch": 63,
    "avg_current_window": 768.5687224793635,
    "avg_prior_window": 788.525725419742,
    "inception_score_mean": 1.9441570625844222,
    "inception_score_std": 0.15743506761951434,
    "fid_per_class": {
        "airplane": 884.8522780395306,
        "automobile": 1074.296226229756,
        "bird": 1264.1780907959815,
        "cat": 955.003466737008,
        "deer": 1211.6112963222324,
        "dog": 1014.2356467385995,
        "frog": 1306.8358590847358,
        "horse": 1147.476046761261,
        "ship": 883.2021813742323,
        "truck": 1006.0247600522816
    },
    "fid": 671.1699911047197,
    "wasserstein_distance": null,
    "g_loss": null,
    "g_cost": null,
    "d_loss_real": null,
    "d_loss_fake": null
}