{
    "epoch": 105,
    "avg_current_window": 726.4626835318359,
    "avg_prior_window": 736.9948457234236,
    "inception_score_mean": 1.9124114971802304,
    "inception_score_std": 0.13948731898040903,
    "fid_per_class": {
        "airplane": 889.2073020831115,
        "automobile": 1117.807218542173,
        "bird": 1259.8341242561382,
        "cat": 986.7655911271103,
        "deer": 1286.6350870625545,
        "dog": 955.4741773673495,
        "frog": 1332.5670890779656,
        "horse": 1167.3290295797867,
        "ship": 865.7257372279965,
        "truck": 1055.671820847207
    },
    "fid": 695.0110822415276,
    "wasserstein_distance": null,
    "g_loss": null,
    "g_cost": null,
    "d_loss_real": null,
    "d_loss_fake": null
}