{
    "epoch": 158,
    "avg_current_window": 700.7317509804399,
    "avg_prior_window": 707.4307168722638,
    "inception_score_mean": 2.0126479660123424,
    "inception_score_std": 0.09137379741120241,
    "fid_per_class": {
        "airplane": 828.0328794952757,
        "automobile": 1093.8455734422932,
        "bird": 1178.144947925186,
        "cat": 904.157146307682,
        "deer": 1213.062390855508,
        "dog": 939.1973277280466,
        "frog": 1192.820917083772,
        "horse": 1059.7247483869187,
        "ship": 874.1633763415018,
        "truck": 952.366861622985
    },
    "fid": 624.2848713857103,
    "wasserstein_distance": null,
    "g_loss": null,
    "g_cost": null,
    "d_loss_real": null,
    "d_loss_fake": null
}