{
    "epoch": 110,
    "avg_current_window": 723.1282340878541,
    "avg_prior_window": 733.0818366960409,
    "inception_score_mean": 1.9712835760211942,
    "inception_score_std": 0.08856717272538872,
    "fid_per_class": {
        "airplane": 802.4212140604325,
        "automobile": 1103.2583470780928,
        "bird": 1148.9157163025202,
        "cat": 882.3506621393917,
        "deer": 1160.1016366278209,
        "dog": 952.5582736975105,
        "frog": 1278.9386529730978,
        "horse": 1004.1198946967037,
        "ship": 910.2621164812174,
        "truck": 1103.8064718798455
    },
    "fid": 630.0260102845714,
    "wasserstein_distance": null,
    "g_loss": null,
    "g_cost": null,
    "d_loss_real": null,
    "d_loss_fake": null
}