{
    "epoch": 132,
    "avg_current_window": 712.033953182794,
    "avg_prior_window": 718.8073118935412,
    "inception_score_mean": 2.016941493234361,
    "inception_score_std": 0.12124570621784946,
    "fid_per_class": {
        "airplane": 859.8793705497424,
        "automobile": 1081.3265651874258,
        "bird": 1212.612995177969,
        "cat": 923.7883978830384,
        "deer": 1258.6685697620003,
        "dog": 937.3787137115805,
        "frog": 1238.5946725681533,
        "horse": 1063.9260661516328,
        "ship": 824.9124213651849,
        "truck": 975.5225736221128
    },
    "fid": 632.2864773589763,
    "wasserstein_distance": null,
    "g_loss": null,
    "g_cost": null,
    "d_loss_real": null,
    "d_loss_fake": null
}