{
    "epoch": 71,
    "avg_current_window": 755.5832065643117,
    "avg_prior_window": 773.4502197325987,
    "inception_score_mean": 1.9624728805843907,
    "inception_score_std": 0.07896598171759492,
    "fid_per_class": {
        "airplane": 844.6739914366669,
        "automobile": 1119.1043514706564,
        "bird": 1182.1147155188517,
        "cat": 879.4700692783526,
        "deer": 1192.182950687169,
        "dog": 898.4374022724983,
        "frog": 1285.5716172250552,
        "horse": 1125.607117563694,
        "ship": 857.5236475539576,
        "truck": 1053.5620332326766
    },
    "fid": 636.8444719905135,
    "wasserstein_distance": null,
    "g_loss": null,
    "g_cost": null,
    "d_loss_real": null,
    "d_loss_fake": null
}