{
    "epoch": 7,
    "avg_current_window": 1218.2218734855069,
    "avg_prior_window": 2.0,
    "inception_score_mean": 1.616115868841952,
    "inception_score_std": 0.08766844437106543,
    "fid_per_class": {
        "airplane": 1034.533112631007,
        "automobile": 1254.3843763952073,
        "bird": 1284.6745445064894,
        "cat": 1177.6243941398716,
        "deer": 1202.0674951021215,
        "dog": 1330.1803565978978,
        "frog": 1474.3576202233226,
        "horse": 1298.6305935600567,
        "ship": 1014.1285812987435,
        "truck": 1181.306280192458
    },
    "fid": 881.2334234131486,
    "wasserstein_distance": null,
    "g_loss": null,
    "g_cost": null,
    "d_loss_real": null,
    "d_loss_fake": null
}