{
    "epoch": 102,
    "avg_current_window": 955.5861335462602,
    "avg_prior_window": 973.9188816650171,
    "inception_score_mean": 1.769539796841713,
    "inception_score_std": 0.12084837166258598,
    "fid_per_class": {
        "airplane": 954.2611269624258,
        "automobile": 1223.0735587883971,
        "bird": 1309.5140274046673,
        "cat": 935.7188650774457,
        "deer": 1240.3816225886656,
        "dog": 970.8301987834889,
        "frog": 1256.0846447246283,
        "horse": 1207.8117169469137,
        "ship": 819.7423714932702,
        "truck": 1177.158353225864
    },
    "fid": 715.2046408294782,
    "wasserstein_distance": null,
    "g_loss": null,
    "g_cost": null,
    "d_loss_real": null,
    "d_loss_fake": null
}