{
    "epoch": 58,
    "avg_current_window": 1124.682930125712,
    "avg_prior_window": 1175.5951923629727,
    "inception_score_mean": 1.690765896020982,
    "inception_score_std": 0.10622485501977787,
    "fid_per_class": {
        "airplane": 928.8040475267167,
        "automobile": 1248.1335388641364,
        "bird": 1362.0246961294802,
        "cat": 958.3358073515125,
        "deer": 1221.543840743222,
        "dog": 1041.3090878801868,
        "frog": 1382.301573199246,
        "horse": 1288.289971362385,
        "ship": 857.8021506356482,
        "truck": 1097.1187440533458
    },
    "fid": 765.4050325516182,
    "wasserstein_distance": null,
    "g_loss": null,
    "g_cost": null,
    "d_loss_real": null,
    "d_loss_fake": null
}