{
    "epoch": 92,
    "avg_current_window": 979.8045591124164,
    "avg_prior_window": 1002.5209598786715,
    "inception_score_mean": 1.7440939615468385,
    "inception_score_std": 0.12627639038284733,
    "fid_per_class": {
        "airplane": 991.3970577833963,
        "automobile": 1169.4652034678675,
        "bird": 1293.7988672040437,
        "cat": 885.1286721283724,
        "deer": 1238.3730679139605,
        "dog": 968.8355015306942,
        "frog": 1289.8361993911806,
        "horse": 1181.2654019228553,
        "ship": 871.194916426891,
        "truck": 1144.0238806060822
    },
    "fid": 715.5518549050487,
    "wasserstein_distance": null,
    "g_loss": null,
    "g_cost": null,
    "d_loss_real": null,
    "d_loss_fake": null
}