{
    "epoch": 101,
    "avg_current_window": 957.513358911387,
    "avg_prior_window": 976.2277744873136,
    "inception_score_mean": 1.7453663531971526,
    "inception_score_std": 0.08612190151300111,
    "fid_per_class": {
        "airplane": 1032.8398176537166,
        "automobile": 1238.2351194393718,
        "bird": 1273.5761592727865,
        "cat": 958.1268341028255,
        "deer": 1282.9194098294188,
        "dog": 996.0310938862059,
        "frog": 1379.4748996668732,
        "horse": 1262.8768035783587,
        "ship": 873.6164239407733,
        "truck": 1223.5928403926566
    },
    "fid": 760.9363716684406,
    "wasserstein_distance": null,
    "g_loss": null,
    "g_cost": null,
    "d_loss_real": null,
    "d_loss_fake": null
}