{
    "epoch": 48,
    "avg_current_window": 1201.9699986224084,
    "avg_prior_window": 1270.859511174184,
    "inception_score_mean": 1.6978935641196213,
    "inception_score_std": 0.08791306456502437,
    "fid_per_class": {
        "airplane": 1008.0357189118405,
        "automobile": 1250.0764899932826,
        "bird": 1289.1355924898,
        "cat": 952.2518339315147,
        "deer": 1192.4144261028932,
        "dog": 1034.0908211826763,
        "frog": 1324.263697933165,
        "horse": 1233.5334028517473,
        "ship": 894.4692253230056,
        "truck": 1181.348649208287
    },
    "fid": 765.1384120954388,
    "wasserstein_distance": null,
    "g_loss": null,
    "g_cost": null,
    "d_loss_real": null,
    "d_loss_fake": null
}