{
    "epoch": 183,
    "avg_current_window": 852.1831870722702,
    "avg_prior_window": 860.9353120853392,
    "inception_score_mean": 1.8078233208944543,
    "inception_score_std": 0.10958085433687222,
    "fid_per_class": {
        "airplane": 973.0795191217985,
        "automobile": 1176.1761777443444,
        "bird": 1256.4298510841263,
        "cat": 947.910811166119,
        "deer": 1245.9827156632898,
        "dog": 1050.0595992432886,
        "frog": 1379.490311682255,
        "horse": 1212.4564147270776,
        "ship": 904.2311357331644,
        "truck": 1030.1289128437909
    },
    "fid": 718.0679099501051,
    "wasserstein_distance": null,
    "g_loss": null,
    "g_cost": null,
    "d_loss_real": null,
    "d_loss_fake": null
}