{
    "epoch": 1,
    "avg_current_window": 3.0,
    "avg_prior_window": 8.0,
    "inception_score_mean": 1.472724852924622,
    "inception_score_std": 0.07849824846585893,
    "fid_per_class": {
        "airplane": 1591.1170798014732,
        "automobile": 1726.2718801571602,
        "bird": 1545.945121291068,
        "cat": 1720.4388721761397,
        "deer": 2023.1557647584802,
        "dog": 1793.0840782972582,
        "frog": 1924.2051668191998,
        "horse": 1980.2886388736192,
        "ship": 1685.6563371723314,
        "truck": 1638.389308068243
    },
    "fid": 1516.2757683276334,
    "wasserstein_distance": null,
    "g_loss": null,
    "g_cost": null,
    "d_loss_real": null,
    "d_loss_fake": null
}