{
    "epoch": 182,
    "avg_current_window": 853.1324598220218,
    "avg_prior_window": 861.9487759888657,
    "inception_score_mean": 1.846428875141147,
    "inception_score_std": 0.11792611862388298,
    "fid_per_class": {
        "airplane": 938.0823266079349,
        "automobile": 1196.2219604384954,
        "bird": 1150.772394046472,
        "cat": 932.779019264515,
        "deer": 1213.1138676704186,
        "dog": 988.7953439307523,
        "frog": 1227.5289333569117,
        "horse": 1186.4151006923748,
        "ship": 881.8980446768292,
        "truck": 1054.943103545318
    },
    "fid": 679.4155466174992,
    "wasserstein_distance": null,
    "g_loss": null,
    "g_cost": null,
    "d_loss_real": null,
    "d_loss_fake": null
}