{
    "epoch": 168,
    "avg_current_window": 864.8354435396392,
    "avg_prior_window": 873.6560624678458,
    "inception_score_mean": 1.8172663933447897,
    "inception_score_std": 0.09162796048502307,
    "fid_per_class": {
        "airplane": 959.1959060250422,
        "automobile": 1196.2479623293973,
        "bird": 1192.5840522084686,
        "cat": 1008.9721765482379,
        "deer": 1198.7605191584128,
        "dog": 987.9079504218103,
        "frog": 1308.6415301674601,
        "horse": 1178.678208803418,
        "ship": 941.949025389644,
        "truck": 1082.3059157837436
    },
    "fid": 725.6876188330787,
    "wasserstein_distance": null,
    "g_loss": null,
    "g_cost": null,
    "d_loss_real": null,
    "d_loss_fake": null
}