{
    "epoch": 155,
    "avg_current_window": 876.8373094260627,
    "avg_prior_window": 886.8633683109427,
    "inception_score_mean": 1.7716287350686333,
    "inception_score_std": 0.09548176412034869,
    "fid_per_class": {
        "airplane": 879.382304159338,
        "automobile": 1169.403429435872,
        "bird": 1246.6826715197885,
        "cat": 982.7581814180273,
        "deer": 1325.2621290217894,
        "dog": 1033.7973920813552,
        "frog": 1353.315755415843,
        "horse": 1282.071273863438,
        "ship": 928.5184297736147,
        "truck": 1069.1198681081382
    },
    "fid": 738.345328698833,
    "wasserstein_distance": null,
    "g_loss": null,
    "g_cost": null,
    "d_loss_real": null,
    "d_loss_fake": null
}