{
    "epoch": 7,
    "avg_current_window": 1572.2763211884,
    "avg_prior_window": 2.0,
    "inception_score_mean": 1.2635887177284677,
    "inception_score_std": 0.09201703737597453,
    "fid_per_class": {
        "airplane": 1941.2175059479102,
        "automobile": 2158.29137244834,
        "bird": 2242.6391543852496,
        "cat": 2312.0945251813073,
        "deer": 2554.8911564366854,
        "dog": 2328.8440414094302,
        "frog": 2380.7598918107687,
        "horse": 2289.052481318471,
        "ship": 2118.0869920850414,
        "truck": 1834.9299064224167
    },
    "fid": 1945.6681525703764,
    "wasserstein_distance": null,
    "g_loss": null,
    "g_cost": null,
    "d_loss_real": null,
    "d_loss_fake": null
}