{
    "epoch": 76,
    "avg_current_window": 1032.2491702200168,
    "avg_prior_window": 1064.8685077054167,
    "inception_score_mean": 1.7107581662452653,
    "inception_score_std": 0.10198266119118042,
    "fid_per_class": {
        "airplane": 919.6654298596225,
        "automobile": 1159.233472236409,
        "bird": 1327.842850088399,
        "cat": 922.7320557292712,
        "deer": 1223.0065001717603,
        "dog": 991.662490759179,
        "frog": 1362.398706959243,
        "horse": 1194.8576067335443,
        "ship": 900.985755632316,
        "truck": 1129.7210522983544
    },
    "fid": 722.7661235586623,
    "wasserstein_distance": null,
    "g_loss": null,
    "g_cost": null,
    "d_loss_real": null,
    "d_loss_fake": null
}