{
    "epoch": 185,
    "avg_current_window": 850.7188777245092,
    "avg_prior_window": 858.8876130101017,
    "inception_score_mean": 1.9242886606903877,
    "inception_score_std": 0.13810263950607482,
    "fid_per_class": {
        "airplane": 923.2893592907171,
        "automobile": 1218.0854895829195,
        "bird": 1209.8675406020268,
        "cat": 927.5012687929437,
        "deer": 1231.2624254724674,
        "dog": 957.6129390783776,
        "frog": 1258.042975044943,
        "horse": 1160.0055079374597,
        "ship": 900.4331646637362,
        "truck": 1089.4304893720632
    },
    "fid": 686.651720712388,
    "wasserstein_distance": null,
    "g_loss": null,
    "g_cost": null,
    "d_loss_real": null,
    "d_loss_fake": null
}