{
    "epoch": 188,
    "avg_current_window": 848.3613046022125,
    "avg_prior_window": 856.1070554326533,
    "inception_score_mean": 1.7784230373922874,
    "inception_score_std": 0.10389089457670396,
    "fid_per_class": {
        "airplane": 924.454351439816,
        "automobile": 1193.329684021028,
        "bird": 1243.3989427042143,
        "cat": 995.0488642182623,
        "deer": 1208.8233957048383,
        "dog": 1051.9905977880721,
        "frog": 1313.434174278118,
        "horse": 1275.3437213190987,
        "ship": 954.4663132456997,
        "truck": 1082.31595531644
    },
    "fid": 743.9837742340669,
    "wasserstein_distance": null,
    "g_loss": null,
    "g_cost": null,
    "d_loss_real": null,
    "d_loss_fake": null
}