{
    "epoch": 120,
    "avg_current_window": 919.919369466364,
    "avg_prior_window": 934.3840637236647,
    "inception_score_mean": 1.7960692041762065,
    "inception_score_std": 0.1507208828958237,
    "fid_per_class": {
        "airplane": 988.978635220099,
        "automobile": 1168.8726530559743,
        "bird": 1211.2727086625,
        "cat": 929.2750766401659,
        "deer": 1279.0736651754673,
        "dog": 1021.5301247182913,
        "frog": 1355.4549958787384,
        "horse": 1240.4142339039136,
        "ship": 939.1269184728919,
        "truck": 1100.9404280436524
    },
    "fid": 738.3303325576237,
    "wasserstein_distance": null,
    "g_loss": null,
    "g_cost": null,
    "d_loss_real": null,
    "d_loss_fake": null
}