{
    "epoch": 134,
    "avg_current_window": 899.7893891232936,
    "avg_prior_window": 911.5452066455449,
    "inception_score_mean": 1.7794313051452715,
    "inception_score_std": 0.0789686264643552,
    "fid_per_class": {
        "airplane": 925.4369818229651,
        "automobile": 1158.9536803835138,
        "bird": 1179.4116391245739,
        "cat": 960.6794985875244,
        "deer": 1338.4059430976968,
        "dog": 1024.5399713105512,
        "frog": 1393.744219441791,
        "horse": 1224.8308311483074,
        "ship": 906.1693808828746,
        "truck": 1046.845047275315
    },
    "fid": 729.0409415932334,
    "wasserstein_distance": null,
    "g_loss": null,
    "g_cost": null,
    "d_loss_real": null,
    "d_loss_fake": null
}