{
    "epoch": 81,
    "avg_current_window": 1012.6005549236992,
    "avg_prior_window": 1041.759250793157,
    "inception_score_mean": 1.7178856448674602,
    "inception_score_std": 0.1455917340485437,
    "fid_per_class": {
        "airplane": 1043.3751527802135,
        "automobile": 1167.4908220941918,
        "bird": 1302.4328001622794,
        "cat": 923.9950259806816,
        "deer": 1297.879278632505,
        "dog": 1014.2930790276488,
        "frog": 1399.097447164414,
        "horse": 1244.261475142449,
        "ship": 914.2585784170017,
        "truck": 1124.6550508272117
    },
    "fid": 759.8524767541417,
    "wasserstein_distance": null,
    "g_loss": null,
    "g_cost": null,
    "d_loss_real": null,
    "d_loss_fake": null
}