{
    "epoch": 163,
    "avg_current_window": 869.3254423677522,
    "avg_prior_window": 878.7221925111543,
    "inception_score_mean": 1.8443520941756155,
    "inception_score_std": 0.09148911273713499,
    "fid_per_class": {
        "airplane": 972.1962715042444,
        "automobile": 1148.3112525947627,
        "bird": 1201.2358322299115,
        "cat": 966.5356438063443,
        "deer": 1219.6838399148196,
        "dog": 1002.8331325209627,
        "frog": 1278.9504559150005,
        "horse": 1198.161391133047,
        "ship": 872.2031323112315,
        "truck": 1015.3450053361165
    },
    "fid": 705.8910763152635,
    "wasserstein_distance": null,
    "g_loss": null,
    "g_cost": null,
    "d_loss_real": null,
    "d_loss_fake": null
}