{
    "epoch": 161,
    "avg_current_window": 871.1255084294872,
    "avg_prior_window": 880.6420067010887,
    "inception_score_mean": 1.8218594353272024,
    "inception_score_std": 0.12284338260089706,
    "fid_per_class": {
        "airplane": 884.5074151734132,
        "automobile": 1129.331858131171,
        "bird": 1206.4363090343957,
        "cat": 933.3793295627047,
        "deer": 1278.5227734210239,
        "dog": 1021.2631500370783,
        "frog": 1304.7463532278741,
        "horse": 1180.8348917405315,
        "ship": 932.4774927505141,
        "truck": 1047.9093223044915
    },
    "fid": 696.9375811012012,
    "wasserstein_distance": null,
    "g_loss": null,
    "g_cost": null,
    "d_loss_real": null,
    "d_loss_fake": null
}