{
    "epoch": 122,
    "avg_current_window": 916.9022169967794,
    "avg_prior_window": 930.7584546351912,
    "inception_score_mean": 1.787952451590502,
    "inception_score_std": 0.11984369795492528,
    "fid_per_class": {
        "airplane": 1013.1165628394966,
        "automobile": 1194.5737645438671,
        "bird": 1278.4670779700068,
        "cat": 939.5387954953051,
        "deer": 1295.394374405897,
        "dog": 950.7808046445662,
        "frog": 1393.4042092832826,
        "horse": 1252.6307438597676,
        "ship": 891.7650255626138,
        "truck": 1054.0269614286294
    },
    "fid": 744.7557371587305,
    "wasserstein_distance": null,
    "g_loss": null,
    "g_cost": null,
    "d_loss_real": null,
    "d_loss_fake": null
}