{
    "epoch": 67,
    "avg_current_window": 1074.2389596115518,
    "avg_prior_window": 1111.8025063961582,
    "inception_score_mean": 1.7964273526593186,
    "inception_score_std": 0.19895355818249713,
    "fid_per_class": {
        "airplane": 934.5580416215614,
        "automobile": 1208.8991815120069,
        "bird": 1231.7725895149001,
        "cat": 887.0337288779001,
        "deer": 1077.0926060458946,
        "dog": 905.3072395176387,
        "frog": 1194.2945660289802,
        "horse": 1173.7820102262608,
        "ship": 891.2519252992655,
        "truck": 1119.2128100951072
    },
    "fid": 678.0465389294624,
    "wasserstein_distance": null,
    "g_loss": null,
    "g_cost": null,
    "d_loss_real": null,
    "d_loss_fake": null
}