{
    "epoch": 114,
    "avg_current_window": 929.8576824817026,
    "avg_prior_window": 946.6531866734201,
    "inception_score_mean": 1.8273047971892478,
    "inception_score_std": 0.11473680510030554,
    "fid_per_class": {
        "airplane": 947.0070531622265,
        "automobile": 1183.9589620174102,
        "bird": 1227.06555864965,
        "cat": 949.4547991056647,
        "deer": 1268.4505537545544,
        "dog": 925.6794140497067,
        "frog": 1403.220426119254,
        "horse": 1207.8932899806205,
        "ship": 899.3699509438461,
        "truck": 1111.3813962552654
    },
    "fid": 718.7394736048752,
    "wasserstein_distance": null,
    "g_loss": null,
    "g_cost": null,
    "d_loss_real": null,
    "d_loss_fake": null
}