{
    "epoch": 24,
    "avg_current_window": 1584.36846289058,
    "avg_prior_window": 1783.0395411690222,
    "inception_score_mean": 1.473135206025286,
    "inception_score_std": 0.07340511311487609,
    "fid_per_class": {
        "airplane": 1006.8992457649247,
        "automobile": 1172.8984680748167,
        "bird": 1311.6214974940394,
        "cat": 1081.6968335552215,
        "deer": 1141.0835640357154,
        "dog": 1205.0946235998663,
        "frog": 1341.4655378496232,
        "horse": 1205.493201869619,
        "ship": 966.8155608707393,
        "truck": 1063.0798913713045
    },
    "fid": 835.6696513615481,
    "wasserstein_distance": null,
    "g_loss": null,
    "g_cost": null,
    "d_loss_real": null,
    "d_loss_fake": null
}