{
    "epoch": 45,
    "avg_current_window": 1231.1710169801706,
    "avg_prior_window": 1307.9868536268018,
    "inception_score_mean": 1.724900359387826,
    "inception_score_std": 0.12190078147828855,
    "fid_per_class": {
        "airplane": 1033.6479374984929,
        "automobile": 1272.088604380765,
        "bird": 1316.9830240966064,
        "cat": 960.1862582865723,
        "deer": 1226.16049307919,
        "dog": 1061.035363625957,
        "frog": 1302.4713150241992,
        "horse": 1266.8018626727037,
        "ship": 909.4726957542752,
        "truck": 1125.6870483247972
    },
    "fid": 787.5726772719786,
    "wasserstein_distance": null,
    "g_loss": null,
    "g_cost": null,
    "d_loss_real": null,
    "d_loss_fake": null
}