{
    "epoch": 150,
    "avg_current_window": 882.2959613926621,
    "avg_prior_window": 893.2642553119687,
    "inception_score_mean": 1.7980396652047517,
    "inception_score_std": 0.14803602065246788,
    "fid_per_class": {
        "airplane": 912.0860480307413,
        "automobile": 1096.7115783194276,
        "bird": 1273.1182273683764,
        "cat": 918.3389178118678,
        "deer": 1240.6761020315232,
        "dog": 984.4364233743729,
        "frog": 1360.0837951800227,
        "horse": 1141.7817255150237,
        "ship": 838.7069286337886,
        "truck": 1017.239235976999
    },
    "fid": 685.111037742083,
    "wasserstein_distance": null,
    "g_loss": null,
    "g_cost": null,
    "d_loss_real": null,
    "d_loss_fake": null
}