{
    "epoch": 73,
    "avg_current_window": 1045.3020469496432,
    "avg_prior_window": 1079.6153396008747,
    "inception_score_mean": 1.6976343546485437,
    "inception_score_std": 0.11641988782552436,
    "fid_per_class": {
        "airplane": 1034.370601638247,
        "automobile": 1216.665045732906,
        "bird": 1292.2602604748413,
        "cat": 903.7229950642198,
        "deer": 1222.9141364230381,
        "dog": 999.5485538869569,
        "frog": 1332.4557132754803,
        "horse": 1257.0634948502009,
        "ship": 917.0544433468058,
        "truck": 1074.2150186582967
    },
    "fid": 739.7030535422289,
    "wasserstein_distance": null,
    "g_loss": null,
    "g_cost": null,
    "d_loss_real": null,
    "d_loss_fake": null
}