{
    "epoch": 152,
    "avg_current_window": 879.7280288608913,
    "avg_prior_window": 890.6979992007549,
    "inception_score_mean": 1.8745130372832066,
    "inception_score_std": 0.12067001542426257,
    "fid_per_class": {
        "airplane": 943.5464089654033,
        "automobile": 1103.270276649404,
        "bird": 1232.5660079992153,
        "cat": 933.632637353831,
        "deer": 1265.6385344952573,
        "dog": 1027.290353476405,
        "frog": 1331.0598990881172,
        "horse": 1170.830719746051,
        "ship": 845.9455827895706,
        "truck": 1031.1696917091836
    },
    "fid": 707.3660625655021,
    "wasserstein_distance": null,
    "g_loss": null,
    "g_cost": null,
    "d_loss_real": null,
    "d_loss_fake": null
}