{
    "epoch": 56,
    "avg_current_window": 1138.4907134240536,
    "avg_prior_window": 1192.4533918135378,
    "inception_score_mean": 1.6903469455307985,
    "inception_score_std": 0.10907388895745349,
    "fid_per_class": {
        "airplane": 994.8100055570552,
        "automobile": 1246.0556556394372,
        "bird": 1279.8708592614719,
        "cat": 902.1755495425974,
        "deer": 1138.4509042929935,
        "dog": 968.4900497895275,
        "frog": 1357.4243358143071,
        "horse": 1255.4622090474338,
        "ship": 854.4066849534446,
        "truck": 1113.3521551477083
    },
    "fid": 738.8836833395684,
    "wasserstein_distance": null,
    "g_loss": null,
    "g_cost": null,
    "d_loss_real": null,
    "d_loss_fake": null
}