{
    "epoch": 64,
    "avg_current_window": 1090.2346444057025,
    "avg_prior_window": 1130.948114873129,
    "inception_score_mean": 1.7161794751106876,
    "inception_score_std": 0.10430374570835288,
    "fid_per_class": {
        "airplane": 942.9817041414844,
        "automobile": 1200.3335290189757,
        "bird": 1377.4555090333045,
        "cat": 959.9578409936187,
        "deer": 1176.8151252518614,
        "dog": 983.0863927080917,
        "frog": 1310.1638546996546,
        "horse": 1215.0012672469934,
        "ship": 917.5633997622017,
        "truck": 1115.1036942339633
    },
    "fid": 729.469165191702,
    "wasserstein_distance": null,
    "g_loss": null,
    "g_cost": null,
    "d_loss_real": null,
    "d_loss_fake": null
}