{
    "epoch": 93,
    "avg_current_window": 976.9631321854554,
    "avg_prior_window": 999.3594834170483,
    "inception_score_mean": 1.7764764366196661,
    "inception_score_std": 0.1513794498440612,
    "fid_per_class": {
        "airplane": 1063.6643091790174,
        "automobile": 1232.0662134132535,
        "bird": 1327.0027407203688,
        "cat": 959.8682851086467,
        "deer": 1285.5245149344894,
        "dog": 984.7028356333482,
        "frog": 1310.5276789873826,
        "horse": 1199.9348444066748,
        "ship": 874.1228013398069,
        "truck": 1111.9535493496296
    },
    "fid": 732.9482664823988,
    "wasserstein_distance": null,
    "g_loss": null,
    "g_cost": null,
    "d_loss_real": null,
    "d_loss_fake": null
}