{
    "epoch": 132,
    "avg_current_window": 902.4968999203606,
    "avg_prior_window": 914.9663538989172,
    "inception_score_mean": 1.8363490163719642,
    "inception_score_std": 0.08626512535013058,
    "fid_per_class": {
        "airplane": 970.2279889784022,
        "automobile": 1106.0822226881169,
        "bird": 1222.2849207983272,
        "cat": 949.50001318871,
        "deer": 1282.2496368674244,
        "dog": 1038.9604401089632,
        "frog": 1422.017964178062,
        "horse": 1208.3683237678076,
        "ship": 917.4299938238049,
        "truck": 996.3452945434171
    },
    "fid": 725.4149477714686,
    "wasserstein_distance": null,
    "g_loss": null,
    "g_cost": null,
    "d_loss_real": null,
    "d_loss_fake": null
}