{
    "epoch": 111,
    "avg_current_window": 936.1071429168702,
    "avg_prior_window": 953.7504224364408,
    "inception_score_mean": 1.7680250778384103,
    "inception_score_std": 0.09110015938972872,
    "fid_per_class": {
        "airplane": 983.2825012925646,
        "automobile": 1182.7698839300278,
        "bird": 1089.8215808658038,
        "cat": 954.1396795794624,
        "deer": 1207.5217025288105,
        "dog": 906.4328931574672,
        "frog": 1243.836860705721,
        "horse": 1155.7308837043395,
        "ship": 879.40509259706,
        "truck": 1143.7938389683995
    },
    "fid": 681.6234799870565,
    "wasserstein_distance": null,
    "g_loss": null,
    "g_cost": null,
    "d_loss_real": null,
    "d_loss_fake": null
}