{
    "epoch": 44,
    "avg_current_window": 1241.9763404656799,
    "avg_prior_window": 1321.9449236896403,
    "inception_score_mean": 1.7448070836522436,
    "inception_score_std": 0.12518692606000742,
    "fid_per_class": {
        "airplane": 981.2607258246862,
        "automobile": 1218.9012510418725,
        "bird": 1251.1177800185028,
        "cat": 972.8974099684924,
        "deer": 1157.0526791886991,
        "dog": 1035.2886669107131,
        "frog": 1295.6008711836225,
        "horse": 1271.745640495165,
        "ship": 873.5823177854477,
        "truck": 1152.5045759179422
    },
    "fid": 755.7367836177638,
    "wasserstein_distance": null,
    "g_loss": null,
    "g_cost": null,
    "d_loss_real": null,
    "d_loss_fake": null
}