{
    "epoch": 87,
    "avg_current_window": 994.3643679495596,
    "avg_prior_window": 1018.8572992894481,
    "inception_score_mean": 1.7242605353444085,
    "inception_score_std": 0.07719913615977234,
    "fid_per_class": {
        "airplane": 1017.8384804071547,
        "automobile": 1237.7336811463097,
        "bird": 1257.5519981227733,
        "cat": 921.9942991369835,
        "deer": 1134.732712553934,
        "dog": 1000.9827894641413,
        "frog": 1290.4935393706603,
        "horse": 1148.7679967465115,
        "ship": 855.4406101773188,
        "truck": 1187.5569041674305
    },
    "fid": 709.6234978327453,
    "wasserstein_distance": null,
    "g_loss": null,
    "g_cost": null,
    "d_loss_real": null,
    "d_loss_fake": null
}