{
    "epoch": 108,
    "avg_current_window": 942.7165254443798,
    "avg_prior_window": 960.5595475569623,
    "inception_score_mean": 1.7708143702182617,
    "inception_score_std": 0.11039155241105816,
    "fid_per_class": {
        "airplane": 964.8976324561675,
        "automobile": 1211.5584601990108,
        "bird": 1204.2777745663525,
        "cat": 936.2688326296702,
        "deer": 1253.3003921350298,
        "dog": 974.4683418934123,
        "frog": 1227.1123252632542,
        "horse": 1195.6636814443048,
        "ship": 884.4200064865882,
        "truck": 1054.0835052304142
    },
    "fid": 708.9832306787091,
    "wasserstein_distance": null,
    "g_loss": null,
    "g_cost": null,
    "d_loss_real": null,
    "d_loss_fake": null
}