{
    "epoch": 34,
    "avg_current_window": 1370.328810736294,
    "avg_prior_window": 1491.9028263575306,
    "inception_score_mean": 1.6422597375269263,
    "inception_score_std": 0.05397357142376691,
    "fid_per_class": {
        "airplane": 1151.106210660398,
        "automobile": 1437.3350855095478,
        "bird": 1295.0514326482253,
        "cat": 1040.7532074631267,
        "deer": 1082.526812729307,
        "dog": 1148.9830310847872,
        "frog": 1326.9344604408238,
        "horse": 1308.4088824628457,
        "ship": 1065.147603308385,
        "truck": 1343.7471331262918
    },
    "fid": 859.7627654552289,
    "wasserstein_distance": null,
    "g_loss": null,
    "g_cost": null,
    "d_loss_real": null,
    "d_loss_fake": null
}