{
    "epoch": 129,
    "avg_current_window": 906.473171524942,
    "avg_prior_window": 919.9205337629069,
    "inception_score_mean": 1.8415347565514182,
    "inception_score_std": 0.10475250134202535,
    "fid_per_class": {
        "airplane": 932.2417274574512,
        "automobile": 1111.6356251354905,
        "bird": 1187.2705189524459,
        "cat": 886.9903904967993,
        "deer": 1206.5541975741694,
        "dog": 907.0414189078351,
        "frog": 1250.3897227097805,
        "horse": 1155.193739575955,
        "ship": 859.4494949076011,
        "truck": 1055.7631055281374
    },
    "fid": 654.2925305577824,
    "wasserstein_distance": null,
    "g_loss": null,
    "g_cost": null,
    "d_loss_real": null,
    "d_loss_fake": null
}