{
    "epoch": 46,
    "avg_current_window": 1221.5275748126012,
    "avg_prior_window": 1293.562896932935,
    "inception_score_mean": 1.6981622559983758,
    "inception_score_std": 0.07792547482804527,
    "fid_per_class": {
        "airplane": 1012.4031486132027,
        "automobile": 1264.633285463286,
        "bird": 1285.3267775409927,
        "cat": 985.8788651532375,
        "deer": 1183.4145191189918,
        "dog": 1008.5275577048352,
        "frog": 1337.9854678325678,
        "horse": 1267.1121867602108,
        "ship": 922.1501661412069,
        "truck": 1171.9809327783432
    },
    "fid": 769.4940596114229,
    "wasserstein_distance": null,
    "g_loss": null,
    "g_cost": null,
    "d_loss_real": null,
    "d_loss_fake": null
}