{
    "epoch": 173,
    "avg_current_window": 860.6636652877867,
    "avg_prior_window": 869.1550126993598,
    "inception_score_mean": 1.8596023575912093,
    "inception_score_std": 0.16470444402062012,
    "fid_per_class": {
        "airplane": 979.794204589583,
        "automobile": 1240.7501165369185,
        "bird": 1220.1165903842057,
        "cat": 1008.5049688219494,
        "deer": 1332.2600536112782,
        "dog": 1010.2755218508762,
        "frog": 1369.02629706259,
        "horse": 1220.8197173535227,
        "ship": 986.2492499197642,
        "truck": 1114.0941721476718
    },
    "fid": 752.8424887433239,
    "wasserstein_distance": null,
    "g_loss": null,
    "g_cost": null,
    "d_loss_real": null,
    "d_loss_fake": null
}