{
    "epoch": 149,
    "avg_current_window": 883.5941895269272,
    "avg_prior_window": 894.5835175488114,
    "inception_score_mean": 1.8349904680866,
    "inception_score_std": 0.12474007062622418,
    "fid_per_class": {
        "airplane": 922.0267721143657,
        "automobile": 1199.564646094275,
        "bird": 1206.826005370674,
        "cat": 899.0956172080212,
        "deer": 1169.7304772882467,
        "dog": 928.2241476739224,
        "frog": 1265.7923205566956,
        "horse": 1217.5520523143878,
        "ship": 920.4775148108861,
        "truck": 1098.247649184774
    },
    "fid": 688.8599693871731,
    "wasserstein_distance": null,
    "g_loss": null,
    "g_cost": null,
    "d_loss_real": null,
    "d_loss_fake": null
}