{
    "epoch": 80,
    "avg_current_window": 1016.5239323566632,
    "avg_prior_window": 1046.012492489617,
    "inception_score_mean": 1.7240217199996946,
    "inception_score_std": 0.11686242823476853,
    "fid_per_class": {
        "airplane": 963.0841911782445,
        "automobile": 1102.1166020153119,
        "bird": 1248.5262642463094,
        "cat": 929.7333919153336,
        "deer": 1210.719907814876,
        "dog": 977.4825738207246,
        "frog": 1253.8192606815344,
        "horse": 1194.9237865554785,
        "ship": 815.9483432762346,
        "truck": 1116.6063430083968
    },
    "fid": 698.730360286591,
    "wasserstein_distance": null,
    "g_loss": null,
    "g_cost": null,
    "d_loss_real": null,
    "d_loss_fake": null
}