{
    "epoch": 37,
    "avg_current_window": 1327.976791385558,
    "avg_prior_window": 1430.6000686676364,
    "inception_score_mean": 1.6665258243970744,
    "inception_score_std": 0.0711464568605496,
    "fid_per_class": {
        "airplane": 1082.5882654117845,
        "automobile": 1396.3333839734319,
        "bird": 1257.2635234728664,
        "cat": 903.3131103522801,
        "deer": 1083.7080199475563,
        "dog": 956.5683050019468,
        "frog": 1248.723893874269,
        "horse": 1217.4053314919774,
        "ship": 1026.0834645248478,
        "truck": 1328.5513037716219
    },
    "fid": 754.1750480328852,
    "wasserstein_distance": null,
    "g_loss": null,
    "g_cost": null,
    "d_loss_real": null,
    "d_loss_fake": null
}