{
    "epoch": 78,
    "avg_current_window": 1023.9142585850574,
    "avg_prior_window": 1055.4349654913176,
    "inception_score_mean": 1.7663212559658965,
    "inception_score_std": 0.10014797614340223,
    "fid_per_class": {
        "airplane": 985.270997845598,
        "automobile": 1218.5632156241559,
        "bird": 1286.7335962844063,
        "cat": 900.1728633110563,
        "deer": 1189.5868462144886,
        "dog": 981.3624630684162,
        "frog": 1306.811391672807,
        "horse": 1235.9928445988498,
        "ship": 897.1367517967971,
        "truck": 1121.6916838836435
    },
    "fid": 721.3655786994913,
    "wasserstein_distance": null,
    "g_loss": null,
    "g_cost": null,
    "d_loss_real": null,
    "d_loss_fake": null
}