{
    "epoch": 153,
    "avg_current_window": 878.6014800615751,
    "avg_prior_window": 889.5644205372442,
    "inception_score_mean": 1.8460444627895314,
    "inception_score_std": 0.14806082890347722,
    "fid_per_class": {
        "airplane": 939.7531131059702,
        "automobile": 1152.1254797823483,
        "bird": 1263.4383938932785,
        "cat": 1002.3428058132238,
        "deer": 1272.418419570643,
        "dog": 935.6737343293789,
        "frog": 1294.1043748624384,
        "horse": 1251.4103072242513,
        "ship": 911.3980624497502,
        "truck": 1162.9062487324472
    },
    "fid": 722.66268711161,
    "wasserstein_distance": null,
    "g_loss": null,
    "g_cost": null,
    "d_loss_real": null,
    "d_loss_fake": null
}