{
    "epoch": 28,
    "avg_current_window": 1475.9203078908838,
    "avg_prior_window": 1653.2540482336487,
    "inception_score_mean": 1.5783719107953214,
    "inception_score_std": 0.1203976116773509,
    "fid_per_class": {
        "airplane": 1063.4707757421304,
        "automobile": 1262.1202503165373,
        "bird": 1492.540717384554,
        "cat": 1284.1042831610173,
        "deer": 1511.1194587025548,
        "dog": 1544.5097429880457,
        "frog": 1846.5623038912022,
        "horse": 1516.0695750708403,
        "ship": 978.8428171068086,
        "truck": 1035.7917520018607
    },
    "fid": 1034.4988864033317,
    "wasserstein_distance": null,
    "g_loss": null,
    "g_cost": null,
    "d_loss_real": null,
    "d_loss_fake": null
}