{
    "epoch": 158,
    "avg_current_window": 874.0870810299028,
    "avg_prior_window": 883.3247655982523,
    "inception_score_mean": 1.846314045585864,
    "inception_score_std": 0.10586130487754675,
    "fid_per_class": {
        "airplane": 935.9868470304351,
        "automobile": 1198.228028225594,
        "bird": 1264.0448690838061,
        "cat": 946.1882958998845,
        "deer": 1355.8160759572872,
        "dog": 933.8160615725833,
        "frog": 1341.634656052581,
        "horse": 1255.3135017557238,
        "ship": 942.9755155355485,
        "truck": 1064.471457427127
    },
    "fid": 732.3476140377236,
    "wasserstein_distance": null,
    "g_loss": null,
    "g_cost": null,
    "d_loss_real": null,
    "d_loss_fake": null
}