{
    "epoch": 159,
    "avg_current_window": 873.1956378412727,
    "avg_prior_window": 882.5310581885695,
    "inception_score_mean": 1.8670789842921323,
    "inception_score_std": 0.11710750932818682,
    "fid_per_class": {
        "airplane": 983.4913029324198,
        "automobile": 1157.0454660126866,
        "bird": 1204.5419344178663,
        "cat": 902.9534747910716,
        "deer": 1197.7873038044288,
        "dog": 1009.5212430718287,
        "frog": 1262.130170408256,
        "horse": 1217.9548916711167,
        "ship": 875.3657104125948,
        "truck": 1042.0058328685216
    },
    "fid": 696.3605140653428,
    "wasserstein_distance": null,
    "g_loss": null,
    "g_cost": null,
    "d_loss_real": null,
    "d_loss_fake": null
}