{
    "epoch": 32,
    "avg_current_window": 1403.6622245015117,
    "avg_prior_window": 1530.5840229979538,
    "inception_score_mean": 1.568989309639702,
    "inception_score_std": 0.08847042041478158,
    "fid_per_class": {
        "airplane": 1120.7853325333792,
        "automobile": 1468.6407104466011,
        "bird": 1300.3787033505384,
        "cat": 1072.3563023072047,
        "deer": 1239.1403226117002,
        "dog": 1154.2722744573007,
        "frog": 1372.2801845999936,
        "horse": 1317.1271164633347,
        "ship": 957.2059173885021,
        "truck": 1322.504850560962
    },
    "fid": 862.0110133159939,
    "wasserstein_distance": null,
    "g_loss": null,
    "g_cost": null,
    "d_loss_real": null,
    "d_loss_fake": null
}