{
    "epoch": 170,
    "avg_current_window": 863.3171427473558,
    "avg_prior_window": 871.9247904133255,
    "inception_score_mean": 1.8225559277006798,
    "inception_score_std": 0.10138467813012955,
    "fid_per_class": {
        "airplane": 958.7523945656721,
        "automobile": 1194.173181005587,
        "bird": 1248.2423223242213,
        "cat": 950.1276226888175,
        "deer": 1373.7409164495361,
        "dog": 1014.2428927240924,
        "frog": 1411.9204133166209,
        "horse": 1223.875215887695,
        "ship": 911.7533558417002,
        "truck": 1133.162940439407
    },
    "fid": 746.3268053285357,
    "wasserstein_distance": null,
    "g_loss": null,
    "g_cost": null,
    "d_loss_real": null,
    "d_loss_fake": null
}