{
    "epoch": 113,
    "avg_current_window": 931.9045358890833,
    "avg_prior_window": 949.2811849877013,
    "inception_score_mean": 1.7492973965951477,
    "inception_score_std": 0.1594281783027471,
    "fid_per_class": {
        "airplane": 982.998266414581,
        "automobile": 1142.9363710801326,
        "bird": 1184.64649163527,
        "cat": 938.3487691162493,
        "deer": 1208.4149634848432,
        "dog": 989.6454440588086,
        "frog": 1286.6144374971627,
        "horse": 1224.6500246758205,
        "ship": 831.0413838816313,
        "truck": 1131.8565591863473
    },
    "fid": 698.5632474476906,
    "wasserstein_distance": null,
    "g_loss": null,
    "g_cost": null,
    "d_loss_real": null,
    "d_loss_fake": null
}