{
    "epoch": 116,
    "avg_current_window": 926.3290286915641,
    "avg_prior_window": 942.2478949888257,
    "inception_score_mean": 1.8178450339269656,
    "inception_score_std": 0.1518187066509852,
    "fid_per_class": {
        "airplane": 921.1008527401484,
        "automobile": 1048.041592069881,
        "bird": 1173.8983454698118,
        "cat": 915.3092289009692,
        "deer": 1176.0875766077716,
        "dog": 979.2951355436697,
        "frog": 1299.9693431472533,
        "horse": 1173.0164246172535,
        "ship": 847.2377809013994,
        "truck": 1045.1364935124811
    },
    "fid": 679.7247089500269,
    "wasserstein_distance": null,
    "g_loss": null,
    "g_cost": null,
    "d_loss_real": null,
    "d_loss_fake": null
}