{
    "epoch": 11,
    "avg_current_window": 1687.0723519797234,
    "avg_prior_window": 1834.3223747198,
    "inception_score_mean": 1.1272499532873475,
    "inception_score_std": 0.05170752473033735,
    "fid_per_class": {
        "airplane": 1675.3470414295439,
        "automobile": 1765.8107656214743,
        "bird": 2404.410736914421,
        "cat": 2451.254247727131,
        "deer": 2449.9375996297736,
        "dog": 2556.1111699375897,
        "frog": 2813.4061610407834,
        "horse": 2417.311906326607,
        "ship": 2006.3016042730055,
        "truck": 1842.0458396861357
    },
    "fid": 2016.0265025855047,
    "wasserstein_distance": null,
    "g_loss": null,
    "g_cost": null,
    "d_loss_real": null,
    "d_loss_fake": null
}