{
    "epoch": 61,
    "avg_current_window": 1106.170956100054,
    "avg_prior_window": 1151.6850649122603,
    "inception_score_mean": 1.6794285639981381,
    "inception_score_std": 0.13175807581167895,
    "fid_per_class": {
        "airplane": 986.9078255150897,
        "automobile": 1271.7257418919435,
        "bird": 1285.8000880865372,
        "cat": 945.8556014043438,
        "deer": 1171.5558167244435,
        "dog": 998.7586669315181,
        "frog": 1413.612753688876,
        "horse": 1251.147362997834,
        "ship": 919.6010523691307,
        "truck": 1138.400091194198
    },
    "fid": 766.9270934883232,
    "wasserstein_distance": null,
    "g_loss": null,
    "g_cost": null,
    "d_loss_real": null,
    "d_loss_fake": null
}