{
    "epoch": 121,
    "avg_current_window": 918.4186336241429,
    "avg_prior_window": 932.1887244583747,
    "inception_score_mean": 1.8099478223195837,
    "inception_score_std": 0.12731633375752135,
    "fid_per_class": {
        "airplane": 940.6093847659195,
        "automobile": 1145.7487688670017,
        "bird": 1225.8639571913263,
        "cat": 988.178230543553,
        "deer": 1279.870839099603,
        "dog": 993.4336484429816,
        "frog": 1380.7582879208583,
        "horse": 1246.5984786619235,
        "ship": 888.7311389857484,
        "truck": 1131.9600913503616
    },
    "fid": 733.4158050857901,
    "wasserstein_distance": null,
    "g_loss": null,
    "g_cost": null,
    "d_loss_real": null,
    "d_loss_fake": null
}