{
    "epoch": 174,
    "avg_current_window": 860.0440033536231,
    "avg_prior_window": 868.4255282073993,
    "inception_score_mean": 1.8175962656600895,
    "inception_score_std": 0.0680984143746241,
    "fid_per_class": {
        "airplane": 976.5219362681954,
        "automobile": 1195.3687754841728,
        "bird": 1288.7709367003354,
        "cat": 922.7949790566472,
        "deer": 1338.128342425811,
        "dog": 1041.8540372007924,
        "frog": 1391.8691122822702,
        "horse": 1264.8919562888036,
        "ship": 889.6320700021374,
        "truck": 1125.1983308393192
    },
    "fid": 755.5442906341463,
    "wasserstein_distance": null,
    "g_loss": null,
    "g_cost": null,
    "d_loss_real": null,
    "d_loss_fake": null
}