{
    "epoch": 27,
    "avg_current_window": 1496.7344429433372,
    "avg_prior_window": 1684.66813579516,
    "inception_score_mean": 1.6666972899509234,
    "inception_score_std": 0.0752961812371103,
    "fid_per_class": {
        "airplane": 1016.609088135252,
        "automobile": 1187.8051019999407,
        "bird": 1411.140780938318,
        "cat": 1252.9824524772012,
        "deer": 1424.776354999969,
        "dog": 1336.0567766821705,
        "frog": 1623.1932910234868,
        "horse": 1313.1261848868064,
        "ship": 872.9818476196704,
        "truck": 987.5130649229272
    },
    "fid": 913.9386614746443,
    "wasserstein_distance": null,
    "g_loss": null,
    "g_cost": null,
    "d_loss_real": null,
    "d_loss_fake": null
}