{
    "epoch": 20,
    "avg_current_window": 1693.887564110571,
    "avg_prior_window": 1912.9055664649138,
    "inception_score_mean": 1.4153255170540122,
    "inception_score_std": 0.0767594954635448,
    "fid_per_class": {
        "airplane": 1214.7068399728473,
        "automobile": 1330.431376693944,
        "bird": 1285.0729925223054,
        "cat": 1323.0877698227273,
        "deer": 1279.2958680491936,
        "dog": 1426.4024346975782,
        "frog": 1620.8452782496784,
        "horse": 1399.2548807691578,
        "ship": 1183.1340179013623,
        "truck": 1148.9625678211858
    },
    "fid": 1029.0782134474484,
    "wasserstein_distance": null,
    "g_loss": null,
    "g_cost": null,
    "d_loss_real": null,
    "d_loss_fake": null
}