{
    "epoch": 140,
    "avg_current_window": 893.0884979187837,
    "avg_prior_window": 904.0699134309306,
    "inception_score_mean": 1.7649100701141571,
    "inception_score_std": 0.12329892006155553,
    "fid_per_class": {
        "airplane": 991.3717020658983,
        "automobile": 1229.756989111126,
        "bird": 1173.265575598029,
        "cat": 987.1204586665415,
        "deer": 1308.9139815924523,
        "dog": 1039.249456401435,
        "frog": 1396.575602488731,
        "horse": 1286.3468891262291,
        "ship": 893.5487638069324,
        "truck": 1107.0168519286435
    },
    "fid": 765.3866297457892,
    "wasserstein_distance": null,
    "g_loss": null,
    "g_cost": null,
    "d_loss_real": null,
    "d_loss_fake": null
}