{
    "epoch": 4,
    "avg_current_window": 1259.9798739989687,
    "avg_prior_window": 1521.2757683276334,
    "inception_score_mean": 1.1192081074690057,
    "inception_score_std": 0.025159670055972555,
    "fid_per_class": {
        "airplane": 2087.4979307788867,
        "automobile": 2183.690410106197,
        "bird": 2152.707398982421,
        "cat": 2363.2528967729563,
        "deer": 2397.3453136871217,
        "dog": 2179.2173991129775,
        "frog": 2501.3354711358015,
        "horse": 2362.60766104214,
        "ship": 2233.6585414268598,
        "truck": 1895.5726171137349
    },
    "fid": 2014.1136243157139,
    "wasserstein_distance": null,
    "g_loss": null,
    "g_cost": null,
    "d_loss_real": null,
    "d_loss_fake": null
}