{
    "epoch": 60,
    "avg_current_window": 1112.0989796252436,
    "avg_prior_window": 1159.1905445772181,
    "inception_score_mean": 1.696476183678742,
    "inception_score_std": 0.09780941984488713,
    "fid_per_class": {
        "airplane": 960.243425282598,
        "automobile": 1255.4683801326414,
        "bird": 1305.199056935067,
        "cat": 929.7809145862998,
        "deer": 1238.5691742547924,
        "dog": 997.1620106483373,
        "frog": 1415.4981136669153,
        "horse": 1209.2968769194779,
        "ship": 860.686720186603,
        "truck": 1153.9173291812986
    },
    "fid": 750.4895445886698,
    "wasserstein_distance": null,
    "g_loss": null,
    "g_cost": null,
    "d_loss_real": null,
    "d_loss_fake": null
}