{
    "epoch": 25,
    "avg_current_window": 1554.4205104294188,
    "avg_prior_window": 1745.3414747829436,
    "inception_score_mean": 1.5243098758866844,
    "inception_score_std": 0.08015948423459722,
    "fid_per_class": {
        "airplane": 1016.6567020518727,
        "automobile": 1236.0670106930784,
        "bird": 1210.5877026684443,
        "cat": 1010.5363372137305,
        "deer": 1003.7670448820297,
        "dog": 1112.429012830757,
        "frog": 1230.2854281170758,
        "horse": 1162.4364452113837,
        "ship": 1024.3412797339647,
        "truck": 1167.217247996891
    },
    "fid": 761.6193928794189,
    "wasserstein_distance": null,
    "g_loss": null,
    "g_cost": null,
    "d_loss_real": null,
    "d_loss_fake": null
}