{
    "epoch": 83,
    "avg_current_window": 1006.5819101413824,
    "avg_prior_window": 1033.1625352350509,
    "inception_score_mean": 1.7461105249043687,
    "inception_score_std": 0.11200164914026507,
    "fid_per_class": {
        "airplane": 1020.550606980418,
        "automobile": 1169.327629500922,
        "bird": 1315.4639072262785,
        "cat": 938.567166321048,
        "deer": 1247.1729976072274,
        "dog": 1046.7965060213282,
        "frog": 1366.3611698112936,
        "horse": 1293.875874990146,
        "ship": 867.4064410712629,
        "truck": 1129.2215997800984
    },
    "fid": 748.1644568751017,
    "wasserstein_distance": null,
    "g_loss": null,
    "g_cost": null,
    "d_loss_real": null,
    "d_loss_fake": null
}