{
    "epoch": 186,
    "avg_current_window": 849.8367962351967,
    "avg_prior_window": 857.8458988265634,
    "inception_score_mean": 1.870922383343873,
    "inception_score_std": 0.15118558878102684,
    "fid_per_class": {
        "airplane": 929.4627493639623,
        "automobile": 1135.5121554732182,
        "bird": 1225.4772694249357,
        "cat": 974.6356968445372,
        "deer": 1218.156709073102,
        "dog": 980.1152275870697,
        "frog": 1309.830834685983,
        "horse": 1187.8159370333246,
        "ship": 859.4740762434958,
        "truck": 1035.9809089158186
    },
    "fid": 695.7161318627627,
    "wasserstein_distance": null,
    "g_loss": null,
    "g_cost": null,
    "d_loss_real": null,
    "d_loss_fake": null
}