{
    "epoch": 110,
    "avg_current_window": 938.0472486127527,
    "avg_prior_window": 955.8208677930203,
    "inception_score_mean": 1.7917083385246424,
    "inception_score_std": 0.07379993602690159,
    "fid_per_class": {
        "airplane": 931.1697168710427,
        "automobile": 1190.647184554611,
        "bird": 1229.6409177954333,
        "cat": 945.6447807613431,
        "deer": 1268.1330403425113,
        "dog": 987.9830771087973,
        "frog": 1345.6808724431146,
        "horse": 1214.1273834658339,
        "ship": 867.9401630176527,
        "truck": 1072.6920839692448
    },
    "fid": 722.695516369801,
    "wasserstein_distance": null,
    "g_loss": null,
    "g_cost": null,
    "d_loss_real": null,
    "d_loss_fake": null
}