{
    "epoch": 178,
    "avg_current_window": 857.1063671349957,
    "avg_prior_window": 865.0153559741643,
    "inception_score_mean": 1.8536879040792251,
    "inception_score_std": 0.1040872081666558,
    "fid_per_class": {
        "airplane": 907.884071722129,
        "automobile": 1104.7757489733167,
        "bird": 1211.400984331362,
        "cat": 951.833479050762,
        "deer": 1218.5710627986684,
        "dog": 997.1974336022931,
        "frog": 1224.2941019092227,
        "horse": 1205.7756510659294,
        "ship": 865.8240287328647,
        "truck": 1015.166809950447
    },
    "fid": 681.5522011611558,
    "wasserstein_distance": null,
    "g_loss": null,
    "g_cost": null,
    "d_loss_real": null,
    "d_loss_fake": null
}