{
    "epoch": 70,
    "avg_current_window": 1059.2729147815144,
    "avg_prior_window": 1095.7006822133587,
    "inception_score_mean": 1.7023284875979248,
    "inception_score_std": 0.18382277929463295,
    "fid_per_class": {
        "airplane": 975.6338490263148,
        "automobile": 1162.9893950811108,
        "bird": 1279.6669496551108,
        "cat": 933.6271271641442,
        "deer": 1277.863616890372,
        "dog": 969.252783167808,
        "frog": 1396.4911147685766,
        "horse": 1253.9733108031232,
        "ship": 886.6786823699967,
        "truck": 1115.169824712273
    },
    "fid": 739.6482983546665,
    "wasserstein_distance": null,
    "g_loss": null,
    "g_cost": null,
    "d_loss_real": null,
    "d_loss_fake": null
}