{
    "epoch": 146,
    "avg_current_window": 887.146006987914,
    "avg_prior_window": 897.6199879030502,
    "inception_score_mean": 1.7937332015953706,
    "inception_score_std": 0.06960091309450898,
    "fid_per_class": {
        "airplane": 982.7632582409756,
        "automobile": 1218.3413635693228,
        "bird": 1224.094524543374,
        "cat": 969.1217546639921,
        "deer": 1239.567516382297,
        "dog": 969.6748212868943,
        "frog": 1293.4200024999784,
        "horse": 1195.9770118976858,
        "ship": 922.8987209586483,
        "truck": 1168.7132759352337
    },
    "fid": 735.889942466195,
    "wasserstein_distance": null,
    "g_loss": null,
    "g_cost": null,
    "d_loss_real": null,
    "d_loss_fake": null
}