{
    "epoch": 192,
    "avg_current_window": 845.3267301919236,
    "avg_prior_window": 852.8979960706736,
    "inception_score_mean": 1.8434558805778785,
    "inception_score_std": 0.16278407440671214,
    "fid_per_class": {
        "airplane": 940.36251173907,
        "automobile": 1195.9765107658359,
        "bird": 1237.4670272145772,
        "cat": 964.1604162267399,
        "deer": 1303.3463032898696,
        "dog": 1020.1051123017874,
        "frog": 1387.6450715050705,
        "horse": 1211.7803834559388,
        "ship": 984.1655544620033,
        "truck": 1117.945450611518
    },
    "fid": 742.6050564472441,
    "wasserstein_distance": null,
    "g_loss": null,
    "g_cost": null,
    "d_loss_real": null,
    "d_loss_fake": null
}