{
    "epoch": 68,
    "avg_current_window": 1068.4126004838743,
    "avg_prior_window": 1107.539956221666,
    "inception_score_mean": 1.708958498955886,
    "inception_score_std": 0.11267204328611939,
    "fid_per_class": {
        "airplane": 950.470990547722,
        "automobile": 1187.6806671616325,
        "bird": 1290.6381963646122,
        "cat": 936.5970684839795,
        "deer": 1222.3004541613627,
        "dog": 1041.348650256151,
        "frog": 1383.352751784223,
        "horse": 1248.4163361745582,
        "ship": 928.8508475638084,
        "truck": 1165.9123122635363
    },
    "fid": 761.7862599560372,
    "wasserstein_distance": null,
    "g_loss": null,
    "g_cost": null,
    "d_loss_real": null,
    "d_loss_fake": null
}