{
    "epoch": 197,
    "avg_current_window": 841.7855266790406,
    "avg_prior_window": 849.1944648609197,
    "inception_score_mean": 1.8422039174139815,
    "inception_score_std": 0.1190171676854842,
    "fid_per_class": {
        "airplane": 949.3073779992582,
        "automobile": 1171.27469994395,
        "bird": 1195.4777248886232,
        "cat": 987.6518290233138,
        "deer": 1263.0814661481998,
        "dog": 1030.521529348594,
        "frog": 1369.7029318434238,
        "horse": 1195.6482827479736,
        "ship": 868.9655497430847,
        "truck": 1068.1895318678105
    },
    "fid": 725.9178671172708,
    "wasserstein_distance": null,
    "g_loss": null,
    "g_cost": null,
    "d_loss_real": null,
    "d_loss_fake": null
}