{
    "epoch": 26,
    "avg_current_window": 1523.9281597544186,
    "avg_prior_window": 1708.2217530649466,
    "inception_score_mean": 1.6289038775499936,
    "inception_score_std": 0.05639091023881086,
    "fid_per_class": {
        "airplane": 946.9836613582564,
        "automobile": 1144.9414469643111,
        "bird": 1255.9334759654173,
        "cat": 1069.5967087275599,
        "deer": 1174.7019384968971,
        "dog": 1200.796908604579,
        "frog": 1352.0074138565578,
        "horse": 1206.7317272702562,
        "ship": 932.4811560997792,
        "truck": 1029.244824473169
    },
    "fid": 789.6978058552181,
    "wasserstein_distance": null,
    "g_loss": null,
    "g_cost": null,
    "d_loss_real": null,
    "d_loss_fake": null
}