{
    "epoch": 22,
    "avg_current_window": 1335.7820791847098,
    "avg_prior_window": 1529.2962527646994,
    "inception_score_mean": 1.8823665768902533,
    "inception_score_std": 0.1398771230696555,
    "fid_per_class": {
        "airplane": 1212.4473799371679,
        "automobile": 1382.0401682526176,
        "bird": 1474.2884448408574,
        "cat": 1294.7960906658955,
        "deer": 1609.086277528422,
        "dog": 1302.1207672407766,
        "frog": 1665.002060517861,
        "horse": 1552.160119019823,
        "ship": 1240.917921970117,
        "truck": 1326.6917205569268
    },
    "fid": 1033.81017206471,
    "wasserstein_distance": null,
    "g_loss": null,
    "g_cost": null,
    "d_loss_real": null,
    "d_loss_fake": null
}