{
    "epoch": 50,
    "avg_current_window": 992.569143358404,
    "avg_prior_window": 1042.8743655470548,
    "inception_score_mean": 2.036282734080209,
    "inception_score_std": 0.12449178847831965,
    "fid_per_class": {
        "airplane": 917.6494416609319,
        "automobile": 1107.6293081440774,
        "bird": 1246.1900057993983,
        "cat": 993.4803980920294,
        "deer": 1394.8911443827228,
        "dog": 987.7591953709543,
        "frog": 1449.563350684574,
        "horse": 1213.071920152414,
        "ship": 817.4791378534526,
        "truck": 1106.16749811711
    },
    "fid": 721.2589703362685,
    "wasserstein_distance": null,
    "g_loss": null,
    "g_cost": null,
    "d_loss_real": null,
    "d_loss_fake": null
}