{
    "epoch": 52,
    "avg_current_window": 980.6807750885928,
    "avg_prior_window": 1025.6449105879803,
    "inception_score_mean": 2.0489237253660173,
    "inception_score_std": 0.15483222970502933,
    "fid_per_class": {
        "airplane": 825.8603814861649,
        "automobile": 1110.4157910461402,
        "bird": 1232.1392949678489,
        "cat": 941.1204400491127,
        "deer": 1302.301795360513,
        "dog": 1010.6452629764457,
        "frog": 1332.5250879518792,
        "horse": 1243.8761379365267,
        "ship": 761.7842313057263,
        "truck": 1093.2599093582862
    },
    "fid": 662.5207314652242,
    "wasserstein_distance": null,
    "g_loss": null,
    "g_cost": null,
    "d_loss_real": null,
    "d_loss_fake": null
}