{
    "epoch": 76,
    "avg_current_window": 877.5966845462126,
    "avg_prior_window": 902.6678065910619,
    "inception_score_mean": 2.1107070850962693,
    "inception_score_std": 0.1424359051986677,
    "fid_per_class": {
        "airplane": 894.1159265547036,
        "automobile": 1140.3907452602955,
        "bird": 1171.213259390854,
        "cat": 925.2370240882519,
        "deer": 1150.3343928576176,
        "dog": 900.446247014027,
        "frog": 1200.2841847259033,
        "horse": 1102.61656982057,
        "ship": 926.2369049882718,
        "truck": 1079.3051242309234
    },
    "fid": 613.1395761660206,
    "wasserstein_distance": null,
    "g_loss": null,
    "g_cost": null,
    "d_loss_real": null,
    "d_loss_fake": null
}