{
    "epoch": 14,
    "avg_current_window": 1553.458450460927,
    "avg_prior_window": 1900.2799123087425,
    "inception_score_mean": 1.6898991820172278,
    "inception_score_std": 0.11280602430164904,
    "fid_per_class": {
        "airplane": 1276.7285239108694,
        "automobile": 1401.8757848593302,
        "bird": 1689.5998599817835,
        "cat": 1527.3020444409678,
        "deer": 1811.2548429933784,
        "dog": 1707.0473591447922,
        "frog": 1878.606328874033,
        "horse": 1605.513226707515,
        "ship": 1186.405392488302,
        "truck": 1200.4551348932769
    },
    "fid": 1199.932020944698,
    "wasserstein_distance": null,
    "g_loss": null,
    "g_cost": null,
    "d_loss_real": null,
    "d_loss_fake": null
}