{
    "epoch": 64,
    "avg_current_window": 923.2167741288706,
    "avg_prior_window": 956.5092818128602,
    "inception_score_mean": 2.0951486702459503,
    "inception_score_std": 0.19837765471467475,
    "fid_per_class": {
        "airplane": 864.7475854216711,
        "automobile": 1129.2239862640479,
        "bird": 1124.4700334818444,
        "cat": 939.3459532419977,
        "deer": 1174.307600414064,
        "dog": 916.0081282573593,
        "frog": 1235.8757986102294,
        "horse": 1100.3199847991195,
        "ship": 877.6752806089416,
        "truck": 1023.684400946433
    },
    "fid": 604.3767780114257,
    "wasserstein_distance": null,
    "g_loss": null,
    "g_cost": null,
    "d_loss_real": null,
    "d_loss_fake": null
}