{
    "epoch": 6,
    "avg_current_window": 1850.9847921199853,
    "avg_prior_window": 3.0,
    "inception_score_mean": 1.2468347368550368,
    "inception_score_std": 0.04333918500623361,
    "fid_per_class": {
        "airplane": 1707.631988236506,
        "automobile": 1940.6119204948895,
        "bird": 1844.6150634304024,
        "cat": 2142.9712987701623,
        "deer": 2301.3979451754094,
        "dog": 2312.54351563289,
        "frog": 2498.3661761067196,
        "horse": 2249.7991045593735,
        "ship": 1846.9565795107426,
        "truck": 1856.776317526747
    },
    "fid": 1816.163776960614,
    "wasserstein_distance": null,
    "g_loss": null,
    "g_cost": null,
    "d_loss_real": null,
    "d_loss_fake": null
}