{
    "epoch": 49,
    "avg_current_window": 999.1489611946329,
    "avg_prior_window": 1050.5701547352623,
    "inception_score_mean": 2.024239163809292,
    "inception_score_std": 0.20951053989817126,
    "fid_per_class": {
        "airplane": 867.8954809199447,
        "automobile": 1088.8081626382932,
        "bird": 1164.0290630331833,
        "cat": 997.6973681737506,
        "deer": 1240.2948019510898,
        "dog": 998.0367804458745,
        "frog": 1360.6274425488075,
        "horse": 1269.9766688859322,
        "ship": 786.2061856705844,
        "truck": 1171.6209523878042
    },
    "fid": 670.1580693831862,
    "wasserstein_distance": null,
    "g_loss": null,
    "g_cost": null,
    "d_loss_real": null,
    "d_loss_fake": null
}