{
    "epoch": 46,
    "avg_current_window": 1020.2031836873361,
    "avg_prior_window": 1077.6727860848703,
    "inception_score_mean": 2.076473118959997,
    "inception_score_std": 0.14970870795564728,
    "fid_per_class": {
        "airplane": 867.924211467095,
        "automobile": 1113.4448265318747,
        "bird": 1195.7468120405904,
        "cat": 912.5272101831288,
        "deer": 1096.2907560622596,
        "dog": 942.779660812434,
        "frog": 1211.9387136969285,
        "horse": 1198.0726937019726,
        "ship": 847.0875194984221,
        "truck": 1086.1801877094135
    },
    "fid": 624.590403880061,
    "wasserstein_distance": null,
    "g_loss": null,
    "g_cost": null,
    "d_loss_real": null,
    "d_loss_fake": null
}