{
    "epoch": 18,
    "avg_current_window": 1444.3353498333272,
    "avg_prior_window": 1672.9552543425368,
    "inception_score_mean": 2.0375039213200354,
    "inception_score_std": 0.186250893581439,
    "fid_per_class": {
        "airplane": 902.8888305501107,
        "automobile": 1169.9438523770173,
        "bird": 1325.2741608919318,
        "cat": 1159.1582896341206,
        "deer": 1388.782403868639,
        "dog": 1245.1391490709536,
        "frog": 1570.8264813294663,
        "horse": 1308.2936224184336,
        "ship": 944.97439474301,
        "truck": 1076.1071780074476
    },
    "fid": 792.4447845179449,
    "wasserstein_distance": null,
    "g_loss": null,
    "g_cost": null,
    "d_loss_real": null,
    "d_loss_fake": null
}