{
    "epoch": 17,
    "avg_current_window": 1477.1225887105047,
    "avg_prior_window": 1715.2867513233807,
    "inception_score_mean": 1.8398355374814686,
    "inception_score_std": 0.19127431613181312,
    "fid_per_class": {
        "airplane": 1025.5956721298846,
        "automobile": 1299.3291725874442,
        "bird": 1352.9526647630366,
        "cat": 1165.4074357421348,
        "deer": 1485.4103125501008,
        "dog": 1214.1500896484586,
        "frog": 1709.2094156758785,
        "horse": 1399.2654280129268,
        "ship": 1112.77197668076,
        "truck": 1206.0761400903484
    },
    "fid": 886.9522889213121,
    "wasserstein_distance": null,
    "g_loss": null,
    "g_cost": null,
    "d_loss_real": null,
    "d_loss_fake": null
}