{
    "epoch": 42,
    "avg_current_window": 1052.0139102257067,
    "avg_prior_window": 1124.1615732288285,
    "inception_score_mean": 2.0622265869948637,
    "inception_score_std": 0.21453729889109827,
    "fid_per_class": {
        "airplane": 952.5939196980474,
        "automobile": 1173.1698847711502,
        "bird": 1197.7402307758907,
        "cat": 962.935599559203,
        "deer": 1299.5612976688294,
        "dog": 1012.0587421104199,
        "frog": 1348.1614329311815,
        "horse": 1329.2451252398594,
        "ship": 931.219376503407,
        "truck": 1120.491926572819
    },
    "fid": 706.1758370472064,
    "wasserstein_distance": null,
    "g_loss": null,
    "g_cost": null,
    "d_loss_real": null,
    "d_loss_fake": null
}