{
    "epoch": 72,
    "avg_current_window": 890.1307537217416,
    "avg_prior_window": 918.28388410397,
    "inception_score_mean": 2.068503875023337,
    "inception_score_std": 0.11257127341176076,
    "fid_per_class": {
        "airplane": 891.4634998207029,
        "automobile": 1077.3486394853705,
        "bird": 1255.296714371117,
        "cat": 997.8661708581055,
        "deer": 1260.9526422858537,
        "dog": 977.4949596500007,
        "frog": 1346.7725796251061,
        "horse": 1223.866304596078,
        "ship": 856.1172129180108,
        "truck": 1157.9195245471774
    },
    "fid": 675.7623302788795,
    "wasserstein_distance": null,
    "g_loss": null,
    "g_cost": null,
    "d_loss_real": null,
    "d_loss_fake": null
}