{
    "epoch": 99,
    "avg_current_window": 823.6778613237514,
    "avg_prior_window": 839.6401486918237,
    "inception_score_mean": 2.040404067069048,
    "inception_score_std": 0.08115303651786891,
    "fid_per_class": {
        "airplane": 881.8000845021849,
        "automobile": 1123.2136569261777,
        "bird": 1204.4191077454361,
        "cat": 938.6325248816631,
        "deer": 1261.3409465658501,
        "dog": 992.8572848479321,
        "frog": 1326.9593649488256,
        "horse": 1117.735005062791,
        "ship": 903.81232017773,
        "truck": 1097.4735728847718
    },
    "fid": 654.9081050438464,
    "wasserstein_distance": null,
    "g_loss": null,
    "g_cost": null,
    "d_loss_real": null,
    "d_loss_fake": null
}