{
    "epoch": 43,
    "avg_current_window": 1043.9711643378346,
    "avg_prior_window": 1112.689618925943,
    "inception_score_mean": 2.045144708185406,
    "inception_score_std": 0.1675040595302912,
    "fid_per_class": {
        "airplane": 921.880679815508,
        "automobile": 1201.952014543054,
        "bird": 1184.595638788332,
        "cat": 979.9979935238176,
        "deer": 1363.2161569288332,
        "dog": 973.2095150163949,
        "frog": 1351.0662821598676,
        "horse": 1272.6927096866384,
        "ship": 831.711729928692,
        "truck": 1093.2977308406741
    },
    "fid": 702.452863718026,
    "wasserstein_distance": null,
    "g_loss": null,
    "g_cost": null,
    "d_loss_real": null,
    "d_loss_fake": null
}