{
    "epoch": 39,
    "avg_current_window": 1084.15911587656,
    "avg_prior_window": 1160.215234932612,
    "inception_score_mean": 2.203187193988065,
    "inception_score_std": 0.13894787016535998,
    "fid_per_class": {
        "airplane": 839.090734296818,
        "automobile": 1088.7546338095954,
        "bird": 1148.4654029724666,
        "cat": 920.7068963374492,
        "deer": 1194.9737456481175,
        "dog": 986.7077508818397,
        "frog": 1279.2702935255213,
        "horse": 1171.2006368475834,
        "ship": 879.3493198022513,
        "truck": 1045.6718534568206
    },
    "fid": 596.1940302996481,
    "wasserstein_distance": null,
    "g_loss": null,
    "g_cost": null,
    "d_loss_real": null,
    "d_loss_fake": null
}