{
    "epoch": 73,
    "avg_current_window": 887.194199975949,
    "avg_prior_window": 913.578293051521,
    "inception_score_mean": 2.0040452822996895,
    "inception_score_std": 0.14355778401139685,
    "fid_per_class": {
        "airplane": 925.470524751695,
        "automobile": 1112.6877920544557,
        "bird": 1159.026243788865,
        "cat": 889.6113975202086,
        "deer": 1175.914074464999,
        "dog": 915.2489070302936,
        "frog": 1165.9915148081782,
        "horse": 1137.0182864322828,
        "ship": 818.3417148692073,
        "truck": 1090.1399173295329
    },
    "fid": 609.9667809508198,
    "wasserstein_distance": null,
    "g_loss": null,
    "g_cost": null,
    "d_loss_real": null,
    "d_loss_fake": null
}