{
    "epoch": 86,
    "avg_current_window": 850.4319180878721,
    "avg_prior_window": 871.2177531330458,
    "inception_score_mean": 1.9953859546726829,
    "inception_score_std": 0.1795054628882366,
    "fid_per_class": {
        "airplane": 906.905609701268,
        "automobile": 1136.8734052530076,
        "bird": 1211.3109780240572,
        "cat": 982.234805806511,
        "deer": 1202.1176435271725,
        "dog": 1000.045369234335,
        "frog": 1390.1947072928383,
        "horse": 1221.811881202772,
        "ship": 878.3796159480603,
        "truck": 1169.9752726439317
    },
    "fid": 681.1301584902155,
    "wasserstein_distance": null,
    "g_loss": null,
    "g_cost": null,
    "d_loss_real": null,
    "d_loss_fake": null
}