{
    "epoch": 97,
    "avg_current_window": 826.7075993764759,
    "avg_prior_window": 844.7960344826998,
    "inception_score_mean": 2.122246749250701,
    "inception_score_std": 0.22669474317072502,
    "fid_per_class": {
        "airplane": 931.7843161207625,
        "automobile": 1109.522277480668,
        "bird": 1208.5087061381896,
        "cat": 1002.1897784151487,
        "deer": 1194.0279435502096,
        "dog": 987.7231995467118,
        "frog": 1399.552547118194,
        "horse": 1134.9317422843596,
        "ship": 844.2662751016993,
        "truck": 1044.6046442903958
    },
    "fid": 647.2516142158406,
    "wasserstein_distance": null,
    "g_loss": null,
    "g_cost": null,
    "d_loss_real": null,
    "d_loss_fake": null
}