{
    "epoch": 21,
    "avg_current_window": 1361.7310944360322,
    "avg_prior_window": 1569.4427505049111,
    "inception_score_mean": 1.8087897533594526,
    "inception_score_std": 0.0741317752063701,
    "fid_per_class": {
        "airplane": 1041.2496254277503,
        "automobile": 1369.8980314035318,
        "bird": 1306.346215807709,
        "cat": 1093.2646355260688,
        "deer": 1422.690905224384,
        "dog": 1126.3303197675334,
        "frog": 1374.4609981654664,
        "horse": 1449.4054658787127,
        "ship": 1067.6241651030582,
        "truck": 1260.7956750317173
    },
    "fid": 790.8527589069367,
    "wasserstein_distance": null,
    "g_loss": null,
    "g_cost": null,
    "d_loss_real": null,
    "d_loss_fake": null
}