{
    "epoch": 36,
    "avg_current_window": 1116.7207648144458,
    "avg_prior_window": 1201.371272851209,
    "inception_score_mean": 2.1739231057992123,
    "inception_score_std": 0.1808679621625764,
    "fid_per_class": {
        "airplane": 950.2843002005507,
        "automobile": 1178.1205221086757,
        "bird": 1240.1483604978766,
        "cat": 995.1822179898188,
        "deer": 1310.2080220600478,
        "dog": 1046.5102089669929,
        "frog": 1386.1295521652278,
        "horse": 1247.2196548861139,
        "ship": 978.3081672130984,
        "truck": 1182.0121126172671
    },
    "fid": 700.4907621178882,
    "wasserstein_distance": null,
    "g_loss": null,
    "g_cost": null,
    "d_loss_real": null,
    "d_loss_fake": null
}