{
    "epoch": 23,
    "avg_current_window": 1322.6528658316663,
    "avg_prior_window": 1488.3600600843242,
    "inception_score_mean": 2.0662330522930374,
    "inception_score_std": 0.11399246418321564,
    "fid_per_class": {
        "airplane": 999.2852648879457,
        "automobile": 1242.3103481020644,
        "bird": 1290.3725918214982,
        "cat": 1024.101311696807,
        "deer": 1400.9411728590453,
        "dog": 1105.8854654227466,
        "frog": 1440.7425017922953,
        "horse": 1393.8816095918842,
        "ship": 947.4484535580755,
        "truck": 1160.2196756582641
    },
    "fid": 766.2739292634789,
    "wasserstein_distance": null,
    "g_loss": null,
    "g_cost": null,
    "d_loss_real": null,
    "d_loss_fake": null
}