{
    "epoch": 94,
    "avg_current_window": 833.2672636631414,
    "avg_prior_window": 851.0653466342646,
    "inception_score_mean": 2.2145319604174807,
    "inception_score_std": 0.23851329150517767,
    "fid_per_class": {
        "airplane": 924.7976838414143,
        "automobile": 1111.0237744740139,
        "bird": 1206.6793737570692,
        "cat": 974.7192201026055,
        "deer": 1120.4632698812904,
        "dog": 866.4027368290754,
        "frog": 1178.1757001313676,
        "horse": 1066.6054111453695,
        "ship": 887.805881212862,
        "truck": 1027.7647451980042
    },
    "fid": 599.0511926961372,
    "wasserstein_distance": null,
    "g_loss": null,
    "g_cost": null,
    "d_loss_real": null,
    "d_loss_fake": null
}