{
    "epoch": 15,
    "avg_current_window": 1529.8900218265119,
    "avg_prior_window": 1811.8595875816977,
    "inception_score_mean": 2.0467285624045397,
    "inception_score_std": 0.1666531572607986,
    "fid_per_class": {
        "airplane": 1225.805441369853,
        "automobile": 1311.6228237876035,
        "bird": 1425.3373792764623,
        "cat": 1264.6253046696863,
        "deer": 1583.3414761926026,
        "dog": 1252.9734529702919,
        "frog": 1602.009802984461,
        "horse": 1588.989826355696,
        "ship": 1228.4993004187581,
        "truck": 1284.0468100532507
    },
    "fid": 985.0543491772921,
    "wasserstein_distance": null,
    "g_loss": null,
    "g_cost": null,
    "d_loss_real": null,
    "d_loss_fake": null
}