{
    "epoch": 32,
    "avg_current_window": 1163.8284205746086,
    "avg_prior_window": 1273.6842105753096,
    "inception_score_mean": 2.1366046394279286,
    "inception_score_std": 0.1383066753692891,
    "fid_per_class": {
        "airplane": 971.0977661979546,
        "automobile": 1248.8068666638005,
        "bird": 1266.5767463835634,
        "cat": 1019.5428174822466,
        "deer": 1425.5217183876925,
        "dog": 1148.4650021918462,
        "frog": 1475.8672913930745,
        "horse": 1320.0855436940283,
        "ship": 972.1486964284269,
        "truck": 1127.3193145827288
    },
    "fid": 742.0353151186971,
    "wasserstein_distance": null,
    "g_loss": null,
    "g_cost": null,
    "d_loss_real": null,
    "d_loss_fake": null
}