{
    "epoch": 66,
    "avg_current_window": 913.8845486330351,
    "avg_prior_window": 945.9567415067096,
    "inception_score_mean": 2.1235756566225166,
    "inception_score_std": 0.21253169368330668,
    "fid_per_class": {
        "airplane": 871.4190383510556,
        "automobile": 1050.1178699200495,
        "bird": 1090.906069482989,
        "cat": 869.4360995292251,
        "deer": 1172.258907746293,
        "dog": 944.8028879549915,
        "frog": 1110.9613456196812,
        "horse": 1056.6210792086163,
        "ship": 878.0520527579558,
        "truck": 1055.14249758615
    },
    "fid": 573.1833855825887,
    "wasserstein_distance": null,
    "g_loss": null,
    "g_cost": null,
    "d_loss_real": null,
    "d_loss_fake": null
}