{
    "epoch": 90,
    "avg_current_window": 841.609065004995,
    "avg_prior_window": 860.4369994771412,
    "inception_score_mean": 2.0264747040965836,
    "inception_score_std": 0.16547161191658852,
    "fid_per_class": {
        "airplane": 938.3918251513709,
        "automobile": 1101.3612645263956,
        "bird": 1250.684654771006,
        "cat": 992.1508206340491,
        "deer": 1261.137979665389,
        "dog": 983.2446893991751,
        "frog": 1428.8267542414887,
        "horse": 1183.7470864875677,
        "ship": 902.247127001947,
        "truck": 1113.218362438477
    },
    "fid": 699.2747183087699,
    "wasserstein_distance": null,
    "g_loss": null,
    "g_cost": null,
    "d_loss_real": null,
    "d_loss_fake": null
}