{
    "epoch": 3,
    "avg_current_window": 864.1515687520932,
    "avg_prior_window": 2259.407408374326,
    "inception_score_mean": 1.0304527800146737,
    "inception_score_std": 0.010717930589640368,
    "fid_per_class": {
        "airplane": 1795.2135376017418,
        "automobile": 1921.7143111616476,
        "bird": 2410.1095008102207,
        "cat": 2496.3100679581094,
        "deer": 2856.493926193112,
        "dog": 2417.4263818558948,
        "frog": 2724.5400351380804,
        "horse": 2361.47581512559,
        "ship": 1937.8193931850383,
        "truck": 1846.843497793052
    },
    "fid": 2165.551173306174,
    "wasserstein_distance": null,
    "g_loss": null,
    "g_cost": null,
    "d_loss_real": null,
    "d_loss_fake": null
}