{
    "epoch": 81,
    "avg_current_window": 862.9618633039196,
    "avg_prior_window": 885.6643105483971,
    "inception_score_mean": 1.9857882461739322,
    "inception_score_std": 0.1725855060186731,
    "fid_per_class": {
        "airplane": 895.0415867162983,
        "automobile": 1116.251257762653,
        "bird": 1215.9160716640818,
        "cat": 964.4647064342114,
        "deer": 1250.141466642192,
        "dog": 979.1670153772118,
        "frog": 1364.4570555729238,
        "horse": 1155.17145897302,
        "ship": 853.9358795201335,
        "truck": 1100.475846762486
    },
    "fid": 668.727076159226,
    "wasserstein_distance": null,
    "g_loss": null,
    "g_cost": null,
    "d_loss_real": null,
    "d_loss_fake": null
}