{
    "epoch": 44,
    "avg_current_window": 1036.2093847782935,
    "avg_prior_window": 1099.4461422944999,
    "inception_score_mean": 2.0533380331554882,
    "inception_score_std": 0.13998901557398483,
    "fid_per_class": {
        "airplane": 859.7238184865959,
        "automobile": 1177.7521115866268,
        "bird": 1160.9188330783766,
        "cat": 960.0986422133344,
        "deer": 1250.8482991557262,
        "dog": 990.938883843301,
        "frog": 1332.1537539199412,
        "horse": 1198.8774572329212,
        "ship": 785.4478357318894,
        "truck": 1124.423934095073
    },
    "fid": 631.8738781066287,
    "wasserstein_distance": null,
    "g_loss": null,
    "g_cost": null,
    "d_loss_real": null,
    "d_loss_fake": null
}