{
    "epoch": 37,
    "avg_current_window": 1105.4713052821064,
    "avg_prior_window": 1187.0170241720677,
    "inception_score_mean": 2.1444409370437136,
    "inception_score_std": 0.14484932733714015,
    "fid_per_class": {
        "airplane": 962.8879956594989,
        "automobile": 1200.9346907733345,
        "bird": 1217.277154477967,
        "cat": 969.2024375464005,
        "deer": 1294.423689087789,
        "dog": 1043.4339767949111,
        "frog": 1360.405674220896,
        "horse": 1320.8650664360582,
        "ship": 962.6040761396706,
        "truck": 1178.056571986535
    },
    "fid": 691.539914028714,
    "wasserstein_distance": null,
    "g_loss": null,
    "g_cost": null,
    "d_loss_real": null,
    "d_loss_fake": null
}