{
    "epoch": 62,
    "avg_current_window": 930.6993747082143,
    "avg_prior_window": 967.3646623077796,
    "inception_score_mean": 1.9941023077866131,
    "inception_score_std": 0.15368321611499286,
    "fid_per_class": {
        "airplane": 936.6608664444982,
        "automobile": 1142.439562340842,
        "bird": 1209.0333128285636,
        "cat": 973.4205388608821,
        "deer": 1312.4993274619326,
        "dog": 913.8432857327618,
        "frog": 1468.4648691204393,
        "horse": 1287.5126508308404,
        "ship": 861.2757853515366,
        "truck": 1192.4445659594833
    },
    "fid": 714.6213286028935,
    "wasserstein_distance": null,
    "g_loss": null,
    "g_cost": null,
    "d_loss_real": null,
    "d_loss_fake": null
}