{
    "epoch": 34,
    "avg_current_window": 1139.8213880667545,
    "avg_prior_window": 1234.3133438539444,
    "inception_score_mean": 2.02552983878455,
    "inception_score_std": 0.19011771676161168,
    "fid_per_class": {
        "airplane": 919.9098081697546,
        "automobile": 1150.1222116020745,
        "bird": 1222.7057976943627,
        "cat": 993.4481134792375,
        "deer": 1350.1548251868683,
        "dog": 1030.2518229185685,
        "frog": 1448.6718233612446,
        "horse": 1271.722126492438,
        "ship": 904.4997685955288,
        "truck": 1147.626231021269
    },
    "fid": 693.3907934391601,
    "wasserstein_distance": null,
    "g_loss": null,
    "g_cost": null,
    "d_loss_real": null,
    "d_loss_fake": null
}