{
    "epoch": 89,
    "avg_current_window": 843.2816816712054,
    "avg_prior_window": 862.7987185965869,
    "inception_score_mean": 2.0502259553668205,
    "inception_score_std": 0.12621442008474207,
    "fid_per_class": {
        "airplane": 900.3618677618982,
        "automobile": 1200.2266049070404,
        "bird": 1210.9593190452388,
        "cat": 1011.5654929342847,
        "deer": 1213.349172330772,
        "dog": 952.4726566507405,
        "frog": 1360.1013037142056,
        "horse": 1182.3390808762192,
        "ship": 866.8799917300463,
        "truck": 1171.3201278006932
    },
    "fid": 692.7461817122696,
    "wasserstein_distance": null,
    "g_loss": null,
    "g_cost": null,
    "d_loss_real": null,
    "d_loss_fake": null
}