{
    "epoch": 9,
    "avg_current_window": 1779.4971216465349,
    "avg_prior_window": 2296.4971464701516,
    "inception_score_mean": 1.604132740955403,
    "inception_score_std": 0.06274617710728699,
    "fid_per_class": {
        "airplane": 1342.0669814922649,
        "automobile": 1413.609009342307,
        "bird": 1288.0285168159453,
        "cat": 1469.0631103380697,
        "deer": 1388.8291290639013,
        "dog": 1522.9960995451293,
        "frog": 1635.136782359165,
        "horse": 1489.173192737756,
        "ship": 1322.8152645030216,
        "truck": 1332.8739560268805
    },
    "fid": 1087.0451159598701,
    "wasserstein_distance": null,
    "g_loss": null,
    "g_cost": null,
    "d_loss_real": null,
    "d_loss_fake": null
}