{
    "epoch": 53,
    "avg_current_window": 974.6777553975858,
    "avg_prior_window": 1019.9645645528544,
    "inception_score_mean": 2.057234544013726,
    "inception_score_std": 0.15906623344741744,
    "fid_per_class": {
        "airplane": 858.1024213036927,
        "automobile": 1027.446238905874,
        "bird": 1160.2921304836445,
        "cat": 994.2919813176258,
        "deer": 1228.03094827303,
        "dog": 973.0031200919218,
        "frog": 1354.2464687495712,
        "horse": 1165.0700827211213,
        "ship": 892.8910664931683,
        "truck": 1095.018424450941
    },
    "fid": 636.5599234806859,
    "wasserstein_distance": null,
    "g_loss": null,
    "g_cost": null,
    "d_loss_real": null,
    "d_loss_fake": null
}