{
    "epoch": 63,
    "avg_current_window": 927.2695644525743,
    "avg_prior_window": 962.4812617946723,
    "inception_score_mean": 1.9898469962113545,
    "inception_score_std": 0.16773998057586986,
    "fid_per_class": {
        "airplane": 923.3707541649624,
        "automobile": 1102.8374610636556,
        "bird": 1156.2545185890478,
        "cat": 953.1054208805483,
        "deer": 1260.6894303799731,
        "dog": 986.2023467255325,
        "frog": 1342.0829893489413,
        "horse": 1174.4894770975282,
        "ship": 808.6910829311402,
        "truck": 1087.015860370937
    },
    "fid": 667.8909837355382,
    "wasserstein_distance": null,
    "g_loss": null,
    "g_cost": null,
    "d_loss_real": null,
    "d_loss_fake": null
}