{
    "epoch": 25,
    "avg_current_window": 1280.8204275538474,
    "avg_prior_window": 1429.8176491578338,
    "inception_score_mean": 2.1463197116408237,
    "inception_score_std": 0.11857313456474923,
    "fid_per_class": {
        "airplane": 1088.9594967939724,
        "automobile": 1239.6533683282078,
        "bird": 1236.0060709078225,
        "cat": 923.8728031934173,
        "deer": 1258.7355420483646,
        "dog": 1064.325340202222,
        "frog": 1271.3679493974041,
        "horse": 1239.8100296097093,
        "ship": 1089.9495082644544,
        "truck": 1177.0548318616636
    },
    "fid": 704.305564561024,
    "wasserstein_distance": null,
    "g_loss": null,
    "g_cost": null,
    "d_loss_real": null,
    "d_loss_fake": null
}