{
    "epoch": 40,
    "avg_current_window": 1071.9599887371373,
    "avg_prior_window": 1148.627072380573,
    "inception_score_mean": 2.097493728768368,
    "inception_score_std": 0.1446018002398041,
    "fid_per_class": {
        "airplane": 921.4134294329815,
        "automobile": 1148.9701811506002,
        "bird": 1272.1495105905256,
        "cat": 1037.1102467511207,
        "deer": 1362.384121176142,
        "dog": 1057.1277864859985,
        "frog": 1465.5454064376265,
        "horse": 1337.6512961265482,
        "ship": 847.5987574698108,
        "truck": 1061.1583595058091
    },
    "fid": 736.0200641075917,
    "wasserstein_distance": null,
    "g_loss": null,
    "g_cost": null,
    "d_loss_real": null,
    "d_loss_fake": null
}