{
    "epoch": 224,
    "avg_current_window": 1216.8249184949866,
    "avg_prior_window": 1225.5285451507373,
    "inception_score_mean": 2.11058130889362,
    "inception_score_std": 0.14692966067866792,
    "fid_per_class": {
        "airplane": 1192.6229311893433,
        "automobile": 1248.7370287836852,
        "bird": 1568.8470703549633,
        "cat": 1344.6877077560323,
        "deer": 1842.4207598995276,
        "dog": 1488.3364018210932,
        "frog": 1999.5791599182267,
        "horse": 1361.0797955958583,
        "ship": 1103.1557091875775,
        "truck": 1113.2320196678322
    },
    "fid": 993.8880050444294
}