{
    "epoch": 26,
    "avg_current_window": 1662.1506297098226,
    "avg_prior_window": 1761.1937063270375,
    "inception_score_mean": 1.5883836731142926,
    "inception_score_std": 0.08198701196142212,
    "fid_per_class": {
        "airplane": 1458.553513356546,
        "automobile": 1462.5961424552552,
        "bird": 2037.9052676538768,
        "cat": 1780.2163279829751,
        "deer": 2161.6468929058965,
        "dog": 1839.1403684651664,
        "frog": 2468.8886760699525,
        "horse": 1908.5038401174866,
        "ship": 1381.2322952008558,
        "truck": 1382.3906613706386
    },
    "fid": 1519.7294196712014
}