{
    "epoch": 58,
    "avg_current_window": 1524.5016752549286,
    "avg_prior_window": 1569.3647210613149,
    "inception_score_mean": 1.7125674720944613,
    "inception_score_std": 0.07915185068453723,
    "fid_per_class": {
        "airplane": 1197.7975565260706,
        "automobile": 1427.4695011274564,
        "bird": 1866.134785461616,
        "cat": 1514.7882042986737,
        "deer": 2022.0415427435414,
        "dog": 1523.273353539686,
        "frog": 2306.3226865006673,
        "horse": 1736.3335873827928,
        "ship": 1293.6834380509977,
        "truck": 1314.8515501359848
    },
    "fid": 1290.3808545217564
}