{
    "epoch": 156,
    "avg_current_window": 1289.267866245542,
    "avg_prior_window": 1304.3678023282189,
    "inception_score_mean": 1.983590595249471,
    "inception_score_std": 0.09089571125116039,
    "fid_per_class": {
        "airplane": 1211.6279968836113,
        "automobile": 1259.130813043925,
        "bird": 1526.1316925776568,
        "cat": 1266.8529501290132,
        "deer": 1632.364873013457,
        "dog": 1289.8342787975778,
        "frog": 2046.5377555942423,
        "horse": 1438.6330962673323,
        "ship": 1213.1048585921667,
        "truck": 1171.0086481443323
    },
    "fid": 1026.1562780622849
}