{
    "epoch": 117,
    "avg_current_window": 1356.271222642181,
    "avg_prior_window": 1379.0242383956734,
    "inception_score_mean": 1.9654739370248149,
    "inception_score_std": 0.09380325040520694,
    "fid_per_class": {
        "airplane": 1234.3565867209911,
        "automobile": 1317.2647522012523,
        "bird": 1633.4161404733672,
        "cat": 1290.4132858638727,
        "deer": 1786.8643535272618,
        "dog": 1475.8104715046447,
        "frog": 2035.9518306241503,
        "horse": 1554.6309991350472,
        "ship": 1162.1033454668955,
        "truck": 1220.035442700394
    },
    "fid": 1108.1683189710566
}