{
    "epoch": 107,
    "avg_current_window": 1381.7175695046803,
    "avg_prior_window": 1405.7317350141973,
    "inception_score_mean": 1.9821296569506255,
    "inception_score_std": 0.13451558992942855,
    "fid_per_class": {
        "airplane": 1173.5379763540577,
        "automobile": 1255.457802299485,
        "bird": 1672.3991170415047,
        "cat": 1282.801710947832,
        "deer": 1845.666928566438,
        "dog": 1500.037626973222,
        "frog": 2197.414099231233,
        "horse": 1634.1627847632435,
        "ship": 1228.3345900224504,
        "truck": 1134.0526576174475
    },
    "fid": 1115.647248480172
}