{
    "epoch": 207,
    "avg_current_window": 1229.3755476769234,
    "avg_prior_window": 1236.9216382816885,
    "inception_score_mean": 2.071535715297527,
    "inception_score_std": 0.1968721090284054,
    "fid_per_class": {
        "airplane": 1217.6822814149307,
        "automobile": 1293.0598935417406,
        "bird": 1713.6757104991211,
        "cat": 1442.0033773069322,
        "deer": 1972.7638575678457,
        "dog": 1604.3637768299343,
        "frog": 2171.2812920576566,
        "horse": 1646.78631898308,
        "ship": 1190.5110216474595,
        "truck": 1197.0427010450144
    },
    "fid": 1164.4682765011626
}