{
    "epoch": 115,
    "avg_current_window": 1361.6230207026074,
    "avg_prior_window": 1384.065277965063,
    "inception_score_mean": 1.9478170050131216,
    "inception_score_std": 0.12365685706713321,
    "fid_per_class": {
        "airplane": 1127.8870089415054,
        "automobile": 1249.423507363619,
        "bird": 1598.1396336845837,
        "cat": 1267.0465161730435,
        "deer": 1809.8868739623804,
        "dog": 1404.4109753253517,
        "frog": 2043.844784019375,
        "horse": 1531.8894350462456,
        "ship": 1132.3076896205575,
        "truck": 1194.8288426663962
    },
    "fid": 1058.1606645700813
}