{
    "epoch": 219,
    "avg_current_window": 1220.848557477716,
    "avg_prior_window": 1229.580106822485,
    "inception_score_mean": 2.0369441697320054,
    "inception_score_std": 0.11695761795343884,
    "fid_per_class": {
        "airplane": 1188.6690752664417,
        "automobile": 1262.2583495586373,
        "bird": 1486.1045072747172,
        "cat": 1320.6011090721054,
        "deer": 1659.7639997835195,
        "dog": 1397.9548227668245,
        "frog": 1930.1924943191757,
        "horse": 1433.346227011201,
        "ship": 1135.5906616447676,
        "truck": 1115.3584439266037
    },
    "fid": 1024.9173003916371
}