{
    "epoch": 36,
    "avg_current_window": 1612.3911238199694,
    "avg_prior_window": 1677.9801428660794,
    "inception_score_mean": 1.7428157863358105,
    "inception_score_std": 0.12107237595585735,
    "fid_per_class": {
        "airplane": 1483.5251100512744,
        "automobile": 1467.8339701015243,
        "bird": 2045.9857404672982,
        "cat": 1887.4261297433163,
        "deer": 2191.3407601447493,
        "dog": 1938.8731597594053,
        "frog": 2478.377562608821,
        "horse": 1918.9603242432984,
        "ship": 1399.3296316581284,
        "truck": 1321.7259912349973
    },
    "fid": 1534.2972586756127
}