{
    "epoch": 131,
    "avg_current_window": 1329.1519417310749,
    "avg_prior_window": 1346.7813301842002,
    "inception_score_mean": 1.9253670586808447,
    "inception_score_std": 0.10546666509304906,
    "fid_per_class": {
        "airplane": 1235.448412892959,
        "automobile": 1310.8053269679467,
        "bird": 1631.1212262018048,
        "cat": 1421.6000495962774,
        "deer": 1965.1684778648469,
        "dog": 1534.818359108827,
        "frog": 2176.289390760592,
        "horse": 1583.5169790749562,
        "ship": 1223.7670966426194,
        "truck": 1220.0234619098815
    },
    "fid": 1172.19389503716
}