{
    "epoch": 134,
    "avg_current_window": 1324.273198949175,
    "avg_prior_window": 1341.0363944182627,
    "inception_score_mean": 1.8925109654800394,
    "inception_score_std": 0.10098759444678797,
    "fid_per_class": {
        "airplane": 1198.4205588540362,
        "automobile": 1269.0411063574468,
        "bird": 1687.9193857517985,
        "cat": 1412.4100658722605,
        "deer": 1776.944882202251,
        "dog": 1446.5777996582437,
        "frog": 2168.261991428362,
        "horse": 1511.2976840427973,
        "ship": 1103.0993040781134,
        "truck": 1173.4941343277708
    },
    "fid": 1106.6248613649636
}