{
    "epoch": 53,
    "avg_current_window": 1544.9191309869627,
    "avg_prior_window": 1592.1640120391203,
    "inception_score_mean": 1.8025697377181906,
    "inception_score_std": 0.12335961846073194,
    "fid_per_class": {
        "airplane": 1250.996208545615,
        "automobile": 1431.6675144261728,
        "bird": 1893.302299929148,
        "cat": 1515.5427906180155,
        "deer": 2028.8744930480118,
        "dog": 1518.4849789589312,
        "frog": 2235.8651573955,
        "horse": 1761.0744809229604,
        "ship": 1217.769640784795,
        "truck": 1323.1953543616542
    },
    "fid": 1295.6162739406514
}