{
    "epoch": 197,
    "avg_current_window": 1236.9050197527447,
    "avg_prior_window": 1247.904307255257,
    "inception_score_mean": 2.0004459823005667,
    "inception_score_std": 0.14177796321212052,
    "fid_per_class": {
        "airplane": 1212.625776644616,
        "automobile": 1261.0107275718742,
        "bird": 1521.982940439841,
        "cat": 1352.3649781044764,
        "deer": 1729.8695475268396,
        "dog": 1366.8201716799172,
        "frog": 1944.6019967465454,
        "horse": 1554.7964756641745,
        "ship": 1102.251023379396,
        "truck": 1178.731625418923
    },
    "fid": 1041.2972939893216
}