{
    "epoch": 102,
    "avg_current_window": 1395.0738135412212,
    "avg_prior_window": 1419.756416811187,
    "inception_score_mean": 1.9402834465434236,
    "inception_score_std": 0.11315376813045779,
    "fid_per_class": {
        "airplane": 1145.6911725310697,
        "automobile": 1265.5481901866333,
        "bird": 1643.449229035125,
        "cat": 1297.784237388072,
        "deer": 1764.7589629634836,
        "dog": 1381.2668060650803,
        "frog": 2146.6547327771186,
        "horse": 1597.7069782042265,
        "ship": 1201.1612768736481,
        "truck": 1176.7779909512228
    },
    "fid": 1087.107990243559
}