{
    "epoch": 30,
    "avg_current_window": 1637.19620908305,
    "avg_prior_window": 1728.6366548982155,
    "inception_score_mean": 1.6713775228954042,
    "inception_score_std": 0.15492153325993094,
    "fid_per_class": {
        "airplane": 1416.017484487525,
        "automobile": 1461.6835576460853,
        "bird": 1950.8586746141527,
        "cat": 1759.7451936662503,
        "deer": 2174.7818170954633,
        "dog": 1705.5848367569934,
        "frog": 2448.7091492456407,
        "horse": 1809.0795379279448,
        "ship": 1379.9122415193788,
        "truck": 1308.8387133288873
    },
    "fid": 1437.3630334304573
}