{
    "epoch": 136,
    "avg_current_window": 1321.184080401073,
    "avg_prior_window": 1338.0999867313587,
    "inception_score_mean": 2.034329766036282,
    "inception_score_std": 0.14497893201206577,
    "fid_per_class": {
        "airplane": 1192.6814442952318,
        "automobile": 1247.3643414441583,
        "bird": 1654.5469715781364,
        "cat": 1477.8961190840073,
        "deer": 1855.5585263437845,
        "dog": 1558.335267525767,
        "frog": 2088.3620707665887,
        "horse": 1481.8451365742699,
        "ship": 1133.397269045517,
        "truck": 1196.455313843272
    },
    "fid": 1120.6407871466176
}