{
    "epoch": 60,
    "avg_current_window": 1516.266838872069,
    "avg_prior_window": 1560.9521619613809,
    "inception_score_mean": 1.7626634792335967,
    "inception_score_std": 0.07912757747188491,
    "fid_per_class": {
        "airplane": 1395.4512315665343,
        "automobile": 1467.5299715703711,
        "bird": 1911.9855274504362,
        "cat": 1482.9370564714156,
        "deer": 1996.2435217553766,
        "dog": 1640.0167194301202,
        "frog": 2324.449265822801,
        "horse": 1697.3741692478231,
        "ship": 1292.686815401457,
        "truck": 1375.054104444258
    },
    "fid": 1351.0067428483544
}