{
    "epoch": 150,
    "avg_current_window": 1298.7880376731462,
    "avg_prior_window": 1314.3918402079719,
    "inception_score_mean": 2.0282839199989846,
    "inception_score_std": 0.07773874928402545,
    "fid_per_class": {
        "airplane": 1226.0671231967483,
        "automobile": 1276.8809160460912,
        "bird": 1542.5355470046877,
        "cat": 1384.5006321518692,
        "deer": 1700.111511907277,
        "dog": 1528.4400963554638,
        "frog": 1934.9194179864435,
        "horse": 1561.74397274815,
        "ship": 1179.1985603150306,
        "truck": 1236.7671935829921
    },
    "fid": 1095.4880240548673
}