{
    "epoch": 47,
    "avg_current_window": 1566.9780233892304,
    "avg_prior_window": 1622.1769380358244,
    "inception_score_mean": 1.8087663117766557,
    "inception_score_std": 0.08325444595530473,
    "fid_per_class": {
        "airplane": 1349.602925664455,
        "automobile": 1410.2050848197134,
        "bird": 1857.7667100137771,
        "cat": 1689.5260814391968,
        "deer": 2077.8761276735236,
        "dog": 1748.2239983403479,
        "frog": 2313.4454694171786,
        "horse": 1756.6699054257679,
        "ship": 1331.7281358701105,
        "truck": 1288.252073576386
    },
    "fid": 1381.4933179766495
}