{
    "epoch": 142,
    "avg_current_window": 1310.6983933366853,
    "avg_prior_window": 1327.6281575526539,
    "inception_score_mean": 1.965186526572087,
    "inception_score_std": 0.12391168039058614,
    "fid_per_class": {
        "airplane": 1181.6953539593524,
        "automobile": 1281.5334958844373,
        "bird": 1615.5398591367061,
        "cat": 1412.7654476512967,
        "deer": 1838.0035294007043,
        "dog": 1497.3063876097744,
        "frog": 2195.078138892005,
        "horse": 1558.5829450599244,
        "ship": 1122.6088179742142,
        "truck": 1183.8144555969486
    },
    "fid": 1114.6276100855116
}