{
    "epoch": 21,
    "avg_current_window": 1683.0160170633546,
    "avg_prior_window": 1806.8859814909633,
    "inception_score_mean": 1.794075916207979,
    "inception_score_std": 0.164068287040114,
    "fid_per_class": {
        "airplane": 1624.1991505992175,
        "automobile": 1604.4597791868514,
        "bird": 2143.643344598419,
        "cat": 1933.2892869598845,
        "deer": 2279.076355999694,
        "dog": 1924.008282829836,
        "frog": 2476.0670787775416,
        "horse": 1989.8115302492988,
        "ship": 1646.8531781979711,
        "truck": 1475.9331195926584
    },
    "fid": 1641.7314745373424
}