{
    "epoch": 177,
    "avg_current_window": 1260.585911809593,
    "avg_prior_window": 1272.6631836220959,
    "inception_score_mean": 2.0516158810960863,
    "inception_score_std": 0.1728385901717983,
    "fid_per_class": {
        "airplane": 1115.6361966182708,
        "automobile": 1184.8427886048482,
        "bird": 1562.0993858165848,
        "cat": 1277.8096952084684,
        "deer": 1752.4490548270667,
        "dog": 1427.168744640933,
        "frog": 2072.3450403023553,
        "horse": 1421.9419251853026,
        "ship": 1068.6116831295394,
        "truck": 1118.803146632917
    },
    "fid": 1019.258956332214
}