{
    "epoch": 2,
    "avg_current_window": 1472.121619526762,
    "avg_prior_window": 2947.243239053524,
    "inception_score_mean": 1.0102254235770343,
    "inception_score_std": 0.0023671473967206477,
    "fid_per_class": {
        "airplane": 2056.1413597644596,
        "automobile": 1939.2062751256226,
        "bird": 2493.21932461385,
        "cat": 2301.760438123376,
        "deer": 2593.7823651336234,
        "dog": 2279.7385592992523,
        "frog": 2762.5363829003263,
        "horse": 2269.1321302924407,
        "ship": 1947.128291772925,
        "truck": 1739.8099547371226
    },
    "fid": 2203.552059262127
}