{
    "epoch": 216,
    "avg_current_window": 1223.3649656702275,
    "avg_prior_window": 1232.229052039333,
    "inception_score_mean": 2.120846963798197,
    "inception_score_std": 0.18323704163619717,
    "fid_per_class": {
        "airplane": 1187.1490689442185,
        "automobile": 1274.0825546674055,
        "bird": 1574.3115717997098,
        "cat": 1296.8382112226695,
        "deer": 1766.8513972624278,
        "dog": 1402.1608799573842,
        "frog": 2016.2941105455484,
        "horse": 1471.1031308104202,
        "ship": 1154.8114903817445,
        "truck": 1138.2416405828599
    },
    "fid": 1054.572191083006
}