{
    "epoch": 204,
    "avg_current_window": 1230.4355649103898,
    "avg_prior_window": 1240.5364564558815,
    "inception_score_mean": 1.989532441984656,
    "inception_score_std": 0.19292948372237148,
    "fid_per_class": {
        "airplane": 1290.6703629642848,
        "automobile": 1297.8384094799671,
        "bird": 1595.0913227226608,
        "cat": 1533.8759758351887,
        "deer": 1844.83278159098,
        "dog": 1616.404492753147,
        "frog": 2124.572062749575,
        "horse": 1613.1131151374057,
        "ship": 1298.036875563147,
        "truck": 1194.8351891540765
    },
    "fid": 1193.0122237740893
}