{
    "epoch": 127,
    "avg_current_window": 1336.176752781175,
    "avg_prior_window": 1354.983278195859,
    "inception_score_mean": 1.9466920585130065,
    "inception_score_std": 0.11022912119701161,
    "fid_per_class": {
        "airplane": 1169.2093982989877,
        "automobile": 1324.470714049699,
        "bird": 1604.1919570457135,
        "cat": 1275.4188141679665,
        "deer": 1833.324131080949,
        "dog": 1557.4967035427524,
        "frog": 2147.919666630398,
        "horse": 1522.7842830042841,
        "ship": 1135.3219922725102,
        "truck": 1203.244319808563
    },
    "fid": 1106.9537915517135
}