{
    "epoch": 80,
    "avg_current_window": 1451.2936569677736,
    "avg_prior_window": 1481.805574950955,
    "inception_score_mean": 1.8130042511931914,
    "inception_score_std": 0.12743867832533742,
    "fid_per_class": {
        "airplane": 1214.6521129434666,
        "automobile": 1385.747718931382,
        "bird": 1962.6862203579456,
        "cat": 1594.6291337501266,
        "deer": 1980.5981745708023,
        "dog": 1623.8633340631436,
        "frog": 2356.1428422175045,
        "horse": 1753.7487557467998,
        "ship": 1189.1074705816409,
        "truck": 1236.580364945954
    },
    "fid": 1290.5679267937644
}