{
    "epoch": 44,
    "avg_current_window": 1581.491966727259,
    "avg_prior_window": 1636.7556998701518,
    "inception_score_mean": 1.6729883676443928,
    "inception_score_std": 0.09132975704626355,
    "fid_per_class": {
        "airplane": 1331.39216416729,
        "automobile": 1396.3870091737572,
        "bird": 1951.8866358886717,
        "cat": 1755.5768413633305,
        "deer": 2058.687787461323,
        "dog": 1776.0033361207445,
        "frog": 2343.3354276011787,
        "horse": 1845.4794753999806,
        "ship": 1250.9561306236285,
        "truck": 1318.722113960859
    },
    "fid": 1389.9129985976508
}