{
    "epoch": 111,
    "avg_current_window": 1371.596221406819,
    "avg_prior_window": 1394.752640915102,
    "inception_score_mean": 1.984330042959682,
    "inception_score_std": 0.12213238776805826,
    "fid_per_class": {
        "airplane": 1183.8148299178426,
        "automobile": 1249.540105441399,
        "bird": 1581.4122789929368,
        "cat": 1170.5437897196027,
        "deer": 1733.9437471243634,
        "dog": 1341.793740142758,
        "frog": 1997.6110637089191,
        "horse": 1475.925701082801,
        "ship": 1145.7579696447576,
        "truck": 1183.1456543448317
    },
    "fid": 1030.8163428921362
}