{
    "epoch": 22,
    "avg_current_window": 1681.1394469485358,
    "avg_prior_window": 1798.7158015746456,
    "inception_score_mean": 1.7596594222446995,
    "inception_score_std": 0.13582081528556963,
    "fid_per_class": {
        "airplane": 1536.237313096277,
        "automobile": 1690.48617369582,
        "bird": 2225.0706289011728,
        "cat": 1994.3837111915873,
        "deer": 2439.0443736868065,
        "dog": 1997.0866303123635,
        "frog": 2577.783507594749,
        "horse": 1991.202935146818,
        "ship": 1515.6644367160939,
        "truck": 1461.689710535023
    },
    "fid": 1651.9484785758355
}