{
    "epoch": 214,
    "avg_current_window": 1224.8517325398034,
    "avg_prior_window": 1233.6409970870368,
    "inception_score_mean": 1.9916351711094529,
    "inception_score_std": 0.1331299133923899,
    "fid_per_class": {
        "airplane": 1160.8764810633857,
        "automobile": 1246.2841711819528,
        "bird": 1553.0073291559693,
        "cat": 1341.579873840246,
        "deer": 1682.7682634570772,
        "dog": 1303.2668452030625,
        "frog": 2026.6890455102605,
        "horse": 1391.567597328833,
        "ship": 1148.6237849411655,
        "truck": 1142.4725546621198
    },
    "fid": 1011.8720964938341
}