{
    "epoch": 86,
    "avg_current_window": 1435.134774988776,
    "avg_prior_window": 1463.6915090101945,
    "inception_score_mean": 1.9201638574389726,
    "inception_score_std": 0.12026272261631467,
    "fid_per_class": {
        "airplane": 1186.5933120417985,
        "automobile": 1328.1093659518692,
        "bird": 1828.2446247289386,
        "cat": 1445.1317466021326,
        "deer": 1878.9594015220232,
        "dog": 1571.3907680464606,
        "frog": 2169.7743102847544,
        "horse": 1540.2903721667699,
        "ship": 1165.1804076798603,
        "truck": 1253.5092549369665
    },
    "fid": 1190.9138361697853
}