{
    "epoch": 229,
    "avg_current_window": 1213.1603446503166,
    "avg_prior_window": 1221.2619185175063,
    "inception_score_mean": 2.026366757837042,
    "inception_score_std": 0.12283675793613039,
    "fid_per_class": {
        "airplane": 1215.295802393725,
        "automobile": 1295.860580059392,
        "bird": 1550.23965207797,
        "cat": 1416.8209185897658,
        "deer": 1725.8396571403591,
        "dog": 1296.3539942136254,
        "frog": 2034.697804508661,
        "horse": 1413.9913387868662,
        "ship": 1154.951936605809,
        "truck": 1177.7649156415082
    },
    "fid": 1058.0623466723148
}