{
    "epoch": 100,
    "avg_current_window": 1400.1279160567594,
    "avg_prior_window": 1425.473244907998,
    "inception_score_mean": 1.8605704744944458,
    "inception_score_std": 0.11715267481258887,
    "fid_per_class": {
        "airplane": 1163.4120315420632,
        "automobile": 1291.3962732798489,
        "bird": 1720.2843204319172,
        "cat": 1376.5273956593514,
        "deer": 1866.605326307355,
        "dog": 1523.9968814046406,
        "frog": 2099.257745448259,
        "horse": 1631.7969679774246,
        "ship": 1166.3031559954206,
        "truck": 1135.5462133505432
    },
    "fid": 1145.8239602996948
}