{
    "epoch": 104,
    "avg_current_window": 1389.594572741451,
    "avg_prior_window": 1414.270622279555,
    "inception_score_mean": 1.8915630566200612,
    "inception_score_std": 0.11347564656113018,
    "fid_per_class": {
        "airplane": 1179.7520891783156,
        "automobile": 1327.5653891787813,
        "bird": 1683.1254875798313,
        "cat": 1285.7122874265488,
        "deer": 1849.6403596062178,
        "dog": 1426.473201334373,
        "frog": 2239.8749372856755,
        "horse": 1581.104805014205,
        "ship": 1168.7675679295403,
        "truck": 1182.3918142870396
    },
    "fid": 1121.4293795388267
}