{
    "epoch": 11,
    "avg_current_window": 1716.2537614578446,
    "avg_prior_window": 1992.7689299259844,
    "inception_score_mean": 1.4761248702837668,
    "inception_score_std": 0.04931608147759219,
    "fid_per_class": {
        "airplane": 1691.144952525041,
        "automobile": 1570.3844596708745,
        "bird": 2142.3362427927837,
        "cat": 1909.321754176583,
        "deer": 2275.5335430224304,
        "dog": 1946.3091688167403,
        "frog": 2461.4874508056632,
        "horse": 1900.7862684235165,
        "ship": 1584.1171745137099,
        "truck": 1403.7698191295608
    },
    "fid": 1645.1065124160561
}