{
    "epoch": 28,
    "avg_current_window": 1646.9246603217287,
    "avg_prior_window": 1746.3151810861032,
    "inception_score_mean": 1.5990706869417899,
    "inception_score_std": 0.07235586140848828,
    "fid_per_class": {
        "airplane": 1542.1177955554856,
        "automobile": 1531.0679186947705,
        "bird": 1930.432499120436,
        "cat": 1805.8053445149058,
        "deer": 2119.800623090727,
        "dog": 1838.6607554224465,
        "frog": 2328.0081700243536,
        "horse": 1909.6958884331768,
        "ship": 1541.0029795662126,
        "truck": 1420.4568854317668
    },
    "fid": 1511.4266088402355
}