{
    "epoch": 29,
    "avg_current_window": 1642.2523137189185,
    "avg_prior_window": 1735.213451447944,
    "inception_score_mean": 1.6305031828433783,
    "inception_score_std": 0.2289743974754873,
    "fid_per_class": {
        "airplane": 1528.255563705204,
        "automobile": 1586.4063886623194,
        "bird": 1930.2563803493754,
        "cat": 1750.6804040670595,
        "deer": 2098.290418970385,
        "dog": 1861.2546647931968,
        "frog": 2267.559736347257,
        "horse": 1813.8926946327297,
        "ship": 1468.2139143947104,
        "truck": 1403.7280447991302
    },
    "fid": 1490.5691746428615
}