{
    "epoch": 34,
    "avg_current_window": 1621.088814198832,
    "avg_prior_window": 1693.651250775569,
    "inception_score_mean": 1.5183609147018409,
    "inception_score_std": 0.07764663523054419,
    "fid_per_class": {
        "airplane": 1460.0798504191253,
        "automobile": 1403.1314484402621,
        "bird": 2032.4275526234474,
        "cat": 1869.7532778506973,
        "deer": 2160.992855215216,
        "dog": 1883.669522223062,
        "frog": 2358.8938294503705,
        "horse": 1844.9579661432972,
        "ship": 1425.4834922488958,
        "truck": 1308.0074516758514
    },
    "fid": 1501.5722003135602
}