{
    "epoch": 113,
    "avg_current_window": 1366.8204840735877,
    "avg_prior_window": 1388.9103634637993,
    "inception_score_mean": 2.0390724035761023,
    "inception_score_std": 0.18625722117242496,
    "fid_per_class": {
        "airplane": 1142.0710741480634,
        "automobile": 1254.0955174768883,
        "bird": 1527.5892392995784,
        "cat": 1185.5107572071518,
        "deer": 1726.4418897919181,
        "dog": 1395.0332186264461,
        "frog": 2015.4816142432624,
        "horse": 1595.869702364419,
        "ship": 1126.5524597546128,
        "truck": 1203.0156831369368
    },
    "fid": 1041.343764746934
}