{
    "epoch": 20,
    "avg_current_window": 1693.1826589005693,
    "avg_prior_window": 1826.4503810243857,
    "inception_score_mean": 1.684530577433882,
    "inception_score_std": 0.1039278737489907,
    "fid_per_class": {
        "airplane": 1599.0591431146709,
        "automobile": 1486.7107368650056,
        "bird": 1927.9331990143564,
        "cat": 1783.9280456942993,
        "deer": 2081.038446715815,
        "dog": 1881.207567693137,
        "frog": 2225.082851633626,
        "horse": 1772.4942800972601,
        "ship": 1526.4410605829166,
        "truck": 1335.263354541276
    },
    "fid": 1479.6831803190557
}