{
    "epoch": 209,
    "avg_current_window": 1228.157946501178,
    "avg_prior_window": 1236.2836640465373,
    "inception_score_mean": 1.904116598355883,
    "inception_score_std": 0.15938572922335806,
    "fid_per_class": {
        "airplane": 1212.769708626413,
        "automobile": 1260.5979630577833,
        "bird": 1670.136555627294,
        "cat": 1480.8675684468767,
        "deer": 1804.1403228740892,
        "dog": 1563.5668373961066,
        "frog": 2154.889109793816,
        "horse": 1564.1088343809263,
        "ship": 1172.474347866057,
        "truck": 1110.3978863531038
    },
    "fid": 1145.9575724444767
}