{
    "epoch": 234,
    "avg_current_window": 1209.8880071035942,
    "avg_prior_window": 1217.7807042427721,
    "inception_score_mean": 2.039118944117329,
    "inception_score_std": 0.177095623755252,
    "fid_per_class": {
        "airplane": 1112.6526388686075,
        "automobile": 1245.6415604911026,
        "bird": 1474.157662878461,
        "cat": 1275.6011175072713,
        "deer": 1767.9491340711531,
        "dog": 1392.8851574599432,
        "frog": 1998.4955211892375,
        "horse": 1414.5865216098346,
        "ship": 1127.1430139369588,
        "truck": 1192.174997721787
    },
    "fid": 1009.1291120426285
}