{
    "epoch": 223,
    "avg_current_window": 1217.9534453350518,
    "avg_prior_window": 1226.4487802184394,
    "inception_score_mean": 2.0767025433661095,
    "inception_score_std": 0.14006871836606444,
    "fid_per_class": {
        "airplane": 1141.3645646851191,
        "automobile": 1213.4983974631136,
        "bird": 1458.189774235648,
        "cat": 1228.9518295178461,
        "deer": 1628.198104863137,
        "dog": 1322.7931402317524,
        "frog": 1910.33831280723,
        "horse": 1430.677457942968,
        "ship": 1141.3859680359062,
        "truck": 1137.3357408856168
    },
    "fid": 965.1634331604239
}