{
    "epoch": 144,
    "avg_current_window": 1308.0186049779659,
    "avg_prior_window": 1323.8409335338342,
    "inception_score_mean": 2.022348373387459,
    "inception_score_std": 0.12722583320228661,
    "fid_per_class": {
        "airplane": 1192.6074209030785,
        "automobile": 1249.5477661761633,
        "bird": 1605.2703506528126,
        "cat": 1339.6924372008061,
        "deer": 1796.1106507236427,
        "dog": 1491.4043455845645,
        "frog": 2127.066474362059,
        "horse": 1591.8888938913794,
        "ship": 1134.2540421099202,
        "truck": 1203.1742594050231
    },
    "fid": 1096.3834172322297
}