{
    "epoch": 81,
    "avg_current_window": 1449.3093886940205,
    "avg_prior_window": 1478.1417794102683,
    "inception_score_mean": 1.9658748372048163,
    "inception_score_std": 0.15512904249416376,
    "fid_per_class": {
        "airplane": 1173.3184444231374,
        "automobile": 1282.9869404722185,
        "bird": 1796.1638379367487,
        "cat": 1489.7547193090572,
        "deer": 1874.6015048458075,
        "dog": 1575.8542614768116,
        "frog": 2243.133106320256,
        "horse": 1528.3365602558276,
        "ship": 1125.4900192002497,
        "truck": 1233.3860424748755
    },
    "fid": 1164.9517456101048
}