{
    "epoch": 218,
    "avg_current_window": 1221.5805452139007,
    "avg_prior_window": 1230.6022101573612,
    "inception_score_mean": 2.0589067162468906,
    "inception_score_std": 0.08996876981070322,
    "fid_per_class": {
        "airplane": 1160.8933195041063,
        "automobile": 1278.6795673796348,
        "bird": 1577.687073973404,
        "cat": 1424.3468120275654,
        "deer": 1642.0555151321696,
        "dog": 1557.2371461627367,
        "frog": 2075.9211802213936,
        "horse": 1412.9671068348448,
        "ship": 1123.2898772390292,
        "truck": 1156.1246041040733
    },
    "fid": 1061.2752309894154
}