{
    "epoch": 64,
    "avg_current_window": 1501.6025980787103,
    "avg_prior_window": 1541.966276819053,
    "inception_score_mean": 1.9344310718187905,
    "inception_score_std": 0.15980539678356512,
    "fid_per_class": {
        "airplane": 1223.7393418575678,
        "automobile": 1366.7498643462923,
        "bird": 1805.461336096578,
        "cat": 1328.8869486266851,
        "deer": 1965.9493046887712,
        "dog": 1412.9828942137842,
        "frog": 2235.1855640035237,
        "horse": 1593.9642498076653,
        "ship": 1246.257916987131,
        "truck": 1248.855562077347
    },
    "fid": 1201.3221661217813
}