{
    "epoch": 215,
    "avg_current_window": 1223.86112958145,
    "avg_prior_window": 1232.8076231760429,
    "inception_score_mean": 1.9854317662236571,
    "inception_score_std": 0.10121396718012823,
    "fid_per_class": {
        "airplane": 1225.1917168125365,
        "automobile": 1261.2949464102458,
        "bird": 1620.2916907675417,
        "cat": 1392.8616019918743,
        "deer": 1881.7711775006155,
        "dog": 1512.1674143686905,
        "frog": 2166.0860312233344,
        "horse": 1524.363279328802,
        "ship": 1184.4899926767064,
        "truck": 1139.8684477195748
    },
    "fid": 1116.689724757407
}