{
    "epoch": 158,
    "avg_current_window": 1285.954732211566,
    "avg_prior_window": 1301.2014358084316,
    "inception_score_mean": 2.084587243427122,
    "inception_score_std": 0.11369449986072527,
    "fid_per_class": {
        "airplane": 1218.721961128809,
        "automobile": 1248.8610479171316,
        "bird": 1558.3052238454825,
        "cat": 1275.0950517328715,
        "deer": 1720.4545869298665,
        "dog": 1394.8014450263545,
        "frog": 1947.3421713239863,
        "horse": 1473.5310663662765,
        "ship": 1108.2303598649933,
        "truck": 1185.3760149961824
    },
    "fid": 1021.4693056635938
}