{
    "epoch": 105,
    "avg_current_window": 1387.0406185204738,
    "avg_prior_window": 1411.5861556597563,
    "inception_score_mean": 1.963995409850463,
    "inception_score_std": 0.1077811744544507,
    "fid_per_class": {
        "airplane": 1088.6287055670357,
        "automobile": 1253.8664586857255,
        "bird": 1653.0092187088119,
        "cat": 1320.2805071165872,
        "deer": 1856.1957439492728,
        "dog": 1514.4784754238058,
        "frog": 2110.59130773363,
        "horse": 1629.1796798269984,
        "ship": 1125.6331095960113,
        "truck": 1208.075320740625
    },
    "fid": 1114.3848949578637
}