{
    "epoch": 155,
    "avg_current_window": 1291.086249438629,
    "avg_prior_window": 1306.0912911668454,
    "inception_score_mean": 2.0330230557400255,
    "inception_score_std": 0.11574182316976794,
    "fid_per_class": {
        "airplane": 1209.7035899424548,
        "automobile": 1232.8773685276653,
        "bird": 1495.150962568644,
        "cat": 1281.574573604483,
        "deer": 1755.675883123928,
        "dog": 1305.4242607703595,
        "frog": 2010.7463261157238,
        "horse": 1430.871104463572,
        "ship": 1179.8455223831593,
        "truck": 1181.3183640336188
    },
    "fid": 1007.4184713170737
}