{
    "epoch": 123,
    "avg_current_window": 1343.9671539828844,
    "avg_prior_window": 1363.873737019139,
    "inception_score_mean": 2.0290222358890557,
    "inception_score_std": 0.1812089648910659,
    "fid_per_class": {
        "airplane": 1195.0963288868784,
        "automobile": 1294.0882629682578,
        "bird": 1672.5568157218772,
        "cat": 1344.0002304383756,
        "deer": 1921.2766447123158,
        "dog": 1518.9302474985814,
        "frog": 2089.5335392696115,
        "horse": 1582.0129918987982,
        "ship": 1277.6348842188677,
        "truck": 1216.8310163324365
    },
    "fid": 1144.1590506323585
}