{
    "epoch": 32,
    "avg_current_window": 1625.5432634015144,
    "avg_prior_window": 1707.921869963274,
    "inception_score_mean": 1.6224250974442644,
    "inception_score_std": 0.07454630138894876,
    "fid_per_class": {
        "airplane": 1508.7590823469009,
        "automobile": 1457.4822609693174,
        "bird": 1954.294471592181,
        "cat": 1794.8161594918267,
        "deer": 2130.2096944550535,
        "dog": 1867.4202043741288,
        "frog": 2284.804860463645,
        "horse": 1865.5838298492743,
        "ship": 1410.6347856417174,
        "truck": 1327.5385350205477
    },
    "fid": 1484.9705995551835
}