{
    "epoch": 238,
    "avg_current_window": 1207.35592040048,
    "avg_prior_window": 1215.0806594945966,
    "inception_score_mean": 2.0972245988685887,
    "inception_score_std": 0.20808257307455605,
    "fid_per_class": {
        "airplane": 1190.3248540245613,
        "automobile": 1313.3859958266594,
        "bird": 1631.0052324452536,
        "cat": 1362.2396509445516,
        "deer": 1941.0814967118663,
        "dog": 1457.1552258985078,
        "frog": 2238.240826107302,
        "horse": 1602.2202593959523,
        "ship": 1243.8031582571937,
        "truck": 1191.6196320153608
    },
    "fid": 1136.5697882230647
}