{
    "epoch": 191,
    "avg_current_window": 1242.955428466988,
    "avg_prior_window": 1254.27389949572,
    "inception_score_mean": 2.0132809136895107,
    "inception_score_std": 0.17172777035840953,
    "fid_per_class": {
        "airplane": 1218.7058909812356,
        "automobile": 1245.2478845791268,
        "bird": 1641.0240511584097,
        "cat": 1379.7355247713822,
        "deer": 1792.8927624974203,
        "dog": 1506.2219342757169,
        "frog": 2107.6849770288964,
        "horse": 1513.0481002557058,
        "ship": 1153.958853590273,
        "truck": 1167.0615298646571
    },
    "fid": 1083.7023608155685
}