{
    "epoch": 35,
    "avg_current_window": 1617.6740538021102,
    "avg_prior_window": 1685.1083101973986,
    "inception_score_mean": 1.6042057295271615,
    "inception_score_std": 0.1344085746325693,
    "fid_per_class": {
        "airplane": 1403.4171173836326,
        "automobile": 1505.502043785488,
        "bird": 1901.452809728724,
        "cat": 1627.2124886416245,
        "deer": 2129.9922799925666,
        "dog": 1620.5213319144605,
        "frog": 2308.1469476729253,
        "horse": 1820.9182513342953,
        "ship": 1378.9793974295162,
        "truck": 1461.2635817055666
    },
    "fid": 1427.4885744450405
}