{
    "epoch": 245,
    "avg_current_window": 1203.213701021326,
    "avg_prior_window": 1210.650654674215,
    "inception_score_mean": 1.9641008315782866,
    "inception_score_std": 0.16103241172720484,
    "fid_per_class": {
        "airplane": 1179.8129546334385,
        "automobile": 1247.2830973699238,
        "bird": 1546.2660568213541,
        "cat": 1401.8496195677815,
        "deer": 1760.495018472991,
        "dog": 1421.2163119416048,
        "frog": 2093.678074000286,
        "horse": 1475.989311545748,
        "ship": 1183.4352740860993,
        "truck": 1177.8599268174737
    },
    "fid": 1066.6994349641495
}