{
    "epoch": 57,
    "avg_current_window": 1527.9943647249636,
    "avg_prior_window": 1574.6291142751736,
    "inception_score_mean": 1.718422925495164,
    "inception_score_std": 0.14114024969166808,
    "fid_per_class": {
        "airplane": 1240.1725993456932,
        "automobile": 1439.5704436620683,
        "bird": 1964.7734954784305,
        "cat": 1420.1942757268007,
        "deer": 2125.978573083518,
        "dog": 1646.841503422902,
        "frog": 2401.2494902125586,
        "horse": 1751.6681550197334,
        "ship": 1231.1436315979659,
        "truck": 1316.5680862219447
    },
    "fid": 1325.4183754629344
}