{
    "epoch": 249,
    "avg_current_window": 1201.2751101094836,
    "avg_prior_window": 1208.144904714036,
    "inception_score_mean": 1.9693858666411859,
    "inception_score_std": 0.13880961479608306,
    "fid_per_class": {
        "airplane": 1121.813696144637,
        "automobile": 1212.463644059965,
        "bird": 1620.6444116381263,
        "cat": 1362.1413244167047,
        "deer": 1773.7094949308023,
        "dog": 1514.4863862465295,
        "frog": 2100.6875779709508,
        "horse": 1517.5317972574408,
        "ship": 1149.602892867831,
        "truck": 1112.3624548361784
    },
    "fid": 1050.1572642264816
}