{
    "epoch": 186,
    "avg_current_window": 1248.856364770458,
    "avg_prior_window": 1260.4640401453205,
    "inception_score_mean": 2.1834467577456893,
    "inception_score_std": 0.17054028775614838,
    "fid_per_class": {
        "airplane": 1195.2134613684393,
        "automobile": 1216.5097860273854,
        "bird": 1539.4362611709648,
        "cat": 1305.7700434430672,
        "deer": 1795.8923916314957,
        "dog": 1370.7376776383228,
        "frog": 1952.650199655302,
        "horse": 1413.6655206546873,
        "ship": 1130.4869635482055,
        "truck": 1179.3142065441323
    },
    "fid": 1007.661458898728
}