{
    "epoch": 160,
    "avg_current_window": 1283.5616702590087,
    "avg_prior_window": 1297.5857234471262,
    "inception_score_mean": 2.1224315317125617,
    "inception_score_std": 0.15917264762614067,
    "fid_per_class": {
        "airplane": 1191.9650981329894,
        "automobile": 1236.172987137807,
        "bird": 1642.567769676078,
        "cat": 1342.8826140659403,
        "deer": 1775.3395780873518,
        "dog": 1388.6405744219514,
        "frog": 2121.2680710958857,
        "horse": 1419.1812493926768,
        "ship": 1173.862998723982,
        "truck": 1144.3892485252363
    },
    "fid": 1057.6069115403234
}