{
    "epoch": 194,
    "avg_current_window": 1240.10294397816,
    "avg_prior_window": 1250.9049806127023,
    "inception_score_mean": 2.035887136317693,
    "inception_score_std": 0.10406055116979886,
    "fid_per_class": {
        "airplane": 1211.8129724842777,
        "automobile": 1214.8800853297093,
        "bird": 1503.1492487040855,
        "cat": 1204.7288844645118,
        "deer": 1654.9560123289862,
        "dog": 1297.039338199091,
        "frog": 1801.2665696031108,
        "horse": 1478.4855825282814,
        "ship": 1161.146409931271,
        "truck": 1168.0691353542813
    },
    "fid": 993.3774766070804
}