{
    "epoch": 82,
    "avg_current_window": 1445.8416125588508,
    "avg_prior_window": 1474.0396641996626,
    "inception_score_mean": 1.7632835463262484,
    "inception_score_std": 0.08450414987856057,
    "fid_per_class": {
        "airplane": 1147.174881900807,
        "automobile": 1366.806283950454,
        "bird": 1812.590380965178,
        "cat": 1344.8426693092201,
        "deer": 1994.3192144385648,
        "dog": 1608.7578053151892,
        "frog": 2168.529031086567,
        "horse": 1559.1995023044442,
        "ship": 1160.4345266606845,
        "truck": 1235.9354503860488
    },
    "fid": 1198.0219262170185
}