{
    "epoch": 166,
    "avg_current_window": 1275.4871242830063,
    "avg_prior_window": 1288.7451962662246,
    "inception_score_mean": 2.096987681255281,
    "inception_score_std": 0.13025660469611308,
    "fid_per_class": {
        "airplane": 1272.65829498634,
        "automobile": 1222.9730983718177,
        "bird": 1585.1934963333815,
        "cat": 1386.7437736368422,
        "deer": 1712.3585885590617,
        "dog": 1346.420585669794,
        "frog": 1993.2463351365732,
        "horse": 1485.2343104369734,
        "ship": 1249.0907381488014,
        "truck": 1134.5572741473807
    },
    "fid": 1051.2579307045132
}