{
    "epoch": 71,
    "avg_current_window": 1475.325954601631,
    "avg_prior_window": 1512.3411878270406,
    "inception_score_mean": 1.8313398416906441,
    "inception_score_std": 0.12506366196945085,
    "fid_per_class": {
        "airplane": 1279.6624265579294,
        "automobile": 1461.1980847727093,
        "bird": 1891.3580102572027,
        "cat": 1558.657395718566,
        "deer": 1951.3067594941024,
        "dog": 1611.909247128842,
        "frog": 2252.977154784127,
        "horse": 1758.486291651046,
        "ship": 1174.51399554917,
        "truck": 1319.3806205392693
    },
    "fid": 1309.6471700869447
}