{
    "epoch": 250,
    "avg_current_window": 1200.6706387259514,
    "avg_prior_window": 1207.5675762660776,
    "inception_score_mean": 2.0487761156640882,
    "inception_score_std": 0.15019725774264853,
    "fid_per_class": {
        "airplane": 1253.9351374821567,
        "automobile": 1308.768916607089,
        "bird": 1712.8492248772425,
        "cat": 1439.4688179830705,
        "deer": 1905.0578989616818,
        "dog": 1634.2427126058496,
        "frog": 2281.225585438458,
        "horse": 1530.196229973512,
        "ship": 1211.8296240042146,
        "truck": 1212.6335239190953
    },
    "fid": 1179.0041024599007
}