{
    "epoch": 159,
    "avg_current_window": 1284.2913018559184,
    "avg_prior_window": 1299.4699263830357,
    "inception_score_mean": 1.979910381264819,
    "inception_score_std": 0.08058667624541899,
    "fid_per_class": {
        "airplane": 1213.220578972568,
        "automobile": 1318.5857399626627,
        "bird": 1677.9193711576718,
        "cat": 1487.8685498347327,
        "deer": 1819.3923755885462,
        "dog": 1544.21236251199,
        "frog": 2174.9047176004287,
        "horse": 1524.5851477486592,
        "ship": 1262.4442605103213,
        "truck": 1239.121174192234
    },
    "fid": 1167.5502463503653
}