{
    "epoch": 106,
    "avg_current_window": 1384.4683947132792,
    "avg_prior_window": 1408.8864255564806,
    "inception_score_mean": 1.9828792835560674,
    "inception_score_std": 0.11708057221660831,
    "fid_per_class": {
        "airplane": 1151.4527301735704,
        "automobile": 1247.9986280432672,
        "bird": 1669.2248605667762,
        "cat": 1209.2204492724727,
        "deer": 1867.0437205525209,
        "dog": 1479.525827168497,
        "frog": 2147.91410145491,
        "horse": 1557.6833638196683,
        "ship": 1112.5939571234112,
        "truck": 1228.8012539391657
    },
    "fid": 1090.130097393202
}