{
    "epoch": 230,
    "avg_current_window": 1212.486005528673,
    "avg_prior_window": 1220.5162074544387,
    "inception_score_mean": 2.05276272067137,
    "inception_score_std": 0.18944970326769214,
    "fid_per_class": {
        "airplane": 1146.8025680529183,
        "automobile": 1271.4808596451853,
        "bird": 1636.7408093493893,
        "cat": 1409.1967143200607,
        "deer": 1888.667784569374,
        "dog": 1519.2565264900206,
        "frog": 2086.0679176840194,
        "horse": 1554.228643490184,
        "ship": 1099.4816126519922,
        "truck": 1219.8494092673693
    },
    "fid": 1100.8667848914542
}