{
    "epoch": 172,
    "avg_current_window": 1266.8769520201715,
    "avg_prior_window": 1280.3046562618197,
    "inception_score_mean": 2.161919724017067,
    "inception_score_std": 0.19867381070830586,
    "fid_per_class": {
        "airplane": 1274.4017860599524,
        "automobile": 1221.546405386109,
        "bird": 1491.970486727647,
        "cat": 1219.08953188922,
        "deer": 1664.352354073107,
        "dog": 1343.9932002908363,
        "frog": 1909.758809955055,
        "horse": 1372.963137906073,
        "ship": 1159.118424516883,
        "truck": 1187.709240639223
    },
    "fid": 995.2318355309853
}