{
    "epoch": 65,
    "avg_current_window": 1496.982899125527,
    "avg_prior_window": 1538.7836179195415,
    "inception_score_mean": 1.7054732293967025,
    "inception_score_std": 0.13030346268709758,
    "fid_per_class": {
        "airplane": 1233.4629429951428,
        "automobile": 1359.1558063553225,
        "bird": 1693.4344166269627,
        "cat": 1369.3836132522054,
        "deer": 1937.853337775078,
        "dog": 1373.5558260114087,
        "frog": 2244.1010566261584,
        "horse": 1583.6031426701775,
        "ship": 1277.1846524032262,
        "truck": 1305.6399431572277
    },
    "fid": 1218.04332190326
}