{
    "epoch": 228,
    "avg_current_window": 1213.6545347198992,
    "avg_prior_window": 1222.281532479269,
    "inception_score_mean": 2.0542965576924304,
    "inception_score_std": 0.16461122693483252,
    "fid_per_class": {
        "airplane": 1233.1597913020346,
        "automobile": 1282.6317737050567,
        "bird": 1584.2904695088966,
        "cat": 1372.7062665570338,
        "deer": 1795.4397864493847,
        "dog": 1474.1570645940221,
        "frog": 2011.846131735339,
        "horse": 1508.1969327772701,
        "ship": 1230.4117818718714,
        "truck": 1186.4116187601949
    },
    "fid": 1100.4850087854975
}