{
    "epoch": 41,
    "avg_current_window": 1591.325866915248,
    "avg_prior_window": 1655.0104921165141,
    "inception_score_mean": 1.8716256694509856,
    "inception_score_std": 0.09400046264282791,
    "fid_per_class": {
        "airplane": 1458.66307092833,
        "automobile": 1418.048859131513,
        "bird": 1855.2140078472937,
        "cat": 1781.4974566049575,
        "deer": 2035.014327605587,
        "dog": 1763.2762085842294,
        "frog": 2329.7964378997217,
        "horse": 1799.3125006430482,
        "ship": 1381.169160608585,
        "truck": 1303.7670937937482
    },
    "fid": 1388.3646776647115
}