{
    "epoch": 133,
    "avg_current_window": 1326.2954834406169,
    "avg_prior_window": 1342.9337517650843,
    "inception_score_mean": 1.9957534968342288,
    "inception_score_std": 0.16033961460786786,
    "fid_per_class": {
        "airplane": 1161.1927095086849,
        "automobile": 1229.0270919269692,
        "bird": 1596.5420486033581,
        "cat": 1351.411146886247,
        "deer": 1790.9829279053736,
        "dog": 1379.7197250038553,
        "frog": 2048.4450958395096,
        "horse": 1453.4857814351326,
        "ship": 1134.9174940168227,
        "truck": 1153.5121423328028
    },
    "fid": 1055.3093615873986
}