{
    "epoch": 211,
    "avg_current_window": 1226.9649330188104,
    "avg_prior_window": 1235.3433901413744,
    "inception_score_mean": 2.082725208028873,
    "inception_score_std": 0.1824446631774845,
    "fid_per_class": {
        "airplane": 1247.8124554506276,
        "automobile": 1253.487129131941,
        "bird": 1586.3823730733393,
        "cat": 1312.1049782722062,
        "deer": 1754.7043807236105,
        "dog": 1491.7840599809201,
        "frog": 2147.775476419465,
        "horse": 1555.9909878540082,
        "ship": 1250.3290331702428,
        "truck": 1147.7419040229372
    },
    "fid": 1110.7291133302708
}