{
    "epoch": 33,
    "avg_current_window": 1621.2834857092014,
    "avg_prior_window": 1700.9041820660227,
    "inception_score_mean": 1.5799285764821651,
    "inception_score_std": 0.0635210617814345,
    "fid_per_class": {
        "airplane": 1458.6621252605958,
        "automobile": 1519.829204612875,
        "bird": 2144.906418956978,
        "cat": 2009.7826193300043,
        "deer": 2297.7952899369075,
        "dog": 2056.47666398295,
        "frog": 2530.9158180295613,
        "horse": 1980.8409610282142,
        "ship": 1369.561658943654,
        "truck": 1353.2769944384445
    },
    "fid": 1614.6646543566421
}