{
    "epoch": 157,
    "avg_current_window": 1287.5919962571136,
    "avg_prior_window": 1302.9112889313585,
    "inception_score_mean": 1.9826280719294302,
    "inception_score_std": 0.10974494595855042,
    "fid_per_class": {
        "airplane": 1188.9666332584513,
        "automobile": 1221.6668935144285,
        "bird": 1528.7162019490763,
        "cat": 1337.0197023481383,
        "deer": 1752.3445331353034,
        "dog": 1363.3530270606748,
        "frog": 2088.330868497283,
        "horse": 1456.449780076726,
        "ship": 1151.8034179851627,
        "truck": 1191.3175236612178
    },
    "fid": 1028.9042770605515
}