{
    "epoch": 40,
    "avg_current_window": 1595.836807373398,
    "avg_prior_window": 1658.459441643397,
    "inception_score_mean": 1.8194619314904892,
    "inception_score_std": 0.15193268929779213,
    "fid_per_class": {
        "airplane": 1349.2881457299864,
        "automobile": 1444.906007596388,
        "bird": 1916.3429075646277,
        "cat": 1737.1553795855984,
        "deer": 2165.699284503662,
        "dog": 1769.9129753891084,
        "frog": 2438.1266551654626,
        "horse": 1905.0565581543517,
        "ship": 1241.5701469004534,
        "truck": 1238.7572012290716
    },
    "fid": 1410.888248589246
}