{
    "epoch": 233,
    "avg_current_window": 1210.471898573866,
    "avg_prior_window": 1218.4812233549233,
    "inception_score_mean": 1.997659040801383,
    "inception_score_std": 0.12594760103979008,
    "fid_per_class": {
        "airplane": 1188.9090578125201,
        "automobile": 1281.054525848594,
        "bird": 1629.6974185544182,
        "cat": 1331.4606303432188,
        "deer": 1861.8422191148372,
        "dog": 1308.3426974085748,
        "frog": 1966.1899222505187,
        "horse": 1515.5131472715077,
        "ship": 1180.526389136639,
        "truck": 1194.1703051774093
    },
    "fid": 1073.841294530246
}