{
    "epoch": 14,
    "avg_current_window": 1706.6909442198164,
    "avg_prior_window": 1912.9929620745643,
    "inception_score_mean": 1.3857802630828786,
    "inception_score_std": 0.06784819480206852,
    "fid_per_class": {
        "airplane": 1622.2330856258864,
        "automobile": 1635.7824373784495,
        "bird": 2263.205664770376,
        "cat": 1979.1729499422754,
        "deer": 2405.002152410246,
        "dog": 2124.2049940354145,
        "frog": 2614.2348703546613,
        "horse": 2054.2128996280553,
        "ship": 1494.197556007865,
        "truck": 1492.0308295123805
    },
    "fid": 1726.8214914480695
}