{
    "epoch": 139,
    "avg_current_window": 1316.2646799666393,
    "avg_prior_window": 1332.531593436973,
    "inception_score_mean": 1.9651075083531846,
    "inception_score_std": 0.13191366612070307,
    "fid_per_class": {
        "airplane": 1246.5093969198917,
        "automobile": 1300.9069674144648,
        "bird": 1543.7852868612256,
        "cat": 1266.1868447300517,
        "deer": 1652.5632294723243,
        "dog": 1431.510115994617,
        "frog": 2084.339679283569,
        "horse": 1422.1520851072678,
        "ship": 1147.3595013563554,
        "truck": 1193.6249435161449
    },
    "fid": 1053.099245840116
}