{
    "epoch": 93,
    "avg_current_window": 1418.4522291959229,
    "avg_prior_window": 1444.7922597402896,
    "inception_score_mean": 1.8715014698953496,
    "inception_score_std": 0.1429066822687165,
    "fid_per_class": {
        "airplane": 1196.4726493296776,
        "automobile": 1287.2472746536337,
        "bird": 1779.8813722003156,
        "cat": 1416.9124748689778,
        "deer": 1991.1366471384224,
        "dog": 1469.6378157666095,
        "frog": 2356.66081951034,
        "horse": 1540.9907943286353,
        "ship": 1245.4418931280222,
        "truck": 1209.7865818503917
    },
    "fid": 1197.7680185783051
}