{
    "epoch": 231,
    "avg_current_window": 1212.0028054393345,
    "avg_prior_window": 1219.7030630109011,
    "inception_score_mean": 2.0785275125559144,
    "inception_score_std": 0.1466880046352471,
    "fid_per_class": {
        "airplane": 1189.0169128674702,
        "automobile": 1252.759109314729,
        "bird": 1429.3942756552683,
        "cat": 1172.588923762377,
        "deer": 1683.66450585758,
        "dog": 1281.4344990555762,
        "frog": 1973.2511221837804,
        "horse": 1360.3648773652549,
        "ship": 1118.0064039524912,
        "truck": 1143.5177573784508
    },
    "fid": 975.5450556931584
}