{
    "epoch": 242,
    "avg_current_window": 1204.9954942598329,
    "avg_prior_window": 1212.450249178541,
    "inception_score_mean": 2.1258762032632785,
    "inception_score_std": 0.1496854944800143,
    "fid_per_class": {
        "airplane": 1080.1155780830968,
        "automobile": 1231.7957975226968,
        "bird": 1582.310794968912,
        "cat": 1327.5530514884997,
        "deer": 1787.2212520925339,
        "dog": 1358.9215022409153,
        "frog": 2165.43868908459,
        "horse": 1448.835074495638,
        "ship": 1156.184048345283,
        "truck": 1168.9253917392218
    },
    "fid": 1031.5391626573914
}