{
    "epoch": 227,
    "avg_current_window": 1214.329921764157,
    "avg_prior_window": 1223.4397221158404,
    "inception_score_mean": 2.0386046729671614,
    "inception_score_std": 0.19921369132208216,
    "fid_per_class": {
        "airplane": 1188.870794316127,
        "automobile": 1295.4622627539122,
        "bird": 1554.0188159387194,
        "cat": 1275.299824041485,
        "deer": 1837.5392798624443,
        "dog": 1448.8638749418733,
        "frog": 2018.1389801113585,
        "horse": 1480.7000741699817,
        "ship": 1125.3724384765367,
        "truck": 1171.429820520882
    },
    "fid": 1060.341675673354
}