{
    "epoch": 241,
    "avg_current_window": 1205.627207974322,
    "avg_prior_window": 1212.76083847444,
    "inception_score_mean": 2.1146042984676154,
    "inception_score_std": 0.1323276293917975,
    "fid_per_class": {
        "airplane": 1207.971007210699,
        "automobile": 1264.2663643788453,
        "bird": 1673.8611537707266,
        "cat": 1373.1482339399402,
        "deer": 1881.6210094600406,
        "dog": 1384.2143029562285,
        "frog": 2119.3976231914876,
        "horse": 1458.372297523755,
        "ship": 1183.0904478784005,
        "truck": 1169.1158457891997
    },
    "fid": 1052.7524890679622
}