{
    "epoch": 9,
    "avg_current_window": 1710.367899161281,
    "avg_prior_window": 2114.0522605579094,
    "inception_score_mean": 1.5170665110685153,
    "inception_score_std": 0.06534533459003537,
    "fid_per_class": {
        "airplane": 1777.1287050300066,
        "automobile": 1829.9231487456277,
        "bird": 2319.099419438299,
        "cat": 2138.0766856966197,
        "deer": 2392.8772214145897,
        "dog": 2133.649091755558,
        "frog": 2539.0837768878073,
        "horse": 2087.0344117419954,
        "ship": 1725.4493501580118,
        "truck": 1534.9929207673958
    },
    "fid": 1823.6255662195476
}