{
    "epoch": 196,
    "avg_current_window": 956.737204689951,
    "avg_prior_window": 964.4367754153042,
    "inception_score_mean": 1.8381477155067376,
    "inception_score_std": 0.1142783741074888,
    "fid_per_class": {
        "airplane": 1166.1044978862333,
        "automobile": 1217.103668273069,
        "bird": 1285.2467122125697,
        "cat": 1031.22362254663,
        "deer": 1381.8592476293288,
        "dog": 1106.2946248569665,
        "frog": 1584.4375297548568,
        "horse": 1274.8882433474619,
        "ship": 948.1100952015996,
        "truck": 1022.2906743363467
    },
    "fid": 812.0802244407766,
    "wasserstein_distance": null,
    "g_loss": null,
    "g_cost": null,
    "d_loss_real": null,
    "d_loss_fake": null
}