{
    "epoch": 19,
    "avg_current_window": 1678.230311434337,
    "avg_prior_window": 1868.4992352354616,
    "inception_score_mean": 1.175236882868576,
    "inception_score_std": 0.016771201679614413,
    "fid_per_class": {
        "airplane": 1446.3813516334621,
        "automobile": 1554.3425648074453,
        "bird": 1251.6130926859928,
        "cat": 1216.369820383085,
        "deer": 1377.4552257834896,
        "dog": 1430.1362433118102,
        "frog": 1351.7619521233778,
        "horse": 1547.133059409978,
        "ship": 1443.579844571554,
        "truck": 1426.201728552391
    },
    "fid": 1171.5823244695807,
    "wasserstein_distance": null,
    "g_loss": null,
    "g_cost": null,
    "d_loss_real": null,
    "d_loss_fake": null
}