{
    "epoch": 71,
    "avg_current_window": 1193.7268143244385,
    "avg_prior_window": 1230.5195911288697,
    "inception_score_mean": 1.720265580303011,
    "inception_score_std": 0.10577094677795146,
    "fid_per_class": {
        "airplane": 1146.4075217176064,
        "automobile": 1165.155054349164,
        "bird": 1178.9784105365402,
        "cat": 975.5317986852499,
        "deer": 1295.0569660806373,
        "dog": 1028.5310377354708,
        "frog": 1305.8618604188682,
        "horse": 1252.6565522759365,
        "ship": 1039.7381294730226,
        "truck": 1099.7094165141325
    },
    "fid": 812.0662349702011,
    "wasserstein_distance": null,
    "g_loss": null,
    "g_cost": null,
    "d_loss_real": null,
    "d_loss_fake": null
}