{
    "epoch": 26,
    "avg_current_window": 1555.1428158113051,
    "avg_prior_window": 1683.0461549393087,
    "inception_score_mean": 1.4456251198646544,
    "inception_score_std": 0.09122362393165835,
    "fid_per_class": {
        "airplane": 1416.3122662422243,
        "automobile": 1322.7153026550861,
        "bird": 1706.8873718631899,
        "cat": 1475.53777182956,
        "deer": 1769.1409213679265,
        "dog": 1431.2598042946097,
        "frog": 1755.338940423202,
        "horse": 1547.370192824927,
        "ship": 1155.036823570229,
        "truck": 1184.1614324213815
    },
    "fid": 1183.438220417,
    "wasserstein_distance": null,
    "g_loss": null,
    "g_cost": null,
    "d_loss_real": null,
    "d_loss_fake": null
}