{
    "epoch": 8,
    "avg_current_window": 1682.1809290050276,
    "avg_prior_window": 1.0,
    "inception_score_mean": 1.0644267774136638,
    "inception_score_std": 0.01829538445845569,
    "fid_per_class": {
        "airplane": 1940.8489872943815,
        "automobile": 1978.4383733227357,
        "bird": 2211.419105070662,
        "cat": 2106.486890140848,
        "deer": 2510.531212385544,
        "dog": 2187.6000724151727,
        "frog": 2520.9047856372063,
        "horse": 2244.2223607505166,
        "ship": 2165.343435867386,
        "truck": 2389.563641848929
    },
    "fid": 2002.579195876332,
    "wasserstein_distance": null,
    "g_loss": null,
    "g_cost": null,
    "d_loss_real": null,
    "d_loss_fake": null
}