{
    "epoch": 51,
    "avg_current_window": 1309.9781053990548,
    "avg_prior_window": 1367.7504429244145,
    "inception_score_mean": 1.7217966289037647,
    "inception_score_std": 0.08860302338342044,
    "fid_per_class": {
        "airplane": 1174.1352935171426,
        "automobile": 1284.0447418164476,
        "bird": 1360.064113368225,
        "cat": 1190.5783989029865,
        "deer": 1546.1671419716417,
        "dog": 1323.1825786914796,
        "frog": 1616.5802439505815,
        "horse": 1351.146266901508,
        "ship": 1028.3930241370263,
        "truck": 1114.2303272431545
    },
    "fid": 945.1789562129118,
    "wasserstein_distance": null,
    "g_loss": null,
    "g_cost": null,
    "d_loss_real": null,
    "d_loss_fake": null
}