{
    "epoch": 87,
    "avg_current_window": 1128.4066506796219,
    "avg_prior_window": 1156.9477336254097,
    "inception_score_mean": 1.7919423833531938,
    "inception_score_std": 0.08208071229675973,
    "fid_per_class": {
        "airplane": 1082.0338674253812,
        "automobile": 1221.448299531479,
        "bird": 1198.48032377059,
        "cat": 1039.6241249735913,
        "deer": 1398.2441961253758,
        "dog": 1086.68846220697,
        "frog": 1258.2153349314785,
        "horse": 1358.278383451694,
        "ship": 1029.2389030336528,
        "truck": 1138.9011267410228
    },
    "fid": 817.8427587529712,
    "wasserstein_distance": null,
    "g_loss": null,
    "g_cost": null,
    "d_loss_real": null,
    "d_loss_fake": null
}