{
    "epoch": 112,
    "avg_current_window": 1055.4592619541127,
    "avg_prior_window": 1076.0399436222976,
    "inception_score_mean": 1.7735913560079262,
    "inception_score_std": 0.12124977237616275,
    "fid_per_class": {
        "airplane": 1092.851439247229,
        "automobile": 1188.583687575659,
        "bird": 1136.7187850343323,
        "cat": 991.7891417993075,
        "deer": 1270.578344074669,
        "dog": 1016.4820668900079,
        "frog": 1150.5351126822081,
        "horse": 1258.4536072860612,
        "ship": 979.4706303486818,
        "truck": 1048.4482570473574
    },
    "fid": 721.4404055327794,
    "wasserstein_distance": null,
    "g_loss": null,
    "g_cost": null,
    "d_loss_real": null,
    "d_loss_fake": null
}