{
    "epoch": 171,
    "avg_current_window": 975.6089061305441,
    "avg_prior_window": 985.0826061705008,
    "inception_score_mean": 1.7348887142541574,
    "inception_score_std": 0.14291064060408848,
    "fid_per_class": {
        "airplane": 1158.4037642955454,
        "automobile": 1234.1142777528935,
        "bird": 1290.3426774562784,
        "cat": 1125.8205113008262,
        "deer": 1483.8630802888215,
        "dog": 1163.8507282835315,
        "frog": 1451.6092598360901,
        "horse": 1458.6179504908437,
        "ship": 1113.8873973660486,
        "truck": 1099.298858204757
    },
    "fid": 885.5128509805528,
    "wasserstein_distance": null,
    "g_loss": null,
    "g_cost": null,
    "d_loss_real": null,
    "d_loss_fake": null
}