{
    "epoch": 20,
    "avg_current_window": 1652.8979120860993,
    "avg_prior_window": 1855.54818351334,
    "inception_score_mean": 1.175850025534396,
    "inception_score_std": 0.02595422385764423,
    "fid_per_class": {
        "airplane": 1421.2233860900465,
        "automobile": 1457.9298343212588,
        "bird": 1279.7136722914456,
        "cat": 1132.5088023139108,
        "deer": 1259.3872301437498,
        "dog": 1299.2955976177411,
        "frog": 1291.7467960083966,
        "horse": 1438.504972864966,
        "ship": 1308.6353742679196,
        "truck": 1376.0029668004875
    },
    "fid": 1090.0207006267187,
    "wasserstein_distance": null,
    "g_loss": null,
    "g_cost": null,
    "d_loss_real": null,
    "d_loss_fake": null
}