{
    "epoch": 43,
    "avg_current_window": 1371.5246864404903,
    "avg_prior_window": 1445.8101086439299,
    "inception_score_mean": 1.7431455763260906,
    "inception_score_std": 0.09230902492685548,
    "fid_per_class": {
        "airplane": 1136.2904791573246,
        "automobile": 1360.6257052508063,
        "bird": 1341.0022120076974,
        "cat": 1166.026736789428,
        "deer": 1457.7911220238243,
        "dog": 1230.2354359024498,
        "frog": 1730.6964918696412,
        "horse": 1534.8241083271278,
        "ship": 999.3889137882028,
        "truck": 1200.0638085750115
    },
    "fid": 975.8180259466574,
    "wasserstein_distance": null,
    "g_loss": null,
    "g_cost": null,
    "d_loss_real": null,
    "d_loss_fake": null
}