{
    "epoch": 107,
    "avg_current_window": 1068.6131956460983,
    "avg_prior_window": 1088.6501280404832,
    "inception_score_mean": 1.872514632924382,
    "inception_score_std": 0.14440936942193527,
    "fid_per_class": {
        "airplane": 1102.4236240590203,
        "automobile": 1145.2660706393885,
        "bird": 1255.6018136857392,
        "cat": 984.7719629291944,
        "deer": 1336.0737343239489,
        "dog": 1072.9562500264674,
        "frog": 1318.3166164998115,
        "horse": 1319.7375852844445,
        "ship": 1068.1274774526873,
        "truck": 1036.6238076057293
    },
    "fid": 794.6620334533211,
    "wasserstein_distance": null,
    "g_loss": null,
    "g_cost": null,
    "d_loss_real": null,
    "d_loss_fake": null
}