{
    "epoch": 77,
    "avg_current_window": 1167.6215943873601,
    "avg_prior_window": 1200.0285678064683,
    "inception_score_mean": 1.7964070627553053,
    "inception_score_std": 0.13597448239518303,
    "fid_per_class": {
        "airplane": 1097.592229709728,
        "automobile": 1195.983434535386,
        "bird": 1179.218121785767,
        "cat": 1020.4526467225496,
        "deer": 1399.9463553786572,
        "dog": 1131.4407301565536,
        "frog": 1185.6214819959055,
        "horse": 1328.6196216531653,
        "ship": 1064.507312968121,
        "truck": 1125.2070289004246
    },
    "fid": 805.4877646389152,
    "wasserstein_distance": null,
    "g_loss": null,
    "g_cost": null,
    "d_loss_real": null,
    "d_loss_fake": null
}