{
    "epoch": 186,
    "avg_current_window": 963.2449724181868,
    "avg_prior_window": 971.7542597423904,
    "inception_score_mean": 1.8251769040157502,
    "inception_score_std": 0.11732287891861523,
    "fid_per_class": {
        "airplane": 1149.59003265198,
        "automobile": 1157.378122673328,
        "bird": 1378.3631588424964,
        "cat": 1139.4862170181782,
        "deer": 1517.3608827399212,
        "dog": 1204.8621499849892,
        "frog": 1551.6695968793135,
        "horse": 1509.5072722571094,
        "ship": 1079.2315882946289,
        "truck": 1059.461239898449
    },
    "fid": 903.1009214364901,
    "wasserstein_distance": null,
    "g_loss": null,
    "g_cost": null,
    "d_loss_real": null,
    "d_loss_fake": null
}