{
    "epoch": 200,
    "avg_current_window": 953.783746499967,
    "avg_prior_window": 961.6435493293866,
    "inception_score_mean": 1.79438490516795,
    "inception_score_std": 0.12981311692813713,
    "fid_per_class": {
        "airplane": 1146.862450858711,
        "automobile": 1152.9105158720922,
        "bird": 1393.5875563466711,
        "cat": 1232.6512135297965,
        "deer": 1507.1041820202493,
        "dog": 1316.6509449466203,
        "frog": 1756.8543984676685,
        "horse": 1403.0446074357428,
        "ship": 1015.4489453726906,
        "truck": 1011.5371787440629
    },
    "fid": 918.5795435803534,
    "wasserstein_distance": null,
    "g_loss": null,
    "g_cost": null,
    "d_loss_real": null,
    "d_loss_fake": null
}