{
    "epoch": 130,
    "avg_current_window": 1019.6138508675613,
    "avg_prior_window": 1035.1065791167239,
    "inception_score_mean": 1.7538505931425352,
    "inception_score_std": 0.13568030956326863,
    "fid_per_class": {
        "airplane": 1088.8386704830623,
        "automobile": 1254.9311568515286,
        "bird": 1303.9594533797983,
        "cat": 1063.7564798690305,
        "deer": 1420.9606224106442,
        "dog": 1138.2374988535462,
        "frog": 1351.0229298571294,
        "horse": 1346.5886848122075,
        "ship": 1002.7225483407811,
        "truck": 1134.8194742802802
    },
    "fid": 849.4657509603725,
    "wasserstein_distance": null,
    "g_loss": null,
    "g_cost": null,
    "d_loss_real": null,
    "d_loss_fake": null
}