{
    "epoch": 110,
    "avg_current_window": 1061.0039851451997,
    "avg_prior_window": 1081.768544005272,
    "inception_score_mean": 1.7467779841050324,
    "inception_score_std": 0.11558407886644621,
    "fid_per_class": {
        "airplane": 1076.5181889281819,
        "automobile": 1135.0598517733788,
        "bird": 1123.818774755065,
        "cat": 941.5641019181992,
        "deer": 1284.2139933664403,
        "dog": 1115.6692376110846,
        "frog": 1213.5041358705473,
        "horse": 1249.4533667947853,
        "ship": 983.8647617010536,
        "truck": 1128.2671507941602
    },
    "fid": 744.3993115792618,
    "wasserstein_distance": null,
    "g_loss": null,
    "g_cost": null,
    "d_loss_real": null,
    "d_loss_fake": null
}