{
    "epoch": 150,
    "avg_current_window": 995.0513504245313,
    "avg_prior_window": 1005.7963546123225,
    "inception_score_mean": 1.8324157505931056,
    "inception_score_std": 0.13189506756135636,
    "fid_per_class": {
        "airplane": 1101.1532726433309,
        "automobile": 1119.8058271569328,
        "bird": 1281.8315908819172,
        "cat": 1046.7905865405435,
        "deer": 1469.8971955389611,
        "dog": 1054.3868521173304,
        "frog": 1373.9703322357348,
        "horse": 1406.5293606754842,
        "ship": 1058.5973067182374,
        "truck": 1027.4029755847282
    },
    "fid": 818.9149540187057,
    "wasserstein_distance": null,
    "g_loss": null,
    "g_cost": null,
    "d_loss_real": null,
    "d_loss_fake": null
}