{
    "epoch": 153,
    "avg_current_window": 992.1589626080681,
    "avg_prior_window": 1003.0272932774619,
    "inception_score_mean": 1.629994866669314,
    "inception_score_std": 0.1245989093185379,
    "fid_per_class": {
        "airplane": 1238.36896610106,
        "automobile": 1298.6346906853253,
        "bird": 1397.3644762647589,
        "cat": 1203.4306701547275,
        "deer": 1668.0899511137077,
        "dog": 1224.7866742385854,
        "frog": 1693.734048827212,
        "horse": 1594.8282282681214,
        "ship": 1108.4520732593692,
        "truck": 1199.619342303599
    },
    "fid": 1033.056123500236,
    "wasserstein_distance": null,
    "g_loss": null,
    "g_cost": null,
    "d_loss_real": null,
    "d_loss_fake": null
}