{
    "epoch": 140,
    "avg_current_window": 1005.68282582478,
    "avg_prior_window": 1018.1181087980536,
    "inception_score_mean": 1.7615208731162233,
    "inception_score_std": 0.09278207012040113,
    "fid_per_class": {
        "airplane": 1151.6610185196091,
        "automobile": 1196.369582006802,
        "bird": 1261.5857501574085,
        "cat": 1069.9185230344601,
        "deer": 1383.7686433116123,
        "dog": 1131.3792317215834,
        "frog": 1416.2966916853127,
        "horse": 1421.261306052934,
        "ship": 1019.7847269470774,
        "truck": 1044.3609117583965
    },
    "fid": 842.1315949002027,
    "wasserstein_distance": null,
    "g_loss": null,
    "g_cost": null,
    "d_loss_real": null,
    "d_loss_fake": null
}