{
    "epoch": 187,
    "avg_current_window": 962.9233464771082,
    "avg_prior_window": 971.1973966198789,
    "inception_score_mean": 1.8223350191887888,
    "inception_score_std": 0.12292803193617328,
    "fid_per_class": {
        "airplane": 1160.3356475340654,
        "automobile": 1238.2670065931281,
        "bird": 1261.9304652508984,
        "cat": 1052.3313271615355,
        "deer": 1474.4590565534186,
        "dog": 1023.5466175623343,
        "frog": 1267.8021425447432,
        "horse": 1406.4746186944412,
        "ship": 1114.304595047786,
        "truck": 1156.5907109174905
    },
    "fid": 857.2526943762325,
    "wasserstein_distance": null,
    "g_loss": null,
    "g_cost": null,
    "d_loss_real": null,
    "d_loss_fake": null
}