{
    "epoch": 148,
    "avg_current_window": 996.8656621320109,
    "avg_prior_window": 1007.8554073958251,
    "inception_score_mean": 1.7214141441670834,
    "inception_score_std": 0.07799004965956141,
    "fid_per_class": {
        "airplane": 1171.1367374105107,
        "automobile": 1257.1257854198093,
        "bird": 1278.9357944088079,
        "cat": 1084.9125796663147,
        "deer": 1495.8640682659552,
        "dog": 1164.7449515191017,
        "frog": 1495.543002654923,
        "horse": 1461.726944763806,
        "ship": 1188.036853575438,
        "truck": 1156.8138987999555
    },
    "fid": 911.9214095267482,
    "wasserstein_distance": null,
    "g_loss": null,
    "g_cost": null,
    "d_loss_real": null,
    "d_loss_fake": null
}