{
    "epoch": 1,
    "avg_current_window": 3.0,
    "avg_prior_window": 8.0,
    "inception_score_mean": 1.1941043334218655,
    "inception_score_std": 0.03213717683184269,
    "fid_per_class": {
        "airplane": 1689.5425562921944,
        "automobile": 2178.9819972268056,
        "bird": 2017.9159873107849,
        "cat": 1668.5393072412537,
        "deer": 1888.8044178933644,
        "dog": 1796.401848582187,
        "frog": 2117.936659078246,
        "horse": 1946.950227888697,
        "ship": 1779.3254317027797,
        "truck": 1656.7293772698413
    },
    "fid": 1578.7464490573013,
    "wasserstein_distance": null,
    "g_loss": null,
    "g_cost": null,
    "d_loss_real": null,
    "d_loss_fake": null
}