{
    "epoch": 80,
    "avg_current_window": 1154.1873249865316,
    "avg_prior_window": 1186.6455626615912,
    "inception_score_mean": 1.701628408994815,
    "inception_score_std": 0.145219395960483,
    "fid_per_class": {
        "airplane": 1146.5606708017715,
        "automobile": 1252.5753622688776,
        "bird": 1223.1338005498076,
        "cat": 1044.2649122684002,
        "deer": 1437.7292280830995,
        "dog": 1072.084612002994,
        "frog": 1299.2711369248402,
        "horse": 1424.9928629867768,
        "ship": 1067.5256837388597,
        "truck": 1129.408629858056
    },
    "fid": 850.5594811707914,
    "wasserstein_distance": null,
    "g_loss": null,
    "g_cost": null,
    "d_loss_real": null,
    "d_loss_fake": null
}