{
    "epoch": 10,
    "avg_current_window": 1700.5888076095027,
    "avg_prior_window": 1861.5767669599331,
    "inception_score_mean": 1.0697791788670359,
    "inception_score_std": 0.02585623273760502,
    "fid_per_class": {
        "airplane": 1618.8119046931097,
        "automobile": 1802.947772524451,
        "bird": 2229.7376058429827,
        "cat": 1986.1757733210127,
        "deer": 2588.7551212918015,
        "dog": 1870.3547958556685,
        "frog": 2663.6811591299456,
        "horse": 2048.120128054035,
        "ship": 1890.8103295650478,
        "truck": 1768.3315161374176
    },
    "fid": 1717.7587769500133,
    "wasserstein_distance": null,
    "g_loss": null,
    "g_cost": null,
    "d_loss_real": null,
    "d_loss_fake": null
}