{
    "epoch": 5,
    "avg_current_window": 1436.3570121931596,
    "avg_prior_window": 1582.7464490573013,
    "inception_score_mean": 1.2004923492986086,
    "inception_score_std": 0.07978335838363382,
    "fid_per_class": {
        "airplane": 2037.3381341464897,
        "automobile": 2070.042215811628,
        "bird": 2512.7793081452855,
        "cat": 2480.146432578919,
        "deer": 2840.603851387813,
        "dog": 2438.810465023648,
        "frog": 2735.030306338093,
        "horse": 2371.8212688065883,
        "ship": 2295.542170458358,
        "truck": 2040.0655877751544
    },
    "fid": 2126.098773833868,
    "wasserstein_distance": null,
    "g_loss": null,
    "g_cost": null,
    "d_loss_real": null,
    "d_loss_fake": null
}