{
    "epoch": 17,
    "avg_current_window": 1722.0118327407351,
    "avg_prior_window": 1854.6799871636792,
    "inception_score_mean": 1.26081531858695,
    "inception_score_std": 0.03487967689824028,
    "fid_per_class": {
        "airplane": 1505.3079756777886,
        "automobile": 1508.8733083564705,
        "bird": 1695.6195571460041,
        "cat": 1570.9250607760418,
        "deer": 1736.0644362889923,
        "dog": 1568.1072461830022,
        "frog": 1947.4324787728287,
        "horse": 1835.7270057771084,
        "ship": 1453.9381531059444,
        "truck": 1328.0415281352466
    },
    "fid": 1382.2304021363436,
    "wasserstein_distance": null,
    "g_loss": null,
    "g_cost": null,
    "d_loss_real": null,
    "d_loss_fake": null
}