{
    "epoch": 90,
    "avg_current_window": 1117.5630888409812,
    "avg_prior_window": 1144.7552975173055,
    "inception_score_mean": 1.7833115238946633,
    "inception_score_std": 0.14753923164744348,
    "fid_per_class": {
        "airplane": 1102.6787648241768,
        "automobile": 1222.0380861831163,
        "bird": 1192.8988206963452,
        "cat": 1091.8695268542149,
        "deer": 1507.7374092270295,
        "dog": 1196.1143929572152,
        "frog": 1323.475182340101,
        "horse": 1340.429398994836,
        "ship": 1070.3932893523886,
        "truck": 1072.5398657068076
    },
    "fid": 842.2986956734901,
    "wasserstein_distance": null,
    "g_loss": null,
    "g_cost": null,
    "d_loss_real": null,
    "d_loss_fake": null
}