{
    "epoch": 189,
    "avg_current_window": 961.2889524165331,
    "avg_prior_window": 969.6449811858475,
    "inception_score_mean": 1.8505085643285217,
    "inception_score_std": 0.14917649145282194,
    "fid_per_class": {
        "airplane": 1137.7161233837085,
        "automobile": 1200.9818800385028,
        "bird": 1188.3345151247304,
        "cat": 1009.3221979788473,
        "deer": 1360.0268829578663,
        "dog": 1068.8813811487526,
        "frog": 1451.7050177282513,
        "horse": 1279.6444318529004,
        "ship": 1092.2323957430326,
        "truck": 1093.0964705633953
    },
    "fid": 791.5493017237238,
    "wasserstein_distance": null,
    "g_loss": null,
    "g_cost": null,
    "d_loss_real": null,
    "d_loss_fake": null
}