{
    "epoch": 195,
    "avg_current_window": 957.4413611845248,
    "avg_prior_window": 964.8911161596444,
    "inception_score_mean": 1.8042841255552038,
    "inception_score_std": 0.10316335294489574,
    "fid_per_class": {
        "airplane": 1054.5978013072922,
        "automobile": 1122.9606009881072,
        "bird": 1256.6064594631366,
        "cat": 1084.6765436132596,
        "deer": 1390.6023946077723,
        "dog": 1213.3635151886251,
        "frog": 1547.20426997145,
        "horse": 1356.3785260247473,
        "ship": 978.644379617386,
        "truck": 1046.5150534302547
    },
    "fid": 819.4266882480504,
    "wasserstein_distance": null,
    "g_loss": null,
    "g_cost": null,
    "d_loss_real": null,
    "d_loss_fake": null
}