{
    "epoch": 199,
    "avg_current_window": 954.6478730780873,
    "avg_prior_window": 962.3766259328986,
    "inception_score_mean": 1.8703203892993951,
    "inception_score_std": 0.19895742271508537,
    "fid_per_class": {
        "airplane": 1097.532428226205,
        "automobile": 1198.275774873077,
        "bird": 1241.8658971632635,
        "cat": 954.4192001661938,
        "deer": 1478.0183219105797,
        "dog": 1067.084562728203,
        "frog": 1565.990352788374,
        "horse": 1358.6158179653207,
        "ship": 960.4350119760289,
        "truck": 974.8113047116371
    },
    "fid": 781.8225574540552,
    "wasserstein_distance": null,
    "g_loss": null,
    "g_cost": null,
    "d_loss_real": null,
    "d_loss_fake": null
}