{
    "epoch": 36,
    "avg_current_window": 1433.291536128039,
    "avg_prior_window": 1527.7673869355654,
    "inception_score_mean": 1.6310518885973397,
    "inception_score_std": 0.10059315935906302,
    "fid_per_class": {
        "airplane": 1276.2935183079462,
        "automobile": 1339.6163071417654,
        "bird": 1590.4413051178003,
        "cat": 1457.5999525085963,
        "deer": 1637.9691652997446,
        "dog": 1471.25167059968,
        "frog": 1785.4658524182214,
        "horse": 1699.590863129919,
        "ship": 1029.34262243129,
        "truck": 1087.4213075139683
    },
    "fid": 1119.1218335654157,
    "wasserstein_distance": null,
    "g_loss": null,
    "g_cost": null,
    "d_loss_real": null,
    "d_loss_fake": null
}