{
    "epoch": 125,
    "avg_current_window": 1028.8142392076002,
    "avg_prior_window": 1044.5834404137904,
    "inception_score_mean": 1.8263046391682003,
    "inception_score_std": 0.11081085239043478,
    "fid_per_class": {
        "airplane": 1093.380695499939,
        "automobile": 1259.8339193067386,
        "bird": 1200.4049246290665,
        "cat": 977.5572892846351,
        "deer": 1330.117076552379,
        "dog": 1058.4133817038478,
        "frog": 1338.7417493190337,
        "horse": 1257.8975446610164,
        "ship": 1042.8043580980907,
        "truck": 1158.391048860944
    },
    "fid": 786.5424886404851,
    "wasserstein_distance": null,
    "g_loss": null,
    "g_cost": null,
    "d_loss_real": null,
    "d_loss_fake": null
}