{
    "epoch": 139,
    "avg_current_window": 1006.7290652348821,
    "avg_prior_window": 1020.1356001816223,
    "inception_score_mean": 1.7363778417579687,
    "inception_score_std": 0.10871080496999333,
    "fid_per_class": {
        "airplane": 1155.326780666375,
        "automobile": 1251.8508174938627,
        "bird": 1250.0701675906744,
        "cat": 1024.244415797523,
        "deer": 1412.1974786529781,
        "dog": 1090.7197973360512,
        "frog": 1392.6296856871224,
        "horse": 1407.5036240272088,
        "ship": 1118.360321393903,
        "truck": 1115.7038634815872
    },
    "fid": 860.2555478206019,
    "wasserstein_distance": null,
    "g_loss": null,
    "g_cost": null,
    "d_loss_real": null,
    "d_loss_fake": null
}