{
    "epoch": 3,
    "avg_current_window": 545.7518628077672,
    "avg_prior_window": 1584.7464490573013,
    "inception_score_mean": 1.1648412624545421,
    "inception_score_std": 0.0663923904621542,
    "fid_per_class": {
        "airplane": 1851.448771772271,
        "automobile": 1981.297652905971,
        "bird": 2214.5652332863547,
        "cat": 2164.8775720135386,
        "deer": 2518.1877030269316,
        "dog": 2356.7974181434206,
        "frog": 2575.3445765277056,
        "horse": 2309.3370127909225,
        "ship": 2009.887924185654,
        "truck": 1956.9710608084388
    },
    "fid": 1935.3385755350496,
    "wasserstein_distance": null,
    "g_loss": null,
    "g_cost": null,
    "d_loss_real": null,
    "d_loss_fake": null
}