{
    "epoch": 99,
    "avg_current_window": 1089.0248945341132,
    "avg_prior_window": 1113.6450526900198,
    "inception_score_mean": 1.8827344046667733,
    "inception_score_std": 0.12187882406950938,
    "fid_per_class": {
        "airplane": 1142.8529664763319,
        "automobile": 1133.2971215899547,
        "bird": 1187.5734286925683,
        "cat": 1046.4907561670093,
        "deer": 1373.4918812766905,
        "dog": 1087.1690156432292,
        "frog": 1304.7007440097714,
        "horse": 1367.8683324792516,
        "ship": 960.7817905707509,
        "truck": 1090.5116817834057
    },
    "fid": 776.5307198337368,
    "wasserstein_distance": null,
    "g_loss": null,
    "g_cost": null,
    "d_loss_real": null,
    "d_loss_fake": null
}