{
    "epoch": 74,
    "avg_current_window": 1178.7932740637364,
    "avg_prior_window": 1215.4792526570914,
    "inception_score_mean": 1.7583050285959956,
    "inception_score_std": 0.1556575540419117,
    "fid_per_class": {
        "airplane": 1162.889050509657,
        "automobile": 1222.7352914041126,
        "bird": 1220.509407063866,
        "cat": 1034.542133156234,
        "deer": 1341.0421832450452,
        "dog": 1111.9142966679558,
        "frog": 1328.5347732015707,
        "horse": 1345.3050232418248,
        "ship": 1066.7902995134011,
        "truck": 1106.6813445302682
    },
    "fid": 845.4481669371233,
    "wasserstein_distance": null,
    "g_loss": null,
    "g_cost": null,
    "d_loss_real": null,
    "d_loss_fake": null
}