{
    "epoch": 109,
    "avg_current_window": 1063.3584835503573,
    "avg_prior_window": 1083.8677626236245,
    "inception_score_mean": 1.8165613861147452,
    "inception_score_std": 0.10787728145674459,
    "fid_per_class": {
        "airplane": 1102.6578825331446,
        "automobile": 1204.8632646016288,
        "bird": 1197.519064094301,
        "cat": 974.0192023889003,
        "deer": 1403.7102419456096,
        "dog": 1045.5486978234842,
        "frog": 1335.1159002463064,
        "horse": 1337.8145261349898,
        "ship": 1079.673637828965,
        "truck": 1127.8310952389706
    },
    "fid": 804.363658983048,
    "wasserstein_distance": null,
    "g_loss": null,
    "g_cost": null,
    "d_loss_real": null,
    "d_loss_fake": null
}