{
    "epoch": 124,
    "avg_current_window": 1030.4736396233502,
    "avg_prior_window": 1046.6718682690241,
    "inception_score_mean": 1.8026525627228085,
    "inception_score_std": 0.10149106275447448,
    "fid_per_class": {
        "airplane": 1127.6855486832173,
        "automobile": 1182.5199472667332,
        "bird": 1272.4730450070451,
        "cat": 1036.8883139083327,
        "deer": 1331.956526217492,
        "dog": 1121.5332415142059,
        "frog": 1409.374254586101,
        "horse": 1262.9326592873417,
        "ship": 1098.987388280269,
        "truck": 1141.6367563550775
    },
    "fid": 823.0485876546031,
    "wasserstein_distance": null,
    "g_loss": null,
    "g_cost": null,
    "d_loss_real": null,
    "d_loss_fake": null
}