{
    "epoch": 13,
    "avg_current_window": 1712.0122958433963,
    "avg_prior_window": 1932.503328489569,
    "inception_score_mean": 1.097398879531668,
    "inception_score_std": 0.04549188575765975,
    "fid_per_class": {
        "airplane": 1670.5846431271616,
        "automobile": 2333.3738151242087,
        "bird": 2382.1438360326565,
        "cat": 2397.835334178402,
        "deer": 2365.150876783402,
        "dog": 2057.860212267178,
        "frog": 2749.7704277694543,
        "horse": 2034.732150904554,
        "ship": 2007.1182494159816,
        "truck": 1604.7632585588444
    },
    "fid": 1903.8211535157095,
    "wasserstein_distance": null,
    "g_loss": null,
    "g_cost": null,
    "d_loss_real": null,
    "d_loss_fake": null
}