{
    "epoch": 191,
    "avg_current_window": 959.8393302111646,
    "avg_prior_window": 968.1003537162325,
    "inception_score_mean": 1.955817687767968,
    "inception_score_std": 0.14979695354734554,
    "fid_per_class": {
        "airplane": 1155.7636568551486,
        "automobile": 1150.9919941607213,
        "bird": 1355.6077631731407,
        "cat": 1236.407489714847,
        "deer": 1429.1832949450409,
        "dog": 1228.6870104072127,
        "frog": 1583.5004294763119,
        "horse": 1294.206549845515,
        "ship": 1070.3705006991136,
        "truck": 1087.9011695563152
    },
    "fid": 878.1120339906599,
    "wasserstein_distance": null,
    "g_loss": null,
    "g_cost": null,
    "d_loss_real": null,
    "d_loss_fake": null
}