{
    "epoch": 198,
    "avg_current_window": 955.8866808588525,
    "avg_prior_window": 963.260913341691,
    "inception_score_mean": 1.8533777218679872,
    "inception_score_std": 0.11551379059834906,
    "fid_per_class": {
        "airplane": 1002.3711740799995,
        "automobile": 1078.0239438366407,
        "bird": 1211.8757565071767,
        "cat": 959.3359208290185,
        "deer": 1215.3809819125167,
        "dog": 978.5665629097905,
        "frog": 1317.6471021218847,
        "horse": 1167.9510749017038,
        "ship": 933.5895693756601,
        "truck": 985.107128597416
    },
    "fid": 709.3639324865617,
    "wasserstein_distance": null,
    "g_loss": null,
    "g_cost": null,
    "d_loss_real": null,
    "d_loss_fake": null
}