{
    "epoch": 41,
    "avg_current_window": 1388.462704598771,
    "avg_prior_window": 1464.3782537270786,
    "inception_score_mean": 1.7447388075928554,
    "inception_score_std": 0.1313966151641683,
    "fid_per_class": {
        "airplane": 1192.0022575398082,
        "automobile": 1275.5963531591365,
        "bird": 1414.4087309238132,
        "cat": 1217.61475697595,
        "deer": 1546.0076886800634,
        "dog": 1243.7244360067673,
        "frog": 1736.4658575091976,
        "horse": 1542.6803119143651,
        "ship": 976.4611174638239,
        "truck": 1168.857821255872
    },
    "fid": 1005.1134004048253,
    "wasserstein_distance": null,
    "g_loss": null,
    "g_cost": null,
    "d_loss_real": null,
    "d_loss_fake": null
}