{
    "epoch": 47,
    "avg_current_window": 1338.6493696707037,
    "avg_prior_window": 1404.1800361176447,
    "inception_score_mean": 1.7209465954881462,
    "inception_score_std": 0.13306865915290092,
    "fid_per_class": {
        "airplane": 1250.4767787056576,
        "automobile": 1293.5558572355328,
        "bird": 1478.5566858776208,
        "cat": 1211.7868625949793,
        "deer": 1537.2360413287515,
        "dog": 1240.345113260219,
        "frog": 1673.9834813440145,
        "horse": 1441.570214972671,
        "ship": 990.0212835929971,
        "truck": 1155.4606421434642
    },
    "fid": 999.639285567145,
    "wasserstein_distance": null,
    "g_loss": null,
    "g_cost": null,
    "d_loss_real": null,
    "d_loss_fake": null
}