{
    "epoch": 160,
    "avg_current_window": 986.5640211442314,
    "avg_prior_window": 996.9570223755932,
    "inception_score_mean": 1.7627678296181812,
    "inception_score_std": 0.11895267884779517,
    "fid_per_class": {
        "airplane": 1079.5571073394071,
        "automobile": 1159.4573802145383,
        "bird": 1167.5025318167018,
        "cat": 977.6618863461379,
        "deer": 1348.139903969029,
        "dog": 1114.7465663545695,
        "frog": 1291.7565125713975,
        "horse": 1393.4054651343372,
        "ship": 1083.187818485046,
        "truck": 1061.5188307540482
    },
    "fid": 784.0941867685999,
    "wasserstein_distance": null,
    "g_loss": null,
    "g_cost": null,
    "d_loss_real": null,
    "d_loss_fake": null
}