{
    "epoch": 194,
    "avg_current_window": 958.2956509017854,
    "avg_prior_window": 965.4770439600449,
    "inception_score_mean": 1.8491609173060624,
    "inception_score_std": 0.15727924950248331,
    "fid_per_class": {
        "airplane": 1104.0149850213575,
        "automobile": 1164.3355504021379,
        "bird": 1231.352679443089,
        "cat": 999.148669770519,
        "deer": 1374.9274875863684,
        "dog": 1021.6743030319926,
        "frog": 1365.6695596407553,
        "horse": 1232.4203469997544,
        "ship": 1083.0333514330464,
        "truck": 1068.0249882034304
    },
    "fid": 791.7091560359627,
    "wasserstein_distance": null,
    "g_loss": null,
    "g_cost": null,
    "d_loss_real": null,
    "d_loss_fake": null
}