{
    "epoch": 132,
    "avg_current_window": 1016.597357431345,
    "avg_prior_window": 1031.4297412496796,
    "inception_score_mean": 1.7184637994198426,
    "inception_score_std": 0.11853029425759773,
    "fid_per_class": {
        "airplane": 1075.6684716938935,
        "automobile": 1203.5039721000335,
        "bird": 1198.9655036076615,
        "cat": 1062.0491537357898,
        "deer": 1396.2491560375245,
        "dog": 1112.6514700912867,
        "frog": 1369.8758659286977,
        "horse": 1257.825552552996,
        "ship": 1041.4212493192229,
        "truck": 1083.8951253995883
    },
    "fid": 817.3784731201716,
    "wasserstein_distance": null,
    "g_loss": null,
    "g_cost": null,
    "d_loss_real": null,
    "d_loss_fake": null
}