{
    "epoch": 192,
    "avg_current_window": 959.4136672100161,
    "avg_prior_window": 967.5075854844678,
    "inception_score_mean": 1.7576036878873986,
    "inception_score_std": 0.12227991426242676,
    "fid_per_class": {
        "airplane": 1081.691170620093,
        "automobile": 1244.3305292710716,
        "bird": 1310.242981981044,
        "cat": 1145.8783662080757,
        "deer": 1473.0895728519772,
        "dog": 1108.1557919843153,
        "frog": 1487.9684260276936,
        "horse": 1451.008342707238,
        "ship": 1006.1688232637281,
        "truck": 1192.1930279596868
    },
    "fid": 881.8145085492606,
    "wasserstein_distance": null,
    "g_loss": null,
    "g_cost": null,
    "d_loss_real": null,
    "d_loss_fake": null
}