{
    "epoch": 16,
    "avg_current_window": 1739.5764220437563,
    "avg_prior_window": 1866.9983110426795,
    "inception_score_mean": 1.2142270907207646,
    "inception_score_std": 0.0436779611065648,
    "fid_per_class": {
        "airplane": 1811.2544008672214,
        "automobile": 1430.5324058134292,
        "bird": 1471.2378018862278,
        "cat": 1646.1405449488639,
        "deer": 1729.3486524296623,
        "dog": 1956.394545683107,
        "frog": 1959.9121267083774,
        "horse": 2024.0770744926367,
        "ship": 1686.426298752394,
        "truck": 1428.7991604257745
    },
    "fid": 1440.978403892397,
    "wasserstein_distance": null,
    "g_loss": null,
    "g_cost": null,
    "d_loss_real": null,
    "d_loss_fake": null
}