{
    "epoch": 184,
    "avg_current_window": 965.16954070853,
    "avg_prior_window": 973.5043428899763,
    "inception_score_mean": 1.7742484093213537,
    "inception_score_std": 0.15956430980602507,
    "fid_per_class": {
        "airplane": 1039.0547842914023,
        "automobile": 1104.5780069718858,
        "bird": 1221.9662341167473,
        "cat": 1064.619666611667,
        "deer": 1441.5374345769762,
        "dog": 1101.3423967946655,
        "frog": 1519.7486139746816,
        "horse": 1383.8153269196127,
        "ship": 944.6379754593802,
        "truck": 1004.1404153859265
    },
    "fid": 823.4810478264314,
    "wasserstein_distance": null,
    "g_loss": null,
    "g_cost": null,
    "d_loss_real": null,
    "d_loss_fake": null
}