{
    "epoch": 121,
    "avg_current_window": 1035.9505194186352,
    "avg_prior_window": 1052.2799662243915,
    "inception_score_mean": 1.8570558850103314,
    "inception_score_std": 0.12812601190776965,
    "fid_per_class": {
        "airplane": 1108.852110524288,
        "automobile": 1114.1919060851276,
        "bird": 1247.7594518935753,
        "cat": 1078.1539884682206,
        "deer": 1350.7449966053116,
        "dog": 1108.535921144262,
        "frog": 1374.4687554045106,
        "horse": 1278.0150273529252,
        "ship": 989.0302584919241,
        "truck": 1088.3733255878265
    },
    "fid": 797.3531083094288,
    "wasserstein_distance": null,
    "g_loss": null,
    "g_cost": null,
    "d_loss_real": null,
    "d_loss_fake": null
}