{
    "epoch": 119,
    "avg_current_window": 1039.412208288476,
    "avg_prior_window": 1057.636813867529,
    "inception_score_mean": 1.774754016966844,
    "inception_score_std": 0.1464625396718013,
    "fid_per_class": {
        "airplane": 1130.4007844595812,
        "automobile": 1197.594521993664,
        "bird": 1257.7677435180522,
        "cat": 1086.6017882341134,
        "deer": 1501.2555322049366,
        "dog": 1156.2609240072825,
        "frog": 1425.7098692434643,
        "horse": 1351.7506582241742,
        "ship": 1075.289419275119,
        "truck": 1115.5817969766008
    },
    "fid": 863.8995376852312,
    "wasserstein_distance": null,
    "g_loss": null,
    "g_cost": null,
    "d_loss_real": null,
    "d_loss_fake": null
}