{
    "epoch": 157,
    "avg_current_window": 989.8543294132767,
    "avg_prior_window": 998.6863242041738,
    "inception_score_mean": 1.810117853200649,
    "inception_score_std": 0.14388737152939254,
    "fid_per_class": {
        "airplane": 1169.2937068780261,
        "automobile": 1062.891787499757,
        "bird": 1155.2372444470734,
        "cat": 980.2899811048285,
        "deer": 1247.9557802938584,
        "dog": 1068.326517836393,
        "frog": 1284.9242615394069,
        "horse": 1242.0950486748638,
        "ship": 1010.8407848524278,
        "truck": 1066.5895797578296
    },
    "fid": 746.8754250349107,
    "wasserstein_distance": null,
    "g_loss": null,
    "g_cost": null,
    "d_loss_real": null,
    "d_loss_fake": null
}