{
    "epoch": 127,
    "avg_current_window": 1025.1452398205774,
    "avg_prior_window": 1040.5360949422945,
    "inception_score_mean": 1.8208191073069397,
    "inception_score_std": 0.158908692254663,
    "fid_per_class": {
        "airplane": 1064.274761286213,
        "automobile": 1208.3578967455953,
        "bird": 1231.4515617137681,
        "cat": 1012.7189117624787,
        "deer": 1383.3067053713257,
        "dog": 1047.073607415002,
        "frog": 1405.3483785393853,
        "horse": 1259.515587975826,
        "ship": 1002.6054358892619,
        "truck": 1065.9733319884222
    },
    "fid": 798.131681495981,
    "wasserstein_distance": null,
    "g_loss": null,
    "g_cost": null,
    "d_loss_real": null,
    "d_loss_fake": null
}