{
    "epoch": 151,
    "avg_current_window": 993.8848842231681,
    "avg_prior_window": 1004.4992449905473,
    "inception_score_mean": 1.7399023948882857,
    "inception_score_std": 0.12820368165459098,
    "fid_per_class": {
        "airplane": 1149.6485633238144,
        "automobile": 1241.0848886119475,
        "bird": 1314.4884087495273,
        "cat": 1144.712913883696,
        "deer": 1533.7504988530454,
        "dog": 1211.0976592760844,
        "frog": 1479.7133545967065,
        "horse": 1523.0283824470848,
        "ship": 1008.1070819721559,
        "truck": 1123.77818639522
    },
    "fid": 922.3749147018154,
    "wasserstein_distance": null,
    "g_loss": null,
    "g_cost": null,
    "d_loss_real": null,
    "d_loss_fake": null
}