{
    "epoch": 100,
    "avg_current_window": 1085.8999527871094,
    "avg_prior_window": 1109.7401360817169,
    "inception_score_mean": 1.7986860458609484,
    "inception_score_std": 0.09276299250765709,
    "fid_per_class": {
        "airplane": 1132.642244518489,
        "automobile": 1106.9053227749755,
        "bird": 1181.0483604324647,
        "cat": 1031.6497700547088,
        "deer": 1375.783364736593,
        "dog": 1131.5477326921691,
        "frog": 1343.1332768243906,
        "horse": 1360.9531818185278,
        "ship": 980.9120462059404,
        "truck": 1055.2939239316806
    },
    "fid": 782.7771714464974,
    "wasserstein_distance": null,
    "g_loss": null,
    "g_cost": null,
    "d_loss_real": null,
    "d_loss_fake": null
}