{
    "epoch": 44,
    "avg_current_window": 1362.5313532474486,
    "avg_prior_window": 1434.4850524893618,
    "inception_score_mean": 1.758695762854901,
    "inception_score_std": 0.1315822080236599,
    "fid_per_class": {
        "airplane": 1142.4887466372659,
        "automobile": 1307.9516183385003,
        "bird": 1472.8137280539054,
        "cat": 1227.2415788978792,
        "deer": 1452.522017917475,
        "dog": 1324.156609663927,
        "frog": 1726.88243403302,
        "horse": 1486.851771520743,
        "ship": 929.8049629180575,
        "truck": 1130.3580321649038
    },
    "fid": 976.0284384562506,
    "wasserstein_distance": null,
    "g_loss": null,
    "g_cost": null,
    "d_loss_real": null,
    "d_loss_fake": null
}