{
    "epoch": 18,
    "avg_current_window": 1703.135086596047,
    "avg_prior_window": 1858.4600768830662,
    "inception_score_mean": 1.163515615825906,
    "inception_score_std": 0.0343617874252642,
    "fid_per_class": {
        "airplane": 1454.0254932392995,
        "automobile": 1663.6466003145142,
        "bird": 1503.079573208736,
        "cat": 1376.7927764712708,
        "deer": 1366.125410087932,
        "dog": 1440.1348989562382,
        "frog": 1555.2153991266323,
        "horse": 1582.0249774337176,
        "ship": 1448.1292661496764,
        "truck": 1452.5757193802056
    },
    "fid": 1229.9443585235604,
    "wasserstein_distance": null,
    "g_loss": null,
    "g_cost": null,
    "d_loss_real": null,
    "d_loss_fake": null
}