{
    "epoch": 46,
    "avg_current_window": 1347.0255366313784,
    "avg_prior_window": 1412.9776655842545,
    "inception_score_mean": 1.7091204250565848,
    "inception_score_std": 0.0818836333911089,
    "fid_per_class": {
        "airplane": 1102.2620546681583,
        "automobile": 1336.811011372317,
        "bird": 1434.710465552352,
        "cat": 1181.963556335244,
        "deer": 1418.4424102409366,
        "dog": 1205.8362960527297,
        "frog": 1604.613514415185,
        "horse": 1436.980371403257,
        "ship": 1008.5965307468551,
        "truck": 1244.1379002343397
    },
    "fid": 953.3456894796632,
    "wasserstein_distance": null,
    "g_loss": null,
    "g_cost": null,
    "d_loss_real": null,
    "d_loss_fake": null
}