{
    "epoch": 81,
    "avg_current_window": 1150.4388330875718,
    "avg_prior_window": 1182.9850364187726,
    "inception_score_mean": 1.6933688681620627,
    "inception_score_std": 0.12440565137383303,
    "fid_per_class": {
        "airplane": 1188.5374004780583,
        "automobile": 1201.038832420247,
        "bird": 1198.3436236489883,
        "cat": 1067.6381507275516,
        "deer": 1336.8391152934255,
        "dog": 1082.0562160185182,
        "frog": 1233.4110922813154,
        "horse": 1366.4223846890543,
        "ship": 1060.4804546161988,
        "truck": 1074.2016348683026
    },
    "fid": 833.8215415109719,
    "wasserstein_distance": null,
    "g_loss": null,
    "g_cost": null,
    "d_loss_real": null,
    "d_loss_fake": null
}