{
    "epoch": 174,
    "avg_current_window": 972.9730756671411,
    "avg_prior_window": 982.5884850360507,
    "inception_score_mean": 1.8330997226043255,
    "inception_score_std": 0.1044402581838501,
    "fid_per_class": {
        "airplane": 1127.6444401946565,
        "automobile": 1184.2531369427588,
        "bird": 1259.698028425068,
        "cat": 1088.19093784848,
        "deer": 1361.8306800361333,
        "dog": 1196.3844404844772,
        "frog": 1405.396808212473,
        "horse": 1458.4478660201187,
        "ship": 1022.1641460476134,
        "truck": 1065.2901832841403
    },
    "fid": 844.57997945142,
    "wasserstein_distance": null,
    "g_loss": null,
    "g_cost": null,
    "d_loss_real": null,
    "d_loss_fake": null
}