{
    "epoch": 102,
    "avg_current_window": 1080.4043263492879,
    "avg_prior_window": 1102.8679271111782,
    "inception_score_mean": 1.7459557728220272,
    "inception_score_std": 0.06711398754054539,
    "fid_per_class": {
        "airplane": 1121.228150591365,
        "automobile": 1119.2704156810687,
        "bird": 1293.4960504331361,
        "cat": 1050.6821542663429,
        "deer": 1502.7720306482504,
        "dog": 1170.622297361611,
        "frog": 1346.5680961851444,
        "horse": 1351.0207702902248,
        "ship": 1015.9360565416473,
        "truck": 1073.0470913307727
    },
    "fid": 841.0717725019163,
    "wasserstein_distance": null,
    "g_loss": null,
    "g_cost": null,
    "d_loss_real": null,
    "d_loss_fake": null
}