{
    "epoch": 33,
    "avg_current_window": 1467.0094667724966,
    "avg_prior_window": 1575.530633868024,
    "inception_score_mean": 1.6374732282052602,
    "inception_score_std": 0.10287102302252088,
    "fid_per_class": {
        "airplane": 1241.6913972704392,
        "automobile": 1246.5193034971005,
        "bird": 1472.5646450142567,
        "cat": 1226.8650244731175,
        "deer": 1644.3468971362097,
        "dog": 1275.3452063982818,
        "frog": 1570.2629507056913,
        "horse": 1532.6787633175552,
        "ship": 1066.3050057552782,
        "truck": 1109.933911258389
    },
    "fid": 1004.8601059089144,
    "wasserstein_distance": null,
    "g_loss": null,
    "g_cost": null,
    "d_loss_real": null,
    "d_loss_fake": null
}