{
    "epoch": 144,
    "avg_current_window": 1000.8564115111318,
    "avg_prior_window": 1012.9179540681238,
    "inception_score_mean": 1.7778872070376568,
    "inception_score_std": 0.09571668804637865,
    "fid_per_class": {
        "airplane": 1153.7591818464343,
        "automobile": 1159.7443064318804,
        "bird": 1310.1025018323082,
        "cat": 1070.785241692925,
        "deer": 1397.7737985803155,
        "dog": 1165.0202483423495,
        "frog": 1467.1244067561506,
        "horse": 1288.253104475767,
        "ship": 1094.5573188228539,
        "truck": 1064.5524948460861
    },
    "fid": 837.1858133454841,
    "wasserstein_distance": null,
    "g_loss": null,
    "g_cost": null,
    "d_loss_real": null,
    "d_loss_fake": null
}