{
    "epoch": 49,
    "avg_current_window": 1324.232889515603,
    "avg_prior_window": 1384.7138177578179,
    "inception_score_mean": 1.6622920114802509,
    "inception_score_std": 0.1038090859879255,
    "fid_per_class": {
        "airplane": 1175.5923748232296,
        "automobile": 1341.6498084864095,
        "bird": 1363.1986241400023,
        "cat": 1226.7743544270043,
        "deer": 1548.6676254650947,
        "dog": 1275.4322497262237,
        "frog": 1663.3452969652226,
        "horse": 1434.5821306382222,
        "ship": 937.1289641692047,
        "truck": 1198.604976573697
    },
    "fid": 980.262566052889,
    "wasserstein_distance": null,
    "g_loss": null,
    "g_cost": null,
    "d_loss_real": null,
    "d_loss_fake": null
}