{
    "epoch": 156,
    "avg_current_window": 990.5662722321599,
    "avg_prior_window": 999.9933273668888,
    "inception_score_mean": 1.7327279666223045,
    "inception_score_std": 0.10855155800764058,
    "fid_per_class": {
        "airplane": 1160.7167109280788,
        "automobile": 1224.9834442989145,
        "bird": 1273.8896377089063,
        "cat": 1148.9243481470812,
        "deer": 1374.5002484575868,
        "dog": 1194.714484555728,
        "frog": 1457.0977497504025,
        "horse": 1418.9046503270972,
        "ship": 1070.9466207891962,
        "truck": 1164.803907031143
    },
    "fid": 878.791249667496,
    "wasserstein_distance": null,
    "g_loss": null,
    "g_cost": null,
    "d_loss_real": null,
    "d_loss_fake": null
}