{
    "epoch": 35,
    "avg_current_window": 1442.0716743900346,
    "avg_prior_window": 1543.0290342044646,
    "inception_score_mean": 1.5673881061889818,
    "inception_score_std": 0.0808049876393363,
    "fid_per_class": {
        "airplane": 1321.300256363235,
        "automobile": 1306.9364421716575,
        "bird": 1548.8173294649869,
        "cat": 1422.8956144499334,
        "deer": 1578.8969176541864,
        "dog": 1552.8093408591583,
        "frog": 1753.0805996114316,
        "horse": 1594.0054213239655,
        "ship": 1115.8642335291656,
        "truck": 1150.158958472384
    },
    "fid": 1125.9866969582004,
    "wasserstein_distance": null,
    "g_loss": null,
    "g_cost": null,
    "d_loss_real": null,
    "d_loss_fake": null
}