{
    "epoch": 2,
    "avg_current_window": 791.3732245286507,
    "avg_prior_window": 1585.7464490573013,
    "inception_score_mean": 1.1607793656903584,
    "inception_score_std": 0.029798174754945245,
    "fid_per_class": {
        "airplane": 1727.622083505474,
        "automobile": 1965.9299723267584,
        "bird": 1792.3714642861173,
        "cat": 1943.3925817660197,
        "deer": 2198.9228670596385,
        "dog": 1924.9496854061645,
        "frog": 1976.749653735514,
        "horse": 1989.1842571573357,
        "ship": 1911.390868222777,
        "truck": 1919.7248014488446
    },
    "fid": 1634.2555884233018,
    "wasserstein_distance": null,
    "g_loss": null,
    "g_cost": null,
    "d_loss_real": null,
    "d_loss_fake": null
}