{
    "epoch": 101,
    "avg_current_window": 1082.8987371302717,
    "avg_prior_window": 1106.1866756323623,
    "inception_score_mean": 1.7765029576515743,
    "inception_score_std": 0.07670376690668265,
    "fid_per_class": {
        "airplane": 1170.714483208934,
        "automobile": 1114.529883467456,
        "bird": 1243.093360906724,
        "cat": 1012.2778243844913,
        "deer": 1597.0216376637113,
        "dog": 1140.291572619849,
        "frog": 1345.4259675379674,
        "horse": 1354.7314823847241,
        "ship": 957.7988936415371,
        "truck": 1054.8737208468062
    },
    "fid": 828.4688374699329,
    "wasserstein_distance": null,
    "g_loss": null,
    "g_cost": null,
    "d_loss_real": null,
    "d_loss_fake": null
}