{
    "epoch": 131,
    "avg_current_window": 1018.3150104102546,
    "avg_prior_window": 1033.2813131524867,
    "inception_score_mean": 1.8501132737973365,
    "inception_score_std": 0.13425843719672087,
    "fid_per_class": {
        "airplane": 1113.0699187855466,
        "automobile": 1188.3716357066924,
        "bird": 1231.9323640320245,
        "cat": 1092.1678863132393,
        "deer": 1187.0778812916315,
        "dog": 1136.8332686541717,
        "frog": 1334.896246549511,
        "horse": 1289.7997645188304,
        "ship": 999.9534238988177,
        "truck": 1112.7636133757974
    },
    "fid": 791.5848171942041,
    "wasserstein_distance": null,
    "g_loss": null,
    "g_cost": null,
    "d_loss_real": null,
    "d_loss_fake": null
}