{
    "epoch": 56,
    "avg_current_window": 1277.3970237879062,
    "avg_prior_window": 1328.511026109112,
    "inception_score_mean": 1.6873501424031208,
    "inception_score_std": 0.1364888704015189,
    "fid_per_class": {
        "airplane": 1145.5683301517959,
        "automobile": 1250.4990261517141,
        "bird": 1328.3691900755541,
        "cat": 1101.4737864389535,
        "deer": 1459.9351544505519,
        "dog": 1322.7881460486424,
        "frog": 1448.6268584758293,
        "horse": 1356.4450744171604,
        "ship": 1085.6094095160652,
        "truck": 1163.3832825884194
    },
    "fid": 921.6316966947644,
    "wasserstein_distance": null,
    "g_loss": null,
    "g_cost": null,
    "d_loss_real": null,
    "d_loss_fake": null
}