{
    "epoch": 111,
    "avg_current_window": 1058.1516907887499,
    "avg_prior_window": 1078.6944522087974,
    "inception_score_mean": 1.861735893079511,
    "inception_score_std": 0.1255133020904535,
    "fid_per_class": {
        "airplane": 1109.858415230557,
        "automobile": 1128.4326034563599,
        "bird": 1223.4483880786338,
        "cat": 971.7882679621167,
        "deer": 1315.0837902870658,
        "dog": 1022.214454080596,
        "frog": 1163.4396996943667,
        "horse": 1347.5052921961444,
        "ship": 1005.7672209343784,
        "truck": 1048.2404860175227
    },
    "fid": 756.5996613093951,
    "wasserstein_distance": null,
    "g_loss": null,
    "g_cost": null,
    "d_loss_real": null,
    "d_loss_fake": null
}