{
    "epoch": 68,
    "avg_current_window": 1207.3938135521378,
    "avg_prior_window": 1246.461673343937,
    "inception_score_mean": 1.7634886716817963,
    "inception_score_std": 0.11827803305931738,
    "fid_per_class": {
        "airplane": 1136.823863296387,
        "automobile": 1250.3568151392328,
        "bird": 1302.1520569638153,
        "cat": 1057.506982797139,
        "deer": 1467.501904029862,
        "dog": 1137.097454221232,
        "frog": 1469.2698527726832,
        "horse": 1329.1006143046955,
        "ship": 1083.6697979233809,
        "truck": 1142.8146555257954
    },
    "fid": 892.1213372930123,
    "wasserstein_distance": null,
    "g_loss": null,
    "g_cost": null,
    "d_loss_real": null,
    "d_loss_fake": null
}