{
    "epoch": 58,
    "avg_current_window": 1264.4615696149003,
    "avg_prior_window": 1313.981360428468,
    "inception_score_mean": 1.6957070824079303,
    "inception_score_std": 0.09180438296991339,
    "fid_per_class": {
        "airplane": 1176.6941361984977,
        "automobile": 1262.0761394344377,
        "bird": 1303.5294437061705,
        "cat": 1072.9762461575033,
        "deer": 1361.6355228254897,
        "dog": 1234.9804733518386,
        "frog": 1438.3667601152688,
        "horse": 1352.692735038392,
        "ship": 1084.6365220413438,
        "truck": 1146.3155450308814
    },
    "fid": 889.6603161068293,
    "wasserstein_distance": null,
    "g_loss": null,
    "g_cost": null,
    "d_loss_real": null,
    "d_loss_fake": null
}