{
    "epoch": 136,
    "avg_current_window": 1010.6319462333621,
    "avg_prior_window": 1024.3576426025768,
    "inception_score_mean": 1.8936844806337902,
    "inception_score_std": 0.10252488145916841,
    "fid_per_class": {
        "airplane": 1186.482408109037,
        "automobile": 1222.7332807989592,
        "bird": 1163.590726061791,
        "cat": 952.2417754274734,
        "deer": 1360.4974283798892,
        "dog": 989.6362773412598,
        "frog": 1257.1300460792831,
        "horse": 1237.5385837913393,
        "ship": 1170.2948773670169,
        "truck": 1098.4935320595746
    },
    "fid": 784.7173380235224,
    "wasserstein_distance": null,
    "g_loss": null,
    "g_cost": null,
    "d_loss_real": null,
    "d_loss_fake": null
}