{
    "epoch": 53,
    "avg_current_window": 1296.6728374093404,
    "avg_prior_window": 1351.8210747138446,
    "inception_score_mean": 1.7343879367931478,
    "inception_score_std": 0.13068117071830518,
    "fid_per_class": {
        "airplane": 1179.2450150252387,
        "automobile": 1226.9195854557768,
        "bird": 1333.5104191077044,
        "cat": 1146.2825168827176,
        "deer": 1508.6649791891732,
        "dog": 1269.3373419679524,
        "frog": 1505.3825085444346,
        "horse": 1361.3604602110681,
        "ship": 1084.7594816758933,
        "truck": 1106.941199173363
    },
    "fid": 917.351720013763,
    "wasserstein_distance": null,
    "g_loss": null,
    "g_cost": null,
    "d_loss_real": null,
    "d_loss_fake": null
}