{
    "epoch": 224,
    "avg_current_window": 900.8416673758056,
    "avg_prior_window": 905.91789038591,
    "inception_score_mean": 2.116693016765654,
    "inception_score_std": 0.10474374620472508,
    "fid_per_class": {
        "airplane": 1004.5944756046238,
        "automobile": 1135.8617899604965,
        "bird": 1470.3125010524436,
        "cat": 1088.194708819287,
        "deer": 1504.34995645647,
        "dog": 1267.8196230811177,
        "frog": 1561.1960839221067,
        "horse": 1287.8151429056836,
        "ship": 939.3185385337993,
        "truck": 1101.021089015589
    },
    "fid": 840.8107618507358
}