{
    "epoch": 8,
    "avg_current_window": 1632.9544758013344,
    "avg_prior_window": 1.0,
    "inception_score_mean": 1.555559504985041,
    "inception_score_std": 0.046261097562041546,
    "fid_per_class": {
        "airplane": 1318.0414191580437,
        "automobile": 1341.7179182654775,
        "bird": 1485.035212692846,
        "cat": 1394.5003403233818,
        "deer": 1603.6776917774912,
        "dog": 1487.186739900907,
        "frog": 1759.992946720678,
        "horse": 1490.5715252421362,
        "ship": 1351.553769856553,
        "truck": 1261.501788844933
    },
    "fid": 1174.790478925652
}