{
    "epoch": 150,
    "avg_current_window": 931.6726480427732,
    "avg_prior_window": 941.6582929864727,
    "inception_score_mean": 2.1349634030651674,
    "inception_score_std": 0.11453392558179541,
    "fid_per_class": {
        "airplane": 1017.1805956478606,
        "automobile": 1217.9004598032711,
        "bird": 1510.6725203713368,
        "cat": 1041.392115687457,
        "deer": 1470.2794197776386,
        "dog": 1125.5106921397066,
        "frog": 1596.3843797313075,
        "horse": 1263.4001426666637,
        "ship": 918.4423863115865,
        "truck": 1140.8173231271824
    },
    "fid": 839.114053949414
}