{
    "epoch": 18,
    "avg_current_window": 1395.8758882011175,
    "avg_prior_window": 1576.1319877699773,
    "inception_score_mean": 1.7586048661842448,
    "inception_score_std": 0.09082175374892912,
    "fid_per_class": {
        "airplane": 1208.7224078994955,
        "automobile": 1356.893979655887,
        "bird": 1457.4943553296293,
        "cat": 1265.977535385554,
        "deer": 1447.957550670584,
        "dog": 1392.9586065422855,
        "frog": 1582.7482399032237,
        "horse": 1529.4860011191367,
        "ship": 1126.1956750143852,
        "truck": 1367.1088061592677
    },
    "fid": 1029.6384645857029
}