{
    "epoch": 118,
    "avg_current_window": 957.3040294177734,
    "avg_prior_window": 969.8578225254205,
    "inception_score_mean": 2.090802047570998,
    "inception_score_std": 0.09293374519925766,
    "fid_per_class": {
        "airplane": 1071.4825960731926,
        "automobile": 1202.4383992537055,
        "bird": 1411.2644692488436,
        "cat": 1042.404841294193,
        "deer": 1417.577418852968,
        "dog": 1251.5659388320291,
        "frog": 1404.4675129269663,
        "horse": 1282.303267542731,
        "ship": 939.6804378985742,
        "truck": 1198.9310008178186
    },
    "fid": 839.890487871156
}