{
    "epoch": 146,
    "avg_current_window": 935.2085786509489,
    "avg_prior_window": 944.6418304087944,
    "inception_score_mean": 2.075521539859268,
    "inception_score_std": 0.15411895141588053,
    "fid_per_class": {
        "airplane": 1093.5900499845256,
        "automobile": 1223.4641059387286,
        "bird": 1442.1907148723913,
        "cat": 1062.6362539428233,
        "deer": 1448.184981965266,
        "dog": 1136.574980937938,
        "frog": 1527.2041773508563,
        "horse": 1252.3003146540173,
        "ship": 981.5319062142996,
        "truck": 1056.451058223301
    },
    "fid": 828.5337496444694
}