{
    "epoch": 19,
    "avg_current_window": 1376.600234326622,
    "avg_prior_window": 1556.3321358752858,
    "inception_score_mean": 1.9064057307028164,
    "inception_score_std": 0.09961300620193718,
    "fid_per_class": {
        "airplane": 1264.3458029083185,
        "automobile": 1254.0757108613284,
        "bird": 1687.21194639835,
        "cat": 1267.3597065387798,
        "deer": 1628.6017449363749,
        "dog": 1445.7599760935993,
        "frog": 1848.60479828179,
        "horse": 1640.7030293665641,
        "ship": 1123.7376370823895,
        "truck": 1252.6786323299666
    },
    "fid": 1058.3282668289512
}