{
    "epoch": 180,
    "avg_current_window": 916.5176438151844,
    "avg_prior_window": 923.1487022917023,
    "inception_score_mean": 2.120036224380518,
    "inception_score_std": 0.09374133658620785,
    "fid_per_class": {
        "airplane": 1052.637294203209,
        "automobile": 1174.4490686293332,
        "bird": 1398.256731342058,
        "cat": 1046.2380703835202,
        "deer": 1464.5585227542917,
        "dog": 1116.29989799358,
        "frog": 1511.0508541979666,
        "horse": 1331.1424064248483,
        "ship": 959.0013137494745,
        "truck": 1126.670565650124
    },
    "fid": 821.3972698179991
}