{
    "epoch": 69,
    "avg_current_window": 1039.0219771933728,
    "avg_prior_window": 1063.5000595792583,
    "inception_score_mean": 2.0349456098361953,
    "inception_score_std": 0.1341585026902998,
    "fid_per_class": {
        "airplane": 1121.3598429629305,
        "automobile": 1202.9359326087847,
        "bird": 1436.31053415909,
        "cat": 1078.4019493435546,
        "deer": 1486.427878414997,
        "dog": 1177.2649592626158,
        "frog": 1587.9202938169233,
        "horse": 1434.2660661532218,
        "ship": 1053.4152173932935,
        "truck": 1124.6657746950045
    },
    "fid": 898.0847714195179
}