{
    "epoch": 112,
    "avg_current_window": 963.123832898942,
    "avg_prior_window": 978.0312481467861,
    "inception_score_mean": 2.1147241701134147,
    "inception_score_std": 0.11538434646714366,
    "fid_per_class": {
        "airplane": 1094.4479023073882,
        "automobile": 1165.6797326395495,
        "bird": 1412.209211759804,
        "cat": 1093.1551671381403,
        "deer": 1439.9996640706963,
        "dog": 1245.6545863658428,
        "frog": 1529.1105268401088,
        "horse": 1156.8676441777718,
        "ship": 944.072983905393,
        "truck": 1088.6448425160524
    },
    "fid": 824.5036300071746
}