{
    "epoch": 235,
    "avg_current_window": 897.759816798437,
    "avg_prior_window": 902.5861923038441,
    "inception_score_mean": 2.1612578687744324,
    "inception_score_std": 0.09930704453193272,
    "fid_per_class": {
        "airplane": 1022.4769334271552,
        "automobile": 1167.6892352545133,
        "bird": 1398.6866059340227,
        "cat": 1132.9183008725663,
        "deer": 1467.9264011291916,
        "dog": 1182.2115184846507,
        "frog": 1535.9986151081766,
        "horse": 1285.5781927344294,
        "ship": 998.2136649662498,
        "truck": 1111.244425050898
    },
    "fid": 839.3468120395917
}