{
    "epoch": 7,
    "avg_current_window": 1649.723840862823,
    "avg_prior_window": 2.0,
    "inception_score_mean": 1.5445320616940745,
    "inception_score_std": 0.05395754600890626,
    "fid_per_class": {
        "airplane": 1673.723638609378,
        "automobile": 1556.0086875660904,
        "bird": 1900.5331020323713,
        "cat": 1795.1234430880245,
        "deer": 1951.7093935514301,
        "dog": 1853.2478068617484,
        "frog": 2109.7737083121096,
        "horse": 1807.593372307681,
        "ship": 1646.711284272902,
        "truck": 1456.0174038184005
    },
    "fid": 1515.5689203709157
}