{
    "epoch": 66,
    "avg_current_window": 1045.3010758317075,
    "avg_prior_window": 1072.4244509203063,
    "inception_score_mean": 2.0413788654678373,
    "inception_score_std": 0.07431329680281827,
    "fid_per_class": {
        "airplane": 1148.9244571365373,
        "automobile": 1204.8309135621462,
        "bird": 1519.2754300194451,
        "cat": 1217.8316280448657,
        "deer": 1624.6948996858416,
        "dog": 1222.8585549569832,
        "frog": 1564.5259669946063,
        "horse": 1455.3916619035967,
        "ship": 1078.1785521884988,
        "truck": 1166.5235424654802
    },
    "fid": 958.1677071025388
}