{
    "epoch": 135,
    "avg_current_window": 943.4624522842729,
    "avg_prior_window": 953.7821977291501,
    "inception_score_mean": 2.0648041484112656,
    "inception_score_std": 0.11126292489455866,
    "fid_per_class": {
        "airplane": 1017.9765178442983,
        "automobile": 1182.819091590478,
        "bird": 1351.9703589994003,
        "cat": 1037.5302891107362,
        "deer": 1395.7589753994423,
        "dog": 1161.1424629311118,
        "frog": 1453.717400717063,
        "horse": 1315.521367756374,
        "ship": 906.7586626211632,
        "truck": 1098.1055524205458
    },
    "fid": 798.8781270093612
}