{
    "epoch": 219,
    "avg_current_window": 901.8457321896796,
    "avg_prior_window": 907.4435697535042,
    "inception_score_mean": 2.1252549930135975,
    "inception_score_std": 0.08395417055049044,
    "fid_per_class": {
        "airplane": 1102.9905715898535,
        "automobile": 1241.904570964562,
        "bird": 1416.307352083322,
        "cat": 1140.321754289183,
        "deer": 1484.8139733739654,
        "dog": 1251.775615400099,
        "frog": 1602.1457181632709,
        "horse": 1368.222397992285,
        "ship": 1006.3824406638305,
        "truck": 1182.9216738869645
    },
    "fid": 891.802644974455
}