{
    "epoch": 54,
    "avg_current_window": 1078.2467057777978,
    "avg_prior_window": 1116.5482331941646,
    "inception_score_mean": 1.9981115367563693,
    "inception_score_std": 0.16873339619738145,
    "fid_per_class": {
        "airplane": 1168.3401447678996,
        "automobile": 1206.5520268924188,
        "bird": 1599.9156399528028,
        "cat": 1190.642545198085,
        "deer": 1691.697225184782,
        "dog": 1261.9809140167729,
        "frog": 1682.7862576940718,
        "horse": 1535.8916685865659,
        "ship": 1058.7215152055767,
        "truck": 1204.1069624087547
    },
    "fid": 1001.4211342722322
}