{
    "epoch": 132,
    "avg_current_window": 946.0793094112983,
    "avg_prior_window": 955.8673050565086,
    "inception_score_mean": 2.031424472231288,
    "inception_score_std": 0.15521799663524047,
    "fid_per_class": {
        "airplane": 1078.71321054113,
        "automobile": 1206.8573255358647,
        "bird": 1416.3360673323957,
        "cat": 1056.0081123053533,
        "deer": 1384.3769755327555,
        "dog": 1124.9483683931885,
        "frog": 1555.8741506934134,
        "horse": 1353.0834544693741,
        "ship": 1008.262787801224,
        "truck": 1125.0410088977694
    },
    "fid": 862.3621987495867
}