{
    "epoch": 196,
    "avg_current_window": 910.1793714552161,
    "avg_prior_window": 916.1449885771306,
    "inception_score_mean": 2.1154271926673327,
    "inception_score_std": 0.15055997246929165,
    "fid_per_class": {
        "airplane": 1038.020858963419,
        "automobile": 1154.279235294622,
        "bird": 1387.6835870947732,
        "cat": 1070.9623291846806,
        "deer": 1465.8491208721448,
        "dog": 1126.867989620984,
        "frog": 1598.6960798203675,
        "horse": 1318.5568345212928,
        "ship": 949.5117077632956,
        "truck": 1159.5248298733097
    },
    "fid": 828.7395828616386
}