{
    "epoch": 72,
    "avg_current_window": 1031.9519966650337,
    "avg_prior_window": 1056.893722008284,
    "inception_score_mean": 2.06006726340649,
    "inception_score_std": 0.16194385775904002,
    "fid_per_class": {
        "airplane": 1165.8325638646902,
        "automobile": 1208.7531997700096,
        "bird": 1446.1005331165716,
        "cat": 1052.7643211358334,
        "deer": 1388.4042914429374,
        "dog": 1130.3506500627936,
        "frog": 1486.966636501721,
        "horse": 1351.6123690749446,
        "ship": 1028.4972578167942,
        "truck": 1196.7333041408722
    },
    "fid": 873.0952058462588
}