{
    "epoch": 58,
    "avg_current_window": 1065.7837267750042,
    "avg_prior_window": 1098.5909832453033,
    "inception_score_mean": 1.9055992668899542,
    "inception_score_std": 0.11584842622286157,
    "fid_per_class": {
        "airplane": 1085.0282724654844,
        "automobile": 1172.7095668227237,
        "bird": 1442.1522192179998,
        "cat": 1191.0027309839838,
        "deer": 1619.287638492854,
        "dog": 1240.9156190133388,
        "frog": 1599.1226486784722,
        "horse": 1403.6890387545138,
        "ship": 985.2938282745384,
        "truck": 1136.8935165560633
    },
    "fid": 917.4805762029217
}