{
    "epoch": 115,
    "avg_current_window": 960.1366633582062,
    "avg_prior_window": 973.1730753479443,
    "inception_score_mean": 2.0184753984716286,
    "inception_score_std": 0.15221273074822245,
    "fid_per_class": {
        "airplane": 1132.1754178377369,
        "automobile": 1136.6092388464376,
        "bird": 1425.9047554702736,
        "cat": 1005.6288211716222,
        "deer": 1453.7400985464537,
        "dog": 1131.65706599047,
        "frog": 1573.4959133713346,
        "horse": 1312.1071431838145,
        "ship": 979.1823436407451,
        "truck": 1119.696733455106
    },
    "fid": 835.5036807105892
}