{
    "epoch": 5,
    "avg_current_window": 1698.6827048073078,
    "avg_prior_window": 2781.8214936303393,
    "inception_score_mean": 1.9451980321852993,
    "inception_score_std": 0.11639162936185994,
    "fid_per_class": {
        "airplane": 2156.429949619181,
        "automobile": 1970.0350066867504,
        "bird": 2449.86188756915,
        "cat": 2363.9801800447376,
        "deer": 2510.249437813966,
        "dog": 2375.9181486698244,
        "frog": 2655.035458370885,
        "horse": 2410.557966367449,
        "ship": 2029.9757077719576,
        "truck": 1949.1891591309
    },
    "fid": 2078.128079441796
}