{
    "epoch": 36,
    "avg_current_window": 1172.3332527980479,
    "avg_prior_window": 1243.526629536237,
    "inception_score_mean": 2.0656242922336463,
    "inception_score_std": 0.15691756684860717,
    "fid_per_class": {
        "airplane": 1150.2393987853825,
        "automobile": 1189.446086830594,
        "bird": 1380.2197101785903,
        "cat": 986.7029982715866,
        "deer": 1460.3693551978565,
        "dog": 1087.461421354462,
        "frog": 1423.2446674318699,
        "horse": 1397.5062961249537,
        "ship": 1020.4767825370993,
        "truck": 1075.0970790685237
    },
    "fid": 843.4375188153289
}