{
    "epoch": 250,
    "avg_current_window": 892.8924730642009,
    "avg_prior_window": 898.1678783775876,
    "inception_score_mean": 2.0897289596909383,
    "inception_score_std": 0.12874807096958202,
    "fid_per_class": {
        "airplane": 1029.3547206220796,
        "automobile": 1218.0958928298755,
        "bird": 1321.0513793743905,
        "cat": 1048.3556594209786,
        "deer": 1393.9808504817352,
        "dog": 1180.9391814045537,
        "frog": 1411.990966542574,
        "horse": 1224.7468726397708,
        "ship": 986.8877362042724,
        "truck": 1109.5243065595223
    },
    "fid": 797.8591894179785
}