{
    "epoch": 78,
    "avg_current_window": 1021.5774134885071,
    "avg_prior_window": 1041.7865237032217,
    "inception_score_mean": 2.0184957799095615,
    "inception_score_std": 0.12174600156392792,
    "fid_per_class": {
        "airplane": 1141.420209160455,
        "automobile": 1255.5696131979732,
        "bird": 1400.8586614214332,
        "cat": 1045.9050572852857,
        "deer": 1413.1318767992284,
        "dog": 1163.5941997224686,
        "frog": 1476.0404009712674,
        "horse": 1396.5147634969803,
        "ship": 1004.2366375941695,
        "truck": 1170.5432890822588
    },
    "fid": 879.1987115623672
}