{
    "epoch": 6,
    "avg_current_window": 1761.9236005797227,
    "avg_prior_window": 3.0,
    "inception_score_mean": 1.8871589259656218,
    "inception_score_std": 0.12649065333643864,
    "fid_per_class": {
        "airplane": 1166.3345939443507,
        "automobile": 1426.8600489891207,
        "bird": 1398.2124653128567,
        "cat": 1274.5312377172295,
        "deer": 1455.8882709650698,
        "dog": 1343.1136080079793,
        "frog": 1600.8672583592772,
        "horse": 1517.6408447706524,
        "ship": 1182.1284659109092,
        "truck": 1351.8645053350526
    },
    "fid": 976.5252825614234
}