{
    "epoch": 181,
    "avg_current_window": 915.9921168870231,
    "avg_prior_window": 922.9523317265465,
    "inception_score_mean": 2.153404508379942,
    "inception_score_std": 0.1956354375778198,
    "fid_per_class": {
        "airplane": 1022.8182062380602,
        "automobile": 1102.9087726292948,
        "bird": 1344.5114646487455,
        "cat": 1036.3256901113728,
        "deer": 1382.946451083508,
        "dog": 1223.3939501771338,
        "frog": 1481.9359348641356,
        "horse": 1285.137715803131,
        "ship": 933.3494701040142,
        "truck": 1135.3291064612692
    },
    "fid": 784.8078645488603
}