{
    "epoch": 142,
    "avg_current_window": 937.9894231523945,
    "avg_prior_window": 947.1894484722734,
    "inception_score_mean": 2.0953970364847985,
    "inception_score_std": 0.13214814091973465,
    "fid_per_class": {
        "airplane": 1072.0990079628828,
        "automobile": 1172.4601458441853,
        "bird": 1358.2957587793935,
        "cat": 1020.7883293287247,
        "deer": 1332.2982919875835,
        "dog": 1046.2791343901195,
        "frog": 1526.9273854176079,
        "horse": 1271.06395717419,
        "ship": 1008.4177276691516,
        "truck": 1166.880645736905
    },
    "fid": 797.0041353844888
}