{
    "epoch": 140,
    "avg_current_window": 939.1106126083263,
    "avg_prior_window": 949.3800680398978,
    "inception_score_mean": 1.9829754584786392,
    "inception_score_std": 0.14999568583463327,
    "fid_per_class": {
        "airplane": 1100.5695488703686,
        "automobile": 1196.8248235403244,
        "bird": 1488.9072521071732,
        "cat": 1170.971086939623,
        "deer": 1464.8912558282018,
        "dog": 1303.760159800588,
        "frog": 1377.9657182555775,
        "horse": 1304.7808030982287,
        "ship": 971.0429437328098,
        "truck": 1120.1828443429918
    },
    "fid": 881.0585052241017
}