{
    "epoch": 38,
    "avg_current_window": 1155.533141405452,
    "avg_prior_window": 1225.6833327148745,
    "inception_score_mean": 2.0830344167986983,
    "inception_score_std": 0.10933831842655548,
    "fid_per_class": {
        "airplane": 1057.9045190988502,
        "automobile": 1173.0640222813763,
        "bird": 1421.0613887091731,
        "cat": 1017.7864566226674,
        "deer": 1560.3766049072449,
        "dog": 1147.7821608174704,
        "frog": 1543.8473649182736,
        "horse": 1375.810971152025,
        "ship": 998.3727790823864,
        "truck": 1069.2303661621972
    },
    "fid": 845.1101851606645
}