{
    "epoch": 15,
    "avg_current_window": 1452.5766601502667,
    "avg_prior_window": 1697.0518967610756,
    "inception_score_mean": 1.8757960535532157,
    "inception_score_std": 0.11060526538930794,
    "fid_per_class": {
        "airplane": 1296.1319279574727,
        "automobile": 1287.036543164272,
        "bird": 1499.2187594166394,
        "cat": 1293.3393375559342,
        "deer": 1576.2421454332268,
        "dog": 1451.695964680319,
        "frog": 1768.7309778984857,
        "horse": 1485.1314321600557,
        "ship": 1211.1105367586008,
        "truck": 1239.990692468097
    },
    "fid": 1062.0321595926384
}