{
    "epoch": 20,
    "avg_current_window": 1360.6866359517385,
    "avg_prior_window": 1523.3788041231094,
    "inception_score_mean": 1.946523643795281,
    "inception_score_std": 0.09295844813443048,
    "fid_per_class": {
        "airplane": 1227.54657384345,
        "automobile": 1235.9418656194077,
        "bird": 1498.6182072919353,
        "cat": 1287.9395766575167,
        "deer": 1503.723240408534,
        "dog": 1353.5198794201415,
        "frog": 1632.3806948630092,
        "horse": 1417.860933942707,
        "ship": 1076.8730905877028,
        "truck": 1153.8605200163427
    },
    "fid": 955.264854196286
}