{
    "epoch": 151,
    "avg_current_window": 931.059677220963,
    "avg_prior_window": 940.8834673471439,
    "inception_score_mean": 2.07178936535147,
    "inception_score_std": 0.14252139083483045,
    "fid_per_class": {
        "airplane": 957.1861538569824,
        "automobile": 1157.9572416887265,
        "bird": 1368.6552639409883,
        "cat": 1016.937235329558,
        "deer": 1355.713062400511,
        "dog": 1078.1307183643898,
        "frog": 1458.4234214228331,
        "horse": 1254.502418918722,
        "ship": 954.8741029497484,
        "truck": 1139.735263199308
    },
    "fid": 781.0560110297342
}