{
    "epoch": 122,
    "avg_current_window": 953.3359691017173,
    "avg_prior_window": 965.4861151392929,
    "inception_score_mean": 2.040803446502771,
    "inception_score_std": 0.14037155596463174,
    "fid_per_class": {
        "airplane": 1083.9853511521435,
        "automobile": 1189.7958207978331,
        "bird": 1489.8714556247937,
        "cat": 1110.5270039853021,
        "deer": 1556.6135632741243,
        "dog": 1212.997046864941,
        "frog": 1526.7080805784033,
        "horse": 1359.788697431779,
        "ship": 1019.2905351224313,
        "truck": 1132.0561340638992
    },
    "fid": 908.4962667620638
}