{
    "epoch": 39,
    "avg_current_window": 1147.5735784248163,
    "avg_prior_window": 1215.1133076039564,
    "inception_score_mean": 2.0514354948588074,
    "inception_score_std": 0.1959807856836713,
    "fid_per_class": {
        "airplane": 1168.11087000216,
        "automobile": 1187.126844791329,
        "bird": 1441.205179921811,
        "cat": 1070.2681249823304,
        "deer": 1557.5664558135963,
        "dog": 1279.0410228462079,
        "frog": 1604.975038540598,
        "horse": 1405.3677420498382,
        "ship": 1034.8767398086866,
        "truck": 1157.5192247719383
    },
    "fid": 900.5586539133919
}