{
    "epoch": 82,
    "avg_current_window": 1012.9390528025283,
    "avg_prior_window": 1034.8446526247214,
    "inception_score_mean": 2.1290461508514644,
    "inception_score_std": 0.15481658811368798,
    "fid_per_class": {
        "airplane": 1070.6061328933388,
        "automobile": 1171.6270234432914,
        "bird": 1411.6953079735686,
        "cat": 1005.2325540576209,
        "deer": 1429.7515295052303,
        "dog": 1129.8996910402939,
        "frog": 1330.953235845982,
        "horse": 1304.4970033256177,
        "ship": 956.1665516612359,
        "truck": 1183.2350226626581
    },
    "fid": 803.8677601348411
}