{
    "epoch": 159,
    "avg_current_window": 925.9804542811418,
    "avg_prior_window": 934.2606838148606,
    "inception_score_mean": 2.1400664204097133,
    "inception_score_std": 0.1499116590710583,
    "fid_per_class": {
        "airplane": 1050.6376337361517,
        "automobile": 1182.3209517884347,
        "bird": 1516.53860055727,
        "cat": 1035.6260191232736,
        "deer": 1476.932852467663,
        "dog": 1165.820919060651,
        "frog": 1607.1331318783532,
        "horse": 1352.3420336506763,
        "ship": 990.172806211094,
        "truck": 1176.977945987153
    },
    "fid": 858.6091255243131
}