{
    "epoch": 160,
    "avg_current_window": 925.5593834764117,
    "avg_prior_window": 933.8170183063995,
    "inception_score_mean": 2.119547033394298,
    "inception_score_std": 0.15594916757014182,
    "fid_per_class": {
        "airplane": 1056.562800842919,
        "automobile": 1168.8117412476631,
        "bird": 1297.6063987600019,
        "cat": 978.882708303706,
        "deer": 1402.2527330411394,
        "dog": 1083.9303986993866,
        "frog": 1364.1973638133545,
        "horse": 1224.0625440590247,
        "ship": 1018.7126002241221,
        "truck": 1185.5975331116883
    },
    "fid": 772.1676953591614
}