{
    "epoch": 74,
    "avg_current_window": 1027.708327436962,
    "avg_prior_window": 1052.0376985182932,
    "inception_score_mean": 2.050461092907817,
    "inception_score_std": 0.10863342689480471,
    "fid_per_class": {
        "airplane": 1147.4794604998679,
        "automobile": 1156.0279772744905,
        "bird": 1534.2321630127442,
        "cat": 1103.5778841530423,
        "deer": 1550.2080731559902,
        "dog": 1263.6554221369533,
        "frog": 1539.2898470646287,
        "horse": 1479.6904612839671,
        "ship": 1046.3504057457064,
        "truck": 1137.364307572454
    },
    "fid": 920.7159200454531
}