{
    "epoch": 243,
    "avg_current_window": 895.2738189783511,
    "avg_prior_window": 900.6177627045282,
    "inception_score_mean": 2.116914819649254,
    "inception_score_std": 0.11452755793066377,
    "fid_per_class": {
        "airplane": 1023.0521919546654,
        "automobile": 1156.4579945798469,
        "bird": 1447.9509577447589,
        "cat": 1094.4165511577935,
        "deer": 1422.1732279310213,
        "dog": 1128.166285321754,
        "frog": 1445.7573260623856,
        "horse": 1260.5314212148844,
        "ship": 948.8765971833049,
        "truck": 1094.2460339552258
    },
    "fid": 794.0534932756694
}