{
    "epoch": 116,
    "avg_current_window": 959.0622410940026,
    "avg_prior_window": 971.80062418632,
    "inception_score_mean": 2.0113125617581504,
    "inception_score_std": 0.2020363858344182,
    "fid_per_class": {
        "airplane": 1088.6789206277863,
        "automobile": 1185.0457761147636,
        "bird": 1430.275044204608,
        "cat": 1038.3837892350364,
        "deer": 1602.942516363287,
        "dog": 1281.3286316331196,
        "frog": 1601.1953441607707,
        "horse": 1304.6422620399937,
        "ship": 1000.6137312442847,
        "truck": 1152.5965260759208
    },
    "fid": 882.5166462091345
}