{
    "epoch": 96,
    "avg_current_window": 986.2254831775767,
    "avg_prior_window": 1003.3617665439839,
    "inception_score_mean": 2.16986658619327,
    "inception_score_std": 0.11391391409628764,
    "fid_per_class": {
        "airplane": 1072.9132868580205,
        "automobile": 1209.1924878776965,
        "bird": 1352.4354669123682,
        "cat": 1059.482084678019,
        "deer": 1510.6298315530096,
        "dog": 1129.9586307077377,
        "frog": 1478.0179480216998,
        "horse": 1329.6460471789298,
        "ship": 1009.3563037013882,
        "truck": 1224.7584624671301
    },
    "fid": 832.7844830486573
}