{
    "epoch": 41,
    "avg_current_window": 1135.986458251992,
    "avg_prior_window": 1195.7620727651401,
    "inception_score_mean": 2.1013799042840775,
    "inception_score_std": 0.1535089980877108,
    "fid_per_class": {
        "airplane": 1146.1202433302255,
        "automobile": 1224.9002788415673,
        "bird": 1394.2020919475826,
        "cat": 1031.3824484470522,
        "deer": 1460.347896145559,
        "dog": 1216.480081705219,
        "frog": 1506.525839499897,
        "horse": 1346.2236648595783,
        "ship": 941.0264607854772,
        "truck": 1152.8258238012618
    },
    "fid": 854.660078106777
}