{
    "epoch": 2,
    "avg_current_window": 1390.9107468151697,
    "avg_prior_window": 2784.8214936303393,
    "inception_score_mean": 1.0558667803178587,
    "inception_score_std": 0.0263399856366392,
    "fid_per_class": {
        "airplane": 2139.558271198349,
        "automobile": 2054.429457949809,
        "bird": 2810.9453764227255,
        "cat": 2461.5746055937666,
        "deer": 2587.6657556499495,
        "dog": 2544.6571551361994,
        "frog": 2656.1009395555334,
        "horse": 2658.1489144648453,
        "ship": 2082.0234611184906,
        "truck": 2050.1612308688536
    },
    "fid": 2257.853301963565
}