{
    "epoch": 240,
    "avg_current_window": 896.2189482014732,
    "avg_prior_window": 901.3315053603076,
    "inception_score_mean": 2.161935680215711,
    "inception_score_std": 0.13885651612829805,
    "fid_per_class": {
        "airplane": 1059.3149675769273,
        "automobile": 1198.3826548796565,
        "bird": 1389.0888189957573,
        "cat": 1038.8903443374465,
        "deer": 1593.0529288957932,
        "dog": 1182.7068206720942,
        "frog": 1563.240003738389,
        "horse": 1290.0890861683629,
        "ship": 968.180434139482,
        "truck": 1118.215379970785
    },
    "fid": 828.2772750618996
}