{
    "epoch": 161,
    "avg_current_window": 924.6066400719567,
    "avg_prior_window": 933.2406813287735,
    "inception_score_mean": 2.06141406445467,
    "inception_score_std": 0.11508687177976289,
    "fid_per_class": {
        "airplane": 1078.9638032287837,
        "automobile": 1231.085900277782,
        "bird": 1395.7900057035656,
        "cat": 1060.5563766763562,
        "deer": 1552.9922810086478,
        "dog": 1151.9098296928478,
        "frog": 1587.8659149309738,
        "horse": 1401.666838792735,
        "ship": 945.8553880638121,
        "truck": 1180.2990395459074
    },
    "fid": 876.0186853883527
}