{
    "epoch": 127,
    "avg_current_window": 949.1661661830497,
    "avg_prior_window": 960.7826598128817,
    "inception_score_mean": 2.066892844133058,
    "inception_score_std": 0.16205719631278043,
    "fid_per_class": {
        "airplane": 1095.1291389366359,
        "automobile": 1183.8662865075867,
        "bird": 1426.4168414878686,
        "cat": 1024.4045049880135,
        "deer": 1487.4327936596758,
        "dog": 1172.831777484734,
        "frog": 1516.2270379034271,
        "horse": 1312.110957132671,
        "ship": 977.1215330356752,
        "truck": 1134.6471020688086
    },
    "fid": 851.0446369292837
}