{
    "epoch": 179,
    "avg_current_window": 916.6027491798382,
    "avg_prior_window": 924.0270833773293,
    "inception_score_mean": 2.0409481913343273,
    "inception_score_std": 0.14263147358448902,
    "fid_per_class": {
        "airplane": 1089.8843131734113,
        "automobile": 1166.4089550247531,
        "bird": 1425.190292563775,
        "cat": 1179.41208398754,
        "deer": 1535.3432583656017,
        "dog": 1278.450118847068,
        "frog": 1571.2953345182993,
        "horse": 1444.321689840936,
        "ship": 1011.1344344262482,
        "truck": 1151.178320224089
    },
    "fid": 901.2837835421807
}