{
    "epoch": 210,
    "avg_current_window": 904.9272728915873,
    "avg_prior_window": 910.3814495938547,
    "inception_score_mean": 2.129808148003183,
    "inception_score_std": 0.10347989047947688,
    "fid_per_class": {
        "airplane": 1005.2153280846264,
        "automobile": 1175.9203736099832,
        "bird": 1370.9522040998104,
        "cat": 1054.2199177167054,
        "deer": 1397.9458224252044,
        "dog": 1061.0441868237128,
        "frog": 1424.7318693543584,
        "horse": 1293.5894624042876,
        "ship": 979.8110284679454,
        "truck": 1127.416500760448
    },
    "fid": 798.1722803245266
}