{
    "epoch": 64,
    "avg_current_window": 1051.3173794553484,
    "avg_prior_window": 1078.3182730243607,
    "inception_score_mean": 2.169320007188961,
    "inception_score_std": 0.20957168063645348,
    "fid_per_class": {
        "airplane": 1111.5461198839384,
        "automobile": 1151.4038185231277,
        "bird": 1395.348005652799,
        "cat": 938.0934922417282,
        "deer": 1338.8604409326058,
        "dog": 1040.1370034973797,
        "frog": 1384.199961148804,
        "horse": 1270.7459231289215,
        "ship": 1037.420456860179,
        "truck": 1140.932056999473
    },
    "fid": 779.6915279302293
}