{
    "epoch": 37,
    "avg_current_window": 1163.444178906623,
    "avg_prior_window": 1232.7319109995838,
    "inception_score_mean": 2.0433162232986493,
    "inception_score_std": 0.13338142607107475,
    "fid_per_class": {
        "airplane": 1121.2154509453187,
        "automobile": 1225.1032328606134,
        "bird": 1406.0298194979798,
        "cat": 1073.7586657671527,
        "deer": 1459.2903696909548,
        "dog": 1140.538335962311,
        "frog": 1417.9681878974031,
        "horse": 1476.9185989467207,
        "ship": 1002.6893372091903,
        "truck": 1181.585292077296
    },
    "fid": 862.8247538621181
}