{
    "epoch": 186,
    "avg_current_window": 913.8853128238603,
    "avg_prior_window": 920.3280719397794,
    "inception_score_mean": 2.1492315646856914,
    "inception_score_std": 0.1752071663059505,
    "fid_per_class": {
        "airplane": 993.1895971601972,
        "automobile": 1165.930595054938,
        "bird": 1397.5123732434363,
        "cat": 1070.5009653993736,
        "deer": 1398.3997162685523,
        "dog": 1205.4448919531255,
        "frog": 1466.8507976476274,
        "horse": 1275.8258352097344,
        "ship": 984.0449385977695,
        "truck": 1117.7360490066487
    },
    "fid": 814.8511078613662
}