{
    "epoch": 119,
    "avg_current_window": 956.3173610014154,
    "avg_prior_window": 968.5589147911729,
    "inception_score_mean": 2.0585319920008067,
    "inception_score_std": 0.0940750206969629,
    "fid_per_class": {
        "airplane": 1044.8033797892122,
        "automobile": 1163.4776886933041,
        "bird": 1368.9460081170273,
        "cat": 1100.4899199394408,
        "deer": 1365.15312463166,
        "dog": 1086.463927056514,
        "frog": 1503.4333569677656,
        "horse": 1341.458936626291,
        "ship": 972.8667778652011,
        "truck": 1137.2356327903597
    },
    "fid": 821.5495245244688
}