{
    "epoch": 184,
    "avg_current_window": 914.4549621767363,
    "avg_prior_window": 921.637854115828,
    "inception_score_mean": 2.047850622137248,
    "inception_score_std": 0.14174422552806357,
    "fid_per_class": {
        "airplane": 1068.7041524561623,
        "automobile": 1145.56784218422,
        "bird": 1472.4905449863686,
        "cat": 1150.3225708112993,
        "deer": 1508.657950176324,
        "dog": 1227.032752699625,
        "frog": 1554.8708920770505,
        "horse": 1361.209757416923,
        "ship": 1025.617052088443,
        "truck": 1159.1190638819007
    },
    "fid": 898.7782530926268
}