{
    "epoch": 108,
    "avg_current_window": 968.9754032565381,
    "avg_prior_window": 984.0563321116399,
    "inception_score_mean": 2.129715002246042,
    "inception_score_std": 0.11574680023044158,
    "fid_per_class": {
        "airplane": 1098.580687291937,
        "automobile": 1174.598565916333,
        "bird": 1400.8548491418987,
        "cat": 1028.84930106524,
        "deer": 1430.30926992403,
        "dog": 1152.2154896780175,
        "frog": 1464.6723623390703,
        "horse": 1212.3101708331517,
        "ship": 952.6824795711409,
        "truck": 1052.5404978124973
    },
    "fid": 802.4225958259451
}