{
    "epoch": 241,
    "avg_current_window": 895.9370325452924,
    "avg_prior_window": 900.9003190650927,
    "inception_score_mean": 2.1636971187431664,
    "inception_score_std": 0.11052984390475566,
    "fid_per_class": {
        "airplane": 1058.9066751114335,
        "automobile": 1177.233847963034,
        "bird": 1367.3670935064858,
        "cat": 1032.6600178435338,
        "deer": 1441.048578796317,
        "dog": 1104.380008733694,
        "frog": 1495.712478988754,
        "horse": 1294.8452390644995,
        "ship": 966.8132583516168,
        "truck": 1060.8006230116273
    },
    "fid": 794.2795599327509
}