{
    "epoch": 21,
    "avg_current_window": 1341.3808368205264,
    "avg_prior_window": 1507.4448620376813,
    "inception_score_mean": 1.8902152990919234,
    "inception_score_std": 0.09195539046617841,
    "fid_per_class": {
        "airplane": 1265.9853383393909,
        "automobile": 1237.485369906426,
        "bird": 1617.1211643070353,
        "cat": 1300.403116369479,
        "deer": 1483.6995747995404,
        "dog": 1532.9889122052923,
        "frog": 1663.9836326377492,
        "horse": 1492.1396276220053,
        "ship": 975.7579515145042,
        "truck": 1175.6812637142455
    },
    "fid": 1019.4297255925762
}