{
    "epoch": 47,
    "avg_current_window": 1107.3454365292705,
    "avg_prior_window": 1152.1110896828043,
    "inception_score_mean": 1.909443698813862,
    "inception_score_std": 0.09311652653346122,
    "fid_per_class": {
        "airplane": 1114.559750820515,
        "automobile": 1173.3648401442667,
        "bird": 1550.1351356339705,
        "cat": 1217.9351448452517,
        "deer": 1572.7294760080015,
        "dog": 1358.5552660238197,
        "frog": 1657.6432628793316,
        "horse": 1486.5035943712983,
        "ship": 969.5202873724852,
        "truck": 1181.3823493585157
    },
    "fid": 958.717873079281
}