{
    "epoch": 92,
    "avg_current_window": 992.4556603858971,
    "avg_prior_window": 1011.8207129351549,
    "inception_score_mean": 2.137821330152288,
    "inception_score_std": 0.13485694499792064,
    "fid_per_class": {
        "airplane": 1108.0100807214353,
        "automobile": 1269.168677604879,
        "bird": 1379.2859277376529,
        "cat": 1023.6635374914888,
        "deer": 1470.530595405451,
        "dog": 1189.1483702529647,
        "frog": 1403.2503139511277,
        "horse": 1372.7697144789372,
        "ship": 994.611170872623,
        "truck": 1158.528581743689
    },
    "fid": 853.3229765728174
}