{
    "epoch": 231,
    "avg_current_window": 898.6788927700612,
    "avg_prior_window": 904.0314680900029,
    "inception_score_mean": 2.0263024134423917,
    "inception_score_std": 0.11757836355722372,
    "fid_per_class": {
        "airplane": 1004.4922525197312,
        "automobile": 1196.3113621390505,
        "bird": 1386.9412364580317,
        "cat": 1069.7790133925364,
        "deer": 1542.027165702079,
        "dog": 1202.1339325541967,
        "frog": 1450.403483495941,
        "horse": 1284.0866091371236,
        "ship": 1006.4329515493282,
        "truck": 1152.8552482490918
    },
    "fid": 832.0037727884435
}