{
    "epoch": 226,
    "avg_current_window": 900.3085850084381,
    "avg_prior_window": 905.4148491829135,
    "inception_score_mean": 2.1199617350591935,
    "inception_score_std": 0.09338666273673267,
    "fid_per_class": {
        "airplane": 1030.9718106857374,
        "automobile": 1155.2482577991268,
        "bird": 1443.311422097228,
        "cat": 1013.6549853448722,
        "deer": 1500.238748542959,
        "dog": 1214.6393786994786,
        "frog": 1489.9516547643493,
        "horse": 1332.4531948696356,
        "ship": 975.5191563602566,
        "truck": 1103.2774529797002
    },
    "fid": 841.37157643369
}