{
    "epoch": 104,
    "avg_current_window": 974.5942519951818,
    "avg_prior_window": 990.2151402369193,
    "inception_score_mean": 2.041719820094891,
    "inception_score_std": 0.14447870271683524,
    "fid_per_class": {
        "airplane": 1102.7749362250318,
        "automobile": 1200.9685088583963,
        "bird": 1417.0521741425218,
        "cat": 1044.9979766354866,
        "deer": 1542.2143076234338,
        "dog": 1127.4097112457882,
        "frog": 1496.900523546727,
        "horse": 1429.730791482332,
        "ship": 1006.7069450197937,
        "truck": 1161.7239554763773
    },
    "fid": 863.7497541929237
}