{
    "epoch": 171,
    "avg_current_window": 920.1641475205669,
    "avg_prior_window": 927.6869535823324,
    "inception_score_mean": 2.1177409675722636,
    "inception_score_std": 0.11331569664192985,
    "fid_per_class": {
        "airplane": 1116.1489070997848,
        "automobile": 1216.348982649977,
        "bird": 1484.5024364546518,
        "cat": 1084.688896280566,
        "deer": 1536.8075290460938,
        "dog": 1187.3962117174556,
        "frog": 1540.1606180950569,
        "horse": 1352.3942154877254,
        "ship": 987.4442944022753,
        "truck": 1189.013161408744
    },
    "fid": 887.7526968792193
}