{
    "epoch": 188,
    "avg_current_window": 913.1212953105155,
    "avg_prior_window": 919.4519838279753,
    "inception_score_mean": 2.1333340641067604,
    "inception_score_std": 0.1510732337752854,
    "fid_per_class": {
        "airplane": 1070.6598857191325,
        "automobile": 1154.8970341952638,
        "bird": 1379.0739753830494,
        "cat": 1074.834176353021,
        "deer": 1505.7814058902302,
        "dog": 1130.9444643534734,
        "frog": 1564.901564818479,
        "horse": 1295.4216645290335,
        "ship": 956.5792933794951,
        "truck": 1087.550877667082
    },
    "fid": 833.0192660943276
}