{
    "epoch": 156,
    "avg_current_window": 927.8310117787944,
    "avg_prior_window": 936.2322335853981,
    "inception_score_mean": 2.0937585117764668,
    "inception_score_std": 0.09208345845461677,
    "fid_per_class": {
        "airplane": 1076.4791875078572,
        "automobile": 1241.7547972868645,
        "bird": 1466.1129659377132,
        "cat": 1058.1473339903105,
        "deer": 1466.6922410379134,
        "dog": 1174.9100272426463,
        "frog": 1455.8583391419852,
        "horse": 1252.1678549358394,
        "ship": 1012.4344402150992,
        "truck": 1193.137197034711
    },
    "fid": 843.9084497967261
}