{
    "epoch": 148,
    "avg_current_window": 933.3149082312499,
    "avg_prior_window": 942.6479976791147,
    "inception_score_mean": 2.126239709441987,
    "inception_score_std": 0.1582987227802041,
    "fid_per_class": {
        "airplane": 1099.9208978971299,
        "automobile": 1185.757401971725,
        "bird": 1383.5549163475957,
        "cat": 1070.8873404326214,
        "deer": 1395.7801815427158,
        "dog": 1166.7069369419096,
        "frog": 1471.2701499199522,
        "horse": 1273.1779878453399,
        "ship": 993.5017413265631,
        "truck": 1156.6235118129584
    },
    "fid": 827.2918420542601
}