{
    "epoch": 136,
    "avg_current_window": 942.3993322454868,
    "avg_prior_window": 953.3012888724533,
    "inception_score_mean": 2.007703198275669,
    "inception_score_std": 0.12040199697445973,
    "fid_per_class": {
        "airplane": 1073.6281146392503,
        "automobile": 1179.9342213339346,
        "bird": 1325.1024595501447,
        "cat": 1054.921813478722,
        "deer": 1335.6787386455408,
        "dog": 1121.4070282353052,
        "frog": 1443.0991333717777,
        "horse": 1273.7912788026886,
        "ship": 1020.437959561414,
        "truck": 1136.0629405071413
    },
    "fid": 815.3047273451066
}