{
    "epoch": 192,
    "avg_current_window": 911.373400094958,
    "avg_prior_window": 918.0042968897162,
    "inception_score_mean": 2.1047429639105975,
    "inception_score_std": 0.0961267863757011,
    "fid_per_class": {
        "airplane": 1097.7599872146484,
        "automobile": 1200.14348280391,
        "bird": 1319.8441727221002,
        "cat": 1061.5290771930986,
        "deer": 1384.8550811147127,
        "dog": 1130.1129547077828,
        "frog": 1500.1900314144937,
        "horse": 1288.7208888992222,
        "ship": 1015.9642611155598,
        "truck": 1151.9392637284602
    },
    "fid": 827.5281781292317
}