{
    "epoch": 162,
    "avg_current_window": 924.3067144257616,
    "avg_prior_window": 932.7578924825635,
    "inception_score_mean": 2.055671799276095,
    "inception_score_std": 0.13218611035522443,
    "fid_per_class": {
        "airplane": 1060.4670314480454,
        "automobile": 1183.5245570498678,
        "bird": 1435.7938733277874,
        "cat": 1085.3675815340007,
        "deer": 1389.9440935477419,
        "dog": 1201.8290498930464,
        "frog": 1529.3530458212572,
        "horse": 1352.5938606642374,
        "ship": 1017.9192933408685,
        "truck": 1181.0233770318414
    },
    "fid": 852.9475858732309
}