{
    "epoch": 168,
    "avg_current_window": 921.7147088356784,
    "avg_prior_window": 928.9083381874019,
    "inception_score_mean": 1.9940774129054908,
    "inception_score_std": 0.11485640760680252,
    "fid_per_class": {
        "airplane": 1019.9748590068843,
        "automobile": 1177.235201265266,
        "bird": 1434.7910120235988,
        "cat": 1014.992971140585,
        "deer": 1528.8095192323387,
        "dog": 1116.900128435931,
        "frog": 1493.1066983607998,
        "horse": 1342.3324563536735,
        "ship": 947.4634964645072,
        "truck": 1141.2602232448432
    },
    "fid": 833.6589949380254
}