{
    "epoch": 32,
    "avg_current_window": 1204.6664223632295,
    "avg_prior_window": 1297.4408832435408,
    "inception_score_mean": 2.0628775122310654,
    "inception_score_std": 0.0944943920560281,
    "fid_per_class": {
        "airplane": 1141.6762887137484,
        "automobile": 1190.425063109083,
        "bird": 1512.6749985320594,
        "cat": 1063.2165049049595,
        "deer": 1521.6615869481993,
        "dog": 1218.4070111380738,
        "frog": 1528.4147574682831,
        "horse": 1486.7841484909638,
        "ship": 1035.4897929832944,
        "truck": 1154.4329577010185
    },
    "fid": 898.0956363633396
}