{
    "epoch": 57,
    "avg_current_window": 1069.0384850345888,
    "avg_prior_window": 1102.134590673334,
    "inception_score_mean": 2.0575876042669305,
    "inception_score_std": 0.07100638836737892,
    "fid_per_class": {
        "airplane": 1108.937604664035,
        "automobile": 1164.7648539344848,
        "bird": 1476.3598315958052,
        "cat": 1049.2056450462978,
        "deer": 1526.0606953572762,
        "dog": 1183.5755085792175,
        "frog": 1512.8969941268226,
        "horse": 1367.8860584166907,
        "ship": 1023.6901401130484,
        "truck": 1153.8855741011532
    },
    "fid": 880.2625059786862
}