{
    "epoch": 75,
    "avg_current_window": 1026.2817620050753,
    "avg_prior_window": 1049.4199885522403,
    "inception_score_mean": 2.102220209626671,
    "inception_score_std": 0.06487170743216554,
    "fid_per_class": {
        "airplane": 1114.8389843072878,
        "automobile": 1205.647190753183,
        "bird": 1522.772181752167,
        "cat": 1096.1079042744198,
        "deer": 1597.4636860258247,
        "dog": 1192.9099794338192,
        "frog": 1703.9243528140296,
        "horse": 1386.8501666944737,
        "ship": 1048.123869260669,
        "truck": 1170.0607987386893
    },
    "fid": 903.1974412951623
}