{
    "epoch": 34,
    "avg_current_window": 1189.633822929143,
    "avg_prior_window": 1271.4675947128337,
    "inception_score_mean": 2.0581442827956726,
    "inception_score_std": 0.14246148896818608,
    "fid_per_class": {
        "airplane": 1081.3050741497354,
        "automobile": 1185.0551798818412,
        "bird": 1407.0803060543483,
        "cat": 1090.217387053159,
        "deer": 1482.2811222545186,
        "dog": 1128.4872585710123,
        "frog": 1495.1341698142473,
        "horse": 1476.0507930400622,
        "ship": 986.9028787182007,
        "truck": 1183.8367148180173
    },
    "fid": 866.3024789436507
}