{
    "epoch": 45,
    "avg_current_window": 1115.6640909946623,
    "avg_prior_window": 1164.3861197082917,
    "inception_score_mean": 2.0002113394747423,
    "inception_score_std": 0.11491834202628395,
    "fid_per_class": {
        "airplane": 1123.3258409743664,
        "automobile": 1158.4070078075456,
        "bird": 1534.2624983057565,
        "cat": 1202.260699330927,
        "deer": 1565.4777424911824,
        "dog": 1298.0536402156602,
        "frog": 1573.1016006970228,
        "horse": 1402.7054577783556,
        "ship": 957.0188795169718,
        "truck": 1137.443547850606
    },
    "fid": 915.9369667662697
}