{
    "epoch": 42,
    "avg_current_window": 1129.2882111056772,
    "avg_prior_window": 1186.7637668488424,
    "inception_score_mean": 2.009495756831834,
    "inception_score_std": 0.08468223876700691,
    "fid_per_class": {
        "airplane": 1197.4292459639823,
        "automobile": 1183.6241910583915,
        "bird": 1576.5631621207683,
        "cat": 1130.9422554619173,
        "deer": 1622.3478726138412,
        "dog": 1307.8322048691389,
        "frog": 1737.3186505660628,
        "horse": 1503.9866991298868,
        "ship": 973.3630372953633,
        "truck": 1136.154060428597
    },
    "fid": 958.5609002393386
}