{
    "epoch": 206,
    "avg_current_window": 905.9621221686417,
    "avg_prior_window": 912.3204593925508,
    "inception_score_mean": 2.0063928327844343,
    "inception_score_std": 0.11512428467447568,
    "fid_per_class": {
        "airplane": 1065.1598894676204,
        "automobile": 1219.8877399862563,
        "bird": 1449.91766525797,
        "cat": 1159.4455410836,
        "deer": 1499.7342902972034,
        "dog": 1226.190658016064,
        "frog": 1557.9372256866043,
        "horse": 1328.327459376918,
        "ship": 966.857782590737,
        "truck": 1177.1765739060947
    },
    "fid": 895.6066356098706
}