{
    "epoch": 124,
    "avg_current_window": 952.1494506481989,
    "avg_prior_window": 963.2211385184278,
    "inception_score_mean": 2.0627040477378227,
    "inception_score_std": 0.11052004152282614,
    "fid_per_class": {
        "airplane": 1053.3685450930172,
        "automobile": 1164.7044570447815,
        "bird": 1418.6173153650877,
        "cat": 1010.6801583395004,
        "deer": 1444.3525104085656,
        "dog": 1176.541540990855,
        "frog": 1481.0549052298186,
        "horse": 1271.3238123932044,
        "ship": 1008.0075314514042,
        "truck": 1094.1867918395183
    },
    "fid": 814.1472270960367
}