{
    "epoch": 134,
    "avg_current_window": 944.281754911465,
    "avg_prior_window": 954.2327324560999,
    "inception_score_mean": 2.0152357294244045,
    "inception_score_std": 0.1016458369604606,
    "fid_per_class": {
        "airplane": 1004.3067150163471,
        "automobile": 1165.6675496827534,
        "bird": 1414.2331018888933,
        "cat": 1032.5492805852311,
        "deer": 1408.330042282272,
        "dog": 1152.2229800824587,
        "frog": 1537.972491922144,
        "horse": 1329.164030162818,
        "ship": 945.4397460547948,
        "truck": 1155.859921986576
    },
    "fid": 833.6759002405288
}