{
    "epoch": 44,
    "avg_current_window": 1121.0394352432752,
    "avg_prior_window": 1170.6648259610572,
    "inception_score_mean": 2.102976847422183,
    "inception_score_std": 0.2056434441912831,
    "fid_per_class": {
        "airplane": 1155.9771319736042,
        "automobile": 1144.7405351080297,
        "bird": 1447.0063106845473,
        "cat": 1096.8421384422393,
        "deer": 1581.883087301482,
        "dog": 1163.0552488902822,
        "frog": 1539.5799658883957,
        "horse": 1369.9001446374482,
        "ship": 939.0674550113923,
        "truck": 1147.222963508837
    },
    "fid": 879.1489440556909
}