{
    "epoch": 233,
    "avg_current_window": 898.138242379936,
    "avg_prior_window": 903.1550236988769,
    "inception_score_mean": 2.0812706712482885,
    "inception_score_std": 0.1117440503870407,
    "fid_per_class": {
        "airplane": 1085.2134698423492,
        "automobile": 1173.7067307836073,
        "bird": 1519.1068245543645,
        "cat": 1139.067832457848,
        "deer": 1593.292650852108,
        "dog": 1278.7283725199209,
        "frog": 1657.3119767220512,
        "horse": 1354.2446804606484,
        "ship": 998.1428201431034,
        "truck": 1113.5914028377022
    },
    "fid": 919.3629103116536
}