{
    "epoch": 215,
    "avg_current_window": 903.2229019872088,
    "avg_prior_window": 908.7280932740852,
    "inception_score_mean": 2.1740801007961834,
    "inception_score_std": 0.09652786413398144,
    "fid_per_class": {
        "airplane": 1073.1917803439014,
        "automobile": 1140.8979613556849,
        "bird": 1413.5968755362378,
        "cat": 1073.858256253282,
        "deer": 1436.3144512162335,
        "dog": 1102.8877404771206,
        "frog": 1485.0525249100633,
        "horse": 1263.744801110599,
        "ship": 942.3973618058751,
        "truck": 1145.76153723489
    },
    "fid": 804.0340004813036
}