{
    "epoch": 111,
    "avg_current_window": 964.4057503448097,
    "avg_prior_window": 979.6894591864943,
    "inception_score_mean": 2.219623740421535,
    "inception_score_std": 0.0748105184194876,
    "fid_per_class": {
        "airplane": 1097.3558885783657,
        "automobile": 1193.9090194915145,
        "bird": 1350.4296769796374,
        "cat": 1008.5665107468741,
        "deer": 1434.5307631659427,
        "dog": 1154.5663163172246,
        "frog": 1423.5905346038594,
        "horse": 1300.5819049863612,
        "ship": 964.4828156603196,
        "truck": 1156.5838087094694
    },
    "fid": 820.8309964076369
}