{
    "epoch": 133,
    "avg_current_window": 945.4498574514358,
    "avg_prior_window": 955.0806215857425,
    "inception_score_mean": 2.075722362444595,
    "inception_score_std": 0.15322614926442127,
    "fid_per_class": {
        "airplane": 1003.0417283296579,
        "automobile": 1212.4852608516571,
        "bird": 1365.9039675318236,
        "cat": 1023.3980372995327,
        "deer": 1383.4310409099714,
        "dog": 1005.9739098375724,
        "frog": 1445.4051313147975,
        "horse": 1247.0067910587388,
        "ship": 1016.1242653530427,
        "truck": 1188.6820377658878
    },
    "fid": 788.9241170953446
}