{
    "epoch": 158,
    "avg_current_window": 926.854361517484,
    "avg_prior_window": 934.6847692913885,
    "inception_score_mean": 2.152124862891907,
    "inception_score_std": 0.1334495782910551,
    "fid_per_class": {
        "airplane": 1035.814978214978,
        "automobile": 1175.292241646651,
        "bird": 1341.3356378565704,
        "cat": 998.7192071573393,
        "deer": 1339.0244672528095,
        "dog": 1140.968973226145,
        "frog": 1373.2627066359344,
        "horse": 1237.8607521343954,
        "ship": 984.4480678905707,
        "truck": 1141.298016161385
    },
    "fid": 787.9031109390673
}