{
    "epoch": 193,
    "avg_current_window": 910.938968893063,
    "avg_prior_window": 917.5522488535704,
    "inception_score_mean": 2.078526268065776,
    "inception_score_std": 0.12831111995966374,
    "fid_per_class": {
        "airplane": 1044.7643592312,
        "automobile": 1211.60208058143,
        "bird": 1342.471267628423,
        "cat": 1052.1157914897599,
        "deer": 1511.8470861045644,
        "dog": 1068.8937609368522,
        "frog": 1552.4877734226266,
        "horse": 1371.1445243204028,
        "ship": 973.1140867601545,
        "truck": 1174.2989473796506
    },
    "fid": 848.8710448110376
}