{
    "epoch": 70,
    "avg_current_window": 1037.0085885394603,
    "avg_prior_window": 1061.3826308445032,
    "inception_score_mean": 2.094011398104998,
    "inception_score_std": 0.11783541278259788,
    "fid_per_class": {
        "airplane": 1163.3980183426972,
        "automobile": 1206.9792202042916,
        "bird": 1430.9479614849265,
        "cat": 1024.9378440606313,
        "deer": 1503.6713724243584,
        "dog": 1149.8522020864334,
        "frog": 1484.5369600203057,
        "horse": 1347.263076692531,
        "ship": 1037.7748630733238,
        "truck": 1144.0741940558073
    },
    "fid": 868.7980008945882
}