{
    "epoch": 87,
    "avg_current_window": 1002.0789911248338,
    "avg_prior_window": 1022.7423181700265,
    "inception_score_mean": 2.1562572689513084,
    "inception_score_std": 0.16293678437957357,
    "fid_per_class": {
        "airplane": 1191.8193094317025,
        "automobile": 1229.7615159001803,
        "bird": 1394.0397421597404,
        "cat": 1033.2564761961225,
        "deer": 1480.2186244225745,
        "dog": 1086.8439217520472,
        "frog": 1457.9214655427913,
        "horse": 1350.7846945659644,
        "ship": 1022.1482473672659,
        "truck": 1164.646086938847
    },
    "fid": 847.5297974979327
}