{
    "epoch": 99,
    "avg_current_window": 982.0465595510768,
    "avg_prior_window": 998.4952537705657,
    "inception_score_mean": 2.118735727926668,
    "inception_score_std": 0.14187742981689935,
    "fid_per_class": {
        "airplane": 1090.6310931068087,
        "automobile": 1149.625585523449,
        "bird": 1423.775460598542,
        "cat": 1102.9637912761805,
        "deer": 1428.7691259704093,
        "dog": 1110.3078093389804,
        "frog": 1373.102668428589,
        "horse": 1314.4609340413285,
        "ship": 954.8257049980225,
        "truck": 1163.7426539812918
    },
    "fid": 808.6894878983967
}