{
    "epoch": 3,
    "avg_current_window": 753.6177673211884,
    "avg_prior_window": 2783.8214936303393,
    "inception_score_mean": 1.2914141106078647,
    "inception_score_std": 0.04846155707667921,
    "fid_per_class": {
        "airplane": 2080.4421210367373,
        "automobile": 2078.8759852834833,
        "bird": 2596.88378967543,
        "cat": 2370.7974803853717,
        "deer": 2663.7514991964963,
        "dog": 2535.9279255212396,
        "frog": 2743.6800497019444,
        "horse": 2521.575391094646,
        "ship": 2078.868811812332,
        "truck": 2029.9683458032778
    },
    "fid": 2198.461589772395
}