{
    "epoch": 126,
    "avg_current_window": 950.069053820748,
    "avg_prior_window": 961.2147787637149,
    "inception_score_mean": 2.04875914602319,
    "inception_score_std": 0.1709026321759583,
    "fid_per_class": {
        "airplane": 1074.2001858962603,
        "automobile": 1180.303745808447,
        "bird": 1436.1070523787341,
        "cat": 1077.575220130847,
        "deer": 1389.2533942588598,
        "dog": 1066.6579999211106,
        "frog": 1507.2757966067727,
        "horse": 1318.2942419485285,
        "ship": 946.3242475669314,
        "truck": 1124.0338487256745
    },
    "fid": 835.4023238330768
}