{
    "epoch": 121,
    "avg_current_window": 954.097226318448,
    "avg_prior_window": 966.6701432164951,
    "inception_score_mean": 2.0074209634263798,
    "inception_score_std": 0.11771900626428342,
    "fid_per_class": {
        "airplane": 1082.2278325943143,
        "automobile": 1189.7333336584134,
        "bird": 1388.3487470255204,
        "cat": 1116.2558103309634,
        "deer": 1391.8092911547833,
        "dog": 1165.0525233715384,
        "frog": 1518.572533532023,
        "horse": 1351.7652282266183,
        "ship": 1037.0199736117024,
        "truck": 1138.760031977547
    },
    "fid": 861.2238458773008
}