{
    "epoch": 13,
    "avg_current_window": 1501.515531067641,
    "avg_prior_window": 1779.8032856670409,
    "inception_score_mean": 1.9701910386537655,
    "inception_score_std": 0.098255638208203,
    "fid_per_class": {
        "airplane": 1139.8909979206828,
        "automobile": 1235.962510470184,
        "bird": 1504.5650672017114,
        "cat": 1269.7894466115768,
        "deer": 1515.3181857086265,
        "dog": 1429.6298118417847,
        "frog": 1724.4856381703587,
        "horse": 1466.3761623289472,
        "ship": 1051.1653964753664,
        "truck": 1226.2306113011875
    },
    "fid": 970.013937130369
}