{
    "epoch": 46,
    "avg_current_window": 1111.3221969896972,
    "avg_prior_window": 1156.8318260106937,
    "inception_score_mean": 1.899509491166621,
    "inception_score_std": 0.11665244218052857,
    "fid_per_class": {
        "airplane": 1131.6654634519136,
        "automobile": 1181.3643823439381,
        "bird": 1493.9227454112445,
        "cat": 1133.9561295973124,
        "deer": 1558.863452879903,
        "dog": 1203.8664667314729,
        "frog": 1648.2518667026984,
        "horse": 1415.226991318629,
        "ship": 958.2868806258153,
        "truck": 1149.0899086122793
    },
    "fid": 924.4144553496444
}