{
    "epoch": 246,
    "avg_current_window": 894.5167894410934,
    "avg_prior_window": 899.2327983541419,
    "inception_score_mean": 2.048670267606977,
    "inception_score_std": 0.09543025186275146,
    "fid_per_class": {
        "airplane": 1081.7414566068264,
        "automobile": 1182.663539040725,
        "bird": 1379.913123307118,
        "cat": 1037.4323779809338,
        "deer": 1423.4640050980613,
        "dog": 1156.8450270062517,
        "frog": 1397.2171118188694,
        "horse": 1345.64567604707,
        "ship": 974.1110444945405,
        "truck": 1138.521068849779
    },
    "fid": 827.9319235945715
}