{
    "epoch": 170,
    "avg_current_window": 920.7995400833241,
    "avg_prior_window": 928.7064080537782,
    "inception_score_mean": 2.088911960308166,
    "inception_score_std": 0.1484819531791976,
    "fid_per_class": {
        "airplane": 1057.8942295676386,
        "automobile": 1210.1548145050417,
        "bird": 1346.8785495840166,
        "cat": 1027.3867717059507,
        "deer": 1468.8922321738396,
        "dog": 1090.2118510950481,
        "frog": 1480.7857375320375,
        "horse": 1274.5089723364222,
        "ship": 1018.146002046497,
        "truck": 1137.2716308950112
    },
    "fid": 812.1474118518122
}