{
    "epoch": 208,
    "avg_current_window": 905.7238767769896,
    "avg_prior_window": 911.4663370900961,
    "inception_score_mean": 2.0620397894493783,
    "inception_score_std": 0.1109600074079117,
    "fid_per_class": {
        "airplane": 1026.6078739785096,
        "automobile": 1202.1700486984466,
        "bird": 1413.4748694422522,
        "cat": 1120.4635554225183,
        "deer": 1490.4492105557572,
        "dog": 1244.700303603357,
        "frog": 1582.670602344591,
        "horse": 1303.2996013006373,
        "ship": 1020.2823790339785,
        "truck": 1156.2425826735114
    },
    "fid": 863.5315965885184
}