{
    "epoch": 238,
    "avg_current_window": 897.1898410242026,
    "avg_prior_window": 902.0840059435053,
    "inception_score_mean": 2.0624253008256903,
    "inception_score_std": 0.15834761794378863,
    "fid_per_class": {
        "airplane": 996.7255825142432,
        "automobile": 1175.4431765928628,
        "bird": 1354.145014228939,
        "cat": 1061.7182793842774,
        "deer": 1382.8785663026867,
        "dog": 1185.9169898532984,
        "frog": 1539.1365053601235,
        "horse": 1251.0730686736595,
        "ship": 981.7771974729756,
        "truck": 1138.9305504262522
    },
    "fid": 815.8453599175061
}