{
    "epoch": 49,
    "avg_current_window": 1099.07359591963,
    "avg_prior_window": 1141.0200930627227,
    "inception_score_mean": 2.0792280455051566,
    "inception_score_std": 0.20101021287704293,
    "fid_per_class": {
        "airplane": 1130.4176950167262,
        "automobile": 1211.6444571644918,
        "bird": 1490.2208192715282,
        "cat": 1032.7270344204376,
        "deer": 1498.289056247409,
        "dog": 1116.8481708915076,
        "frog": 1566.8023222922193,
        "horse": 1320.71488903329,
        "ship": 993.6045122441351,
        "truck": 1144.9181485545168
    },
    "fid": 856.2572264522007
}