{
    "epoch": 212,
    "avg_current_window": 903.7590189837367,
    "avg_prior_window": 910.0993544425789,
    "inception_score_mean": 2.079454044570049,
    "inception_score_std": 0.12108922827524365,
    "fid_per_class": {
        "airplane": 1050.917224181065,
        "automobile": 1145.384266588021,
        "bird": 1393.3154826014456,
        "cat": 1101.5436685544037,
        "deer": 1466.4614898847385,
        "dog": 1170.3135943641182,
        "frog": 1563.2146020304344,
        "horse": 1320.7617972984178,
        "ship": 945.4068103347975,
        "truck": 1123.1566540497652
    },
    "fid": 826.6447995900933
}