{
    "epoch": 177,
    "avg_current_window": 917.7379117732892,
    "avg_prior_window": 924.9330604052998,
    "inception_score_mean": 2.043991037604402,
    "inception_score_std": 0.11807664433668645,
    "fid_per_class": {
        "airplane": 992.6529609543707,
        "automobile": 1153.853003722895,
        "bird": 1440.260989708776,
        "cat": 1131.7535829534484,
        "deer": 1460.3998454130933,
        "dog": 1223.2634090454585,
        "frog": 1485.0848455067116,
        "horse": 1285.6663211376756,
        "ship": 982.2158078881718,
        "truck": 1190.7150909199067
    },
    "fid": 845.3414110821661
}