{
    "epoch": 61,
    "avg_current_window": 1279.4222045379845,
    "avg_prior_window": 1325.8204466446052,
    "inception_score_mean": 1.9511704102112049,
    "inception_score_std": 0.13384739383746622,
    "fid_per_class": {
        "airplane": 970.9401623084948,
        "automobile": 1095.126273433645,
        "bird": 1466.3428942908943,
        "cat": 1274.9620120255045,
        "deer": 1621.2858770442558,
        "dog": 1373.2826692518752,
        "frog": 1950.5182770934596,
        "horse": 1487.9720790527067,
        "ship": 963.325459225513,
        "truck": 1001.9554568045778
    },
    "fid": 932.338697045359,
    "wasserstein_distance": null,
    "g_loss": null,
    "g_cost": null,
    "d_loss_real": null,
    "d_loss_fake": null
}