{
    "epoch": 177,
    "avg_current_window": 988.5013832926766,
    "avg_prior_window": 998.486157236149,
    "inception_score_mean": 2.009373601088345,
    "inception_score_std": 0.10426412973189972,
    "fid_per_class": {
        "airplane": 941.5503223185332,
        "automobile": 1159.8438597366849,
        "bird": 1350.8749918914689,
        "cat": 1030.6739693104475,
        "deer": 1522.7300782646273,
        "dog": 1118.3033653199764,
        "frog": 1881.7306458440205,
        "horse": 1314.5089996502168,
        "ship": 942.9347848258506,
        "truck": 1028.8878317433832
    },
    "fid": 829.6131840997904,
    "wasserstein_distance": null,
    "g_loss": null,
    "g_cost": null,
    "d_loss_real": null,
    "d_loss_fake": null
}