{
    "epoch": 53,
    "avg_current_window": 1329.9214754089428,
    "avg_prior_window": 1387.0088309339853,
    "inception_score_mean": 1.9193376431943907,
    "inception_score_std": 0.14889274058721322,
    "fid_per_class": {
        "airplane": 1049.732402645724,
        "automobile": 1230.9268579630323,
        "bird": 1395.4856742684324,
        "cat": 1177.7979984088206,
        "deer": 1522.1399553821861,
        "dog": 1273.860593567507,
        "frog": 1893.3751859488484,
        "horse": 1485.4067800194948,
        "ship": 1050.014598805852,
        "truck": 1173.9860582758806
    },
    "fid": 961.9102540567728,
    "wasserstein_distance": null,
    "g_loss": null,
    "g_cost": null,
    "d_loss_real": null,
    "d_loss_fake": null
}