{
    "epoch": 15,
    "avg_current_window": 1713.9257077956395,
    "avg_prior_window": 1884.0844776389545,
    "inception_score_mean": 1.4934153331140974,
    "inception_score_std": 0.12781354112541135,
    "fid_per_class": {
        "airplane": 1448.9348516673704,
        "automobile": 1539.648801174227,
        "bird": 2002.7399334129564,
        "cat": 1839.7922885110831,
        "deer": 2204.171637463037,
        "dog": 1961.8961122295484,
        "frog": 2412.249745578764,
        "horse": 2014.0222775258726,
        "ship": 1385.6041088958357,
        "truck": 1455.320134938419
    },
    "fid": 1557.416848253631,
    "wasserstein_distance": null,
    "g_loss": null,
    "g_cost": null,
    "d_loss_real": null,
    "d_loss_fake": null
}