{
    "epoch": 121,
    "avg_current_window": 1072.9232249661986,
    "avg_prior_window": 1091.092782051923,
    "inception_score_mean": 2.0068881686706357,
    "inception_score_std": 0.04663167859546433,
    "fid_per_class": {
        "airplane": 888.4361270298579,
        "automobile": 1133.0068985407906,
        "bird": 1346.6607060702615,
        "cat": 1140.5434257758618,
        "deer": 1533.050391531873,
        "dog": 1163.0712659084024,
        "frog": 1737.0925686939438,
        "horse": 1294.9404795765358,
        "ship": 951.1113804521144,
        "truck": 1059.3607982944015
    },
    "fid": 822.3493450343292,
    "wasserstein_distance": null,
    "g_loss": null,
    "g_cost": null,
    "d_loss_real": null,
    "d_loss_fake": null
}