{
    "epoch": 162,
    "avg_current_window": 1006.0260677206087,
    "avg_prior_window": 1017.8700281846578,
    "inception_score_mean": 2.0755790020222253,
    "inception_score_std": 0.12103374106765005,
    "fid_per_class": {
        "airplane": 941.074667045476,
        "automobile": 1130.1376858690167,
        "bird": 1318.6736028751036,
        "cat": 1101.9522005938068,
        "deer": 1459.3624631782272,
        "dog": 1081.7028526136,
        "frog": 1805.706204937558,
        "horse": 1190.8008678725087,
        "ship": 895.8017914219647,
        "truck": 941.4021998589762
    },
    "fid": 767.3965878506087,
    "wasserstein_distance": null,
    "g_loss": null,
    "g_cost": null,
    "d_loss_real": null,
    "d_loss_fake": null
}