{
    "epoch": 70,
    "avg_current_window": 1234.3246678313494,
    "avg_prior_window": 1272.3905956688457,
    "inception_score_mean": 1.9407257118447139,
    "inception_score_std": 0.15661513978507619,
    "fid_per_class": {
        "airplane": 952.101465865598,
        "automobile": 1179.0236094317036,
        "bird": 1364.712256316841,
        "cat": 1076.3516215181671,
        "deer": 1556.5101296107011,
        "dog": 1176.673127894685,
        "frog": 2005.3266082238272,
        "horse": 1357.972482495673,
        "ship": 997.7667803017034,
        "truck": 1039.9809058840651
    },
    "fid": 873.9297326288334,
    "wasserstein_distance": null,
    "g_loss": null,
    "g_cost": null,
    "d_loss_real": null,
    "d_loss_fake": null
}