{
    "epoch": 195,
    "avg_current_window": 970.1716850229459,
    "avg_prior_window": 979.3538336866557,
    "inception_score_mean": 2.025092166488125,
    "inception_score_std": 0.10315986601277313,
    "fid_per_class": {
        "airplane": 936.9967261551584,
        "automobile": 1096.6431553650948,
        "bird": 1267.6504053591552,
        "cat": 1016.804165823507,
        "deer": 1367.0660274620382,
        "dog": 1092.7092549840231,
        "frog": 1769.3825899581166,
        "horse": 1117.8363169332974,
        "ship": 987.7142006095505,
        "truck": 1070.0794056827153
    },
    "fid": 748.7542832088741,
    "wasserstein_distance": null,
    "g_loss": null,
    "g_cost": null,
    "d_loss_real": null,
    "d_loss_fake": null
}