{
    "epoch": 176,
    "avg_current_window": 989.640248031224,
    "avg_prior_window": 999.4647220234325,
    "inception_score_mean": 2.058257267696134,
    "inception_score_std": 0.11148503072339475,
    "fid_per_class": {
        "airplane": 976.1325729409426,
        "automobile": 1172.3893423294144,
        "bird": 1292.397076033184,
        "cat": 1042.7089720078093,
        "deer": 1477.9194960217724,
        "dog": 1093.0655350843626,
        "frog": 1791.1555058661027,
        "horse": 1203.2366599929107,
        "ship": 956.463683033613,
        "truck": 1007.2947956944693
    },
    "fid": 788.0611893083196,
    "wasserstein_distance": null,
    "g_loss": null,
    "g_cost": null,
    "d_loss_real": null,
    "d_loss_fake": null
}