{
    "epoch": 166,
    "avg_current_window": 1000.8388009574888,
    "avg_prior_window": 1012.2746768368858,
    "inception_score_mean": 2.0257592653277317,
    "inception_score_std": 0.14462730573686253,
    "fid_per_class": {
        "airplane": 971.7643381329157,
        "automobile": 1117.7818286595855,
        "bird": 1305.9675887991436,
        "cat": 1102.0996154058967,
        "deer": 1512.1902247599742,
        "dog": 1094.175351961063,
        "frog": 1702.202006802937,
        "horse": 1285.364480643867,
        "ship": 991.0580864097158,
        "truck": 1040.9263093822537
    },
    "fid": 813.6366510536793,
    "wasserstein_distance": null,
    "g_loss": null,
    "g_cost": null,
    "d_loss_real": null,
    "d_loss_fake": null
}