{
    "epoch": 168,
    "avg_current_window": 998.6534113697327,
    "avg_prior_window": 1009.4932557801781,
    "inception_score_mean": 1.9951163244516579,
    "inception_score_std": 0.11866122310510184,
    "fid_per_class": {
        "airplane": 921.9942953404757,
        "automobile": 1160.6493193639517,
        "bird": 1332.2111400348927,
        "cat": 1028.121402660881,
        "deer": 1455.773511849302,
        "dog": 1149.0202974645317,
        "frog": 1818.0510950756682,
        "horse": 1382.5275027148211,
        "ship": 910.9492642784228,
        "truck": 1015.1926089514661
    },
    "fid": 814.2944565189371,
    "wasserstein_distance": null,
    "g_loss": null,
    "g_cost": null,
    "d_loss_real": null,
    "d_loss_fake": null
}