{
    "epoch": 141,
    "avg_current_window": 1036.2048651831874,
    "avg_prior_window": 1049.7723857269575,
    "inception_score_mean": 2.0157930878579537,
    "inception_score_std": 0.09374234856994815,
    "fid_per_class": {
        "airplane": 1002.3408786111747,
        "automobile": 1131.2250955909371,
        "bird": 1317.4769443954121,
        "cat": 1057.7150367100644,
        "deer": 1524.1667669154651,
        "dog": 1107.6248185589131,
        "frog": 1704.2763990083718,
        "horse": 1252.687874570913,
        "ship": 975.5871638746265,
        "truck": 1036.6592886906587
    },
    "fid": 804.143965396805,
    "wasserstein_distance": null,
    "g_loss": null,
    "g_cost": null,
    "d_loss_real": null,
    "d_loss_fake": null
}