{
    "epoch": 108,
    "avg_current_window": 1102.5717303410192,
    "avg_prior_window": 1123.9441302680505,
    "inception_score_mean": 2.0035816601244023,
    "inception_score_std": 0.14876920711093983,
    "fid_per_class": {
        "airplane": 941.5258426343697,
        "automobile": 1101.8935848025053,
        "bird": 1377.6719075896028,
        "cat": 1084.2280907021827,
        "deer": 1533.150865456963,
        "dog": 1120.0709384969055,
        "frog": 1719.558137043454,
        "horse": 1330.4895784293985,
        "ship": 962.9045924002768,
        "truck": 1061.854683804083
    },
    "fid": 812.738627521343,
    "wasserstein_distance": null,
    "g_loss": null,
    "g_cost": null,
    "d_loss_real": null,
    "d_loss_fake": null
}