{
    "epoch": 98,
    "avg_current_window": 1130.8491777376787,
    "avg_prior_window": 1155.1780610214876,
    "inception_score_mean": 2.0156938155205744,
    "inception_score_std": 0.09756801818815047,
    "fid_per_class": {
        "airplane": 1045.135369226823,
        "automobile": 1092.825526527462,
        "bird": 1295.1321223234036,
        "cat": 1046.8496694405217,
        "deer": 1558.9198893431403,
        "dog": 1139.4117328172874,
        "frog": 1727.3032515653608,
        "horse": 1337.1075276228285,
        "ship": 982.9350519175509,
        "truck": 1099.233827252318
    },
    "fid": 824.12326815038,
    "wasserstein_distance": null,
    "g_loss": null,
    "g_cost": null,
    "d_loss_real": null,
    "d_loss_fake": null
}