{
    "epoch": 106,
    "avg_current_window": 1107.9370640874508,
    "avg_prior_window": 1129.7352879895498,
    "inception_score_mean": 2.0400209185574694,
    "inception_score_std": 0.1611701881267915,
    "fid_per_class": {
        "airplane": 936.1144782363463,
        "automobile": 1144.935652869145,
        "bird": 1354.1384443734405,
        "cat": 1048.2426881906622,
        "deer": 1551.9187401287304,
        "dog": 1102.0818302805692,
        "frog": 1785.568272205831,
        "horse": 1227.6303702698901,
        "ship": 949.7159425079487,
        "truck": 1025.6520943656953
    },
    "fid": 814.9458101095304,
    "wasserstein_distance": null,
    "g_loss": null,
    "g_cost": null,
    "d_loss_real": null,
    "d_loss_fake": null
}