{
    "epoch": 42,
    "avg_current_window": 1416.3134115425823,
    "avg_prior_window": 1497.3531801769748,
    "inception_score_mean": 1.832638438936065,
    "inception_score_std": 0.09966694116889835,
    "fid_per_class": {
        "airplane": 1085.3134503352162,
        "automobile": 1285.7751680984509,
        "bird": 1433.6705260870417,
        "cat": 1188.1635785158323,
        "deer": 1696.3622813653146,
        "dog": 1449.8727085811001,
        "frog": 1935.6381690355588,
        "horse": 1542.046905839005,
        "ship": 1099.761834039617,
        "truck": 1176.9530029028765
    },
    "fid": 1036.2424084291624,
    "wasserstein_distance": null,
    "g_loss": null,
    "g_cost": null,
    "d_loss_real": null,
    "d_loss_fake": null
}