{
    "epoch": 135,
    "avg_current_window": 1045.6803514476283,
    "avg_prior_window": 1060.832180588909,
    "inception_score_mean": 1.9708244545710532,
    "inception_score_std": 0.11120883630437077,
    "fid_per_class": {
        "airplane": 952.195881489111,
        "automobile": 1063.309958194921,
        "bird": 1317.7264509344482,
        "cat": 1078.3083486228877,
        "deer": 1485.760826111416,
        "dog": 1076.334863768016,
        "frog": 1696.331897451836,
        "horse": 1344.7757768199494,
        "ship": 985.4749001911116,
        "truck": 1012.4669427241619
    },
    "fid": 799.5373026517706,
    "wasserstein_distance": null,
    "g_loss": null,
    "g_cost": null,
    "d_loss_real": null,
    "d_loss_fake": null
}