{
    "epoch": 26,
    "avg_current_window": 1608.4730159728088,
    "avg_prior_window": 1731.9871247615824,
    "inception_score_mean": 1.7410384770974563,
    "inception_score_std": 0.11625705348559619,
    "fid_per_class": {
        "airplane": 1336.9386281061647,
        "automobile": 1358.235347829162,
        "bird": 1790.9471688680123,
        "cat": 1540.6353154124422,
        "deer": 1818.6699750358052,
        "dog": 1706.7422112195713,
        "frog": 2361.936818758387,
        "horse": 1653.963229694676,
        "ship": 1210.839250653518,
        "truck": 1294.477244179861
    },
    "fid": 1262.626430575176,
    "wasserstein_distance": null,
    "g_loss": null,
    "g_cost": null,
    "d_loss_real": null,
    "d_loss_fake": null
}