{
    "epoch": 196,
    "avg_current_window": 969.0420044014454,
    "avg_prior_window": 978.3280097276868,
    "inception_score_mean": 1.9630579031305806,
    "inception_score_std": 0.1138888023149734,
    "fid_per_class": {
        "airplane": 956.7331661582057,
        "automobile": 1133.684247926538,
        "bird": 1338.510968999426,
        "cat": 1030.927091258145,
        "deer": 1477.8386476019396,
        "dog": 1130.040847010478,
        "frog": 1884.029511973171,
        "horse": 1181.757157968027,
        "ship": 921.8889556010804,
        "truck": 1097.7238829074008
    },
    "fid": 792.0937111797133,
    "wasserstein_distance": null,
    "g_loss": null,
    "g_cost": null,
    "d_loss_real": null,
    "d_loss_fake": null
}