{
    "epoch": 59,
    "avg_current_window": 1291.6638298291084,
    "avg_prior_window": 1340.2592391174676,
    "inception_score_mean": 1.9750417407214467,
    "inception_score_std": 0.15663112443216773,
    "fid_per_class": {
        "airplane": 969.2187551987047,
        "automobile": 1181.3855482700028,
        "bird": 1432.8401357761732,
        "cat": 1141.236466886376,
        "deer": 1585.9678670764129,
        "dog": 1246.816984720942,
        "frog": 1993.7565150582209,
        "horse": 1383.4782141990709,
        "ship": 1024.554883770551,
        "truck": 1063.3245022857632
    },
    "fid": 910.0776049650465,
    "wasserstein_distance": null,
    "g_loss": null,
    "g_cost": null,
    "d_loss_real": null,
    "d_loss_fake": null
}