{
    "epoch": 107,
    "avg_current_window": 1105.1988280689657,
    "avg_prior_window": 1126.8664179785223,
    "inception_score_mean": 1.9416386526026383,
    "inception_score_std": 0.14474789800093205,
    "fid_per_class": {
        "airplane": 909.3164348073587,
        "automobile": 1137.5165296613789,
        "bird": 1319.3867975339522,
        "cat": 1102.537825058504,
        "deer": 1487.3593718648676,
        "dog": 1129.242835136712,
        "frog": 1745.9177112980026,
        "horse": 1298.4227367991502,
        "ship": 934.1503628952859,
        "truck": 1024.7605985796192
    },
    "fid": 821.4722734507518,
    "wasserstein_distance": null,
    "g_loss": null,
    "g_cost": null,
    "d_loss_real": null,
    "d_loss_fake": null
}