{
    "epoch": 115,
    "avg_current_window": 1086.8607307403238,
    "avg_prior_window": 1105.0246021348305,
    "inception_score_mean": 2.0241917204812503,
    "inception_score_std": 0.06755954931803838,
    "fid_per_class": {
        "airplane": 930.7415158940144,
        "automobile": 1118.7754582378939,
        "bird": 1270.758172874801,
        "cat": 998.6045033868786,
        "deer": 1476.3214516298135,
        "dog": 1051.5568253580668,
        "frog": 1730.1851504307479,
        "horse": 1247.7402457050819,
        "ship": 962.0499006336171,
        "truck": 1057.2927893717128
    },
    "fid": 773.836344577022,
    "wasserstein_distance": null,
    "g_loss": null,
    "g_cost": null,
    "d_loss_real": null,
    "d_loss_fake": null
}