{
    "epoch": 111,
    "avg_current_window": 1095.0694255390213,
    "avg_prior_window": 1115.6252321073523,
    "inception_score_mean": 1.9114518311754611,
    "inception_score_std": 0.16936806710048197,
    "fid_per_class": {
        "airplane": 962.5384661617666,
        "automobile": 1175.8532506292909,
        "bird": 1350.390736273503,
        "cat": 1109.1866692916471,
        "deer": 1631.3037478600725,
        "dog": 1159.6943784131047,
        "frog": 1910.7244574460492,
        "horse": 1433.2675263107308,
        "ship": 947.757331417763,
        "truck": 1042.9924017361313
    },
    "fid": 869.9979937448564,
    "wasserstein_distance": null,
    "g_loss": null,
    "g_cost": null,
    "d_loss_real": null,
    "d_loss_fake": null
}