{
    "epoch": 184,
    "avg_current_window": 981.5624917663882,
    "avg_prior_window": 991.0741670641281,
    "inception_score_mean": 2.0581726770544426,
    "inception_score_std": 0.11630419075902758,
    "fid_per_class": {
        "airplane": 928.9692252211322,
        "automobile": 1126.6605265964552,
        "bird": 1287.3796214229108,
        "cat": 994.094986407542,
        "deer": 1515.0402090036182,
        "dog": 1114.8712209955206,
        "frog": 1691.3381917949778,
        "horse": 1173.5089792403578,
        "ship": 935.3023651390934,
        "truck": 971.8599175517572
    },
    "fid": 749.3563736163107,
    "wasserstein_distance": null,
    "g_loss": null,
    "g_cost": null,
    "d_loss_real": null,
    "d_loss_fake": null
}