{
    "epoch": 186,
    "avg_current_window": 979.5502133493092,
    "avg_prior_window": 989.0372198946495,
    "inception_score_mean": 2.0015896959625947,
    "inception_score_std": 0.1308772823614838,
    "fid_per_class": {
        "airplane": 964.5580958831366,
        "automobile": 1221.2214102933212,
        "bird": 1341.88770957021,
        "cat": 1093.3184826311317,
        "deer": 1576.4795623843472,
        "dog": 1128.1423855184635,
        "frog": 1718.0569951107327,
        "horse": 1281.068649416478,
        "ship": 936.6073406368128,
        "truck": 1027.3269757473731
    },
    "fid": 817.2261737340006,
    "wasserstein_distance": null,
    "g_loss": null,
    "g_cost": null,
    "d_loss_real": null,
    "d_loss_fake": null
}