{
    "epoch": 79,
    "avg_current_window": 1194.8876644656598,
    "avg_prior_window": 1227.9962297936117,
    "inception_score_mean": 1.9818529052243132,
    "inception_score_std": 0.13992767781016274,
    "fid_per_class": {
        "airplane": 979.1996611209538,
        "automobile": 1135.3073607346491,
        "bird": 1332.7548325762282,
        "cat": 1178.9904065139349,
        "deer": 1596.2376243988324,
        "dog": 1133.3068512970665,
        "frog": 1845.275952054517,
        "horse": 1457.4749268541625,
        "ship": 1029.7337366092017,
        "truck": 1064.6514754258253
    },
    "fid": 892.7141246603837,
    "wasserstein_distance": null,
    "g_loss": null,
    "g_cost": null,
    "d_loss_real": null,
    "d_loss_fake": null
}