{
    "epoch": 52,
    "avg_current_window": 1337.7336852698843,
    "avg_prior_window": 1394.614909075883,
    "inception_score_mean": 1.9460261626178397,
    "inception_score_std": 0.14732108609803946,
    "fid_per_class": {
        "airplane": 1012.6905844627827,
        "automobile": 1193.4750012762433,
        "bird": 1411.797751079827,
        "cat": 1134.0860447390198,
        "deer": 1554.6075436844126,
        "dog": 1354.1491917525645,
        "frog": 1876.2509826927562,
        "horse": 1438.8400875083626,
        "ship": 975.8982281513192,
        "truck": 1065.3006541194038
    },
    "fid": 923.6865626399845,
    "wasserstein_distance": null,
    "g_loss": null,
    "g_cost": null,
    "d_loss_real": null,
    "d_loss_fake": null
}