{
    "epoch": 188,
    "avg_current_window": 977.4460429088109,
    "avg_prior_window": 986.9262212295926,
    "inception_score_mean": 1.9717846927642864,
    "inception_score_std": 0.0756105995195882,
    "fid_per_class": {
        "airplane": 913.6468981108344,
        "automobile": 1147.9369794520042,
        "bird": 1310.4045530558537,
        "cat": 1109.1183835070974,
        "deer": 1498.290393007308,
        "dog": 1047.541804609565,
        "frog": 1872.7019227772134,
        "horse": 1178.0421329978171,
        "ship": 906.951530346546,
        "truck": 1066.0399677616933
    },
    "fid": 789.1850607019251,
    "wasserstein_distance": null,
    "g_loss": null,
    "g_cost": null,
    "d_loss_real": null,
    "d_loss_fake": null
}