{
    "epoch": 154,
    "avg_current_window": 1016.4818575810302,
    "avg_prior_window": 1028.764256864689,
    "inception_score_mean": 1.9675162638320927,
    "inception_score_std": 0.07688254164142466,
    "fid_per_class": {
        "airplane": 980.6693390534305,
        "automobile": 1130.57384974977,
        "bird": 1336.5746723446623,
        "cat": 1096.389198063372,
        "deer": 1528.6337252473568,
        "dog": 1176.8025038897288,
        "frog": 1806.9713812310556,
        "horse": 1307.9519883364217,
        "ship": 997.857915219134,
        "truck": 1118.7982320683943
    },
    "fid": 849.7804261570751,
    "wasserstein_distance": null,
    "g_loss": null,
    "g_cost": null,
    "d_loss_real": null,
    "d_loss_fake": null
}