{
    "epoch": 86,
    "avg_current_window": 1168.923165036816,
    "avg_prior_window": 1197.7066043252544,
    "inception_score_mean": 1.9401328646872007,
    "inception_score_std": 0.16133772873024832,
    "fid_per_class": {
        "airplane": 921.0777566756349,
        "automobile": 1196.1757076578292,
        "bird": 1351.0686103792677,
        "cat": 1115.5084480156902,
        "deer": 1572.5850700697345,
        "dog": 1164.4830603462449,
        "frog": 1845.3301326441892,
        "horse": 1407.0704062556852,
        "ship": 960.0442271013359,
        "truck": 1114.8188036446413
    },
    "fid": 873.7617799313224,
    "wasserstein_distance": null,
    "g_loss": null,
    "g_cost": null,
    "d_loss_real": null,
    "d_loss_fake": null
}