{
    "epoch": 45,
    "avg_current_window": 1389.2551493841738,
    "avg_prior_window": 1461.8616608851837,
    "inception_score_mean": 1.8790918156710894,
    "inception_score_std": 0.09364362860130922,
    "fid_per_class": {
        "airplane": 1055.549521607503,
        "automobile": 1310.8346705692686,
        "bird": 1465.1125986340198,
        "cat": 1209.8271090399091,
        "deer": 1646.0113332430099,
        "dog": 1410.127235797863,
        "frog": 1900.3862631746563,
        "horse": 1526.5697896010247,
        "ship": 1020.6685979561969,
        "truck": 1093.6754860025944
    },
    "fid": 1006.4698012495725,
    "wasserstein_distance": null,
    "g_loss": null,
    "g_cost": null,
    "d_loss_real": null,
    "d_loss_fake": null
}