{
    "epoch": 41,
    "avg_current_window": 1426.2064984245694,
    "avg_prior_window": 1509.0999225219753,
    "inception_score_mean": 1.824238213711471,
    "inception_score_std": 0.06616810456691147,
    "fid_per_class": {
        "airplane": 1076.9822230809582,
        "automobile": 1303.8137467298682,
        "bird": 1418.8856607963467,
        "cat": 1145.6676115082023,
        "deer": 1720.700217907268,
        "dog": 1365.6286442571209,
        "frog": 2007.1070526642243,
        "horse": 1537.7482492547015,
        "ship": 1088.6439061213478,
        "truck": 1159.3930629928416
    },
    "fid": 1010.6968493811102,
    "wasserstein_distance": null,
    "g_loss": null,
    "g_cost": null,
    "d_loss_real": null,
    "d_loss_fake": null
}