{
    "epoch": 101,
    "avg_current_window": 1121.4223829438627,
    "avg_prior_window": 1145.4227727306404,
    "inception_score_mean": 2.010495575285906,
    "inception_score_std": 0.11577576122950023,
    "fid_per_class": {
        "airplane": 968.6640820244082,
        "automobile": 1132.361150774863,
        "bird": 1356.9913065880032,
        "cat": 1093.9922782059598,
        "deer": 1546.9810291804429,
        "dog": 1133.2292308515825,
        "frog": 1755.9701310543767,
        "horse": 1388.9984479100233,
        "ship": 980.602104247296,
        "truck": 1082.2468423435005
    },
    "fid": 839.6034096143997,
    "wasserstein_distance": null,
    "g_loss": null,
    "g_cost": null,
    "d_loss_real": null,
    "d_loss_fake": null
}