{
    "epoch": 123,
    "avg_current_window": 1068.5858214314844,
    "avg_prior_window": 1086.1782909944288,
    "inception_score_mean": 2.025683763228842,
    "inception_score_std": 0.17264474125637147,
    "fid_per_class": {
        "airplane": 950.7770172429817,
        "automobile": 1103.7705286580003,
        "bird": 1299.3204055697659,
        "cat": 1094.0422000251197,
        "deer": 1577.3332414397942,
        "dog": 1121.4758554989212,
        "frog": 1740.8180607070435,
        "horse": 1252.627289307629,
        "ship": 936.4824797599931,
        "truck": 1045.587852948118
    },
    "fid": 821.1635161776757,
    "wasserstein_distance": null,
    "g_loss": null,
    "g_cost": null,
    "d_loss_real": null,
    "d_loss_fake": null
}