{
    "epoch": 34,
    "avg_current_window": 1504.3910384392616,
    "avg_prior_window": 1612.910595204982,
    "inception_score_mean": 1.7522226679609247,
    "inception_score_std": 0.09630922555228469,
    "fid_per_class": {
        "airplane": 1121.6035131762399,
        "automobile": 1305.4399532273615,
        "bird": 1624.6361233035736,
        "cat": 1350.990167772763,
        "deer": 1755.3397141267833,
        "dog": 1503.7571640345218,
        "frog": 2058.752002186846,
        "horse": 1566.5925407589116,
        "ship": 1103.8650653724167,
        "truck": 1195.7647298613954
    },
    "fid": 1104.1586912094838,
    "wasserstein_distance": null,
    "g_loss": null,
    "g_cost": null,
    "d_loss_real": null,
    "d_loss_fake": null
}