{
    "epoch": 122,
    "avg_current_window": 1070.869340704462,
    "avg_prior_window": 1088.6996608675986,
    "inception_score_mean": 2.0101196616942816,
    "inception_score_std": 0.1433799593546695,
    "fid_per_class": {
        "airplane": 911.413440814446,
        "automobile": 1077.9735723391698,
        "bird": 1308.0768458283733,
        "cat": 1072.745464561344,
        "deer": 1509.46365248166,
        "dog": 1078.2154172099156,
        "frog": 1794.943017286088,
        "horse": 1287.2293359035211,
        "ship": 867.8670663359217,
        "truck": 1037.4466876939587
    },
    "fid": 789.9964701282198,
    "wasserstein_distance": null,
    "g_loss": null,
    "g_cost": null,
    "d_loss_real": null,
    "d_loss_fake": null
}