{
    "epoch": 40,
    "avg_current_window": 1436.058637909367,
    "avg_prior_window": 1522.356638009502,
    "inception_score_mean": 1.8281744969418565,
    "inception_score_std": 0.10391657640769941,
    "fid_per_class": {
        "airplane": 1112.8457403746145,
        "automobile": 1334.1004454918204,
        "bird": 1410.7563346821091,
        "cat": 1230.2623986179126,
        "deer": 1675.3963427959798,
        "dog": 1401.4844863600808,
        "frog": 1920.8001201279303,
        "horse": 1540.1157345753609,
        "ship": 1104.4863224446979,
        "truck": 1180.6357418216403
    },
    "fid": 1032.1209190326713,
    "wasserstein_distance": null,
    "g_loss": null,
    "g_cost": null,
    "d_loss_real": null,
    "d_loss_fake": null
}