{
    "epoch": 27,
    "avg_current_window": 1595.6638831803039,
    "avg_prior_window": 1714.0561817127275,
    "inception_score_mean": 1.6745611834147969,
    "inception_score_std": 0.07623981049711671,
    "fid_per_class": {
        "airplane": 1347.2656211820984,
        "automobile": 1427.2959732348404,
        "bird": 1842.3390724375631,
        "cat": 1588.0418451016553,
        "deer": 1976.9739369983004,
        "dog": 1749.925540676221,
        "frog": 2447.9355794742105,
        "horse": 1612.4829939752535,
        "ship": 1223.6461557520472,
        "truck": 1395.9291079001187
    },
    "fid": 1333.0424517073018,
    "wasserstein_distance": null,
    "g_loss": null,
    "g_cost": null,
    "d_loss_real": null,
    "d_loss_fake": null
}