{
    "epoch": 140,
    "avg_current_window": 1037.6281544902054,
    "avg_prior_window": 1051.6028499857896,
    "inception_score_mean": 1.9865917536630633,
    "inception_score_std": 0.13009293952855913,
    "fid_per_class": {
        "airplane": 974.8626110656066,
        "automobile": 1131.4354534424485,
        "bird": 1378.8016059435297,
        "cat": 1119.0237745199631,
        "deer": 1596.3171403760523,
        "dog": 1112.1238637522597,
        "frog": 1753.7655043271773,
        "horse": 1338.2893249280758,
        "ship": 974.7350088995345,
        "truck": 1060.644522341519
    },
    "fid": 836.944362200664,
    "wasserstein_distance": null,
    "g_loss": null,
    "g_cost": null,
    "d_loss_real": null,
    "d_loss_fake": null
}