{
    "epoch": 96,
    "avg_current_window": 1136.5849636624205,
    "avg_prior_window": 1161.686069261285,
    "inception_score_mean": 1.9734017312642824,
    "inception_score_std": 0.16532195125868984,
    "fid_per_class": {
        "airplane": 921.7338139486411,
        "automobile": 1148.3588861652804,
        "bird": 1328.1720224339065,
        "cat": 1176.4852384871022,
        "deer": 1545.4538985107604,
        "dog": 1245.5381562984053,
        "frog": 1758.3169362111216,
        "horse": 1327.3632478064267,
        "ship": 948.7430541538188,
        "truck": 1093.7892100294473
    },
    "fid": 848.4296705491212,
    "wasserstein_distance": null,
    "g_loss": null,
    "g_cost": null,
    "d_loss_real": null,
    "d_loss_fake": null
}