{
    "epoch": 11,
    "avg_current_window": 1712.8040705808678,
    "avg_prior_window": 1983.228178639037,
    "inception_score_mean": 1.1894629935897558,
    "inception_score_std": 0.06783568675914148,
    "fid_per_class": {
        "airplane": 1711.740185743672,
        "automobile": 1727.731331231411,
        "bird": 2097.8675272657956,
        "cat": 2050.2270568959275,
        "deer": 2220.42871548445,
        "dog": 2198.6020533804467,
        "frog": 2417.8757455435143,
        "horse": 2143.2335665289415,
        "ship": 1618.2652511859392,
        "truck": 1596.7854932579376
    },
    "fid": 1765.5955445534405,
    "wasserstein_distance": null,
    "g_loss": null,
    "g_cost": null,
    "d_loss_real": null,
    "d_loss_fake": null
}