{
    "epoch": 117,
    "avg_current_window": 1081.7672027181459,
    "avg_prior_window": 1100.4632019673904,
    "inception_score_mean": 2.0182680160345727,
    "inception_score_std": 0.18938594950257281,
    "fid_per_class": {
        "airplane": 874.0449755813245,
        "automobile": 1112.9082871788905,
        "bird": 1317.893349945384,
        "cat": 1123.4092014596247,
        "deer": 1544.5720481766857,
        "dog": 1119.0970540872836,
        "frog": 1833.5309154001884,
        "horse": 1283.2638149101012,
        "ship": 914.2810630595187,
        "truck": 1087.3202455007436
    },
    "fid": 811.097603485984,
    "wasserstein_distance": null,
    "g_loss": null,
    "g_cost": null,
    "d_loss_real": null,
    "d_loss_fake": null
}