{
    "epoch": 25,
    "avg_current_window": 1620.27807849573,
    "avg_prior_window": 1740.4605830759963,
    "inception_score_mean": 1.7470697061129343,
    "inception_score_std": 0.07851510653096183,
    "fid_per_class": {
        "airplane": 1321.0083773616213,
        "automobile": 1471.3037090281216,
        "bird": 1785.8340624115294,
        "cat": 1591.817999306608,
        "deer": 1826.6626496403157,
        "dog": 1786.0348902766675,
        "frog": 2235.551025958155,
        "horse": 1676.0430008697977,
        "ship": 1244.4714311190505,
        "truck": 1321.8162395793377
    },
    "fid": 1313.346452899783,
    "wasserstein_distance": null,
    "g_loss": null,
    "g_cost": null,
    "d_loss_real": null,
    "d_loss_fake": null
}