{
    "epoch": 69,
    "avg_current_window": 1239.15493681231,
    "avg_prior_window": 1277.7929051689705,
    "inception_score_mean": 1.955148442577406,
    "inception_score_std": 0.1321809049150912,
    "fid_per_class": {
        "airplane": 917.5096585744583,
        "automobile": 1221.1101598461623,
        "bird": 1346.8484535699263,
        "cat": 1207.628602897024,
        "deer": 1562.9903087055166,
        "dog": 1268.148620305949,
        "frog": 1939.0815489173333,
        "horse": 1445.5520934217295,
        "ship": 987.3415048043785,
        "truck": 1057.8608516111572
    },
    "fid": 901.0361081450493,
    "wasserstein_distance": null,
    "g_loss": null,
    "g_cost": null,
    "d_loss_real": null,
    "d_loss_fake": null
}