{
    "epoch": 1,
    "avg_current_window": 3.0,
    "avg_prior_window": 8.0,
    "inception_score_mean": 1.0000001781347787,
    "inception_score_std": 6.115282883804958e-08,
    "fid_per_class": {
        "airplane": 2194.732825134965,
        "automobile": 2345.837063461594,
        "bird": 2567.838768740421,
        "cat": 2688.3067111455466,
        "deer": 2877.5758776932435,
        "dog": 2708.162993121921,
        "frog": 3006.4625876644122,
        "horse": 2772.5563948872623,
        "ship": 2352.7315911198466,
        "truck": 2398.2463831217756
    },
    "fid": 2583.4028260480054,
    "wasserstein_distance": null,
    "g_loss": null,
    "g_cost": null,
    "d_loss_real": null,
    "d_loss_fake": null
}