{
    "epoch": 170,
    "avg_current_window": 996.2096193233044,
    "avg_prior_window": 1006.9044906602616,
    "inception_score_mean": 2.1000394402013702,
    "inception_score_std": 0.08033915829919705,
    "fid_per_class": {
        "airplane": 927.0571662514652,
        "automobile": 1107.3353534923062,
        "bird": 1286.7650545300635,
        "cat": 1006.7826697000557,
        "deer": 1413.692539184548,
        "dog": 1070.551448108206,
        "frog": 1833.353384241566,
        "horse": 1188.3446837969955,
        "ship": 921.3031213975366,
        "truck": 1005.6942190328734
    },
    "fid": 760.8839022064169,
    "wasserstein_distance": null,
    "g_loss": null,
    "g_cost": null,
    "d_loss_real": null,
    "d_loss_fake": null
}