{
    "epoch": 156,
    "avg_current_window": 1014.1891420976023,
    "avg_prior_window": 1025.9878311147197,
    "inception_score_mean": 2.0918916855864724,
    "inception_score_std": 0.11505596815450857,
    "fid_per_class": {
        "airplane": 994.0452761566715,
        "automobile": 1082.0189731776957,
        "bird": 1352.32404195668,
        "cat": 1106.994155265539,
        "deer": 1484.3341150335925,
        "dog": 1006.7221287872328,
        "frog": 1907.6286766068374,
        "horse": 1240.6225075599723,
        "ship": 974.784557172919,
        "truck": 1072.0964693868182
    },
    "fid": 801.914958029382,
    "wasserstein_distance": null,
    "g_loss": null,
    "g_cost": null,
    "d_loss_real": null,
    "d_loss_fake": null
}