{
    "epoch": 148,
    "avg_current_window": 1024.9122935008695,
    "avg_prior_window": 1038.5895305302288,
    "inception_score_mean": 2.049223062010735,
    "inception_score_std": 0.11005570044094189,
    "fid_per_class": {
        "airplane": 969.0217070745596,
        "automobile": 1097.695579534053,
        "bird": 1327.4141441118732,
        "cat": 1105.3670996568992,
        "deer": 1635.6324345355652,
        "dog": 1120.445374343104,
        "frog": 1736.4250032816701,
        "horse": 1288.0877320253308,
        "ship": 983.5586338914441,
        "truck": 1057.515030219417
    },
    "fid": 819.4956206790966,
    "wasserstein_distance": null,
    "g_loss": null,
    "g_cost": null,
    "d_loss_real": null,
    "d_loss_fake": null
}