{
    "epoch": 189,
    "avg_current_window": 976.4499530558644,
    "avg_prior_window": 985.6350807534335,
    "inception_score_mean": 2.088683557433362,
    "inception_score_std": 0.11545795144204528,
    "fid_per_class": {
        "airplane": 906.613780930283,
        "automobile": 1121.1719829862081,
        "bird": 1279.615035014803,
        "cat": 1031.387944526473,
        "deer": 1543.4341212737718,
        "dog": 1058.349439646439,
        "frog": 1722.282793267201,
        "horse": 1191.8264667594312,
        "ship": 941.9304155688144,
        "truck": 999.9455112426203
    },
    "fid": 765.7046634582489,
    "wasserstein_distance": null,
    "g_loss": null,
    "g_cost": null,
    "d_loss_real": null,
    "d_loss_fake": null
}