{
    "epoch": 64,
    "avg_current_window": 1263.4130295380733,
    "avg_prior_window": 1307.0888739810584,
    "inception_score_mean": 1.9768133451469363,
    "inception_score_std": 0.11837466718353165,
    "fid_per_class": {
        "airplane": 986.0645903164063,
        "automobile": 1174.5810346837204,
        "bird": 1391.5573416258417,
        "cat": 1165.5315106689054,
        "deer": 1619.3539208806917,
        "dog": 1179.7511941953558,
        "frog": 1901.8919531783104,
        "horse": 1461.7115503051014,
        "ship": 1059.6737752390306,
        "truck": 1048.279957259408
    },
    "fid": 920.3120403774204,
    "wasserstein_distance": null,
    "g_loss": null,
    "g_cost": null,
    "d_loss_real": null,
    "d_loss_fake": null
}