{
    "epoch": 147,
    "avg_current_window": 1026.372418155076,
    "avg_prior_window": 1040.5880090727242,
    "inception_score_mean": 2.0469140256857585,
    "inception_score_std": 0.098425775721566,
    "fid_per_class": {
        "airplane": 945.9135112065222,
        "automobile": 1152.2232116979035,
        "bird": 1277.912239769674,
        "cat": 1081.5110423449219,
        "deer": 1507.1800986075402,
        "dog": 1128.2963242514936,
        "frog": 1778.1404680344904,
        "horse": 1277.8684728852456,
        "ship": 944.0019630546682,
        "truck": 1091.764632075081
    },
    "fid": 810.273969332522,
    "wasserstein_distance": null,
    "g_loss": null,
    "g_cost": null,
    "d_loss_real": null,
    "d_loss_fake": null
}