{
    "epoch": 187,
    "avg_current_window": 978.682170356714,
    "avg_prior_window": 987.9882146178375,
    "inception_score_mean": 2.036792558967426,
    "inception_score_std": 0.11433234751643355,
    "fid_per_class": {
        "airplane": 922.8132702474785,
        "automobile": 1169.7409867387018,
        "bird": 1255.6788229129352,
        "cat": 1019.3565184300966,
        "deer": 1360.612058131761,
        "dog": 1096.2725252065316,
        "frog": 1725.478251821537,
        "horse": 1228.6061616446332,
        "ship": 954.6682072945841,
        "truck": 978.8807322859446
    },
    "fid": 746.290210150939,
    "wasserstein_distance": null,
    "g_loss": null,
    "g_cost": null,
    "d_loss_real": null,
    "d_loss_fake": null
}