{
    "epoch": 85,
    "avg_current_window": 1172.1829259524593,
    "avg_prior_window": 1201.8796739234922,
    "inception_score_mean": 1.9741248510663787,
    "inception_score_std": 0.165279466729424,
    "fid_per_class": {
        "airplane": 919.064457399424,
        "automobile": 1236.2130556995069,
        "bird": 1367.9686644269393,
        "cat": 1146.5305693066496,
        "deer": 1541.9277479285215,
        "dog": 1198.3548859390257,
        "frog": 1853.6335759217845,
        "horse": 1429.1432573759214,
        "ship": 984.1841499307947,
        "truck": 1125.39184873958
    },
    "fid": 891.8434872071346,
    "wasserstein_distance": null,
    "g_loss": null,
    "g_cost": null,
    "d_loss_real": null,
    "d_loss_fake": null
}