{
    "epoch": 119,
    "avg_current_window": 1077.0507423306103,
    "avg_prior_window": 1096.3945967994496,
    "inception_score_mean": 2.0075629675601014,
    "inception_score_std": 0.14505953325217819,
    "fid_per_class": {
        "airplane": 907.775100627056,
        "automobile": 1092.821498987887,
        "bird": 1312.976554018242,
        "cat": 1118.234581515929,
        "deer": 1539.5472371507071,
        "dog": 1105.9440190955177,
        "frog": 1849.2826714403448,
        "horse": 1279.876588364944,
        "ship": 940.5641154118059,
        "truck": 1020.31990384382
    },
    "fid": 823.7565782487638,
    "wasserstein_distance": null,
    "g_loss": null,
    "g_cost": null,
    "d_loss_real": null,
    "d_loss_fake": null
}