{
    "epoch": 72,
    "avg_current_window": 1225.0942384978166,
    "avg_prior_window": 1261.771318297227,
    "inception_score_mean": 1.9970782331837236,
    "inception_score_std": 0.12809809665339567,
    "fid_per_class": {
        "airplane": 960.7343216702734,
        "automobile": 1218.2474362487537,
        "bird": 1418.3014561368034,
        "cat": 1058.102282219426,
        "deer": 1489.6265525574142,
        "dog": 1198.6744120526887,
        "frog": 1886.9195396103567,
        "horse": 1352.1717745183178,
        "ship": 1014.9796232577029,
        "truck": 1067.0347601104454
    },
    "fid": 877.8401194560732,
    "wasserstein_distance": null,
    "g_loss": null,
    "g_cost": null,
    "d_loss_real": null,
    "d_loss_fake": null
}