{
    "epoch": 50,
    "avg_current_window": 1352.2427184117917,
    "avg_prior_window": 1411.6211449674977,
    "inception_score_mean": 1.909330030110544,
    "inception_score_std": 0.1300531190720973,
    "fid_per_class": {
        "airplane": 1062.8327344162308,
        "automobile": 1255.8477776679392,
        "bird": 1481.9815945079486,
        "cat": 1271.7359913431337,
        "deer": 1682.9799644620944,
        "dog": 1458.0220375013548,
        "frog": 2057.2767093944262,
        "horse": 1488.9801085193744,
        "ship": 1009.5025034185071,
        "truck": 1100.4873482818548
    },
    "fid": 1012.6804128069268,
    "wasserstein_distance": null,
    "g_loss": null,
    "g_cost": null,
    "d_loss_real": null,
    "d_loss_fake": null
}