{
    "epoch": 153,
    "avg_current_window": 1017.8294662902595,
    "avg_prior_window": 1030.4494260730257,
    "inception_score_mean": 2.0935100624574483,
    "inception_score_std": 0.1816429768204062,
    "fid_per_class": {
        "airplane": 961.4925243549327,
        "automobile": 1166.5328287920538,
        "bird": 1362.0446411948953,
        "cat": 1085.9429293601886,
        "deer": 1505.44376799775,
        "dog": 1154.1772887802813,
        "frog": 1745.9606951922565,
        "horse": 1248.4042244854704,
        "ship": 966.9427162799334,
        "truck": 1108.6438552283407
    },
    "fid": 810.2977250689624,
    "wasserstein_distance": null,
    "g_loss": null,
    "g_cost": null,
    "d_loss_real": null,
    "d_loss_fake": null
}