{
    "epoch": 89,
    "avg_current_window": 1158.2395478597039,
    "avg_prior_window": 1186.1374845947505,
    "inception_score_mean": 1.9780244145370318,
    "inception_score_std": 0.10440086235916277,
    "fid_per_class": {
        "airplane": 1049.6618247686522,
        "automobile": 1181.715960171421,
        "bird": 1325.5879048764764,
        "cat": 1140.5143583819051,
        "deer": 1582.421526242839,
        "dog": 1235.0644831620943,
        "frog": 1885.5697386393213,
        "horse": 1422.3495336918957,
        "ship": 1010.2153630417237,
        "truck": 1124.0234690433078
    },
    "fid": 908.0813693652387,
    "wasserstein_distance": null,
    "g_loss": null,
    "g_cost": null,
    "d_loss_real": null,
    "d_loss_fake": null
}