{
    "epoch": 105,
    "avg_current_window": 1110.782925487358,
    "avg_prior_window": 1132.6366067733013,
    "inception_score_mean": 2.020105490659866,
    "inception_score_std": 0.11069681840449234,
    "fid_per_class": {
        "airplane": 920.2820057328702,
        "automobile": 1085.0675165150915,
        "bird": 1306.7580747943873,
        "cat": 1065.4200465076083,
        "deer": 1598.7874333211266,
        "dog": 1109.7692570741053,
        "frog": 1735.3000015440707,
        "horse": 1394.8133396437315,
        "ship": 965.717215549015,
        "truck": 943.4870849860683
    },
    "fid": 809.1216170972252,
    "wasserstein_distance": null,
    "g_loss": null,
    "g_cost": null,
    "d_loss_real": null,
    "d_loss_fake": null
}