{
    "epoch": 197,
    "avg_current_window": 968.1437897150407,
    "avg_prior_window": 977.2080658275008,
    "inception_score_mean": 1.9767055972660583,
    "inception_score_std": 0.10885800764538944,
    "fid_per_class": {
        "airplane": 921.3925738961863,
        "automobile": 1136.4469114368408,
        "bird": 1265.3136382014313,
        "cat": 1057.1993395226839,
        "deer": 1466.1528811690273,
        "dog": 1083.206620018549,
        "frog": 1700.68437801998,
        "horse": 1222.3484724879186,
        "ship": 913.6269338858048,
        "truck": 1025.1124361354043
    },
    "fid": 762.8795799903038,
    "wasserstein_distance": null,
    "g_loss": null,
    "g_cost": null,
    "d_loss_real": null,
    "d_loss_fake": null
}