{
    "epoch": 151,
    "avg_current_window": 1020.64738867855,
    "avg_prior_window": 1033.4023662246314,
    "inception_score_mean": 2.060048105891533,
    "inception_score_std": 0.12785518794950393,
    "fid_per_class": {
        "airplane": 919.3995905016993,
        "automobile": 1208.125156835256,
        "bird": 1306.9292636711402,
        "cat": 1079.5840765222695,
        "deer": 1547.061790141192,
        "dog": 1086.187366661501,
        "frog": 1891.9017544089127,
        "horse": 1270.4498570665505,
        "ship": 938.3649235387714,
        "truck": 1056.6033472250608
    },
    "fid": 806.4068078615984,
    "wasserstein_distance": null,
    "g_loss": null,
    "g_cost": null,
    "d_loss_real": null,
    "d_loss_fake": null
}