{
    "epoch": 169,
    "avg_current_window": 997.5625299800829,
    "avg_prior_window": 1008.1198272136096,
    "inception_score_mean": 1.9705043757876664,
    "inception_score_std": 0.10776329810573641,
    "fid_per_class": {
        "airplane": 981.88226034381,
        "automobile": 1126.5170554585013,
        "bird": 1300.8293087365037,
        "cat": 1089.5080797846763,
        "deer": 1366.909343782428,
        "dog": 1073.7838936009734,
        "frog": 1700.909247762144,
        "horse": 1214.884172819266,
        "ship": 936.1088718540849,
        "truck": 1004.1481152567417
    },
    "fid": 767.567718327755,
    "wasserstein_distance": null,
    "g_loss": null,
    "g_cost": null,
    "d_loss_real": null,
    "d_loss_fake": null
}