{
    "epoch": 91,
    "avg_current_window": 1152.550500431638,
    "avg_prior_window": 1179.0831857336918,
    "inception_score_mean": 2.065630255267486,
    "inception_score_std": 0.11777158418129681,
    "fid_per_class": {
        "airplane": 923.6856363342893,
        "automobile": 1082.0604450074459,
        "bird": 1372.5578683530898,
        "cat": 1138.369677624114,
        "deer": 1534.7711594295297,
        "dog": 1137.8660970557594,
        "frog": 1792.944529566619,
        "horse": 1445.5877388300219,
        "ship": 1030.7848608457332,
        "truck": 1002.2387513374583
    },
    "fid": 831.336763497869,
    "wasserstein_distance": null,
    "g_loss": null,
    "g_cost": null,
    "d_loss_real": null,
    "d_loss_fake": null
}