{
    "epoch": 37,
    "avg_current_window": 1468.3134381294894,
    "avg_prior_window": 1566.9337693461073,
    "inception_score_mean": 1.7937543734658707,
    "inception_score_std": 0.14171240025449539,
    "fid_per_class": {
        "airplane": 1182.5852540391456,
        "automobile": 1285.6873597847289,
        "bird": 1553.7857304063073,
        "cat": 1254.9885146896606,
        "deer": 1756.5733625590412,
        "dog": 1450.2801009782956,
        "frog": 2089.552716005627,
        "horse": 1578.9135652438576,
        "ship": 1072.6754387810533,
        "truck": 1180.36213602127
    },
    "fid": 1074.470455756957,
    "wasserstein_distance": null,
    "g_loss": null,
    "g_cost": null,
    "d_loss_real": null,
    "d_loss_fake": null
}