{
    "epoch": 129,
    "avg_current_window": 1056.8191181267775,
    "avg_prior_window": 1073.07916786818,
    "inception_score_mean": 2.1235079973231508,
    "inception_score_std": 0.1489420780309641,
    "fid_per_class": {
        "airplane": 968.4706474293209,
        "automobile": 1080.6526406621463,
        "bird": 1298.5532439077142,
        "cat": 1058.5600671478942,
        "deer": 1533.0140886459849,
        "dog": 1058.7548818094695,
        "frog": 1641.3501857408141,
        "horse": 1303.1586688643833,
        "ship": 935.2388624801811,
        "truck": 1022.4484253656234
    },
    "fid": 772.7381509139038,
    "wasserstein_distance": null,
    "g_loss": null,
    "g_cost": null,
    "d_loss_real": null,
    "d_loss_fake": null
}