{
    "epoch": 136,
    "avg_current_window": 1043.8704760888352,
    "avg_prior_window": 1059.1168373141886,
    "inception_score_mean": 1.9374876851165646,
    "inception_score_std": 0.11764707080036638,
    "fid_per_class": {
        "airplane": 950.9504433113495,
        "automobile": 1103.4526419703463,
        "bird": 1329.0913419167669,
        "cat": 1093.8262351902986,
        "deer": 1526.1936517562838,
        "dog": 1151.687864934573,
        "frog": 1719.0545761129533,
        "horse": 1297.1890377993045,
        "ship": 949.1217859137712,
        "truck": 1073.4991043825692
    },
    "fid": 802.6597107846155,
    "wasserstein_distance": null,
    "g_loss": null,
    "g_cost": null,
    "d_loss_real": null,
    "d_loss_fake": null
}