{
    "epoch": 76,
    "avg_current_window": 1207.5089452368761,
    "avg_prior_window": 1242.3490869273633,
    "inception_score_mean": 1.9744409064711053,
    "inception_score_std": 0.1596357630220613,
    "fid_per_class": {
        "airplane": 961.6293561896414,
        "automobile": 1142.2655524814147,
        "bird": 1354.0081231190106,
        "cat": 1131.1007083718384,
        "deer": 1553.4264727987195,
        "dog": 1108.4002010303743,
        "frog": 1986.5155696076629,
        "horse": 1424.546066733002,
        "ship": 983.6190442933673,
        "truck": 1001.5295895258951
    },
    "fid": 857.6592794835719,
    "wasserstein_distance": null,
    "g_loss": null,
    "g_cost": null,
    "d_loss_real": null,
    "d_loss_fake": null
}