{
    "epoch": 152,
    "avg_current_window": 1019.2379111731755,
    "avg_prior_window": 1031.8844859736646,
    "inception_score_mean": 2.1068559904697657,
    "inception_score_std": 0.1273869978302492,
    "fid_per_class": {
        "airplane": 923.6941801799187,
        "automobile": 1112.1273475257806,
        "bird": 1311.8611133048057,
        "cat": 1075.863498316469,
        "deer": 1466.561643766648,
        "dog": 1105.2367166628278,
        "frog": 1798.3674366170753,
        "horse": 1329.5997911191953,
        "ship": 952.5848610699543,
        "truck": 1062.1258103910595
    },
    "fid": 803.7458440870274,
    "wasserstein_distance": null,
    "g_loss": null,
    "g_cost": null,
    "d_loss_real": null,
    "d_loss_fake": null
}