{
    "epoch": 127,
    "avg_current_window": 1060.6623540397823,
    "avg_prior_window": 1077.3447216071522,
    "inception_score_mean": 2.047167061078542,
    "inception_score_std": 0.10202391124997852,
    "fid_per_class": {
        "airplane": 940.3320872307644,
        "automobile": 1099.068213792905,
        "bird": 1287.2423273921117,
        "cat": 1019.9243700197729,
        "deer": 1431.3594265265087,
        "dog": 1030.1404236766812,
        "frog": 1687.1251762456736,
        "horse": 1242.627586333049,
        "ship": 875.7228828162285,
        "truck": 975.6857889372106
    },
    "fid": 752.5973536206977,
    "wasserstein_distance": null,
    "g_loss": null,
    "g_cost": null,
    "d_loss_real": null,
    "d_loss_fake": null
}