{
    "epoch": 130,
    "avg_current_window": 1054.633879917448,
    "avg_prior_window": 1070.8313552943162,
    "inception_score_mean": 2.050652397301611,
    "inception_score_std": 0.14152498355451282,
    "fid_per_class": {
        "airplane": 912.5489426095758,
        "automobile": 1107.7370640091258,
        "bird": 1352.658914817521,
        "cat": 1094.8749878763397,
        "deer": 1486.184119027168,
        "dog": 1131.7714445125741,
        "frog": 1786.6838278195833,
        "horse": 1229.388603440876,
        "ship": 896.5174565151967,
        "truck": 1022.9811598585983
    },
    "fid": 805.7790872899619,
    "wasserstein_distance": null,
    "g_loss": null,
    "g_cost": null,
    "d_loss_real": null,
    "d_loss_fake": null
}