{
    "epoch": 110,
    "avg_current_window": 1097.3263148499282,
    "avg_prior_window": 1118.4888456501885,
    "inception_score_mean": 1.918633009058551,
    "inception_score_std": 0.11459008936652952,
    "fid_per_class": {
        "airplane": 1001.8171253843395,
        "automobile": 1126.3240842351693,
        "bird": 1373.3451325099022,
        "cat": 1117.126714804041,
        "deer": 1592.9215360585426,
        "dog": 1085.6548107004974,
        "frog": 1817.0785056005154,
        "horse": 1397.0129731664997,
        "ship": 941.8631925225044,
        "truck": 1058.3580587853903
    },
    "fid": 846.8116013392367,
    "wasserstein_distance": null,
    "g_loss": null,
    "g_cost": null,
    "d_loss_real": null,
    "d_loss_fake": null
}