{
    "epoch": 116,
    "avg_current_window": 1084.1622446527092,
    "avg_prior_window": 1102.9072453024883,
    "inception_score_mean": 1.9844165717619056,
    "inception_score_std": 0.14766953714809794,
    "fid_per_class": {
        "airplane": 948.6962810978271,
        "automobile": 1074.4105061446207,
        "bird": 1377.686867966063,
        "cat": 1054.823770645024,
        "deer": 1527.5332102142881,
        "dog": 1028.3030083858907,
        "frog": 1745.8807120759727,
        "horse": 1305.751301639149,
        "ship": 976.7273191761092,
        "truck": 1025.9493769331455
    },
    "fid": 803.9423383087936,
    "wasserstein_distance": null,
    "g_loss": null,
    "g_cost": null,
    "d_loss_real": null,
    "d_loss_fake": null
}