{
    "epoch": 133,
    "avg_current_window": 1049.0592094824979,
    "avg_prior_window": 1065.075517487143,
    "inception_score_mean": 1.9788574817266948,
    "inception_score_std": 0.13382787279519515,
    "fid_per_class": {
        "airplane": 903.9509320302313,
        "automobile": 1162.155352714275,
        "bird": 1348.9379187587012,
        "cat": 1166.0949077796151,
        "deer": 1528.1082368290452,
        "dog": 1188.6717371418927,
        "frog": 1784.9894439269594,
        "horse": 1314.7089311227462,
        "ship": 932.567762183343,
        "truck": 997.2661370869595
    },
    "fid": 829.4895061828602,
    "wasserstein_distance": null,
    "g_loss": null,
    "g_cost": null,
    "d_loss_real": null,
    "d_loss_fake": null
}