{
    "epoch": 49,
    "avg_current_window": 1358.702528261863,
    "avg_prior_window": 1420.8291300519961,
    "inception_score_mean": 1.8656092647141047,
    "inception_score_std": 0.10056015712305852,
    "fid_per_class": {
        "airplane": 1019.0725556313998,
        "automobile": 1250.8954646030747,
        "bird": 1537.517280975721,
        "cat": 1257.5290771318582,
        "deer": 1691.663869277736,
        "dog": 1506.802113884958,
        "frog": 1992.8695199215267,
        "horse": 1616.196642123119,
        "ship": 1040.0218973466663,
        "truck": 1079.3565722269207
    },
    "fid": 1035.712035758287,
    "wasserstein_distance": null,
    "g_loss": null,
    "g_cost": null,
    "d_loss_real": null,
    "d_loss_fake": null
}