{
    "epoch": 160,
    "avg_current_window": 693.128946072661,
    "avg_prior_window": 699.2137488238675,
    "inception_score_mean": 2.048929182446769,
    "inception_score_std": 0.13645007227827555,
    "fid_per_class": {
        "airplane": 803.9230764980412,
        "automobile": 988.1418296852505,
        "bird": 1242.3495392499733,
        "cat": 953.0708665382826,
        "deer": 1240.581481604306,
        "dog": 882.9150740617008,
        "frog": 1195.242644346677,
        "horse": 1124.4324039086707,
        "ship": 816.8167208364076,
        "truck": 1005.6149821064685
    },
    "fid": 629.1462494246462,
    "wasserstein_distance": null,
    "g_loss": null,
    "g_cost": null,
    "d_loss_real": null,
    "d_loss_fake": null
}