{
    "epoch": 168,
    "avg_current_window": 690.8128369467768,
    "avg_prior_window": 696.5403035128531,
    "inception_score_mean": 1.9707215521140646,
    "inception_score_std": 0.12076448558953196,
    "fid_per_class": {
        "airplane": 808.7373010582056,
        "automobile": 1003.8975315324907,
        "bird": 1216.667673290692,
        "cat": 888.1389724032407,
        "deer": 1187.7990528692349,
        "dog": 853.7622068076332,
        "frog": 1086.666289850339,
        "horse": 1011.4371845433786,
        "ship": 895.5270732931635,
        "truck": 964.7731018925888
    },
    "fid": 596.2928139854384,
    "wasserstein_distance": null,
    "g_loss": null,
    "g_cost": null,
    "d_loss_real": null,
    "d_loss_fake": null
}