{
    "epoch": 163,
    "avg_current_window": 692.3045810058692,
    "avg_prior_window": 698.1417785505208,
    "inception_score_mean": 1.9407845410827356,
    "inception_score_std": 0.11541819917971496,
    "fid_per_class": {
        "airplane": 777.578893987844,
        "automobile": 1049.7790956284239,
        "bird": 1253.793983788389,
        "cat": 1003.0888151909502,
        "deer": 1288.7433557525037,
        "dog": 916.9930291848324,
        "frog": 1397.6908437499178,
        "horse": 1160.2305304601769,
        "ship": 864.5679935431891,
        "truck": 1056.9677755778644
    },
    "fid": 690.4227686383778,
    "wasserstein_distance": null,
    "g_loss": null,
    "g_cost": null,
    "d_loss_real": null,
    "d_loss_fake": null
}