{
    "epoch": 4,
    "avg_current_window": 1313.954084133812,
    "avg_prior_window": 1790.6164619978892,
    "inception_score_mean": 1.255719968274308,
    "inception_score_std": 0.03171070701739991,
    "fid_per_class": {
        "airplane": 2347.755682502904,
        "automobile": 2186.840807672176,
        "bird": 1716.4419705170812,
        "cat": 2023.2493459403404,
        "deer": 2099.5324398222447,
        "dog": 2111.2150202033245,
        "frog": 1756.0825687362774,
        "horse": 2157.7572043371933,
        "ship": 2230.491536015462,
        "truck": 2114.2315471355423
    },
    "fid": 1781.4797285925576,
    "wasserstein_distance": null,
    "g_loss": null,
    "g_cost": null,
    "d_loss_real": null,
    "d_loss_fake": null
}