{
    "epoch": 112,
    "avg_current_window": 721.3959469722713,
    "avg_prior_window": 732.05470942302,
    "inception_score_mean": 1.9779380725330569,
    "inception_score_std": 0.06639103286280515,
    "fid_per_class": {
        "airplane": 803.8869719147349,
        "automobile": 1042.3801581836638,
        "bird": 1194.134888498309,
        "cat": 850.9628809007181,
        "deer": 1148.4027813479406,
        "dog": 818.6583040157059,
        "frog": 1140.7420038827036,
        "horse": 989.5590473032617,
        "ship": 883.827417380476,
        "truck": 1038.5147758764292
    },
    "fid": 590.3543250307823,
    "wasserstein_distance": null,
    "g_loss": null,
    "g_cost": null,
    "d_loss_real": null,
    "d_loss_fake": null
}