{
    "epoch": 58,
    "avg_current_window": 793.5838096760499,
    "avg_prior_window": 820.108947185446,
    "inception_score_mean": 1.8731671420102742,
    "inception_score_std": 0.1684378468973245,
    "fid_per_class": {
        "airplane": 883.6483588160097,
        "automobile": 1055.7031177461959,
        "bird": 1207.307340923731,
        "cat": 890.8234182711532,
        "deer": 1186.0240399172835,
        "dog": 824.4252325811399,
        "frog": 1191.1298585722932,
        "horse": 1030.2302184609114,
        "ship": 841.3454235986808,
        "truck": 1083.338235457114
    },
    "fid": 612.141200824662,
    "wasserstein_distance": null,
    "g_loss": null,
    "g_cost": null,
    "d_loss_real": null,
    "d_loss_fake": null
}