{
    "epoch": 150,
    "avg_current_window": 697.8965236874722,
    "avg_prior_window": 704.9811841914981,
    "inception_score_mean": 1.998309059698154,
    "inception_score_std": 0.05510163313056437,
    "fid_per_class": {
        "airplane": 792.1139869064705,
        "automobile": 1089.687817344845,
        "bird": 1239.9503990723974,
        "cat": 983.124573718284,
        "deer": 1222.914268112448,
        "dog": 895.4814925402934,
        "frog": 1253.0046377761291,
        "horse": 1159.5267733388575,
        "ship": 855.2106832688853,
        "truck": 1053.4630363901833
    },
    "fid": 656.8978788190625,
    "wasserstein_distance": null,
    "g_loss": null,
    "g_cost": null,
    "d_loss_real": null,
    "d_loss_fake": null
}