{
    "epoch": 123,
    "avg_current_window": 712.7198737141694,
    "avg_prior_window": 722.238245018737,
    "inception_score_mean": 1.997801330652361,
    "inception_score_std": 0.1566201069615063,
    "fid_per_class": {
        "airplane": 823.332429487052,
        "automobile": 979.6293669284388,
        "bird": 1258.6096843688315,
        "cat": 885.8884100423953,
        "deer": 1156.7858053065743,
        "dog": 842.1563874516394,
        "frog": 1209.5438994212875,
        "horse": 1090.3291975542015,
        "ship": 821.7588167676879,
        "truck": 995.418344934294
    },
    "fid": 620.7368121445447,
    "wasserstein_distance": null,
    "g_loss": null,
    "g_cost": null,
    "d_loss_real": null,
    "d_loss_fake": null
}