{
    "epoch": 113,
    "avg_current_window": 720.2362866011077,
    "avg_prior_window": 730.9095496292209,
    "inception_score_mean": 1.9579903693186718,
    "inception_score_std": 0.1410306967137878,
    "fid_per_class": {
        "airplane": 827.7453230659831,
        "automobile": 1014.8425714713094,
        "bird": 1240.4413842889317,
        "cat": 909.5647389420437,
        "deer": 1291.6752473333947,
        "dog": 885.9928759852492,
        "frog": 1337.795275449656,
        "horse": 1186.8909932803303,
        "ship": 839.3163540646251,
        "truck": 982.642220912047
    },
    "fid": 656.9244398326916,
    "wasserstein_distance": null,
    "g_loss": null,
    "g_cost": null,
    "d_loss_real": null,
    "d_loss_fake": null
}