{
    "epoch": 40,
    "avg_current_window": 858.8844462771428,
    "avg_prior_window": 906.0544040188755,
    "inception_score_mean": 1.9259125492605715,
    "inception_score_std": 0.1863904287907815,
    "fid_per_class": {
        "airplane": 843.3380783014468,
        "automobile": 1045.6727334599661,
        "bird": 1116.4407102182286,
        "cat": 873.1929896920149,
        "deer": 1126.3590486979494,
        "dog": 871.6855685276965,
        "frog": 1180.1910971534664,
        "horse": 1058.0472148025947,
        "ship": 837.6984128649003,
        "truck": 1089.6907543362056
    },
    "fid": 584.6686990138564,
    "wasserstein_distance": null,
    "g_loss": null,
    "g_cost": null,
    "d_loss_real": null,
    "d_loss_fake": null
}