{
    "epoch": 159,
    "avg_current_window": 693.7509497546057,
    "avg_prior_window": 699.9104427489242,
    "inception_score_mean": 2.00038246221368,
    "inception_score_std": 0.0993280969502804,
    "fid_per_class": {
        "airplane": 788.9643945771229,
        "automobile": 991.5102973598096,
        "bird": 1259.6752411236014,
        "cat": 890.0467228912341,
        "deer": 1204.887935708068,
        "dog": 880.3506583077371,
        "frog": 1158.9176509414817,
        "horse": 1031.5589125521947,
        "ship": 807.9768228218976,
        "truck": 992.9241168381504
    },
    "fid": 594.2303606434782,
    "wasserstein_distance": null,
    "g_loss": null,
    "g_cost": null,
    "d_loss_real": null,
    "d_loss_fake": null
}