{
    "epoch": 166,
    "avg_current_window": 691.6814152708794,
    "avg_prior_window": 696.7603170246736,
    "inception_score_mean": 1.9711677307131925,
    "inception_score_std": 0.13805644252848912,
    "fid_per_class": {
        "airplane": 798.8509669163417,
        "automobile": 1029.355904831323,
        "bird": 1227.3096175238065,
        "cat": 879.1881430118175,
        "deer": 1199.9540059110288,
        "dog": 839.6195986808314,
        "frog": 1239.0633556067244,
        "horse": 1043.0073518981956,
        "ship": 778.3526879210713,
        "truck": 981.9202012714204
    },
    "fid": 607.5603295244654,
    "wasserstein_distance": null,
    "g_loss": null,
    "g_cost": null,
    "d_loss_real": null,
    "d_loss_fake": null
}