{
    "epoch": 183,
    "avg_current_window": 684.4959566712794,
    "avg_prior_window": 690.1496004191932,
    "inception_score_mean": 1.9927951304351823,
    "inception_score_std": 0.12534206917915666,
    "fid_per_class": {
        "airplane": 742.0832916426328,
        "automobile": 1066.4732467891,
        "bird": 1202.8297731008333,
        "cat": 900.0635545643931,
        "deer": 1199.7416522537728,
        "dog": 910.896188747724,
        "frog": 1211.4369722901301,
        "horse": 1027.6800840833343,
        "ship": 877.2706980774669,
        "truck": 1047.1306796584438
    },
    "fid": 621.3521907912516,
    "wasserstein_distance": null,
    "g_loss": null,
    "g_cost": null,
    "d_loss_real": null,
    "d_loss_fake": null
}