{
    "epoch": 89,
    "avg_current_window": 742.8719059210063,
    "avg_prior_window": 756.9632310286913,
    "inception_score_mean": 1.9781972058978763,
    "inception_score_std": 0.1361114728484358,
    "fid_per_class": {
        "airplane": 823.1683140482312,
        "automobile": 1034.1961655977962,
        "bird": 1343.3526938112777,
        "cat": 912.2197918634894,
        "deer": 1319.9184394209624,
        "dog": 894.991047267023,
        "frog": 1304.9866325644866,
        "horse": 1019.4101041628444,
        "ship": 821.6803655472391,
        "truck": 1131.1733545717273
    },
    "fid": 668.1019080780865,
    "wasserstein_distance": null,
    "g_loss": null,
    "g_cost": null,
    "d_loss_real": null,
    "d_loss_fake": null
}