{
    "epoch": 69,
    "avg_current_window": 771.6044633041421,
    "avg_prior_window": 791.668428965891,
    "inception_score_mean": 1.890239987683141,
    "inception_score_std": 0.1323705218751995,
    "fid_per_class": {
        "airplane": 914.819822090179,
        "automobile": 1088.145625126154,
        "bird": 1287.143433467929,
        "cat": 941.5641616821742,
        "deer": 1277.817394406056,
        "dog": 902.6278926794045,
        "frog": 1349.0944595388187,
        "horse": 1198.6892106332512,
        "ship": 883.4246377289298,
        "truck": 1045.3764003322194
    },
    "fid": 700.3990172021814,
    "wasserstein_distance": null,
    "g_loss": null,
    "g_cost": null,
    "d_loss_real": null,
    "d_loss_fake": null
}