{
    "epoch": 30,
    "avg_current_window": 919.8525142758992,
    "avg_prior_window": 995.7360159303437,
    "inception_score_mean": 1.799747272066158,
    "inception_score_std": 0.12283104032349672,
    "fid_per_class": {
        "airplane": 878.8815828665731,
        "automobile": 1178.2702851479728,
        "bird": 1223.7662499299977,
        "cat": 900.4241894062999,
        "deer": 1306.7475760334144,
        "dog": 834.4933060630826,
        "frog": 1291.6004915804642,
        "horse": 1209.0204475248984,
        "ship": 909.3255354681465,
        "truck": 1147.4660883425272
    },
    "fid": 703.924385243603,
    "wasserstein_distance": null,
    "g_loss": null,
    "g_cost": null,
    "d_loss_real": null,
    "d_loss_fake": null
}