{
    "epoch": 101,
    "avg_current_window": 732.381835444803,
    "avg_prior_window": 741.7039691436049,
    "inception_score_mean": 1.9610969070841715,
    "inception_score_std": 0.15380453111638004,
    "fid_per_class": {
        "airplane": 835.2439599893942,
        "automobile": 1017.7879253362065,
        "bird": 1251.46767985758,
        "cat": 902.3578541511669,
        "deer": 1226.2828481907052,
        "dog": 918.8404145846106,
        "frog": 1267.1115138489854,
        "horse": 1071.3290538717974,
        "ship": 869.6078950515796,
        "truck": 975.4893425498087
    },
    "fid": 634.346641913,
    "wasserstein_distance": null,
    "g_loss": null,
    "g_cost": null,
    "d_loss_real": null,
    "d_loss_fake": null
}