{
    "epoch": 144,
    "avg_current_window": 701.7722584689415,
    "avg_prior_window": 709.4030518737713,
    "inception_score_mean": 2.0173665432700068,
    "inception_score_std": 0.1412094516676357,
    "fid_per_class": {
        "airplane": 828.3184382249859,
        "automobile": 1049.694634846754,
        "bird": 1231.965179155782,
        "cat": 835.1663032048443,
        "deer": 1050.1788751174836,
        "dog": 854.3381118794248,
        "frog": 1154.9607049915812,
        "horse": 1011.5308408144363,
        "ship": 806.1685819098705,
        "truck": 964.5864193632209
    },
    "fid": 576.4624401842223,
    "wasserstein_distance": null,
    "g_loss": null,
    "g_cost": null,
    "d_loss_real": null,
    "d_loss_fake": null
}