{
    "epoch": 60,
    "avg_current_window": 789.2986192629039,
    "avg_prior_window": 812.8797634021215,
    "inception_score_mean": 1.912921273536504,
    "inception_score_std": 0.13557488641401522,
    "fid_per_class": {
        "airplane": 924.5354018936782,
        "automobile": 1052.3884264511173,
        "bird": 1296.9366950772255,
        "cat": 989.4097409709613,
        "deer": 1373.4646693355446,
        "dog": 972.5307033833687,
        "frog": 1383.2109375628788,
        "horse": 1286.99054066655,
        "ship": 844.3419887726423,
        "truck": 1043.7547231154551
    },
    "fid": 730.0257151934422,
    "wasserstein_distance": null,
    "g_loss": null,
    "g_cost": null,
    "d_loss_real": null,
    "d_loss_fake": null
}