{
    "epoch": 136,
    "avg_current_window": 706.0419849227936,
    "avg_prior_window": 713.4720460713629,
    "inception_score_mean": 1.9609234031820244,
    "inception_score_std": 0.11883445721675709,
    "fid_per_class": {
        "airplane": 835.0589441753209,
        "automobile": 1056.8504420912095,
        "bird": 1288.4208503718878,
        "cat": 919.52567229736,
        "deer": 1165.1586442138823,
        "dog": 832.4215203949411,
        "frog": 1253.3821593540088,
        "horse": 1098.3032135744988,
        "ship": 839.6424711558002,
        "truck": 1035.1861955322406
    },
    "fid": 642.6178062531205,
    "wasserstein_distance": null,
    "g_loss": null,
    "g_cost": null,
    "d_loss_real": null,
    "d_loss_fake": null
}