{
    "epoch": 189,
    "avg_current_window": 683.1457997235067,
    "avg_prior_window": 687.8912837247126,
    "inception_score_mean": 1.9818087158405564,
    "inception_score_std": 0.10727661408605443,
    "fid_per_class": {
        "airplane": 838.459874271927,
        "automobile": 1061.6544877446909,
        "bird": 1231.4115436529999,
        "cat": 882.1509965066957,
        "deer": 1162.3968017844788,
        "dog": 914.5696148277441,
        "frog": 1153.414404577039,
        "horse": 1023.6021539056037,
        "ship": 814.5436420427322,
        "truck": 1083.6089033319727
    },
    "fid": 619.4004611800187,
    "wasserstein_distance": null,
    "g_loss": null,
    "g_cost": null,
    "d_loss_real": null,
    "d_loss_fake": null
}