{
    "epoch": 172,
    "avg_current_window": 688.740752734785,
    "avg_prior_window": 694.9494407608292,
    "inception_score_mean": 1.9253112945890478,
    "inception_score_std": 0.10284449141166219,
    "fid_per_class": {
        "airplane": 863.435294364684,
        "automobile": 1055.7361551317197,
        "bird": 1158.0710756135302,
        "cat": 925.3537754580526,
        "deer": 1134.303740042492,
        "dog": 883.1194564381901,
        "frog": 1192.6947067031974,
        "horse": 1036.2129908238899,
        "ship": 840.9844429487977,
        "truck": 963.9632932334193
    },
    "fid": 615.2216728936437,
    "wasserstein_distance": null,
    "g_loss": null,
    "g_cost": null,
    "d_loss_real": null,
    "d_loss_fake": null
}