{
    "epoch": 61,
    "avg_current_window": 788.3269323109456,
    "avg_prior_window": 809.7440573987504,
    "inception_score_mean": 1.8989723631014648,
    "inception_score_std": 0.12217005729071259,
    "fid_per_class": {
        "airplane": 843.8345540032876,
        "automobile": 1111.40577639581,
        "bird": 1244.6046729461923,
        "cat": 959.0210744429094,
        "deer": 1303.2207322703507,
        "dog": 877.5180093047253,
        "frog": 1310.4475258267505,
        "horse": 1115.9026306466008,
        "ship": 854.6989088875573,
        "truck": 1092.9286913180283
    },
    "fid": 669.2880644287474,
    "wasserstein_distance": null,
    "g_loss": null,
    "g_cost": null,
    "d_loss_real": null,
    "d_loss_fake": null
}