{
    "epoch": 158,
    "avg_current_window": 694.214843902418,
    "avg_prior_window": 700.6139039310627,
    "inception_score_mean": 1.9705151296308958,
    "inception_score_std": 0.09344666778924896,
    "fid_per_class": {
        "airplane": 746.0292225683547,
        "automobile": 1071.069400745944,
        "bird": 1176.5554810954436,
        "cat": 950.041774180996,
        "deer": 1170.8870713422336,
        "dog": 861.585886400673,
        "frog": 1205.3111007948285,
        "horse": 1105.5896070197266,
        "ship": 835.8710494137197,
        "truck": 1043.5318741281872
    },
    "fid": 620.4556744002462,
    "wasserstein_distance": null,
    "g_loss": null,
    "g_cost": null,
    "d_loss_real": null,
    "d_loss_fake": null
}