{
    "epoch": 33,
    "avg_current_window": 899.0796580699365,
    "avg_prior_window": 961.0641923398481,
    "inception_score_mean": 1.8552450710024242,
    "inception_score_std": 0.132896916837274,
    "fid_per_class": {
        "airplane": 793.1533987680845,
        "automobile": 1060.4623443194491,
        "bird": 1189.6785938824696,
        "cat": 1018.1487566197079,
        "deer": 1263.2165439984879,
        "dog": 992.0714463446725,
        "frog": 1277.5450052542458,
        "horse": 1169.607525136798,
        "ship": 841.7999397798692,
        "truck": 1030.5026666992549
    },
    "fid": 682.0525037398626,
    "wasserstein_distance": null,
    "g_loss": null,
    "g_cost": null,
    "d_loss_real": null,
    "d_loss_fake": null
}