{
    "epoch": 169,
    "avg_current_window": 690.2535468700823,
    "avg_prior_window": 696.2451186856957,
    "inception_score_mean": 2.0405959202326165,
    "inception_score_std": 0.18793130649259035,
    "fid_per_class": {
        "airplane": 833.290969843629,
        "automobile": 1072.7606668256233,
        "bird": 1165.1715653691135,
        "cat": 818.6994451843636,
        "deer": 1185.615960536001,
        "dog": 835.6827678984915,
        "frog": 1125.4281102229763,
        "horse": 982.2264080805353,
        "ship": 813.2918885733209,
        "truck": 967.2062699617984
    },
    "fid": 577.8693264363318,
    "wasserstein_distance": null,
    "g_loss": null,
    "g_cost": null,
    "d_loss_real": null,
    "d_loss_fake": null
}