{
    "epoch": 191,
    "avg_current_window": 682.5596397045907,
    "avg_prior_window": 687.1548014543572,
    "inception_score_mean": 1.9865699438454576,
    "inception_score_std": 0.13885641628451778,
    "fid_per_class": {
        "airplane": 813.8511952513443,
        "automobile": 1075.3314062641675,
        "bird": 1255.879715082529,
        "cat": 940.1646608727632,
        "deer": 1210.9483824814654,
        "dog": 856.6445942942411,
        "frog": 1207.751824084341,
        "horse": 1046.7615182268653,
        "ship": 842.8143293319085,
        "truck": 996.5599523900718
    },
    "fid": 632.7820997912577,
    "wasserstein_distance": null,
    "g_loss": null,
    "g_cost": null,
    "d_loss_real": null,
    "d_loss_fake": null
}