{
    "epoch": 70,
    "avg_current_window": 770.5872426455427,
    "avg_prior_window": 788.9164468645374,
    "inception_score_mean": 1.985353308853621,
    "inception_score_std": 0.1838154372935308,
    "fid_per_class": {
        "airplane": 867.0040760452534,
        "automobile": 1058.6668068628846,
        "bird": 1266.4340287878622,
        "cat": 928.5175467861814,
        "deer": 1219.4849642963559,
        "dog": 840.1776228111012,
        "frog": 1271.208057559909,
        "horse": 1113.0578481349737,
        "ship": 849.044153115115,
        "truck": 1092.3194432523155
    },
    "fid": 647.3433794724438,
    "wasserstein_distance": null,
    "g_loss": null,
    "g_cost": null,
    "d_loss_real": null,
    "d_loss_fake": null
}