{
    "epoch": 53,
    "avg_current_window": 808.949716346801,
    "avg_prior_window": 839.2606942740416,
    "inception_score_mean": 1.9789052920192494,
    "inception_score_std": 0.12453939606902724,
    "fid_per_class": {
        "airplane": 795.9767112250038,
        "automobile": 1012.0800669703461,
        "bird": 1206.0223314762918,
        "cat": 856.2530019732133,
        "deer": 1187.0128902610627,
        "dog": 816.1073693939528,
        "frog": 1179.681219308494,
        "horse": 1039.6450897040454,
        "ship": 771.6736169331974,
        "truck": 1048.0368839806122
    },
    "fid": 591.4392344481794,
    "wasserstein_distance": null,
    "g_loss": null,
    "g_cost": null,
    "d_loss_real": null,
    "d_loss_fake": null
}