{
    "epoch": 119,
    "avg_current_window": 716.1690160689997,
    "avg_prior_window": 724.9730533799897,
    "inception_score_mean": 1.9524518821953305,
    "inception_score_std": 0.05722683142459206,
    "fid_per_class": {
        "airplane": 792.481413762252,
        "automobile": 1067.722895506859,
        "bird": 1211.302552194373,
        "cat": 848.0751888352181,
        "deer": 1210.3973220460728,
        "dog": 841.5061155958197,
        "frog": 1165.0875809092165,
        "horse": 1059.335291671315,
        "ship": 910.5429202337798,
        "truck": 1048.1073707263113
    },
    "fid": 605.7392533055073,
    "wasserstein_distance": null,
    "g_loss": null,
    "g_cost": null,
    "d_loss_real": null,
    "d_loss_fake": null
}