{
    "epoch": 96,
    "avg_current_window": 735.5176499042751,
    "avg_prior_window": 748.041656329885,
    "inception_score_mean": 1.965847961521184,
    "inception_score_std": 0.18597446789627883,
    "fid_per_class": {
        "airplane": 783.3960988414983,
        "automobile": 956.3452236151815,
        "bird": 1288.5553190586172,
        "cat": 872.0959058106281,
        "deer": 1216.6712062535664,
        "dog": 853.6526324587421,
        "frog": 1190.0717551408493,
        "horse": 1064.0753348027915,
        "ship": 857.1058297917015,
        "truck": 933.103309431028
    },
    "fid": 593.8866469756646,
    "wasserstein_distance": null,
    "g_loss": null,
    "g_cost": null,
    "d_loss_real": null,
    "d_loss_fake": null
}