{
    "epoch": 104,
    "avg_current_window": 728.8463087421353,
    "avg_prior_window": 740.2948858180266,
    "inception_score_mean": 2.0390453604553143,
    "inception_score_std": 0.12234550235655156,
    "fid_per_class": {
        "airplane": 814.8672955709379,
        "automobile": 1045.526527439802,
        "bird": 1253.7695691160961,
        "cat": 924.5262438948582,
        "deer": 1193.5496570608898,
        "dog": 887.2793014017813,
        "frog": 1302.4113857246543,
        "horse": 1079.7656221323818,
        "ship": 830.8229597499857,
        "truck": 1028.7097494507525
    },
    "fid": 640.3649354661356,
    "wasserstein_distance": null,
    "g_loss": null,
    "g_cost": null,
    "d_loss_real": null,
    "d_loss_fake": null
}