{
    "epoch": 190,
    "avg_current_window": 682.8102979416989,
    "avg_prior_window": 687.3378688340064,
    "inception_score_mean": 1.925136884199207,
    "inception_score_std": 0.064651021781933,
    "fid_per_class": {
        "airplane": 828.5378710735304,
        "automobile": 1072.0970557182238,
        "bird": 1239.9007835606394,
        "cat": 932.6787689362216,
        "deer": 1150.3074901387915,
        "dog": 910.2487431187001,
        "frog": 1200.6932035056918,
        "horse": 1017.3667729318923,
        "ship": 869.6609615234846,
        "truck": 1023.2153395750786
    },
    "fid": 634.9345746540414,
    "wasserstein_distance": null,
    "g_loss": null,
    "g_cost": null,
    "d_loss_real": null,
    "d_loss_fake": null
}