{
    "epoch": 23,
    "avg_current_window": 987.1111520196168,
    "avg_prior_window": 1098.357293169291,
    "inception_score_mean": 1.7168423403470652,
    "inception_score_std": 0.13578680028345805,
    "fid_per_class": {
        "airplane": 908.9700142170732,
        "automobile": 1219.4844668303672,
        "bird": 1353.2587741903494,
        "cat": 1033.5280011201608,
        "deer": 1333.5653197487065,
        "dog": 1010.1822011672818,
        "frog": 1378.5167392550088,
        "horse": 1308.2293385966675,
        "ship": 888.5545515724419,
        "truck": 1097.5228324562631
    },
    "fid": 795.2854113580593,
    "wasserstein_distance": null,
    "g_loss": null,
    "g_cost": null,
    "d_loss_real": null,
    "d_loss_fake": null
}