{
    "epoch": 63,
    "avg_current_window": 784.1090503809552,
    "avg_prior_window": 804.1379683109578,
    "inception_score_mean": 1.8941344860518439,
    "inception_score_std": 0.18323659371377296,
    "fid_per_class": {
        "airplane": 907.4073410675348,
        "automobile": 1074.0722006341655,
        "bird": 1169.62841273599,
        "cat": 868.5749034698147,
        "deer": 1221.7667719918966,
        "dog": 836.5907041267137,
        "frog": 1247.4722905577596,
        "horse": 1031.8364082918179,
        "ship": 836.8982084204806,
        "truck": 965.9584747731127
    },
    "fid": 610.6478553900664,
    "wasserstein_distance": null,
    "g_loss": null,
    "g_cost": null,
    "d_loss_real": null,
    "d_loss_fake": null
}