{
    "epoch": 68,
    "avg_current_window": 773.7222217726166,
    "avg_prior_window": 793.8018734823848,
    "inception_score_mean": 1.9692192660822916,
    "inception_score_std": 0.1678615749763095,
    "fid_per_class": {
        "airplane": 837.1510010257599,
        "automobile": 1022.5927275124254,
        "bird": 1211.0623712599227,
        "cat": 887.180325429831,
        "deer": 1253.1219983403757,
        "dog": 822.5917607754935,
        "frog": 1246.6066323529992,
        "horse": 1107.8994498351415,
        "ship": 870.6040418768301,
        "truck": 1029.5858854844648
    },
    "fid": 627.5968874478715,
    "wasserstein_distance": null,
    "g_loss": null,
    "g_cost": null,
    "d_loss_real": null,
    "d_loss_fake": null
}