{
    "epoch": 44,
    "avg_current_window": 838.9726842816764,
    "avg_prior_window": 880.9071243868132,
    "inception_score_mean": 1.9301310264705187,
    "inception_score_std": 0.14812941661455226,
    "fid_per_class": {
        "airplane": 788.0188941494002,
        "automobile": 1143.1970726037462,
        "bird": 1302.1786335132992,
        "cat": 966.6135773051001,
        "deer": 1289.1760307622026,
        "dog": 888.4979306041876,
        "frog": 1410.5300010617027,
        "horse": 1144.5582531455302,
        "ship": 869.45297249862,
        "truck": 1085.6891266653547
    },
    "fid": 685.1805845766155,
    "wasserstein_distance": null,
    "g_loss": null,
    "g_cost": null,
    "d_loss_real": null,
    "d_loss_fake": null
}