{
    "epoch": 149,
    "avg_current_window": 698.4546378583962,
    "avg_prior_window": 705.7754698591096,
    "inception_score_mean": 1.9884855276864823,
    "inception_score_std": 0.22689766089467223,
    "fid_per_class": {
        "airplane": 838.8612273129132,
        "automobile": 1051.7723141255228,
        "bird": 1226.7100285107922,
        "cat": 902.8140541376724,
        "deer": 1121.2768059679534,
        "dog": 861.2862749307656,
        "frog": 1227.3528905434664,
        "horse": 1043.1940929084121,
        "ship": 899.9991365371966,
        "truck": 993.1664946162773
    },
    "fid": 614.7375122197789,
    "wasserstein_distance": null,
    "g_loss": null,
    "g_cost": null,
    "d_loss_real": null,
    "d_loss_fake": null
}