{
    "epoch": 18,
    "avg_current_window": 1056.843052209146,
    "avg_prior_window": 1221.727466713686,
    "inception_score_mean": 1.7414854753475115,
    "inception_score_std": 0.09994661414043052,
    "fid_per_class": {
        "airplane": 969.9487275572119,
        "automobile": 1259.9831983263025,
        "bird": 1339.9401498739066,
        "cat": 924.2235510088273,
        "deer": 1311.9317286324824,
        "dog": 931.6253107095732,
        "frog": 1308.541757604643,
        "horse": 1225.7933127042006,
        "ship": 890.658885913207,
        "truck": 1184.9806491543268
    },
    "fid": 747.25633728261,
    "wasserstein_distance": null,
    "g_loss": null,
    "g_cost": null,
    "d_loss_real": null,
    "d_loss_fake": null
}