{
    "epoch": 37,
    "avg_current_window": 875.3219752789969,
    "avg_prior_window": 927.175897384622,
    "inception_score_mean": 1.82527724908871,
    "inception_score_std": 0.12821388192116667,
    "fid_per_class": {
        "airplane": 876.555330978912,
        "automobile": 1160.1217024490734,
        "bird": 1169.048672652556,
        "cat": 930.1323973826907,
        "deer": 1158.8937950584489,
        "dog": 860.9983820568686,
        "frog": 1209.9774202329274,
        "horse": 1165.6994614616028,
        "ship": 876.535167442675,
        "truck": 1140.4335401194808
    },
    "fid": 661.9856277693983,
    "wasserstein_distance": null,
    "g_loss": null,
    "g_cost": null,
    "d_loss_real": null,
    "d_loss_fake": null
}