{
    "epoch": 42,
    "avg_current_window": 846.8212828203826,
    "avg_prior_window": 893.2134787322238,
    "inception_score_mean": 1.9169129926614645,
    "inception_score_std": 0.1226918147585051,
    "fid_per_class": {
        "airplane": 894.1417529482055,
        "automobile": 1144.667110319232,
        "bird": 1224.660041304645,
        "cat": 882.919855738308,
        "deer": 1213.2328690675288,
        "dog": 871.5862384826862,
        "frog": 1224.974044877691,
        "horse": 1087.401329345154,
        "ship": 886.2094968867585,
        "truck": 1130.444455352945
    },
    "fid": 644.5926202314088,
    "wasserstein_distance": null,
    "g_loss": null,
    "g_cost": null,
    "d_loss_real": null,
    "d_loss_fake": null
}