{
    "epoch": 124,
    "avg_current_window": 711.9780748305433,
    "avg_prior_window": 721.2592618950963,
    "inception_score_mean": 1.9541117068425913,
    "inception_score_std": 0.1265358525046568,
    "fid_per_class": {
        "airplane": 818.5229382655123,
        "automobile": 1029.6295268402687,
        "bird": 1187.9521128712488,
        "cat": 872.3392129428667,
        "deer": 1126.5428869661878,
        "dog": 893.9113001068156,
        "frog": 1170.1585219232682,
        "horse": 1114.2625633682878,
        "ship": 785.3799006562158,
        "truck": 1018.706724454972
    },
    "fid": 603.6734240788147,
    "wasserstein_distance": null,
    "g_loss": null,
    "g_cost": null,
    "d_loss_real": null,
    "d_loss_fake": null
}