{
    "epoch": 174,
    "avg_current_window": 687.9049152341036,
    "avg_prior_window": 693.6728919969246,
    "inception_score_mean": 1.9588457869316283,
    "inception_score_std": 0.0920929986288673,
    "fid_per_class": {
        "airplane": 840.7636852363116,
        "automobile": 1071.1638141314397,
        "bird": 1238.0735211211202,
        "cat": 917.4255759449619,
        "deer": 1075.6522068155714,
        "dog": 842.8135689508217,
        "frog": 1182.511294955062,
        "horse": 1063.6843644013552,
        "ship": 877.5357937288891,
        "truck": 965.8042406379584
    },
    "fid": 611.7150988733694,
    "wasserstein_distance": null,
    "g_loss": null,
    "g_cost": null,
    "d_loss_real": null,
    "d_loss_fake": null
}