{
    "epoch": 111,
    "avg_current_window": 722.5673137852742,
    "avg_prior_window": 733.326758933402,
    "inception_score_mean": 2.0075849952193736,
    "inception_score_std": 0.14522425567958414,
    "fid_per_class": {
        "airplane": 829.6740683658637,
        "automobile": 1009.6305527611898,
        "bird": 1152.8419063000647,
        "cat": 841.1983840006529,
        "deer": 1157.5750861134984,
        "dog": 842.1659795556197,
        "frog": 1197.776674755197,
        "horse": 1015.9982067724754,
        "ship": 827.7938829913305,
        "truck": 967.434924669265
    },
    "fid": 591.3742307289472,
    "wasserstein_distance": null,
    "g_loss": null,
    "g_cost": null,
    "d_loss_real": null,
    "d_loss_fake": null
}