{
    "epoch": 122,
    "avg_current_window": 713.6407082997391,
    "avg_prior_window": 722.7794263154852,
    "inception_score_mean": 2.013980275969946,
    "inception_score_std": 0.11902664570421849,
    "fid_per_class": {
        "airplane": 822.4899482515578,
        "automobile": 1068.597469447636,
        "bird": 1174.512567463314,
        "cat": 857.6613999797496,
        "deer": 1152.1378299919188,
        "dog": 834.0925623351586,
        "frog": 1177.6919897014595,
        "horse": 1011.8612735638267,
        "ship": 890.4318042266129,
        "truck": 1008.0785042346206
    },
    "fid": 600.3780542746497,
    "wasserstein_distance": null,
    "g_loss": null,
    "g_cost": null,
    "d_loss_real": null,
    "d_loss_fake": null
}