{
    "epoch": 25,
    "avg_current_window": 966.7270506795112,
    "avg_prior_window": 1060.7868668592014,
    "inception_score_mean": 1.841391759914691,
    "inception_score_std": 0.1392961692050145,
    "fid_per_class": {
        "airplane": 840.1450471532034,
        "automobile": 1032.0617706360053,
        "bird": 1315.7776300101707,
        "cat": 944.0779927831363,
        "deer": 1343.941542064324,
        "dog": 1003.7430524335305,
        "frog": 1488.9903987383607,
        "horse": 1178.9266770369281,
        "ship": 821.4837072010486,
        "truck": 1037.2088479751872
    },
    "fid": 725.2241312708123,
    "wasserstein_distance": null,
    "g_loss": null,
    "g_cost": null,
    "d_loss_real": null,
    "d_loss_fake": null
}