{
    "epoch": 139,
    "avg_current_window": 704.8102476888007,
    "avg_prior_window": 711.6548472978817,
    "inception_score_mean": 1.9499270218319098,
    "inception_score_std": 0.1394986465750871,
    "fid_per_class": {
        "airplane": 805.6013287645637,
        "automobile": 1032.7585202132934,
        "bird": 1235.191947437032,
        "cat": 895.5417795875805,
        "deer": 1242.9220857742957,
        "dog": 878.1033466746816,
        "frog": 1289.8587214117115,
        "horse": 1130.5578070898305,
        "ship": 830.5529430618544,
        "truck": 1042.6199523374903
    },
    "fid": 638.3997817109249,
    "wasserstein_distance": null,
    "g_loss": null,
    "g_cost": null,
    "d_loss_real": null,
    "d_loss_fake": null
}