{
    "epoch": 62,
    "avg_current_window": 786.4069505709101,
    "avg_prior_window": 807.5063326528227,
    "inception_score_mean": 1.9215973258864583,
    "inception_score_std": 0.17334183890292518,
    "fid_per_class": {
        "airplane": 823.6633330958571,
        "automobile": 1036.9314213436232,
        "bird": 1283.8671503244707,
        "cat": 905.7870462008359,
        "deer": 1214.1727533421636,
        "dog": 832.0744940008076,
        "frog": 1310.1088874362692,
        "horse": 1093.4906759517094,
        "ship": 900.9603297327493,
        "truck": 978.9325156974226
    },
    "fid": 641.6392386037488,
    "wasserstein_distance": null,
    "g_loss": null,
    "g_cost": null,
    "d_loss_real": null,
    "d_loss_fake": null
}