{
    "epoch": 56,
    "avg_current_window": 798.3640533413693,
    "avg_prior_window": 827.600317741255,
    "inception_score_mean": 1.9272890891702539,
    "inception_score_std": 0.12315078022434461,
    "fid_per_class": {
        "airplane": 888.1460588889822,
        "automobile": 1014.4992936859635,
        "bird": 1206.1523527982606,
        "cat": 911.2745080079583,
        "deer": 1263.3355972941886,
        "dog": 856.9879500825741,
        "frog": 1227.63026074475,
        "horse": 1178.6666626934853,
        "ship": 860.9423257165714,
        "truck": 1006.486437497032
    },
    "fid": 637.2802272133436,
    "wasserstein_distance": null,
    "g_loss": null,
    "g_cost": null,
    "d_loss_real": null,
    "d_loss_fake": null
}