{
    "epoch": 84,
    "avg_current_window": 749.3902011606015,
    "avg_prior_window": 763.5895332848747,
    "inception_score_mean": 2.001656792997576,
    "inception_score_std": 0.1752876742279293,
    "fid_per_class": {
        "airplane": 900.1666956420486,
        "automobile": 1087.5602489993034,
        "bird": 1257.4525233387337,
        "cat": 893.2817691605405,
        "deer": 1261.4898099429927,
        "dog": 813.5984939699297,
        "frog": 1240.1022490337505,
        "horse": 1115.2076044499195,
        "ship": 828.6809100079196,
        "truck": 1011.543542819993
    },
    "fid": 636.1345089195534,
    "wasserstein_distance": null,
    "g_loss": null,
    "g_cost": null,
    "d_loss_real": null,
    "d_loss_fake": null
}