{
    "epoch": 197,
    "avg_current_window": 680.2173131559053,
    "avg_prior_window": 685.5105695062811,
    "inception_score_mean": 1.925296529602918,
    "inception_score_std": 0.07650976896105144,
    "fid_per_class": {
        "airplane": 824.8191878398467,
        "automobile": 981.5653268438823,
        "bird": 1251.0574409564415,
        "cat": 893.1296407866573,
        "deer": 1135.8993078141789,
        "dog": 844.3900233000433,
        "frog": 1179.2620120938495,
        "horse": 958.6195104289089,
        "ship": 873.3892860300331,
        "truck": 1011.2885430648332
    },
    "fid": 603.6138071687105,
    "wasserstein_distance": null,
    "g_loss": null,
    "g_cost": null,
    "d_loss_real": null,
    "d_loss_fake": null
}