{
    "epoch": 31,
    "avg_current_window": 912.8870907587285,
    "avg_prior_window": 983.2923686825822,
    "inception_score_mean": 1.7944725848825178,
    "inception_score_std": 0.13035161778080362,
    "fid_per_class": {
        "airplane": 874.7109610793846,
        "automobile": 1152.0139323469919,
        "bird": 1271.5484586611544,
        "cat": 962.9514192047711,
        "deer": 1297.6756676553368,
        "dog": 873.1226356994465,
        "frog": 1419.629471330406,
        "horse": 1153.847867604994,
        "ship": 781.6177566885826,
        "truck": 1121.0845106799204
    },
    "fid": 694.0646783910877,
    "wasserstein_distance": null,
    "g_loss": null,
    "g_cost": null,
    "d_loss_real": null,
    "d_loss_fake": null
}