{
    "epoch": 6,
    "avg_current_window": 1406.1840351395088,
    "avg_prior_window": 3.0,
    "inception_score_mean": 1.3939095944545707,
    "inception_score_std": 0.04980302851888798,
    "fid_per_class": {
        "airplane": 1118.4988530967992,
        "automobile": 1576.0595476944627,
        "bird": 1334.9953736286209,
        "cat": 1303.0622483085458,
        "deer": 1350.7807593376772,
        "dog": 1519.6323497972162,
        "frog": 1632.5974186765661,
        "horse": 1430.1483281273834,
        "ship": 1123.7000046863595,
        "truck": 1607.3875432116022
    },
    "fid": 1098.4178249848349,
    "wasserstein_distance": null,
    "g_loss": null,
    "g_cost": null,
    "d_loss_real": null,
    "d_loss_fake": null
}