{
    "epoch": 192,
    "avg_current_window": 682.3003816842088,
    "avg_prior_window": 687.1249895576374,
    "inception_score_mean": 1.9075663687244826,
    "inception_score_std": 0.1583389381475332,
    "fid_per_class": {
        "airplane": 795.1979205215857,
        "automobile": 1048.9961907187112,
        "bird": 1246.9248754716468,
        "cat": 954.453315276807,
        "deer": 1201.8292639099825,
        "dog": 857.1490875536048,
        "frog": 1212.9756704297424,
        "horse": 1061.1236146783428,
        "ship": 757.3601561583254,
        "truck": 1017.2625697168529
    },
    "fid": 616.3560618378776,
    "wasserstein_distance": null,
    "g_loss": null,
    "g_cost": null,
    "d_loss_real": null,
    "d_loss_fake": null
}