{
    "epoch": 140,
    "avg_current_window": 704.3358872175301,
    "avg_prior_window": 711.2719255518513,
    "inception_score_mean": 1.9838029371533312,
    "inception_score_std": 0.09941769968576698,
    "fid_per_class": {
        "airplane": 831.4542141017721,
        "automobile": 993.2556225820624,
        "bird": 1195.2366747871274,
        "cat": 829.0301279317134,
        "deer": 1009.2538994670801,
        "dog": 877.2950238198548,
        "frog": 1097.4939758313378,
        "horse": 984.733504800066,
        "ship": 836.1285483500922,
        "truck": 937.4650527168751
    },
    "fid": 551.6148336251151,
    "wasserstein_distance": null,
    "g_loss": null,
    "g_cost": null,
    "d_loss_real": null,
    "d_loss_fake": null
}