{
    "epoch": 67,
    "avg_current_window": 775.6559863978839,
    "avg_prior_window": 796.75597054839,
    "inception_score_mean": 1.9274800459721142,
    "inception_score_std": 0.12403256141102442,
    "fid_per_class": {
        "airplane": 883.8238497421183,
        "automobile": 1146.2380565111466,
        "bird": 1253.2277013885528,
        "cat": 882.8802459252543,
        "deer": 1193.559024794314,
        "dog": 796.0670377898455,
        "frog": 1187.0685102681218,
        "horse": 1122.430318819636,
        "ship": 898.5282564590927,
        "truck": 1072.7548379410987
    },
    "fid": 644.1599918797165,
    "wasserstein_distance": null,
    "g_loss": null,
    "g_cost": null,
    "d_loss_real": null,
    "d_loss_fake": null
}