{
    "epoch": 170,
    "avg_current_window": 689.592463220472,
    "avg_prior_window": 695.8734238482787,
    "inception_score_mean": 1.9109667377333337,
    "inception_score_std": 0.11988024154311466,
    "fid_per_class": {
        "airplane": 793.1711122597515,
        "automobile": 1071.5867069293176,
        "bird": 1286.4104055571888,
        "cat": 1001.8917409764088,
        "deer": 1303.916044854319,
        "dog": 918.9436788008608,
        "frog": 1257.6096045035436,
        "horse": 1086.772226882616,
        "ship": 879.0978508844445,
        "truck": 990.0753191247326
    },
    "fid": 668.8280507590496,
    "wasserstein_distance": null,
    "g_loss": null,
    "g_cost": null,
    "d_loss_real": null,
    "d_loss_fake": null
}