{
    "epoch": 176,
    "avg_current_window": 687.0390691330435,
    "avg_prior_window": 692.7684764349884,
    "inception_score_mean": 1.943671007156976,
    "inception_score_std": 0.12300859479934634,
    "fid_per_class": {
        "airplane": 770.5673039249737,
        "automobile": 1089.4731744964465,
        "bird": 1217.234011455951,
        "cat": 919.6920581210738,
        "deer": 1311.6155184394115,
        "dog": 928.3953389388926,
        "frog": 1224.3773527988944,
        "horse": 1128.9477124785471,
        "ship": 860.3370463827578,
        "truck": 999.7300839012814
    },
    "fid": 645.458744119047,
    "wasserstein_distance": null,
    "g_loss": null,
    "g_cost": null,
    "d_loss_real": null,
    "d_loss_fake": null
}