{
    "epoch": 90,
    "avg_current_window": 742.041128167196,
    "avg_prior_window": 755.813577208479,
    "inception_score_mean": 2.0207489514087142,
    "inception_score_std": 0.16433744973687564,
    "fid_per_class": {
        "airplane": 813.3590533570239,
        "automobile": 995.5065699610607,
        "bird": 1277.5703417179266,
        "cat": 900.7217846780966,
        "deer": 1239.0971144622285,
        "dog": 888.5102131775524,
        "frog": 1242.3650565080593,
        "horse": 1134.1223506782258,
        "ship": 839.2953821070516,
        "truck": 971.7934400894165
    },
    "fid": 627.5423322012957,
    "wasserstein_distance": null,
    "g_loss": null,
    "g_cost": null,
    "d_loss_real": null,
    "d_loss_fake": null
}