{
    "epoch": 92,
    "avg_current_window": 739.910768761082,
    "avg_prior_window": 752.9102901349004,
    "inception_score_mean": 1.885440391842981,
    "inception_score_std": 0.16195969805398205,
    "fid_per_class": {
        "airplane": 840.446806092297,
        "automobile": 982.9699825009535,
        "bird": 1214.4145307172273,
        "cat": 891.2033979088676,
        "deer": 1084.085640768682,
        "dog": 851.0315833808161,
        "frog": 1214.5650041211593,
        "horse": 1043.0409317407034,
        "ship": 842.9408040140092,
        "truck": 987.7011816362012
    },
    "fid": 597.4565046779579,
    "wasserstein_distance": null,
    "g_loss": null,
    "g_cost": null,
    "d_loss_real": null,
    "d_loss_fake": null
}