{
    "epoch": 57,
    "avg_current_window": 795.5380213040355,
    "avg_prior_window": 824.5064416611626,
    "inception_score_mean": 1.8799164088616795,
    "inception_score_std": 0.1437306564253213,
    "fid_per_class": {
        "airplane": 854.9992429243497,
        "automobile": 1063.058282395428,
        "bird": 1294.3251022486313,
        "cat": 898.7467620481125,
        "deer": 1347.2941085830894,
        "dog": 867.0151887479243,
        "frog": 1379.6497098257973,
        "horse": 1158.6242397776025,
        "ship": 880.8570165085496,
        "truck": 1031.0566615149105
    },
    "fid": 682.1937468808673,
    "wasserstein_distance": null,
    "g_loss": null,
    "g_cost": null,
    "d_loss_real": null,
    "d_loss_fake": null
}