{
    "epoch": 126,
    "avg_current_window": 710.342360992739,
    "avg_prior_window": 719.5385653931254,
    "inception_score_mean": 1.9792400362236378,
    "inception_score_std": 0.12630612506693262,
    "fid_per_class": {
        "airplane": 799.5440656545959,
        "automobile": 1059.2097683988657,
        "bird": 1293.9004914021875,
        "cat": 950.5804100945454,
        "deer": 1329.0285339898799,
        "dog": 896.3174582301313,
        "frog": 1308.1829070378963,
        "horse": 1158.614480905336,
        "ship": 837.9077093605454,
        "truck": 1033.4567825340857
    },
    "fid": 673.9036305137063,
    "wasserstein_distance": null,
    "g_loss": null,
    "g_cost": null,
    "d_loss_real": null,
    "d_loss_fake": null
}