{
    "epoch": 117,
    "avg_current_window": 716.7108533814799,
    "avg_prior_window": 726.6669677314748,
    "inception_score_mean": 1.9681542620477839,
    "inception_score_std": 0.11261304904644609,
    "fid_per_class": {
        "airplane": 920.6874481783611,
        "automobile": 1061.9207336855357,
        "bird": 1325.8503178669878,
        "cat": 952.0516833293675,
        "deer": 1411.8593979781713,
        "dog": 886.0765517542802,
        "frog": 1354.7592805425363,
        "horse": 1163.826673636582,
        "ship": 952.1851088430791,
        "truck": 1000.0000453254503
    },
    "fid": 710.0230332786125,
    "wasserstein_distance": null,
    "g_loss": null,
    "g_cost": null,
    "d_loss_real": null,
    "d_loss_fake": null
}