{
    "epoch": 153,
    "avg_current_window": 696.7801488186602,
    "avg_prior_window": 703.173925952034,
    "inception_score_mean": 1.9516127099722358,
    "inception_score_std": 0.12336359061350721,
    "fid_per_class": {
        "airplane": 816.5429710896632,
        "automobile": 996.3712032373944,
        "bird": 1195.6600302797328,
        "cat": 898.3819613179928,
        "deer": 1161.2646205217568,
        "dog": 879.0526201134077,
        "frog": 1152.4379630004837,
        "horse": 1086.8555391420907,
        "ship": 783.1215403976088,
        "truck": 931.445028418466
    },
    "fid": 586.5645321975892,
    "wasserstein_distance": null,
    "g_loss": null,
    "g_cost": null,
    "d_loss_real": null,
    "d_loss_fake": null
}