{
    "epoch": 177,
    "avg_current_window": 686.8041520425691,
    "avg_prior_window": 692.3176229260272,
    "inception_score_mean": 1.9709680561137186,
    "inception_score_std": 0.12207559826243669,
    "fid_per_class": {
        "airplane": 860.9747851381525,
        "automobile": 1013.4498583448469,
        "bird": 1286.0164850591818,
        "cat": 929.5108058572553,
        "deer": 1270.3918290592233,
        "dog": 906.7156941400599,
        "frog": 1225.8111968081287,
        "horse": 1125.547288434656,
        "ship": 853.4356402159154,
        "truck": 939.3618795109637
    },
    "fid": 650.4831377966393,
    "wasserstein_distance": null,
    "g_loss": null,
    "g_cost": null,
    "d_loss_real": null,
    "d_loss_fake": null
}