{
    "epoch": 55,
    "avg_current_window": 800.8322299938588,
    "avg_prior_window": 831.6537976172405,
    "inception_score_mean": 1.8996898041465324,
    "inception_score_std": 0.2060882462273118,
    "fid_per_class": {
        "airplane": 839.3449453569244,
        "automobile": 1105.3339286798705,
        "bird": 1269.3774387494766,
        "cat": 938.4390113924703,
        "deer": 1280.7717737352318,
        "dog": 837.2053658244504,
        "frog": 1282.359808473519,
        "horse": 1122.8998455161156,
        "ship": 912.972615560563,
        "truck": 1065.0866714170136
    },
    "fid": 662.6143374544455,
    "wasserstein_distance": null,
    "g_loss": null,
    "g_cost": null,
    "d_loss_real": null,
    "d_loss_fake": null
}