{
    "epoch": 95,
    "avg_current_window": 736.0000121243955,
    "avg_prior_window": 749.0138207472104,
    "inception_score_mean": 1.9623128181542309,
    "inception_score_std": 0.1202688429736805,
    "fid_per_class": {
        "airplane": 854.8333929855633,
        "automobile": 1100.8441717574733,
        "bird": 1265.6940249112154,
        "cat": 964.5146428473629,
        "deer": 1263.055754735537,
        "dog": 920.6657520658491,
        "frog": 1277.8844624056264,
        "horse": 1162.7851298256637,
        "ship": 899.1728426938957,
        "truck": 1081.5685853156156
    },
    "fid": 689.6932389928334,
    "wasserstein_distance": null,
    "g_loss": null,
    "g_cost": null,
    "d_loss_real": null,
    "d_loss_fake": null
}