{
    "epoch": 143,
    "avg_current_window": 702.130126394196,
    "avg_prior_window": 709.9175683242267,
    "inception_score_mean": 1.9090657241237374,
    "inception_score_std": 0.16755374574553872,
    "fid_per_class": {
        "airplane": 793.0479134435662,
        "automobile": 1070.2629303046278,
        "bird": 1204.6705255278475,
        "cat": 895.2906915696699,
        "deer": 1265.909126272889,
        "dog": 907.3295766298711,
        "frog": 1270.8390459431182,
        "horse": 1090.0249056627576,
        "ship": 837.3098104516471,
        "truck": 1011.8235817289793
    },
    "fid": 650.5971451575449,
    "wasserstein_distance": null,
    "g_loss": null,
    "g_cost": null,
    "d_loss_real": null,
    "d_loss_fake": null
}