{
    "epoch": 13,
    "avg_current_window": 1162.7121542998839,
    "avg_prior_window": 1447.9509560814236,
    "inception_score_mean": 1.76529314648876,
    "inception_score_std": 0.09179261714153178,
    "fid_per_class": {
        "airplane": 969.3333787613894,
        "automobile": 1168.5115233293027,
        "bird": 1266.724240770481,
        "cat": 970.5291344478239,
        "deer": 1260.8527746989243,
        "dog": 1039.7333389340174,
        "frog": 1311.2117380488153,
        "horse": 1246.16736814175,
        "ship": 970.389687213889,
        "truck": 1143.9616054192525
    },
    "fid": 767.199061379427,
    "wasserstein_distance": null,
    "g_loss": null,
    "g_cost": null,
    "d_loss_real": null,
    "d_loss_fake": null
}