{
    "epoch": 78,
    "avg_current_window": 757.2027703443742,
    "avg_prior_window": 773.3497331303964,
    "inception_score_mean": 1.971426490230996,
    "inception_score_std": 0.151045382733771,
    "fid_per_class": {
        "airplane": 855.5861686782802,
        "automobile": 1084.190366669115,
        "bird": 1257.9017904768693,
        "cat": 863.7440765145004,
        "deer": 1169.6882432433517,
        "dog": 826.0196895561264,
        "frog": 1242.1336214312819,
        "horse": 1067.7989838008803,
        "ship": 895.5901664368132,
        "truck": 1131.424314340612
    },
    "fid": 640.2030682788948,
    "wasserstein_distance": null,
    "g_loss": null,
    "g_cost": null,
    "d_loss_real": null,
    "d_loss_fake": null
}