{
    "epoch": 73,
    "avg_current_window": 764.4024717940607,
    "avg_prior_window": 782.9515877644972,
    "inception_score_mean": 1.9080154468448822,
    "inception_score_std": 0.18652155176796173,
    "fid_per_class": {
        "airplane": 880.2011511979595,
        "automobile": 1085.3368051135553,
        "bird": 1224.397847651522,
        "cat": 936.374823339849,
        "deer": 1228.4959589437344,
        "dog": 861.6823751126444,
        "frog": 1270.167619316505,
        "horse": 1098.778890035641,
        "ship": 811.6458806166847,
        "truck": 1022.2476051317543
    },
    "fid": 653.1500775525086,
    "wasserstein_distance": null,
    "g_loss": null,
    "g_cost": null,
    "d_loss_real": null,
    "d_loss_fake": null
}