{
    "epoch": 21,
    "avg_current_window": 1010.2732065325729,
    "avg_prior_window": 1141.0796468590825,
    "inception_score_mean": 1.6601806862760036,
    "inception_score_std": 0.09261477004985366,
    "fid_per_class": {
        "airplane": 936.0087128667128,
        "automobile": 1268.925280680343,
        "bird": 1455.9813989379766,
        "cat": 1061.69695276955,
        "deer": 1419.061621213546,
        "dog": 1056.4455306405466,
        "frog": 1439.247165077485,
        "horse": 1297.8252169352672,
        "ship": 937.0572936039549,
        "truck": 1189.171953044618
    },
    "fid": 833.6570414032022,
    "wasserstein_distance": null,
    "g_loss": null,
    "g_cost": null,
    "d_loss_real": null,
    "d_loss_fake": null
}