{
    "epoch": 35,
    "avg_current_window": 886.5809202545764,
    "avg_prior_window": 943.3166604506861,
    "inception_score_mean": 1.9099790670039902,
    "inception_score_std": 0.15602593095175427,
    "fid_per_class": {
        "airplane": 829.9924594684198,
        "automobile": 1159.4076322912506,
        "bird": 1226.017948386192,
        "cat": 953.4628508478868,
        "deer": 1285.210053944448,
        "dog": 822.6468955327754,
        "frog": 1295.688891987738,
        "horse": 1165.4985797206944,
        "ship": 855.0702324807271,
        "truck": 1171.5966110915542
    },
    "fid": 681.5719317504713,
    "wasserstein_distance": null,
    "g_loss": null,
    "g_cost": null,
    "d_loss_real": null,
    "d_loss_fake": null
}