{
    "epoch": 86,
    "avg_current_window": 747.0250472409386,
    "avg_prior_window": 761.2219762284764,
    "inception_score_mean": 1.9055453363118784,
    "inception_score_std": 0.1691932208283755,
    "fid_per_class": {
        "airplane": 865.2493182640228,
        "automobile": 1102.3807151670433,
        "bird": 1230.1470780388327,
        "cat": 909.6020337617085,
        "deer": 1248.5855587765122,
        "dog": 844.410523755547,
        "frog": 1248.9407878967404,
        "horse": 1076.3986494017795,
        "ship": 867.7397898623968,
        "truck": 1106.210470379283
    },
    "fid": 652.4641695642036,
    "wasserstein_distance": null,
    "g_loss": null,
    "g_cost": null,
    "d_loss_real": null,
    "d_loss_fake": null
}