{
    "epoch": 173,
    "avg_current_window": 824.3686867242686,
    "avg_prior_window": 831.2677045118882,
    "inception_score_mean": 1.9127255828625152,
    "inception_score_std": 0.12751275653446256,
    "fid_per_class": {
        "airplane": 974.4704257534303,
        "automobile": 1137.594077319348,
        "bird": 1241.0308515579995,
        "cat": 1047.2002799564812,
        "deer": 1407.7783775955832,
        "dog": 1105.351467952099,
        "frog": 1475.6531611037744,
        "horse": 1257.3236682967722,
        "ship": 915.1920526815866,
        "truck": 1156.2531363945682
    },
    "fid": 786.4252504536023,
    "wasserstein_distance": null,
    "g_loss": null,
    "g_cost": null,
    "d_loss_real": null,
    "d_loss_fake": null
}