{
    "epoch": 25,
    "avg_current_window": 972.499412825311,
    "avg_prior_window": 1031.7319822637833,
    "inception_score_mean": 1.569900287492748,
    "inception_score_std": 0.07014973998102575,
    "fid_per_class": {
        "airplane": 1069.562972607511,
        "automobile": 1287.0211121265543,
        "bird": 1299.41133935079,
        "cat": 1034.979034030009,
        "deer": 1274.3010013678872,
        "dog": 1171.6680592235925,
        "frog": 1466.032852555228,
        "horse": 1254.4851849537845,
        "ship": 1031.710409435208,
        "truck": 1262.2752533241
    },
    "fid": 868.6491172476938,
    "wasserstein_distance": null,
    "g_loss": null,
    "g_cost": null,
    "d_loss_real": null,
    "d_loss_fake": null
}