{
    "epoch": 49,
    "avg_current_window": 916.2917743212596,
    "avg_prior_window": 945.3275781716536,
    "inception_score_mean": 1.8142346773398574,
    "inception_score_std": 0.1344069344745251,
    "fid_per_class": {
        "airplane": 1081.4432693070846,
        "automobile": 1219.7379260702887,
        "bird": 1328.9125062806609,
        "cat": 1015.3929570567725,
        "deer": 1471.3007006974458,
        "dog": 1064.9531612265491,
        "frog": 1423.959793505666,
        "horse": 1367.58941482068,
        "ship": 941.9032409731824,
        "truck": 1172.4267596075204
    },
    "fid": 845.0880395776882,
    "wasserstein_distance": null,
    "g_loss": null,
    "g_cost": null,
    "d_loss_real": null,
    "d_loss_fake": null
}