{
    "epoch": 143,
    "avg_current_window": 842.9812167972588,
    "avg_prior_window": 850.9440948108064,
    "inception_score_mean": 1.8296025516849337,
    "inception_score_std": 0.12696585746324224,
    "fid_per_class": {
        "airplane": 924.5848135280091,
        "automobile": 1161.61185582186,
        "bird": 1136.7351780591184,
        "cat": 944.9938461620683,
        "deer": 1327.5283759007632,
        "dog": 1039.5881330847892,
        "frog": 1202.2490143931009,
        "horse": 1141.306859283347,
        "ship": 855.132705391367,
        "truck": 1166.2858576261538
    },
    "fid": 708.4406179302869,
    "wasserstein_distance": null,
    "g_loss": null,
    "g_cost": null,
    "d_loss_real": null,
    "d_loss_fake": null
}