{
    "epoch": 53,
    "avg_current_window": 911.3856799279465,
    "avg_prior_window": 935.3811862862858,
    "inception_score_mean": 1.7384490647915822,
    "inception_score_std": 0.1272827356090698,
    "fid_per_class": {
        "airplane": 1035.5291859491422,
        "automobile": 1196.4729052990347,
        "bird": 1214.3295353110925,
        "cat": 946.5621210943355,
        "deer": 1341.7014035585694,
        "dog": 1018.6599325325521,
        "frog": 1423.0607405514618,
        "horse": 1210.2377493074107,
        "ship": 918.4670783153878,
        "truck": 1175.2931869219929
    },
    "fid": 783.6410064079398,
    "wasserstein_distance": null,
    "g_loss": null,
    "g_cost": null,
    "d_loss_real": null,
    "d_loss_fake": null
}