{
    "epoch": 170,
    "avg_current_window": 826.019101650727,
    "avg_prior_window": 833.1756027901462,
    "inception_score_mean": 1.8211483899907457,
    "inception_score_std": 0.12425392436975415,
    "fid_per_class": {
        "airplane": 957.6375091838015,
        "automobile": 1177.0119491465416,
        "bird": 1188.606616470172,
        "cat": 1062.7366188026242,
        "deer": 1402.2871767091287,
        "dog": 1105.8013921901836,
        "frog": 1317.3155691217466,
        "horse": 1177.899231024683,
        "ship": 943.9283716545206,
        "truck": 1130.4799200999378
    },
    "fid": 740.094875794927,
    "wasserstein_distance": null,
    "g_loss": null,
    "g_cost": null,
    "d_loss_real": null,
    "d_loss_fake": null
}