{
    "epoch": 99,
    "avg_current_window": 873.3412979494946,
    "avg_prior_window": 884.944129352911,
    "inception_score_mean": 1.7471077063543219,
    "inception_score_std": 0.1415400012455274,
    "fid_per_class": {
        "airplane": 977.0514314477757,
        "automobile": 1198.7964603689538,
        "bird": 1321.9572797199007,
        "cat": 1074.467792307129,
        "deer": 1518.107130874619,
        "dog": 1150.4710651766454,
        "frog": 1411.448587019627,
        "horse": 1199.756976331635,
        "ship": 879.876410441709,
        "truck": 1174.9314637938883
    },
    "fid": 805.5690177020213,
    "wasserstein_distance": null,
    "g_loss": null,
    "g_cost": null,
    "d_loss_real": null,
    "d_loss_fake": null
}