{
    "epoch": 10,
    "avg_current_window": 972.7517118686183,
    "avg_prior_window": 1119.6231280587358,
    "inception_score_mean": 1.5266168469166579,
    "inception_score_std": 0.08084720596296936,
    "fid_per_class": {
        "airplane": 1280.0507387820148,
        "automobile": 1349.539843140913,
        "bird": 1504.7204093552211,
        "cat": 1401.1829961737908,
        "deer": 1576.245658048847,
        "dog": 1503.9491656689522,
        "frog": 1777.6307536761801,
        "horse": 1487.2755289361799,
        "ship": 1025.1187488333292,
        "truck": 1252.379753353896
    },
    "fid": 1093.1660359241873,
    "wasserstein_distance": null,
    "g_loss": null,
    "g_cost": null,
    "d_loss_real": null,
    "d_loss_fake": null
}