{
    "epoch": 178,
    "avg_current_window": 822.270368816275,
    "avg_prior_window": 828.9144974205323,
    "inception_score_mean": 1.887602997764375,
    "inception_score_std": 0.10155751120016261,
    "fid_per_class": {
        "airplane": 1033.5121505717968,
        "automobile": 1186.304938103874,
        "bird": 1270.4564201620856,
        "cat": 1062.638629166443,
        "deer": 1525.6356630144687,
        "dog": 1074.3391670914873,
        "frog": 1483.5587186408256,
        "horse": 1325.418522279529,
        "ship": 929.1866269561406,
        "truck": 1169.4959391163045
    },
    "fid": 833.1904072571583,
    "wasserstein_distance": null,
    "g_loss": null,
    "g_cost": null,
    "d_loss_real": null,
    "d_loss_fake": null
}