{
    "epoch": 44,
    "avg_current_window": 924.8713954722978,
    "avg_prior_window": 954.8152370024097,
    "inception_score_mean": 1.6645458870640286,
    "inception_score_std": 0.16274703949899175,
    "fid_per_class": {
        "airplane": 1164.3468500245358,
        "automobile": 1299.4829627386835,
        "bird": 1328.1492688137055,
        "cat": 1048.5203784878815,
        "deer": 1475.7797115185097,
        "dog": 1125.8139819503351,
        "frog": 1470.669942975339,
        "horse": 1318.4473770362656,
        "ship": 1009.0168983683661,
        "truck": 1299.4201492736859
    },
    "fid": 900.0720387716565,
    "wasserstein_distance": null,
    "g_loss": null,
    "g_cost": null,
    "d_loss_real": null,
    "d_loss_fake": null
}