{
    "epoch": 41,
    "avg_current_window": 930.080461661854,
    "avg_prior_window": 964.2065788114562,
    "inception_score_mean": 1.6507181884985438,
    "inception_score_std": 0.11299361216494476,
    "fid_per_class": {
        "airplane": 1110.9375370737425,
        "automobile": 1214.3209313770906,
        "bird": 1291.2888716815455,
        "cat": 1003.4987763261223,
        "deer": 1436.858558967121,
        "dog": 1008.8814669775995,
        "frog": 1488.2916210100636,
        "horse": 1297.8968632918254,
        "ship": 1012.9829436191387,
        "truck": 1189.9133864011221
    },
    "fid": 848.3804295518369,
    "wasserstein_distance": null,
    "g_loss": null,
    "g_cost": null,
    "d_loss_real": null,
    "d_loss_fake": null
}