{
    "epoch": 52,
    "avg_current_window": 912.0434850259388,
    "avg_prior_window": 938.1093872304408,
    "inception_score_mean": 1.783743262465173,
    "inception_score_std": 0.14984556701842935,
    "fid_per_class": {
        "airplane": 1103.4565203398452,
        "automobile": 1241.7601389432907,
        "bird": 1287.9125587226276,
        "cat": 1029.5256075372401,
        "deer": 1417.9361075701754,
        "dog": 1117.1766186607629,
        "frog": 1478.1303037128532,
        "horse": 1320.1276294571408,
        "ship": 984.3142364296741,
        "truck": 1235.1518957699654
    },
    "fid": 877.1798148323506,
    "wasserstein_distance": null,
    "g_loss": null,
    "g_cost": null,
    "d_loss_real": null,
    "d_loss_fake": null
}