{
    "epoch": 166,
    "avg_current_window": 828.1564726528562,
    "avg_prior_window": 835.5513479025643,
    "inception_score_mean": 1.8483863909312497,
    "inception_score_std": 0.16744630805043176,
    "fid_per_class": {
        "airplane": 988.5314164345973,
        "automobile": 1151.6193137133437,
        "bird": 1208.0730836222733,
        "cat": 1023.0852546939973,
        "deer": 1464.0470590527534,
        "dog": 1049.9407580778188,
        "frog": 1328.0766014218757,
        "horse": 1204.7062402215329,
        "ship": 894.9807620754772,
        "truck": 1162.4088412827032
    },
    "fid": 746.6340507985504,
    "wasserstein_distance": null,
    "g_loss": null,
    "g_cost": null,
    "d_loss_real": null,
    "d_loss_fake": null
}