{
    "epoch": 141,
    "avg_current_window": 844.7468052077494,
    "avg_prior_window": 851.6851320016103,
    "inception_score_mean": 1.961443920706649,
    "inception_score_std": 0.1412356588408573,
    "fid_per_class": {
        "airplane": 970.1175075059257,
        "automobile": 1096.17178402006,
        "bird": 1215.7056669217,
        "cat": 983.3585974307123,
        "deer": 1445.8710433336641,
        "dog": 1080.219418473434,
        "frog": 1495.0990548681225,
        "horse": 1171.3381365508385,
        "ship": 809.2447115948753,
        "truck": 1116.1374552311736
    },
    "fid": 745.9023909670475,
    "wasserstein_distance": null,
    "g_loss": null,
    "g_cost": null,
    "d_loss_real": null,
    "d_loss_fake": null
}