{
    "epoch": 58,
    "avg_current_window": 904.372311189785,
    "avg_prior_window": 926.171359294134,
    "inception_score_mean": 1.7107223721791402,
    "inception_score_std": 0.13608889520811449,
    "fid_per_class": {
        "airplane": 1053.9916142799734,
        "automobile": 1209.9468193558905,
        "bird": 1221.9872079158386,
        "cat": 1067.7385941074758,
        "deer": 1377.372657003037,
        "dog": 1062.4252433849283,
        "frog": 1450.9815059922232,
        "horse": 1221.3172091604192,
        "ship": 911.8942316315565,
        "truck": 1201.441250055365
    },
    "fid": 809.4449952360112,
    "wasserstein_distance": null,
    "g_loss": null,
    "g_cost": null,
    "d_loss_real": null,
    "d_loss_fake": null
}