{
    "epoch": 98,
    "avg_current_window": 873.4845093310462,
    "avg_prior_window": 885.7460645646048,
    "inception_score_mean": 1.8495861053546008,
    "inception_score_std": 0.11642082504516317,
    "fid_per_class": {
        "airplane": 1080.1670839628177,
        "automobile": 1212.6103888292562,
        "bird": 1339.0603952968258,
        "cat": 1135.1452506877258,
        "deer": 1547.48334633934,
        "dog": 1120.5442130164079,
        "frog": 1532.266284844352,
        "horse": 1270.3843473510897,
        "ship": 857.1831950058629,
        "truck": 1191.2731252638205
    },
    "fid": 859.3065825574347,
    "wasserstein_distance": null,
    "g_loss": null,
    "g_cost": null,
    "d_loss_real": null,
    "d_loss_fake": null
}