{
    "epoch": 47,
    "avg_current_window": 919.4079559395926,
    "avg_prior_window": 947.4314291634896,
    "inception_score_mean": 1.6343887234879577,
    "inception_score_std": 0.12293706932291637,
    "fid_per_class": {
        "airplane": 1074.430182425191,
        "automobile": 1239.4108028359638,
        "bird": 1346.1433423907893,
        "cat": 1062.1937283133025,
        "deer": 1452.674737001026,
        "dog": 1182.146373998135,
        "frog": 1458.2208500413076,
        "horse": 1355.3940385654653,
        "ship": 913.3234984973196,
        "truck": 1238.8616309378187
    },
    "fid": 878.9672706698632,
    "wasserstein_distance": null,
    "g_loss": null,
    "g_cost": null,
    "d_loss_real": null,
    "d_loss_fake": null
}