{
    "epoch": 62,
    "avg_current_window": 899.2102893241833,
    "avg_prior_window": 920.2384920878515,
    "inception_score_mean": 1.7296521360543469,
    "inception_score_std": 0.12414349235004442,
    "fid_per_class": {
        "airplane": 1027.9341131791468,
        "automobile": 1241.890122021771,
        "bird": 1327.5187020652759,
        "cat": 1013.3348302314316,
        "deer": 1686.0721340957878,
        "dog": 1030.1281635576222,
        "frog": 1625.4633289783853,
        "horse": 1279.4875651900488,
        "ship": 960.7394249218959,
        "truck": 1254.2630650401802
    },
    "fid": 866.4819429554669,
    "wasserstein_distance": null,
    "g_loss": null,
    "g_cost": null,
    "d_loss_real": null,
    "d_loss_fake": null
}