{
    "epoch": 69,
    "avg_current_window": 896.7305668370698,
    "avg_prior_window": 912.8995690698058,
    "inception_score_mean": 1.7728374698095208,
    "inception_score_std": 0.08731635560773435,
    "fid_per_class": {
        "airplane": 971.398168734182,
        "automobile": 1199.2357023103632,
        "bird": 1257.08935498183,
        "cat": 947.4854729831195,
        "deer": 1359.76146156415,
        "dog": 998.187861625081,
        "frog": 1415.2810855408502,
        "horse": 1211.7840979249627,
        "ship": 901.880091320118,
        "truck": 1158.5893363262662
    },
    "fid": 765.33669566205,
    "wasserstein_distance": null,
    "g_loss": null,
    "g_cost": null,
    "d_loss_real": null,
    "d_loss_fake": null
}