{
    "epoch": 111,
    "avg_current_window": 861.8966328340531,
    "avg_prior_window": 873.3330766905143,
    "inception_score_mean": 1.7974463265883212,
    "inception_score_std": 0.1186596747978741,
    "fid_per_class": {
        "airplane": 996.0655302734212,
        "automobile": 1204.8806893177566,
        "bird": 1286.9546470978667,
        "cat": 1089.6272841041757,
        "deer": 1538.4893961326898,
        "dog": 1199.0860719198113,
        "frog": 1538.1338485888655,
        "horse": 1234.902584845499,
        "ship": 917.6041112948491,
        "truck": 1148.1878249719257
    },
    "fid": 859.294354743286,
    "wasserstein_distance": null,
    "g_loss": null,
    "g_cost": null,
    "d_loss_real": null,
    "d_loss_fake": null
}