{
    "epoch": 156,
    "avg_current_window": 834.6985819488298,
    "avg_prior_window": 842.1496652465742,
    "inception_score_mean": 1.9309308062349664,
    "inception_score_std": 0.06416953924051887,
    "fid_per_class": {
        "airplane": 955.2641436884487,
        "automobile": 1099.3395091995858,
        "bird": 1110.054930735964,
        "cat": 910.3134981893706,
        "deer": 1281.019895750765,
        "dog": 931.5611291650241,
        "frog": 1145.2991631164136,
        "horse": 1152.6685952595121,
        "ship": 893.1097099687305,
        "truck": 1071.9713364785976
    },
    "fid": 652.9514825954628,
    "wasserstein_distance": null,
    "g_loss": null,
    "g_cost": null,
    "d_loss_real": null,
    "d_loss_fake": null
}