{
    "epoch": 135,
    "avg_current_window": 846.9952904631385,
    "avg_prior_window": 856.7875027909151,
    "inception_score_mean": 1.9248117391663164,
    "inception_score_std": 0.16516250390126253,
    "fid_per_class": {
        "airplane": 1088.155438732924,
        "automobile": 1107.1515222510898,
        "bird": 1223.5729801838952,
        "cat": 966.1594600043777,
        "deer": 1433.6056448401555,
        "dog": 1014.8589938192745,
        "frog": 1270.6720658875875,
        "horse": 1200.2292515456734,
        "ship": 986.1051043656012,
        "truck": 1103.3156280484964
    },
    "fid": 743.3657044094939,
    "wasserstein_distance": null,
    "g_loss": null,
    "g_cost": null,
    "d_loss_real": null,
    "d_loss_fake": null
}