{
    "epoch": 15,
    "avg_current_window": 991.621271277578,
    "avg_prior_window": 1082.068315461037,
    "inception_score_mean": 1.6254889566556099,
    "inception_score_std": 0.09006368473312362,
    "fid_per_class": {
        "airplane": 1180.9019726432984,
        "automobile": 1333.0902135655097,
        "bird": 1385.075083045841,
        "cat": 1253.9580522859458,
        "deer": 1450.1364543721027,
        "dog": 1339.044893223767,
        "frog": 1793.8120412920282,
        "horse": 1373.7751256489892,
        "ship": 953.1214053971928,
        "truck": 1297.2563861632702
    },
    "fid": 1008.9938085855238,
    "wasserstein_distance": null,
    "g_loss": null,
    "g_cost": null,
    "d_loss_real": null,
    "d_loss_fake": null
}