{
    "epoch": 142,
    "avg_current_window": 844.0507177835191,
    "avg_prior_window": 851.534624490648,
    "inception_score_mean": 1.8536524651038473,
    "inception_score_std": 0.12220130240833968,
    "fid_per_class": {
        "airplane": 967.5542175919959,
        "automobile": 1131.5275866144573,
        "bird": 1123.479547454814,
        "cat": 949.7054565665677,
        "deer": 1278.4807407606613,
        "dog": 1000.6083211530972,
        "frog": 1240.9089747485164,
        "horse": 1143.7986768990081,
        "ship": 870.5467987950121,
        "truck": 1144.2975026056904
    },
    "fid": 691.1120767482887,
    "wasserstein_distance": null,
    "g_loss": null,
    "g_cost": null,
    "d_loss_real": null,
    "d_loss_fake": null
}