{
    "epoch": 57,
    "avg_current_window": 906.0047806103983,
    "avg_prior_window": 928.9123276188686,
    "inception_score_mean": 1.735735960997879,
    "inception_score_std": 0.15211131048166948,
    "fid_per_class": {
        "airplane": 1024.3211201014137,
        "automobile": 1207.9262528308047,
        "bird": 1292.8087403068146,
        "cat": 973.2225017309075,
        "deer": 1376.159530387413,
        "dog": 1028.904661444867,
        "frog": 1489.3794722824268,
        "horse": 1282.0193466862686,
        "ship": 906.8069159455307,
        "truck": 1223.6348034293437
    },
    "fid": 811.3215542148287,
    "wasserstein_distance": null,
    "g_loss": null,
    "g_cost": null,
    "d_loss_real": null,
    "d_loss_fake": null
}