{
    "epoch": 116,
    "avg_current_window": 858.8333052041955,
    "avg_prior_window": 869.6380234173258,
    "inception_score_mean": 1.8765454705058953,
    "inception_score_std": 0.18085521452251435,
    "fid_per_class": {
        "airplane": 1030.564844385399,
        "automobile": 1094.347837806703,
        "bird": 1307.437428878343,
        "cat": 1089.6368859287713,
        "deer": 1576.142957816043,
        "dog": 1236.7392519620707,
        "frog": 1484.7886826363022,
        "horse": 1244.942872210454,
        "ship": 972.5658830984225,
        "truck": 1164.0828255677966
    },
    "fid": 831.340372953924,
    "wasserstein_distance": null,
    "g_loss": null,
    "g_cost": null,
    "d_loss_real": null,
    "d_loss_fake": null
}