{
    "epoch": 86,
    "avg_current_window": 881.0720178057526,
    "avg_prior_window": 895.3890594934373,
    "inception_score_mean": 1.853345493279861,
    "inception_score_std": 0.12050165108947025,
    "fid_per_class": {
        "airplane": 1067.472904310725,
        "automobile": 1172.4626199105242,
        "bird": 1297.4860894622789,
        "cat": 1041.4030828637667,
        "deer": 1528.2395189488539,
        "dog": 1088.440465151944,
        "frog": 1583.5430395699084,
        "horse": 1283.2889185893055,
        "ship": 959.8369696050579,
        "truck": 1168.1224573856157
    },
    "fid": 838.3532467274783,
    "wasserstein_distance": null,
    "g_loss": null,
    "g_cost": null,
    "d_loss_real": null,
    "d_loss_fake": null
}