{
    "epoch": 112,
    "avg_current_window": 861.8733982082425,
    "avg_prior_window": 872.7926704813538,
    "inception_score_mean": 1.8298255851748384,
    "inception_score_std": 0.18591587883763877,
    "fid_per_class": {
        "airplane": 1039.7551307521476,
        "automobile": 1128.8874728359729,
        "bird": 1311.5204888827275,
        "cat": 1092.8097276085002,
        "deer": 1388.8137226819538,
        "dog": 1234.5939036066663,
        "frog": 1464.984338669911,
        "horse": 1159.0637282933872,
        "ship": 916.2298575499358,
        "truck": 1148.2483771598932
    },
    "fid": 788.5028659675057,
    "wasserstein_distance": null,
    "g_loss": null,
    "g_cost": null,
    "d_loss_real": null,
    "d_loss_fake": null
}