{
    "epoch": 24,
    "avg_current_window": 976.6420828914557,
    "avg_prior_window": 1037.7300262289275,
    "inception_score_mean": 1.6158231582795657,
    "inception_score_std": 0.10538031574324204,
    "fid_per_class": {
        "airplane": 1091.647270616439,
        "automobile": 1303.7978356650096,
        "bird": 1296.8168487803493,
        "cat": 1063.9590531225072,
        "deer": 1328.3360348401561,
        "dog": 1161.5633133131355,
        "frog": 1477.959612583514,
        "horse": 1236.2426777221879,
        "ship": 982.2427938396438,
        "truck": 1278.909207159958
    },
    "fid": 873.0753312378351,
    "wasserstein_distance": null,
    "g_loss": null,
    "g_cost": null,
    "d_loss_real": null,
    "d_loss_fake": null
}