{
    "epoch": 184,
    "avg_current_window": 820.4687132108855,
    "avg_prior_window": 826.9044622787998,
    "inception_score_mean": 1.9310348699804618,
    "inception_score_std": 0.13554977748603467,
    "fid_per_class": {
        "airplane": 976.0872637875032,
        "automobile": 1050.7549084741022,
        "bird": 1172.2295101966004,
        "cat": 993.5275681686951,
        "deer": 1195.3333689259418,
        "dog": 978.3151305891274,
        "frog": 1110.4688872235072,
        "horse": 1115.7226674160393,
        "ship": 821.8885332129456,
        "truck": 1118.0483308568869
    },
    "fid": 658.9226472933967,
    "wasserstein_distance": null,
    "g_loss": null,
    "g_cost": null,
    "d_loss_real": null,
    "d_loss_fake": null
}