{
    "epoch": 137,
    "avg_current_window": 845.4684522059781,
    "avg_prior_window": 855.6730455815091,
    "inception_score_mean": 1.8305633194734927,
    "inception_score_std": 0.13739836003164316,
    "fid_per_class": {
        "airplane": 1096.751998218771,
        "automobile": 1193.8843754385873,
        "bird": 1316.4864614845665,
        "cat": 1013.2031661108282,
        "deer": 1485.5252239767954,
        "dog": 1049.6573636357361,
        "frog": 1576.0003988875765,
        "horse": 1240.5442874735882,
        "ship": 944.5664737458494,
        "truck": 1205.7028352226685
    },
    "fid": 831.0656029997681,
    "wasserstein_distance": null,
    "g_loss": null,
    "g_cost": null,
    "d_loss_real": null,
    "d_loss_fake": null
}