{
    "epoch": 155,
    "avg_current_window": 835.2861548354265,
    "avg_prior_window": 842.5870441595948,
    "inception_score_mean": 1.976737070217292,
    "inception_score_std": 0.11207110807506689,
    "fid_per_class": {
        "airplane": 1032.553974955099,
        "automobile": 1193.9266027011986,
        "bird": 1179.9023203157303,
        "cat": 969.5002327022398,
        "deer": 1398.7552395859414,
        "dog": 1003.9917043114633,
        "frog": 1292.0747911523447,
        "horse": 1242.4638150827805,
        "ship": 932.7922046194303,
        "truck": 1128.933226791082
    },
    "fid": 743.6247845263266,
    "wasserstein_distance": null,
    "g_loss": null,
    "g_cost": null,
    "d_loss_real": null,
    "d_loss_fake": null
}