{
    "epoch": 14,
    "avg_current_window": 995.0854472544187,
    "avg_prior_window": 1080.835235409576,
    "inception_score_mean": 1.5613779057081367,
    "inception_score_std": 0.11721195354996981,
    "fid_per_class": {
        "airplane": 1172.234255784249,
        "automobile": 1308.6269725189986,
        "bird": 1297.7281859941181,
        "cat": 1157.0836304761913,
        "deer": 1361.1165197824585,
        "dog": 1243.1103134038513,
        "frog": 1619.1356576652013,
        "horse": 1327.3412043128637,
        "ship": 1017.3244561642567,
        "truck": 1301.8254320487763
    },
    "fid": 943.122807601809,
    "wasserstein_distance": null,
    "g_loss": null,
    "g_cost": null,
    "d_loss_real": null,
    "d_loss_fake": null
}