{
    "epoch": 121,
    "avg_current_window": 856.17595928829,
    "avg_prior_window": 866.0000325572466,
    "inception_score_mean": 1.8335242047587286,
    "inception_score_std": 0.17281610623009053,
    "fid_per_class": {
        "airplane": 1026.0133139692148,
        "automobile": 1192.2015653993326,
        "bird": 1301.298768136906,
        "cat": 1101.3916400967719,
        "deer": 1508.6659140124991,
        "dog": 1306.6553586845866,
        "frog": 1416.414442565959,
        "horse": 1383.6806050511957,
        "ship": 908.9947472471706,
        "truck": 1198.2254777116493
    },
    "fid": 845.7010168882878,
    "wasserstein_distance": null,
    "g_loss": null,
    "g_cost": null,
    "d_loss_real": null,
    "d_loss_fake": null
}