{
    "epoch": 193,
    "avg_current_window": 816.7714969810547,
    "avg_prior_window": 821.9343973107339,
    "inception_score_mean": 1.9456765001428153,
    "inception_score_std": 0.18449857738941874,
    "fid_per_class": {
        "airplane": 996.7414284250644,
        "automobile": 1142.6166558990758,
        "bird": 1209.6046464599963,
        "cat": 994.9522906780577,
        "deer": 1421.6194621426453,
        "dog": 1066.8803360583668,
        "frog": 1236.7973746179096,
        "horse": 1208.7937987166315,
        "ship": 863.0765674522803,
        "truck": 1161.4831778181256
    },
    "fid": 723.1602451540883,
    "wasserstein_distance": null,
    "g_loss": null,
    "g_cost": null,
    "d_loss_real": null,
    "d_loss_fake": null
}