{
    "epoch": 175,
    "avg_current_window": 823.7140201971961,
    "avg_prior_window": 830.3726009201089,
    "inception_score_mean": 1.8589624998268288,
    "inception_score_std": 0.14367277984813065,
    "fid_per_class": {
        "airplane": 1007.4679313369719,
        "automobile": 1273.2208862422071,
        "bird": 1293.8617097404715,
        "cat": 1072.8135126810005,
        "deer": 1533.725413365636,
        "dog": 1121.984814318645,
        "frog": 1444.988871293666,
        "horse": 1374.947419805258,
        "ship": 900.7749575684152,
        "truck": 1267.6501702977564
    },
    "fid": 852.1377674229337,
    "wasserstein_distance": null,
    "g_loss": null,
    "g_cost": null,
    "d_loss_real": null,
    "d_loss_fake": null
}