{
    "epoch": 117,
    "avg_current_window": 858.5983228772702,
    "avg_prior_window": 868.9136023686667,
    "inception_score_mean": 1.8770168180723523,
    "inception_score_std": 0.13338826917901087,
    "fid_per_class": {
        "airplane": 976.4139351749845,
        "automobile": 1155.0817167673863,
        "bird": 1255.458907477013,
        "cat": 1009.7804630052235,
        "deer": 1403.6306623193786,
        "dog": 1084.7415535650678,
        "frog": 1373.3553518587992,
        "horse": 1141.1475827419695,
        "ship": 905.0325329391453,
        "truck": 1190.5373555555896
    },
    "fid": 774.3020350758878,
    "wasserstein_distance": null,
    "g_loss": null,
    "g_cost": null,
    "d_loss_real": null,
    "d_loss_fake": null
}