{
    "epoch": 189,
    "avg_current_window": 817.5855380657035,
    "avg_prior_window": 824.0498145548714,
    "inception_score_mean": 1.8607510412071897,
    "inception_score_std": 0.14074753216726302,
    "fid_per_class": {
        "airplane": 950.0941462784282,
        "automobile": 1098.2000434815347,
        "bird": 1146.5210497572762,
        "cat": 1049.3128273810858,
        "deer": 1413.0448168738471,
        "dog": 1143.7119856255135,
        "frog": 1183.8837973906438,
        "horse": 1211.8586064248354,
        "ship": 841.5679876668378,
        "truck": 1081.64359917427
    },
    "fid": 714.8324056968663,
    "wasserstein_distance": null,
    "g_loss": null,
    "g_cost": null,
    "d_loss_real": null,
    "d_loss_fake": null
}