{
    "epoch": 107,
    "avg_current_window": 865.1710853195749,
    "avg_prior_window": 877.8754629554287,
    "inception_score_mean": 1.7904525007870233,
    "inception_score_std": 0.09657566711115406,
    "fid_per_class": {
        "airplane": 959.1394019917066,
        "automobile": 1222.5642231885029,
        "bird": 1252.0631301615026,
        "cat": 1088.2957178118404,
        "deer": 1455.8612147362742,
        "dog": 1071.5536752625344,
        "frog": 1485.052821462477,
        "horse": 1259.9689928908037,
        "ship": 914.3598096539288,
        "truck": 1211.7618709232315
    },
    "fid": 815.5096123103224,
    "wasserstein_distance": null,
    "g_loss": null,
    "g_cost": null,
    "d_loss_real": null,
    "d_loss_fake": null
}