{
    "epoch": 120,
    "avg_current_window": 857.2864508394272,
    "avg_prior_window": 866.3014209016234,
    "inception_score_mean": 1.8283808788345204,
    "inception_score_std": 0.138794346036723,
    "fid_per_class": {
        "airplane": 994.652886799736,
        "automobile": 1173.956884169263,
        "bird": 1166.0020103953746,
        "cat": 914.2619223366335,
        "deer": 1262.4321562944058,
        "dog": 1069.641567660123,
        "frog": 1202.4299565567412,
        "horse": 1182.8828154949874,
        "ship": 898.5883824408131,
        "truck": 1173.7621804413523
    },
    "fid": 722.9169731518141,
    "wasserstein_distance": null,
    "g_loss": null,
    "g_cost": null,
    "d_loss_real": null,
    "d_loss_fake": null
}