{
    "epoch": 131,
    "avg_current_window": 850.2471401741907,
    "avg_prior_window": 859.4410596374554,
    "inception_score_mean": 1.8306360923907334,
    "inception_score_std": 0.1463824107255162,
    "fid_per_class": {
        "airplane": 1024.8983575460604,
        "automobile": 1255.4133132530872,
        "bird": 1333.7260211822504,
        "cat": 1016.2446787683585,
        "deer": 1549.4240231834267,
        "dog": 1033.7305601593243,
        "frog": 1484.091976034681,
        "horse": 1280.0410551817279,
        "ship": 953.4252126794443,
        "truck": 1237.371536188538
    },
    "fid": 842.8213710563912,
    "wasserstein_distance": null,
    "g_loss": null,
    "g_cost": null,
    "d_loss_real": null,
    "d_loss_fake": null
}