{
    "epoch": 192,
    "avg_current_window": 817.0546531862041,
    "avg_prior_window": 822.3494311724768,
    "inception_score_mean": 1.8905473408528408,
    "inception_score_std": 0.11751801808012283,
    "fid_per_class": {
        "airplane": 1079.437685637069,
        "automobile": 1144.8792450914889,
        "bird": 1238.2520173491607,
        "cat": 1000.8083883087254,
        "deer": 1457.657764772861,
        "dog": 1097.571501564164,
        "frog": 1225.513251416145,
        "horse": 1288.1044567162323,
        "ship": 981.2094938793987,
        "truck": 1208.973335365989
    },
    "fid": 762.4055055923843,
    "wasserstein_distance": null,
    "g_loss": null,
    "g_cost": null,
    "d_loss_real": null,
    "d_loss_fake": null
}