{
    "epoch": 167,
    "avg_current_window": 827.6683144381597,
    "avg_prior_window": 835.204692807748,
    "inception_score_mean": 1.9024248568309876,
    "inception_score_std": 0.1072413975032155,
    "fid_per_class": {
        "airplane": 922.3250341903779,
        "automobile": 1132.494468506093,
        "bird": 1163.5651326129757,
        "cat": 953.8020988915257,
        "deer": 1309.5041911499698,
        "dog": 965.1449376365855,
        "frog": 1187.957863808988,
        "horse": 1164.1463865653366,
        "ship": 866.7686167646497,
        "truck": 1070.922664765454
    },
    "fid": 677.5697709404362,
    "wasserstein_distance": null,
    "g_loss": null,
    "g_cost": null,
    "d_loss_real": null,
    "d_loss_fake": null
}