{
    "epoch": 148,
    "avg_current_window": 839.3675777471948,
    "avg_prior_window": 847.9353469925754,
    "inception_score_mean": 1.9169498881027345,
    "inception_score_std": 0.1936664244933312,
    "fid_per_class": {
        "airplane": 1031.190564951558,
        "automobile": 1152.1488436801033,
        "bird": 1214.2422654685554,
        "cat": 992.3651947099439,
        "deer": 1375.8071163411087,
        "dog": 1027.3535342402604,
        "frog": 1358.723987273679,
        "horse": 1155.8695475251343,
        "ship": 927.5161874970529,
        "truck": 1130.809410714287
    },
    "fid": 729.4511586681167,
    "wasserstein_distance": null,
    "g_loss": null,
    "g_cost": null,
    "d_loss_real": null,
    "d_loss_fake": null
}