{
    "epoch": 188,
    "avg_current_window": 817.9752320704955,
    "avg_prior_window": 824.9521488022018,
    "inception_score_mean": 1.8679317785673617,
    "inception_score_std": 0.14752776089942354,
    "fid_per_class": {
        "airplane": 986.3314444783748,
        "automobile": 1130.927867173152,
        "bird": 1256.3154260601486,
        "cat": 996.0302660818484,
        "deer": 1431.4185403750562,
        "dog": 1047.4755946804735,
        "frog": 1382.683220157715,
        "horse": 1212.6787983500396,
        "ship": 864.518935293881,
        "truck": 1119.5762782712768
    },
    "fid": 744.3230651648075,
    "wasserstein_distance": null,
    "g_loss": null,
    "g_cost": null,
    "d_loss_real": null,
    "d_loss_fake": null
}