{
    "epoch": 29,
    "avg_current_window": 959.8232600493731,
    "avg_prior_window": 1013.0202216930323,
    "inception_score_mean": 1.575821176975976,
    "inception_score_std": 0.08803461805663035,
    "fid_per_class": {
        "airplane": 1055.7904684944604,
        "automobile": 1269.8489945572314,
        "bird": 1302.4210236242384,
        "cat": 1045.6483579985588,
        "deer": 1376.2832122197453,
        "dog": 1134.9683218627906,
        "frog": 1501.9674119672766,
        "horse": 1301.5304611869183,
        "ship": 944.4531596782518,
        "truck": 1179.4842429162784
    },
    "fid": 867.0527293127425,
    "wasserstein_distance": null,
    "g_loss": null,
    "g_cost": null,
    "d_loss_real": null,
    "d_loss_fake": null
}