{
    "epoch": 191,
    "avg_current_window": 817.024610896421,
    "avg_prior_window": 822.9206583627999,
    "inception_score_mean": 1.8701905719506182,
    "inception_score_std": 0.14031292194151673,
    "fid_per_class": {
        "airplane": 945.0673039281006,
        "automobile": 1191.280784532636,
        "bird": 1250.4938452266765,
        "cat": 1189.8529480497878,
        "deer": 1546.6328484727337,
        "dog": 1228.2385357496103,
        "frog": 1525.3263632531086,
        "horse": 1283.5304206620838,
        "ship": 873.4036884068088,
        "truck": 1168.5611639046365
    },
    "fid": 822.792730534759,
    "wasserstein_distance": null,
    "g_loss": null,
    "g_cost": null,
    "d_loss_real": null,
    "d_loss_fake": null
}