{
    "epoch": 102,
    "avg_current_window": 869.9041581858982,
    "avg_prior_window": 882.4895042726034,
    "inception_score_mean": 1.8562030028896292,
    "inception_score_std": 0.14352276641544653,
    "fid_per_class": {
        "airplane": 1036.7946001056662,
        "automobile": 1170.1508029505653,
        "bird": 1303.1224463091733,
        "cat": 1025.7845010502433,
        "deer": 1478.801613835922,
        "dog": 1001.1597580350738,
        "frog": 1389.1536417067764,
        "horse": 1196.398547978835,
        "ship": 1009.2449860421559,
        "truck": 1246.3674548022445
    },
    "fid": 813.0730864921223,
    "wasserstein_distance": null,
    "g_loss": null,
    "g_cost": null,
    "d_loss_real": null,
    "d_loss_fake": null
}