{
    "epoch": 139,
    "avg_current_window": 844.8221948481388,
    "avg_prior_window": 853.3161508397291,
    "inception_score_mean": 1.7349725062713062,
    "inception_score_std": 0.13652884727486897,
    "fid_per_class": {
        "airplane": 1096.642092075011,
        "automobile": 1314.3861928649599,
        "bird": 1350.5317595088693,
        "cat": 1090.1191129256295,
        "deer": 1579.766160554383,
        "dog": 1203.1290747908506,
        "frog": 1403.9720331348606,
        "horse": 1371.3680839523154,
        "ship": 970.5186354821419,
        "truck": 1223.273503697056
    },
    "fid": 895.6433394173114,
    "wasserstein_distance": null,
    "g_loss": null,
    "g_cost": null,
    "d_loss_real": null,
    "d_loss_fake": null
}