{
    "epoch": 65,
    "avg_current_window": 898.8549603148857,
    "avg_prior_window": 915.4061042556416,
    "inception_score_mean": 1.7685907563899548,
    "inception_score_std": 0.1255403478306149,
    "fid_per_class": {
        "airplane": 1048.782148171396,
        "automobile": 1225.2624302179358,
        "bird": 1218.0537955276602,
        "cat": 972.2817029994997,
        "deer": 1349.265111417855,
        "dog": 1058.0119272736367,
        "frog": 1447.2640380535638,
        "horse": 1261.1350890144972,
        "ship": 959.0387203380756,
        "truck": 1225.1920214714694
    },
    "fid": 806.9682874409541,
    "wasserstein_distance": null,
    "g_loss": null,
    "g_cost": null,
    "d_loss_real": null,
    "d_loss_fake": null
}