{
    "epoch": 11,
    "avg_current_window": 983.6984686009426,
    "avg_prior_window": 1098.4197483888897,
    "inception_score_mean": 1.5796949599147516,
    "inception_score_std": 0.10667252087447743,
    "fid_per_class": {
        "airplane": 1229.7030966394484,
        "automobile": 1314.0165328671615,
        "bird": 1523.6181960005838,
        "cat": 1268.662411132817,
        "deer": 1561.1625818977036,
        "dog": 1342.531793831813,
        "frog": 1696.351836995346,
        "horse": 1375.3240718704378,
        "ship": 999.0344691227211,
        "truck": 1243.2919314418461
    },
    "fid": 1030.0533527164835,
    "wasserstein_distance": null,
    "g_loss": null,
    "g_cost": null,
    "d_loss_real": null,
    "d_loss_fake": null
}