{
    "epoch": 38,
    "avg_current_window": 935.4554947252724,
    "avg_prior_window": 974.4590021523525,
    "inception_score_mean": 1.6399883872662246,
    "inception_score_std": 0.14170258184511292,
    "fid_per_class": {
        "airplane": 1101.0256942553024,
        "automobile": 1246.274846727992,
        "bird": 1291.28109577357,
        "cat": 1026.6276064204562,
        "deer": 1481.0038220386718,
        "dog": 1100.7305992809443,
        "frog": 1529.8387488641702,
        "horse": 1306.1624376084824,
        "ship": 991.5801865494979,
        "truck": 1193.5529950305202
    },
    "fid": 886.1546763772864,
    "wasserstein_distance": null,
    "g_loss": null,
    "g_cost": null,
    "d_loss_real": null,
    "d_loss_fake": null
}