{
    "epoch": 60,
    "avg_current_window": 901.6845970352299,
    "avg_prior_window": 923.2335789060658,
    "inception_score_mean": 1.7814977802730365,
    "inception_score_std": 0.12265863486381373,
    "fid_per_class": {
        "airplane": 1044.2028065517761,
        "automobile": 1269.2128225261758,
        "bird": 1249.7837371217154,
        "cat": 924.713189994128,
        "deer": 1398.2014130992711,
        "dog": 1050.0121042135038,
        "frog": 1406.35598722543,
        "horse": 1287.794152222854,
        "ship": 1022.5314710330441,
        "truck": 1214.7453268519475
    },
    "fid": 823.2904332246957,
    "wasserstein_distance": null,
    "g_loss": null,
    "g_cost": null,
    "d_loss_real": null,
    "d_loss_fake": null
}