{
    "epoch": 180,
    "avg_current_window": 822.3105485994731,
    "avg_prior_window": 828.5833788681844,
    "inception_score_mean": 1.9658636648768044,
    "inception_score_std": 0.13719998111029794,
    "fid_per_class": {
        "airplane": 968.874894546253,
        "automobile": 1134.4577629687321,
        "bird": 1219.926964048232,
        "cat": 969.4409121451351,
        "deer": 1374.2610355700076,
        "dog": 984.8289137747399,
        "frog": 1255.7725120479959,
        "horse": 1151.0104780351608,
        "ship": 871.2924787427648,
        "truck": 1061.0841133399103
    },
    "fid": 693.1441953799381,
    "wasserstein_distance": null,
    "g_loss": null,
    "g_cost": null,
    "d_loss_real": null,
    "d_loss_fake": null
}