{
    "epoch": 186,
    "avg_current_window": 818.7611299753593,
    "avg_prior_window": 825.5409871616481,
    "inception_score_mean": 1.8473527193381318,
    "inception_score_std": 0.11804986127869838,
    "fid_per_class": {
        "airplane": 998.0965804836171,
        "automobile": 1146.844012616767,
        "bird": 1278.5914521798074,
        "cat": 1001.7641124484546,
        "deer": 1384.292499803322,
        "dog": 1055.0955847560474,
        "frog": 1372.0425853151555,
        "horse": 1241.3326239060375,
        "ship": 947.6798900936762,
        "truck": 1147.988596330334
    },
    "fid": 773.672280063964,
    "wasserstein_distance": null,
    "g_loss": null,
    "g_cost": null,
    "d_loss_real": null,
    "d_loss_fake": null
}