{
    "epoch": 2,
    "avg_current_window": 663.9999940924033,
    "avg_prior_window": 1330.9999881848066,
    "inception_score_mean": 1.2806237594655798,
    "inception_score_std": 0.048060711161430056,
    "fid_per_class": {
        "airplane": 1623.6642032128825,
        "automobile": 1822.1816985032108,
        "bird": 1206.4047606170807,
        "cat": 1452.780668006672,
        "deer": 1381.3862140762344,
        "dog": 1598.7989657827477,
        "frog": 1491.925951405387,
        "horse": 1713.7214905711674,
        "ship": 1671.6424467962809,
        "truck": 1771.6699137977666
    },
    "fid": 1286.9678775035577,
    "wasserstein_distance": null,
    "g_loss": null,
    "g_cost": null,
    "d_loss_real": null,
    "d_loss_fake": null
}