{
    "epoch": 162,
    "avg_current_window": 830.3936235327955,
    "avg_prior_window": 837.995013970212,
    "inception_score_mean": 1.8797050808764624,
    "inception_score_std": 0.17799631247138695,
    "fid_per_class": {
        "airplane": 982.5554424717068,
        "automobile": 1131.598890983733,
        "bird": 1272.5195638921336,
        "cat": 1058.7823628752633,
        "deer": 1426.8908415325582,
        "dog": 1090.6800393021229,
        "frog": 1416.6281899594524,
        "horse": 1191.3878017698898,
        "ship": 930.4342380409915,
        "truck": 1133.550792456895
    },
    "fid": 779.3932225422948,
    "wasserstein_distance": null,
    "g_loss": null,
    "g_cost": null,
    "d_loss_real": null,
    "d_loss_fake": null
}