{
    "epoch": 149,
    "avg_current_window": 838.6298836594158,
    "avg_prior_window": 847.4104902692613,
    "inception_score_mean": 1.934664719333585,
    "inception_score_std": 0.13846970181301987,
    "fid_per_class": {
        "airplane": 973.762957941948,
        "automobile": 1160.2160582606944,
        "bird": 1099.9800374942718,
        "cat": 937.0489291057976,
        "deer": 1348.6147580535708,
        "dog": 963.7715891255581,
        "frog": 1214.823522676182,
        "horse": 1108.4937157069767,
        "ship": 905.9147040409669,
        "truck": 1148.2950647250686
    },
    "fid": 673.3473723504618,
    "wasserstein_distance": null,
    "g_loss": null,
    "g_cost": null,
    "d_loss_real": null,
    "d_loss_fake": null
}