{
    "epoch": 106,
    "avg_current_window": 865.4109573006656,
    "avg_prior_window": 878.5170706431843,
    "inception_score_mean": 1.8177329943284515,
    "inception_score_std": 0.17207327440226144,
    "fid_per_class": {
        "airplane": 1030.345906457405,
        "automobile": 1254.4188485800216,
        "bird": 1282.7946781056055,
        "cat": 1042.3747166090725,
        "deer": 1514.9502171471918,
        "dog": 1077.4840719150257,
        "frog": 1496.1117598399205,
        "horse": 1236.5036176868957,
        "ship": 912.2508496330519,
        "truck": 1261.8149964404404
    },
    "fid": 839.7446553239765,
    "wasserstein_distance": null,
    "g_loss": null,
    "g_cost": null,
    "d_loss_real": null,
    "d_loss_fake": null
}