{
    "epoch": 77,
    "avg_current_window": 887.3287107909645,
    "avg_prior_window": 904.9263464389521,
    "inception_score_mean": 1.8699802859902994,
    "inception_score_std": 0.07800962243750995,
    "fid_per_class": {
        "airplane": 1082.3002401441927,
        "automobile": 1230.7686609853376,
        "bird": 1297.9964374132658,
        "cat": 1025.5472900654718,
        "deer": 1554.1596905843126,
        "dog": 1030.94729315089,
        "frog": 1474.721594604041,
        "horse": 1285.0859538173022,
        "ship": 979.1583660870156,
        "truck": 1186.8663152564131
    },
    "fid": 827.5275638858466,
    "wasserstein_distance": null,
    "g_loss": null,
    "g_cost": null,
    "d_loss_real": null,
    "d_loss_fake": null
}