{
    "epoch": 109,
    "avg_current_window": 863.9226054351811,
    "avg_prior_window": 874.7160213032029,
    "inception_score_mean": 1.811305401035184,
    "inception_score_std": 0.14217108573026827,
    "fid_per_class": {
        "airplane": 1002.6289472722092,
        "automobile": 1118.7819039827405,
        "bird": 1255.158843315213,
        "cat": 1033.736968404558,
        "deer": 1341.4885647766769,
        "dog": 1130.4443977823767,
        "frog": 1295.3576373996455,
        "horse": 1165.7619884497021,
        "ship": 830.6547000957075,
        "truck": 1086.833838329526
    },
    "fid": 741.6260410314159,
    "wasserstein_distance": null,
    "g_loss": null,
    "g_cost": null,
    "d_loss_real": null,
    "d_loss_fake": null
}