{
    "epoch": 22,
    "avg_current_window": 979.7254267786051,
    "avg_prior_window": 1050.7511581106405,
    "inception_score_mean": 1.6633813129924075,
    "inception_score_std": 0.11497169794326226,
    "fid_per_class": {
        "airplane": 1164.1040344846601,
        "automobile": 1293.2351748231533,
        "bird": 1443.7407000579237,
        "cat": 1106.317375738429,
        "deer": 1426.9109024853542,
        "dog": 1236.3569917306158,
        "frog": 1634.426570112123,
        "horse": 1359.4471482655456,
        "ship": 1038.369445370006,
        "truck": 1324.3719626338534
    },
    "fid": 965.4943010180854,
    "wasserstein_distance": null,
    "g_loss": null,
    "g_cost": null,
    "d_loss_real": null,
    "d_loss_fake": null
}