{
    "epoch": 118,
    "avg_current_window": 857.8839475569196,
    "avg_prior_window": 867.5267085753799,
    "inception_score_mean": 1.823294253618545,
    "inception_score_std": 0.12995690128985848,
    "fid_per_class": {
        "airplane": 942.2111599326856,
        "automobile": 1229.1004635858149,
        "bird": 1265.234793605455,
        "cat": 1179.7201648770763,
        "deer": 1485.8757450236114,
        "dog": 1218.5928013068485,
        "frog": 1440.3353290485015,
        "horse": 1307.9457139267818,
        "ship": 920.7341034043875,
        "truck": 1219.2445426925326
    },
    "fid": 829.529606765248,
    "wasserstein_distance": null,
    "g_loss": null,
    "g_cost": null,
    "d_loss_real": null,
    "d_loss_fake": null
}