{
    "epoch": 18,
    "avg_current_window": 992.3760937711605,
    "avg_prior_window": 1071.6304816586048,
    "inception_score_mean": 1.5852797478475174,
    "inception_score_std": 0.11106788407147558,
    "fid_per_class": {
        "airplane": 1148.7629201020854,
        "automobile": 1294.3562670414387,
        "bird": 1329.9891378180894,
        "cat": 1057.3530363824943,
        "deer": 1430.1317098060513,
        "dog": 1147.6208777349173,
        "frog": 1564.6946428003832,
        "horse": 1334.8040639511664,
        "ship": 1019.8581427833328,
        "truck": 1268.7199333359433
    },
    "fid": 915.8198694203566,
    "wasserstein_distance": null,
    "g_loss": null,
    "g_cost": null,
    "d_loss_real": null,
    "d_loss_fake": null
}