{
    "epoch": 197,
    "avg_current_window": 816.8393995335639,
    "avg_prior_window": 821.0255151944976,
    "inception_score_mean": 1.882350194679438,
    "inception_score_std": 0.13063622153145502,
    "fid_per_class": {
        "airplane": 1033.2152237809355,
        "automobile": 1108.499972413329,
        "bird": 1134.9141754902632,
        "cat": 904.9880468216585,
        "deer": 1220.1566591942558,
        "dog": 1004.9580772091351,
        "frog": 1264.173034899944,
        "horse": 1208.35466206184,
        "ship": 906.9884934802449,
        "truck": 1075.5022671701286
    },
    "fid": 688.0268771570518,
    "wasserstein_distance": null,
    "g_loss": null,
    "g_cost": null,
    "d_loss_real": null,
    "d_loss_fake": null
}