{
    "epoch": 190,
    "avg_current_window": 817.0447321058675,
    "avg_prior_window": 823.186865813064,
    "inception_score_mean": 1.8232163698777595,
    "inception_score_std": 0.1822442579236838,
    "fid_per_class": {
        "airplane": 1039.2560685975748,
        "automobile": 1200.9154868296025,
        "bird": 1255.638379988729,
        "cat": 1027.6914340826788,
        "deer": 1495.5056440577807,
        "dog": 1055.3298131598144,
        "frog": 1449.6604120791758,
        "horse": 1344.220882287119,
        "ship": 1017.5700839729286,
        "truck": 1145.7193819273334
    },
    "fid": 813.2015811015859,
    "wasserstein_distance": null,
    "g_loss": null,
    "g_cost": null,
    "d_loss_real": null,
    "d_loss_fake": null
}