{
    "epoch": 132,
    "avg_current_window": 850.1908843475406,
    "avg_prior_window": 858.8612292220162,
    "inception_score_mean": 1.8348608617145856,
    "inception_score_std": 0.08697929585037041,
    "fid_per_class": {
        "airplane": 984.4793209234786,
        "automobile": 1139.5868393019052,
        "bird": 1165.0900664536239,
        "cat": 978.4631266997103,
        "deer": 1343.0778839803622,
        "dog": 1019.3916103324198,
        "frog": 1342.4185316327907,
        "horse": 1128.3770526834544,
        "ship": 902.3061629383899,
        "truck": 1132.298016681127
    },
    "fid": 723.6452828838426,
    "wasserstein_distance": null,
    "g_loss": null,
    "g_cost": null,
    "d_loss_real": null,
    "d_loss_fake": null
}