{
    "epoch": 95,
    "avg_current_window": 875.6289279913013,
    "avg_prior_window": 888.8718640634272,
    "inception_score_mean": 1.8865157838476088,
    "inception_score_std": 0.16166884584510163,
    "fid_per_class": {
        "airplane": 969.4365323420343,
        "automobile": 1192.1948736610675,
        "bird": 1275.6569572544636,
        "cat": 1061.3482012145237,
        "deer": 1562.820072887284,
        "dog": 1127.3834604094131,
        "frog": 1564.0925403032818,
        "horse": 1291.0734749737242,
        "ship": 928.6132451202216,
        "truck": 1192.7574871080237
    },
    "fid": 834.5479546767008,
    "wasserstein_distance": null,
    "g_loss": null,
    "g_cost": null,
    "d_loss_real": null,
    "d_loss_fake": null
}