{
    "epoch": 163,
    "avg_current_window": 830.0807376371482,
    "avg_prior_window": 837.4256097039461,
    "inception_score_mean": 1.9060709624876861,
    "inception_score_std": 0.1273044415085547,
    "fid_per_class": {
        "airplane": 948.8739165799848,
        "automobile": 1079.3998943273168,
        "bird": 1177.7890384228235,
        "cat": 1011.4573476035795,
        "deer": 1403.9729014103086,
        "dog": 1017.4849963462964,
        "frog": 1259.4809646715141,
        "horse": 1183.4969080461763,
        "ship": 916.0147838689178,
        "truck": 1100.7242382920167
    },
    "fid": 715.2293489888755,
    "wasserstein_distance": null,
    "g_loss": null,
    "g_cost": null,
    "d_loss_real": null,
    "d_loss_fake": null
}