{
    "epoch": 74,
    "avg_current_window": 891.2453248445405,
    "avg_prior_window": 907.822403006085,
    "inception_score_mean": 1.8203870556773754,
    "inception_score_std": 0.1643254085976694,
    "fid_per_class": {
        "airplane": 1032.8606187557496,
        "automobile": 1209.0787048461175,
        "bird": 1233.2781355127522,
        "cat": 966.0140202153533,
        "deer": 1352.190528379505,
        "dog": 977.738563868827,
        "frog": 1593.1465171558611,
        "horse": 1200.1957142202696,
        "ship": 886.7213563050783,
        "truck": 1164.4196729571254
    },
    "fid": 779.7479435680091,
    "wasserstein_distance": null,
    "g_loss": null,
    "g_cost": null,
    "d_loss_real": null,
    "d_loss_fake": null
}