{
    "epoch": 93,
    "avg_current_window": 876.8171627404913,
    "avg_prior_window": 889.637845814803,
    "inception_score_mean": 1.87387933261235,
    "inception_score_std": 0.15148531965473733,
    "fid_per_class": {
        "airplane": 976.3916326742695,
        "automobile": 1233.723743908961,
        "bird": 1278.2480173353615,
        "cat": 1070.6164490553306,
        "deer": 1523.6041991345203,
        "dog": 1152.0310665995057,
        "frog": 1466.028971173012,
        "horse": 1216.2161533618357,
        "ship": 949.6947090560359,
        "truck": 1254.7974824971025
    },
    "fid": 830.3878696425475,
    "wasserstein_distance": null,
    "g_loss": null,
    "g_cost": null,
    "d_loss_real": null,
    "d_loss_fake": null
}