{
    "epoch": 68,
    "avg_current_window": 896.2251978194674,
    "avg_prior_window": 913.4234583591449,
    "inception_score_mean": 1.7468317752995266,
    "inception_score_std": 0.13052383064898324,
    "fid_per_class": {
        "airplane": 1102.2465881654393,
        "automobile": 1230.5995583566223,
        "bird": 1362.3256607512155,
        "cat": 1133.8971950778828,
        "deer": 1575.228833061609,
        "dog": 1181.6995771955726,
        "frog": 1667.3263100557065,
        "horse": 1449.95829403591,
        "ship": 922.4398336238712,
        "truck": 1230.1466794569887
    },
    "fid": 931.0956600340267,
    "wasserstein_distance": null,
    "g_loss": null,
    "g_cost": null,
    "d_loss_real": null,
    "d_loss_fake": null
}