{
    "epoch": 96,
    "avg_current_window": 875.201001185941,
    "avg_prior_window": 887.9709394727272,
    "inception_score_mean": 1.8014343875564354,
    "inception_score_std": 0.16318455338528903,
    "fid_per_class": {
        "airplane": 951.7508855845407,
        "automobile": 1220.7704926911538,
        "bird": 1218.6668421109505,
        "cat": 1113.7300160205668,
        "deer": 1430.9886696533044,
        "dog": 1117.223538868369,
        "frog": 1404.5742784781517,
        "horse": 1226.3137250809223,
        "ship": 953.7153240680474,
        "truck": 1215.479247493652
    },
    "fid": 783.8190866305733,
    "wasserstein_distance": null,
    "g_loss": null,
    "g_cost": null,
    "d_loss_real": null,
    "d_loss_fake": null
}