{
    "epoch": 181,
    "avg_current_window": 821.5969223385918,
    "avg_prior_window": 827.8289207098092,
    "inception_score_mean": 1.889516830329503,
    "inception_score_std": 0.16035591219925147,
    "fid_per_class": {
        "airplane": 995.4451737282103,
        "automobile": 1182.9504851803224,
        "bird": 1184.3560297542344,
        "cat": 968.1088107393493,
        "deer": 1265.792892996343,
        "dog": 1063.1426913682333,
        "frog": 1328.448565638276,
        "horse": 1216.2168360529831,
        "ship": 890.8470011963797,
        "truck": 1091.0893707536948
    },
    "fid": 713.8757329732017,
    "wasserstein_distance": null,
    "g_loss": null,
    "g_cost": null,
    "d_loss_real": null,
    "d_loss_fake": null
}