{
    "epoch": 88,
    "avg_current_window": 880.7709034291688,
    "avg_prior_window": 894.0121343964605,
    "inception_score_mean": 1.8153185340980502,
    "inception_score_std": 0.17161514299358924,
    "fid_per_class": {
        "airplane": 900.749436133588,
        "automobile": 1212.6620581970346,
        "bird": 1249.6939505025025,
        "cat": 963.0504114612363,
        "deer": 1428.6530966069136,
        "dog": 1064.6873985417506,
        "frog": 1452.2199065176248,
        "horse": 1236.6427033541202,
        "ship": 843.7825534063077,
        "truck": 1153.8148614779252
    },
    "fid": 780.2909299358159,
    "wasserstein_distance": null,
    "g_loss": null,
    "g_cost": null,
    "d_loss_real": null,
    "d_loss_fake": null
}