{
    "epoch": 54,
    "avg_current_window": 909.0200378257242,
    "avg_prior_window": 933.5384690065185,
    "inception_score_mean": 1.643577608743935,
    "inception_score_std": 0.12303586981977851,
    "fid_per_class": {
        "airplane": 1037.0636160194697,
        "automobile": 1246.9093493921175,
        "bird": 1260.4865514242802,
        "cat": 991.0421177883577,
        "deer": 1491.220890664697,
        "dog": 1064.1999779208895,
        "frog": 1436.1912186973714,
        "horse": 1292.1459352223444,
        "ship": 918.0680698305728,
        "truck": 1223.6414272075035
    },
    "fid": 833.7343219968853,
    "wasserstein_distance": null,
    "g_loss": null,
    "g_cost": null,
    "d_loss_real": null,
    "d_loss_fake": null
}