{
    "epoch": 116,
    "avg_current_window": 1111.8031653444436,
    "avg_prior_window": 1131.886991694577,
    "inception_score_mean": 1.9025528242688154,
    "inception_score_std": 0.15039002980886715,
    "fid_per_class": {
        "airplane": 1041.4740499350548,
        "automobile": 1177.1893129166365,
        "bird": 1369.5542298151527,
        "cat": 1045.8174474656903,
        "deer": 1586.6470275160075,
        "dog": 1305.6053253869795,
        "frog": 1851.0003089383683,
        "horse": 1278.2370579605185,
        "ship": 1088.130640513094,
        "truck": 1152.5989914373079
    },
    "fid": 882.8523612585338,
    "wasserstein_distance": null,
    "g_loss": null,
    "g_cost": null,
    "d_loss_real": null,
    "d_loss_fake": null
}