{
    "epoch": 20,
    "avg_current_window": 1680.4389553309406,
    "avg_prior_window": 1835.6748359376063,
    "inception_score_mean": 1.4914203094287186,
    "inception_score_std": 0.12252808327115523,
    "fid_per_class": {
        "airplane": 1472.8923263642714,
        "automobile": 1646.6831865493746,
        "bird": 2234.719126723145,
        "cat": 1644.962685886183,
        "deer": 2144.5546516062436,
        "dog": 2037.0982934085175,
        "frog": 2508.610385586955,
        "horse": 1986.6985970830046,
        "ship": 1412.9912175484117,
        "truck": 1529.1555881922131
    },
    "fid": 1568.8446646676125,
    "wasserstein_distance": null,
    "g_loss": null,
    "g_cost": null,
    "d_loss_real": null,
    "d_loss_fake": null
}