{
    "epoch": 77,
    "avg_current_window": 1232.022896969509,
    "avg_prior_window": 1262.7604957265457,
    "inception_score_mean": 1.991230211650242,
    "inception_score_std": 0.20704926065886806,
    "fid_per_class": {
        "airplane": 1027.778150641378,
        "automobile": 1246.2832932885542,
        "bird": 1436.4592406702923,
        "cat": 1076.8353382699106,
        "deer": 1727.6954723155243,
        "dog": 1334.9970163072708,
        "frog": 1910.7480884909394,
        "horse": 1335.8674430035367,
        "ship": 1088.1919334245688,
        "truck": 1150.866441358704
    },
    "fid": 939.4490284080852,
    "wasserstein_distance": null,
    "g_loss": null,
    "g_cost": null,
    "d_loss_real": null,
    "d_loss_fake": null
}