{
    "epoch": 78,
    "avg_current_window": 1228.2719499366701,
    "avg_prior_window": 1259.4021392613222,
    "inception_score_mean": 1.922357021483338,
    "inception_score_std": 0.11883314014663823,
    "fid_per_class": {
        "airplane": 1064.1906960299198,
        "automobile": 1204.0108326183285,
        "bird": 1441.3919319878332,
        "cat": 1101.7335130272313,
        "deer": 1684.632884955077,
        "dog": 1305.479750448966,
        "frog": 1958.1029058992995,
        "horse": 1375.59214266991,
        "ship": 1077.3012337584003,
        "truck": 1060.7884326130456
    },
    "fid": 944.6982961493879,
    "wasserstein_distance": null,
    "g_loss": null,
    "g_cost": null,
    "d_loss_real": null,
    "d_loss_fake": null
}