{
    "epoch": 14,
    "avg_current_window": 1740.4552706846735,
    "avg_prior_window": 1955.9219127855763,
    "inception_score_mean": 1.3172055766066857,
    "inception_score_std": 0.10067979165686497,
    "fid_per_class": {
        "airplane": 1774.9402748493358,
        "automobile": 1861.3452053707847,
        "bird": 2026.5117514191152,
        "cat": 2052.663027020409,
        "deer": 2343.8052152424525,
        "dog": 2491.604997306754,
        "frog": 2448.6024409917245,
        "horse": 2052.438506795763,
        "ship": 1663.7902206837366,
        "truck": 1630.7973022672545
    },
    "fid": 1815.8856253988483,
    "wasserstein_distance": null,
    "g_loss": null,
    "g_cost": null,
    "d_loss_real": null,
    "d_loss_fake": null
}