{
    "epoch": 107,
    "avg_current_window": 1134.5455043049817,
    "avg_prior_window": 1157.7521921845678,
    "inception_score_mean": 1.893075027414104,
    "inception_score_std": 0.11327217631045818,
    "fid_per_class": {
        "airplane": 1039.8042060107637,
        "automobile": 1143.0434285280403,
        "bird": 1330.5609984771218,
        "cat": 1002.7383324284851,
        "deer": 1627.7835321424068,
        "dog": 1114.3460318804507,
        "frog": 1761.972385445301,
        "horse": 1330.69938458447,
        "ship": 1057.297428635151,
        "truck": 1071.7171733356035
    },
    "fid": 860.5610619802214,
    "wasserstein_distance": null,
    "g_loss": null,
    "g_cost": null,
    "d_loss_real": null,
    "d_loss_fake": null
}