{
    "epoch": 163,
    "avg_current_window": 1025.9667626259102,
    "avg_prior_window": 1038.6129739840783,
    "inception_score_mean": 1.9998134197459652,
    "inception_score_std": 0.14911233129986276,
    "fid_per_class": {
        "airplane": 1039.606017980696,
        "automobile": 1146.0017369216862,
        "bird": 1280.3791286798169,
        "cat": 985.9767453407981,
        "deer": 1443.4640257671215,
        "dog": 1159.620426680337,
        "frog": 1623.0763108666565,
        "horse": 1216.5451476921721,
        "ship": 1005.1067641584298,
        "truck": 1150.785816301292
    },
    "fid": 784.0356900188931,
    "wasserstein_distance": null,
    "g_loss": null,
    "g_cost": null,
    "d_loss_real": null,
    "d_loss_fake": null
}