{
    "epoch": 66,
    "avg_current_window": 1275.5410192662425,
    "avg_prior_window": 1315.168684656892,
    "inception_score_mean": 1.916206389241291,
    "inception_score_std": 0.1101550603167174,
    "fid_per_class": {
        "airplane": 1001.950322084648,
        "automobile": 1182.052505066399,
        "bird": 1351.1226137454526,
        "cat": 1031.801076020295,
        "deer": 1603.5257590893198,
        "dog": 1248.8511911600185,
        "frog": 1894.679890902642,
        "horse": 1377.6790762030957,
        "ship": 1104.7477467753688,
        "truck": 1106.5653786232424
    },
    "fid": 901.6210395331675,
    "wasserstein_distance": null,
    "g_loss": null,
    "g_cost": null,
    "d_loss_real": null,
    "d_loss_fake": null
}