{
    "epoch": 71,
    "avg_current_window": 1252.8574210836475,
    "avg_prior_window": 1289.2019441076543,
    "inception_score_mean": 1.8640543022058433,
    "inception_score_std": 0.16860194504878231,
    "fid_per_class": {
        "airplane": 1016.9000193459901,
        "automobile": 1302.2297554302004,
        "bird": 1443.2547344824484,
        "cat": 1138.4499226379858,
        "deer": 1843.5017098129833,
        "dog": 1388.8336730819653,
        "frog": 1920.204803467885,
        "horse": 1485.3981787429748,
        "ship": 1070.4087260539868,
        "truck": 1134.342580629711
    },
    "fid": 997.0697346605966,
    "wasserstein_distance": null,
    "g_loss": null,
    "g_cost": null,
    "d_loss_real": null,
    "d_loss_fake": null
}