{
    "epoch": 52,
    "avg_current_window": 1351.0741563952715,
    "avg_prior_window": 1405.5079185236514,
    "inception_score_mean": 1.8962353346003673,
    "inception_score_std": 0.18794582423775286,
    "fid_per_class": {
        "airplane": 1060.3059745835885,
        "automobile": 1170.7722637673442,
        "bird": 1413.029321071292,
        "cat": 1119.9113299267774,
        "deer": 1653.8561130109556,
        "dog": 1312.3350885427892,
        "frog": 1920.9787256800146,
        "horse": 1398.654356214648,
        "ship": 1120.2090619597684,
        "truck": 1114.1668128599044
    },
    "fid": 961.7110756808991,
    "wasserstein_distance": null,
    "g_loss": null,
    "g_cost": null,
    "d_loss_real": null,
    "d_loss_fake": null
}