{
    "epoch": 133,
    "avg_current_window": 1075.6857031112759,
    "avg_prior_window": 1091.4322954600304,
    "inception_score_mean": 2.007617339243425,
    "inception_score_std": 0.13508192538086536,
    "fid_per_class": {
        "airplane": 979.797671188807,
        "automobile": 1102.3526137756667,
        "bird": 1285.483136639429,
        "cat": 966.2465072269613,
        "deer": 1469.3761850884243,
        "dog": 1116.530441129338,
        "frog": 1659.775903470124,
        "horse": 1194.2360028745047,
        "ship": 1018.3745817953779,
        "truck": 1099.0430057580568
    },
    "fid": 771.6919794864561,
    "wasserstein_distance": null,
    "g_loss": null,
    "g_cost": null,
    "d_loss_real": null,
    "d_loss_fake": null
}