{
    "epoch": 44,
    "avg_current_window": 1408.8331359552687,
    "avg_prior_window": 1484.0018880238079,
    "inception_score_mean": 1.7534838529950676,
    "inception_score_std": 0.12264332930683607,
    "fid_per_class": {
        "airplane": 1036.199106462941,
        "automobile": 1327.6346627633523,
        "bird": 1515.5489497192914,
        "cat": 1131.0686224405092,
        "deer": 1784.4353828941037,
        "dog": 1362.4367328687213,
        "frog": 2002.025938554675,
        "horse": 1542.5311659648605,
        "ship": 1160.9137396626015,
        "truck": 1318.9675270245982
    },
    "fid": 1048.7522005006836,
    "wasserstein_distance": null,
    "g_loss": null,
    "g_cost": null,
    "d_loss_real": null,
    "d_loss_fake": null
}