{
    "epoch": 148,
    "avg_current_window": 1049.329720024231,
    "avg_prior_window": 1063.142183523821,
    "inception_score_mean": 2.0775168785387415,
    "inception_score_std": 0.0832245395444001,
    "fid_per_class": {
        "airplane": 1023.0806413925808,
        "automobile": 1144.2532734038477,
        "bird": 1259.0491086772915,
        "cat": 918.5757072671285,
        "deer": 1438.6874820334451,
        "dog": 1169.948543840656,
        "frog": 1600.247566886074,
        "horse": 1245.8863449843543,
        "ship": 1052.6578634778602,
        "truck": 1085.0646017842894
    },
    "fid": 771.0469667461367,
    "wasserstein_distance": null,
    "g_loss": null,
    "g_cost": null,
    "d_loss_real": null,
    "d_loss_fake": null
}