{
    "epoch": 109,
    "avg_current_window": 1129.5697136475912,
    "avg_prior_window": 1151.694203787984,
    "inception_score_mean": 1.8945779692201423,
    "inception_score_std": 0.13160351522732838,
    "fid_per_class": {
        "airplane": 1036.2868455355979,
        "automobile": 1218.8440474884192,
        "bird": 1328.4864825442341,
        "cat": 995.4302266559803,
        "deer": 1542.5465152871707,
        "dog": 1250.6457951081168,
        "frog": 1717.0772805906993,
        "horse": 1271.6513137324387,
        "ship": 1082.1705377171013,
        "truck": 1100.5669624842012
    },
    "fid": 844.3294259125441,
    "wasserstein_distance": null,
    "g_loss": null,
    "g_cost": null,
    "d_loss_real": null,
    "d_loss_fake": null
}