{
    "epoch": 174,
    "avg_current_window": 1010.9849986591765,
    "avg_prior_window": 1021.4456045373059,
    "inception_score_mean": 1.9883924017137786,
    "inception_score_std": 0.11895426930240083,
    "fid_per_class": {
        "airplane": 969.2048583049631,
        "automobile": 1118.8681696930776,
        "bird": 1284.6349249596017,
        "cat": 999.8108237576728,
        "deer": 1573.960632375474,
        "dog": 1199.2650088641271,
        "frog": 1647.1946898532874,
        "horse": 1340.61930018666,
        "ship": 999.7765857416796,
        "truck": 1133.740007814735
    },
    "fid": 819.9387008167689,
    "wasserstein_distance": null,
    "g_loss": null,
    "g_cost": null,
    "d_loss_real": null,
    "d_loss_fake": null
}