{
    "epoch": 160,
    "avg_current_window": 1030.6854901949528,
    "avg_prior_window": 1043.1577584223307,
    "inception_score_mean": 2.104977124340968,
    "inception_score_std": 0.15253760165237168,
    "fid_per_class": {
        "airplane": 998.1355388958975,
        "automobile": 1115.540909496808,
        "bird": 1251.343415414307,
        "cat": 917.0147856368278,
        "deer": 1501.5633105913537,
        "dog": 1154.5946145415196,
        "frog": 1679.0966396698095,
        "horse": 1267.3557553084565,
        "ship": 1031.4634622819012,
        "truck": 1079.1155828205206
    },
    "fid": 781.3990820388358,
    "wasserstein_distance": null,
    "g_loss": null,
    "g_cost": null,
    "d_loss_real": null,
    "d_loss_fake": null
}