{
    "epoch": 180,
    "avg_current_window": 1004.2857972701527,
    "avg_prior_window": 1014.3657301196945,
    "inception_score_mean": 2.098419431998331,
    "inception_score_std": 0.17897496893179624,
    "fid_per_class": {
        "airplane": 978.158206327005,
        "automobile": 1078.9219467747732,
        "bird": 1214.4790797424077,
        "cat": 949.6185131662437,
        "deer": 1488.0756309673673,
        "dog": 1071.9985450849006,
        "frog": 1553.4173172300968,
        "horse": 1263.1818810211607,
        "ship": 1001.5666603169142,
        "truck": 1115.0647381579217
    },
    "fid": 756.9159147000735,
    "wasserstein_distance": null,
    "g_loss": null,
    "g_cost": null,
    "d_loss_real": null,
    "d_loss_fake": null
}