{
    "epoch": 21,
    "avg_current_window": 1675.1249414898298,
    "avg_prior_window": 1828.2325995371214,
    "inception_score_mean": 1.5006452928953542,
    "inception_score_std": 0.10927040239140766,
    "fid_per_class": {
        "airplane": 1228.6699625975275,
        "automobile": 1476.259284226705,
        "bird": 1866.2169087826933,
        "cat": 1692.6910687689192,
        "deer": 2016.3168312427206,
        "dog": 1956.6394618156808,
        "frog": 2288.6962297036353,
        "horse": 1690.2381513982498,
        "ship": 1258.293445309574,
        "truck": 1340.7766394172777
    },
    "fid": 1384.0908095079762,
    "wasserstein_distance": null,
    "g_loss": null,
    "g_cost": null,
    "d_loss_real": null,
    "d_loss_fake": null
}