{
    "epoch": 42,
    "avg_current_window": 1429.054539690475,
    "avg_prior_window": 1509.210886336927,
    "inception_score_mean": 1.799893621795364,
    "inception_score_std": 0.14871399375630018,
    "fid_per_class": {
        "airplane": 1102.4508911674802,
        "automobile": 1343.2077630813667,
        "bird": 1279.6536806926872,
        "cat": 1102.2202193797002,
        "deer": 1589.9600905598336,
        "dog": 1228.3790077089668,
        "frog": 1985.2649660158377,
        "horse": 1360.253947031143,
        "ship": 1235.833204891554,
        "truck": 1329.8407401576094
    },
    "fid": 968.0619388285877,
    "wasserstein_distance": null,
    "g_loss": null,
    "g_cost": null,
    "d_loss_real": null,
    "d_loss_fake": null
}