{
    "epoch": 35,
    "avg_current_window": 1503.6321182365305,
    "avg_prior_window": 1610.2188519022284,
    "inception_score_mean": 1.7253576416359349,
    "inception_score_std": 0.1728997422327512,
    "fid_per_class": {
        "airplane": 1116.8902465534914,
        "automobile": 1275.5912200655982,
        "bird": 1429.5523814433027,
        "cat": 1084.698367722986,
        "deer": 1682.6946527225891,
        "dog": 1343.584418567341,
        "frog": 1930.470571686972,
        "horse": 1558.1594528722328,
        "ship": 1155.3942552857086,
        "truck": 1268.160925585748
    },
    "fid": 1023.1606822811596,
    "wasserstein_distance": null,
    "g_loss": null,
    "g_cost": null,
    "d_loss_real": null,
    "d_loss_fake": null
}