{
    "epoch": 45,
    "avg_current_window": 1400.8313373896112,
    "avg_prior_window": 1473.7582642236325,
    "inception_score_mean": 1.8050516299259936,
    "inception_score_std": 0.10355881330705957,
    "fid_per_class": {
        "airplane": 1042.7081823946392,
        "automobile": 1262.8397998495807,
        "bird": 1367.0115198125964,
        "cat": 1132.204549436215,
        "deer": 1640.591224618459,
        "dog": 1248.201596608932,
        "frog": 1966.7918950487738,
        "horse": 1430.6906980566002,
        "ship": 1109.5643464562424,
        "truck": 1229.4828890274227
    },
    "fid": 973.1377129588752,
    "wasserstein_distance": null,
    "g_loss": null,
    "g_cost": null,
    "d_loss_real": null,
    "d_loss_fake": null
}