{
    "epoch": 26,
    "avg_current_window": 1612.438780374317,
    "avg_prior_window": 1741.0340276568763,
    "inception_score_mean": 1.5697274044995662,
    "inception_score_std": 0.11286267638470102,
    "fid_per_class": {
        "airplane": 1203.6259284243406,
        "automobile": 1533.5403050632974,
        "bird": 1814.361212871679,
        "cat": 1610.3542883718278,
        "deer": 2104.637530504378,
        "dog": 1804.0592040548204,
        "frog": 2340.246026542597,
        "horse": 1833.6583828928713,
        "ship": 1122.9485098927703,
        "truck": 1310.011609030945
    },
    "fid": 1355.1608004273667,
    "wasserstein_distance": null,
    "g_loss": null,
    "g_cost": null,
    "d_loss_real": null,
    "d_loss_fake": null
}