{
    "epoch": 135,
    "avg_current_window": 1071.616279469737,
    "avg_prior_window": 1087.5232044071015,
    "inception_score_mean": 1.923953067335185,
    "inception_score_std": 0.15152463181894418,
    "fid_per_class": {
        "airplane": 1059.6428339954716,
        "automobile": 1107.6228249444775,
        "bird": 1316.7012323231675,
        "cat": 1009.4227360845832,
        "deer": 1599.9286708005477,
        "dog": 1195.2278501262053,
        "frog": 1843.0201482837952,
        "horse": 1337.212212713931,
        "ship": 1047.5915931784903,
        "truck": 1120.213776604769
    },
    "fid": 865.4975804806783,
    "wasserstein_distance": null,
    "g_loss": null,
    "g_cost": null,
    "d_loss_real": null,
    "d_loss_fake": null
}