{
    "epoch": 139,
    "avg_current_window": 1065.1936627138477,
    "avg_prior_window": 1079.6134158836903,
    "inception_score_mean": 2.03006699523189,
    "inception_score_std": 0.10979789387466522,
    "fid_per_class": {
        "airplane": 1016.2928801191915,
        "automobile": 1063.3469049256641,
        "bird": 1265.9126812535392,
        "cat": 980.8547223878966,
        "deer": 1491.7671858629237,
        "dog": 1090.1721509811487,
        "frog": 1644.8163942821966,
        "horse": 1193.903510603512,
        "ship": 1034.3190756734386,
        "truck": 1083.9755225360711
    },
    "fid": 769.9364841845054,
    "wasserstein_distance": null,
    "g_loss": null,
    "g_cost": null,
    "d_loss_real": null,
    "d_loss_fake": null
}