{
    "epoch": 54,
    "avg_current_window": 1337.4485845799968,
    "avg_prior_window": 1391.674514037448,
    "inception_score_mean": 1.797040342121575,
    "inception_score_std": 0.11804440520655878,
    "fid_per_class": {
        "airplane": 1131.0653707916606,
        "automobile": 1247.2419984985966,
        "bird": 1435.440949010556,
        "cat": 1231.0791466450867,
        "deer": 1690.8090641433585,
        "dog": 1386.325867434464,
        "frog": 2010.5457779567641,
        "horse": 1560.1144532179346,
        "ship": 1140.3442446188712,
        "truck": 1188.2159194672197
    },
    "fid": 1050.582969760546,
    "wasserstein_distance": null,
    "g_loss": null,
    "g_cost": null,
    "d_loss_real": null,
    "d_loss_fake": null
}