{
    "epoch": 50,
    "avg_current_window": 1363.841023756699,
    "avg_prior_window": 1422.4566198998084,
    "inception_score_mean": 1.862539077408946,
    "inception_score_std": 0.1707341706855334,
    "fid_per_class": {
        "airplane": 1068.1109392004441,
        "automobile": 1257.6166404626272,
        "bird": 1451.6641491915723,
        "cat": 1132.7075077260379,
        "deer": 1689.2990877933582,
        "dog": 1313.58907289305,
        "frog": 2013.2691841662086,
        "horse": 1410.7295724938406,
        "ship": 1163.8727606068849,
        "truck": 1217.129572339423
    },
    "fid": 997.4899421633139,
    "wasserstein_distance": null,
    "g_loss": null,
    "g_cost": null,
    "d_loss_real": null,
    "d_loss_fake": null
}