{
    "epoch": 122,
    "avg_current_window": 1097.705655077976,
    "avg_prior_window": 1117.273122203392,
    "inception_score_mean": 1.986268177835505,
    "inception_score_std": 0.12112184004887647,
    "fid_per_class": {
        "airplane": 976.7012981127295,
        "automobile": 1126.569084556545,
        "bird": 1174.0469393161034,
        "cat": 946.1197830634311,
        "deer": 1453.0918994946069,
        "dog": 1090.848936598055,
        "frog": 1584.4684874636255,
        "horse": 1106.5196104630184,
        "ship": 1037.3463378288602,
        "truck": 1117.3529525731515
    },
    "fid": 738.6657078785852,
    "wasserstein_distance": null,
    "g_loss": null,
    "g_cost": null,
    "d_loss_real": null,
    "d_loss_fake": null
}