{
    "epoch": 117,
    "avg_current_window": 1109.846320865077,
    "avg_prior_window": 1128.6744049281995,
    "inception_score_mean": 1.8903372475695501,
    "inception_score_std": 0.10868620403723059,
    "fid_per_class": {
        "airplane": 1082.1468330173927,
        "automobile": 1187.5467333569677,
        "bird": 1295.6535368508476,
        "cat": 1059.5931736392145,
        "deer": 1506.3982619370756,
        "dog": 1294.0482062689657,
        "frog": 1722.0353545176463,
        "horse": 1247.6234193306107,
        "ship": 1053.0712970660318,
        "truck": 1161.5022534599673
    },
    "fid": 868.9357565828637,
    "wasserstein_distance": null,
    "g_loss": null,
    "g_cost": null,
    "d_loss_real": null,
    "d_loss_fake": null
}