{
    "epoch": 70,
    "avg_current_window": 1256.9567710444628,
    "avg_prior_window": 1295.164727254954,
    "inception_score_mean": 1.912117158793715,
    "inception_score_std": 0.15322909054853526,
    "fid_per_class": {
        "airplane": 1031.054779096557,
        "automobile": 1186.2443772836994,
        "bird": 1443.7898236711687,
        "cat": 1153.991346254411,
        "deer": 1772.6712285862852,
        "dog": 1364.0264358896613,
        "frog": 1854.3165875076224,
        "horse": 1454.228614706838,
        "ship": 1068.739906525523,
        "truck": 1045.6451859523413
    },
    "fid": 965.9029238265812,
    "wasserstein_distance": null,
    "g_loss": null,
    "g_cost": null,
    "d_loss_real": null,
    "d_loss_fake": null
}