{
    "epoch": 130,
    "avg_current_window": 1080.9389140427395,
    "avg_prior_window": 1098.2885547101648,
    "inception_score_mean": 1.9566688281657103,
    "inception_score_std": 0.15023540219115772,
    "fid_per_class": {
        "airplane": 1015.7521128091939,
        "automobile": 1183.5782179548298,
        "bird": 1324.2885629391562,
        "cat": 1029.1946002680102,
        "deer": 1607.8543640923,
        "dog": 1202.7662812686099,
        "frog": 1712.0890055828866,
        "horse": 1299.191090101135,
        "ship": 1002.8288437897229,
        "truck": 1175.1579932664094
    },
    "fid": 855.9577473670561,
    "wasserstein_distance": null,
    "g_loss": null,
    "g_cost": null,
    "d_loss_real": null,
    "d_loss_fake": null
}