{
    "epoch": 147,
    "avg_current_window": 1050.909768835511,
    "avg_prior_window": 1065.0634831831292,
    "inception_score_mean": 2.0135631766231477,
    "inception_score_std": 0.16431399664352156,
    "fid_per_class": {
        "airplane": 1043.2356435242118,
        "automobile": 1113.7754706271076,
        "bird": 1295.4473444326804,
        "cat": 1019.8905947086611,
        "deer": 1525.3785952224173,
        "dog": 1164.2253532614222,
        "frog": 1771.724823679556,
        "horse": 1277.0070861377744,
        "ship": 1051.9002535144582,
        "truck": 1073.930810800849
    },
    "fid": 817.0625447660622,
    "wasserstein_distance": null,
    "g_loss": null,
    "g_cost": null,
    "d_loss_real": null,
    "d_loss_fake": null
}