{
    "epoch": 120,
    "avg_current_window": 1103.236859554375,
    "avg_prior_window": 1121.4710189561345,
    "inception_score_mean": 2.011916481943044,
    "inception_score_std": 0.17497488609922862,
    "fid_per_class": {
        "airplane": 983.4139316584912,
        "automobile": 1114.4980250019712,
        "bird": 1243.5786127610168,
        "cat": 1025.9311345650995,
        "deer": 1470.8323996590268,
        "dog": 1233.650520810644,
        "frog": 1603.6391341746412,
        "horse": 1210.145897471381,
        "ship": 1056.2872172500515,
        "truck": 1132.0084093180458
    },
    "fid": 795.4191069316283,
    "wasserstein_distance": null,
    "g_loss": null,
    "g_cost": null,
    "d_loss_real": null,
    "d_loss_fake": null
}