{
    "epoch": 168,
    "avg_current_window": 1018.098406755999,
    "avg_prior_window": 1030.7767975340016,
    "inception_score_mean": 2.0678773151226677,
    "inception_score_std": 0.13662545081166436,
    "fid_per_class": {
        "airplane": 989.5691883158261,
        "automobile": 1087.42787342476,
        "bird": 1303.3912361073797,
        "cat": 995.1601684401551,
        "deer": 1439.82236508265,
        "dog": 1194.9086815812504,
        "frog": 1641.5520228621335,
        "horse": 1187.1732776861154,
        "ship": 1001.8602851355222,
        "truck": 1051.0867259436116
    },
    "fid": 765.22332071651,
    "wasserstein_distance": null,
    "g_loss": null,
    "g_cost": null,
    "d_loss_real": null,
    "d_loss_fake": null
}