{
    "epoch": 27,
    "avg_current_window": 1602.9099663022077,
    "avg_prior_window": 1728.085332825085,
    "inception_score_mean": 1.677490224094726,
    "inception_score_std": 0.1149749726689004,
    "fid_per_class": {
        "airplane": 1339.4906705749163,
        "automobile": 1407.5589409964064,
        "bird": 1756.4404182562355,
        "cat": 1563.031823496326,
        "deer": 2023.4669395480573,
        "dog": 1727.1507254739088,
        "frog": 2198.7496071666687,
        "horse": 1704.4624288138318,
        "ship": 1307.3987044027936,
        "truck": 1389.198625593176
    },
    "fid": 1320.635171973357,
    "wasserstein_distance": null,
    "g_loss": null,
    "g_cost": null,
    "d_loss_real": null,
    "d_loss_fake": null
}