{
    "epoch": 91,
    "avg_current_window": 1183.3320760272204,
    "avg_prior_window": 1209.6607848916856,
    "inception_score_mean": 1.9096693870215478,
    "inception_score_std": 0.18024224078578313,
    "fid_per_class": {
        "airplane": 1028.6375164780789,
        "automobile": 1151.313204790116,
        "bird": 1389.0510126476038,
        "cat": 1002.755548927009,
        "deer": 1600.816128836825,
        "dog": 1162.8037113831679,
        "frog": 1699.3459746387425,
        "horse": 1399.5099904130807,
        "ship": 1065.440889044892,
        "truck": 1084.1031000431367
    },
    "fid": 864.2097396513411,
    "wasserstein_distance": null,
    "g_loss": null,
    "g_cost": null,
    "d_loss_real": null,
    "d_loss_fake": null
}