{
    "epoch": 186,
    "avg_current_window": 997.4632305678432,
    "avg_prior_window": 1007.3155189350546,
    "inception_score_mean": 2.0714899292062925,
    "inception_score_std": 0.1906142229446297,
    "fid_per_class": {
        "airplane": 985.0122041755559,
        "automobile": 1117.8801126000067,
        "bird": 1270.3427335514564,
        "cat": 1047.3797394553558,
        "deer": 1447.6250096247618,
        "dog": 1224.169352841684,
        "frog": 1544.8449041360145,
        "horse": 1347.8797427166892,
        "ship": 1011.6157409285033,
        "truck": 1165.8242441527464
    },
    "fid": 813.3029161394978,
    "wasserstein_distance": null,
    "g_loss": null,
    "g_cost": null,
    "d_loss_real": null,
    "d_loss_fake": null
}