{
    "epoch": 60,
    "avg_current_window": 1303.8970620907965,
    "avg_prior_window": 1349.8404691257847,
    "inception_score_mean": 1.9429585198689767,
    "inception_score_std": 0.19591619738997063,
    "fid_per_class": {
        "airplane": 1053.3596763561131,
        "automobile": 1205.0794596210515,
        "bird": 1468.7171025043388,
        "cat": 1132.7582199900262,
        "deer": 1728.090331883795,
        "dog": 1285.2546012321234,
        "frog": 1999.0883229904246,
        "horse": 1454.7584260341034,
        "ship": 1095.8675890277204,
        "truck": 1075.772440852302
    },
    "fid": 975.0325816077373,
    "wasserstein_distance": null,
    "g_loss": null,
    "g_cost": null,
    "d_loss_real": null,
    "d_loss_fake": null
}