{
    "epoch": 149,
    "avg_current_window": 1047.4620505391429,
    "avg_prior_window": 1061.3036032182522,
    "inception_score_mean": 1.9786690481027152,
    "inception_score_std": 0.14781659625825233,
    "fid_per_class": {
        "airplane": 1030.8143014409065,
        "automobile": 1199.533475998456,
        "bird": 1229.6471468103955,
        "cat": 1000.9376336370098,
        "deer": 1481.8348719497476,
        "dog": 1237.8466339493368,
        "frog": 1709.6748519836956,
        "horse": 1213.9069397415078,
        "ship": 1066.1577643632875,
        "truck": 1101.1149252815453
    },
    "fid": 816.3479812325147,
    "wasserstein_distance": null,
    "g_loss": null,
    "g_cost": null,
    "d_loss_real": null,
    "d_loss_fake": null
}