{
    "epoch": 58,
    "avg_current_window": 1313.7725140652021,
    "avg_prior_window": 1362.6834635343364,
    "inception_score_mean": 1.8580268317457935,
    "inception_score_std": 0.09727122878889698,
    "fid_per_class": {
        "airplane": 1156.6257536615144,
        "automobile": 1197.1116750013448,
        "bird": 1516.3072106060242,
        "cat": 1148.6503981639905,
        "deer": 1718.9123027062194,
        "dog": 1300.7575357709884,
        "frog": 2021.1511332520588,
        "horse": 1550.454265676961,
        "ship": 1183.6547801269978,
        "truck": 1164.0357290465272
    },
    "fid": 1037.4824763288298,
    "wasserstein_distance": null,
    "g_loss": null,
    "g_cost": null,
    "d_loss_real": null,
    "d_loss_fake": null
}