{
    "epoch": 39,
    "avg_current_window": 1457.0830111536472,
    "avg_prior_window": 1547.8565923023107,
    "inception_score_mean": 1.7888662846428782,
    "inception_score_std": 0.15006353249822016,
    "fid_per_class": {
        "airplane": 1149.4961661426282,
        "automobile": 1305.7858768973017,
        "bird": 1414.0468156162087,
        "cat": 1111.1576622423163,
        "deer": 1760.0804985654622,
        "dog": 1345.1666051772722,
        "frog": 1985.2269368581638,
        "horse": 1557.252808910619,
        "ship": 1227.837784634758,
        "truck": 1236.0765397399273
    },
    "fid": 1049.8361979362617,
    "wasserstein_distance": null,
    "g_loss": null,
    "g_cost": null,
    "d_loss_real": null,
    "d_loss_fake": null
}