{
    "epoch": 111,
    "avg_current_window": 1124.04995737414,
    "avg_prior_window": 1145.248763779557,
    "inception_score_mean": 1.9746437268236086,
    "inception_score_std": 0.16065701530246215,
    "fid_per_class": {
        "airplane": 1040.4551213384236,
        "automobile": 1149.6651306379188,
        "bird": 1327.5341970908962,
        "cat": 1002.8353648511926,
        "deer": 1596.7067952932432,
        "dog": 1183.7469568924719,
        "frog": 1786.4092292808343,
        "horse": 1342.9543324453684,
        "ship": 1097.3784113361562,
        "truck": 1197.3200916118715
    },
    "fid": 869.9108095685338,
    "wasserstein_distance": null,
    "g_loss": null,
    "g_cost": null,
    "d_loss_real": null,
    "d_loss_fake": null
}