{
    "epoch": 170,
    "avg_current_window": 1015.4371009812041,
    "avg_prior_window": 1026.990052269998,
    "inception_score_mean": 1.9957581222416383,
    "inception_score_std": 0.11539030769757254,
    "fid_per_class": {
        "airplane": 1039.271377675674,
        "automobile": 1109.2697152485598,
        "bird": 1347.050889497554,
        "cat": 1061.823105808901,
        "deer": 1534.390836916311,
        "dog": 1250.5891332275473,
        "frog": 1721.973096480453,
        "horse": 1280.399938782393,
        "ship": 1023.453873363085,
        "truck": 1200.4238872269052
    },
    "fid": 847.3135268554529,
    "wasserstein_distance": null,
    "g_loss": null,
    "g_cost": null,
    "d_loss_real": null,
    "d_loss_fake": null
}