{
    "epoch": 48,
    "avg_current_window": 1376.2265035544087,
    "avg_prior_window": 1441.596697256554,
    "inception_score_mean": 1.7448670491024068,
    "inception_score_std": 0.1266808167958346,
    "fid_per_class": {
        "airplane": 1101.40107371405,
        "automobile": 1333.2756748073941,
        "bird": 1522.3172035537818,
        "cat": 1272.2930718436792,
        "deer": 1865.9292695881538,
        "dog": 1513.4530146900884,
        "frog": 2127.4133054222875,
        "horse": 1540.9417665325072,
        "ship": 1212.4736616402656,
        "truck": 1235.4540049144878
    },
    "fid": 1125.4581853726113,
    "wasserstein_distance": null,
    "g_loss": null,
    "g_cost": null,
    "d_loss_real": null,
    "d_loss_fake": null
}