{
    "epoch": 12,
    "avg_current_window": 1750.160354605476,
    "avg_prior_window": 1997.408578552533,
    "inception_score_mean": 1.256407086260816,
    "inception_score_std": 0.04673819586439066,
    "fid_per_class": {
        "airplane": 1718.3331227468818,
        "automobile": 1634.0865496447366,
        "bird": 1770.0781408914286,
        "cat": 1765.9123385625335,
        "deer": 2128.2306049435047,
        "dog": 2206.1012341591068,
        "frog": 2448.8958741127203,
        "horse": 1868.2138961737624,
        "ship": 1591.2612805978044,
        "truck": 1460.375651166614
    },
    "fid": 1621.615505235863,
    "wasserstein_distance": null,
    "g_loss": null,
    "g_cost": null,
    "d_loss_real": null,
    "d_loss_fake": null
}