{
    "epoch": 7,
    "avg_current_window": 1746.362746400417,
    "avg_prior_window": 2.0,
    "inception_score_mean": 1.1126758724297032,
    "inception_score_std": 0.033227279506428904,
    "fid_per_class": {
        "airplane": 1770.1815561318601,
        "automobile": 1679.9584616144452,
        "bird": 2042.2375085095707,
        "cat": 1828.041514719656,
        "deer": 2367.920856372157,
        "dog": 2136.30193340472,
        "frog": 2456.815368539338,
        "horse": 2060.0993616445185,
        "ship": 1711.815191107853,
        "truck": 1561.441247706338
    },
    "fid": 1757.3208250648106,
    "wasserstein_distance": null,
    "g_loss": null,
    "g_cost": null,
    "d_loss_real": null,
    "d_loss_fake": null
}