{
    "epoch": 98,
    "avg_current_window": 1160.2199425798042,
    "avg_prior_window": 1185.3030135832043,
    "inception_score_mean": 1.8996328170060344,
    "inception_score_std": 0.14833265513570432,
    "fid_per_class": {
        "airplane": 1076.9900403146767,
        "automobile": 1198.3861667109638,
        "bird": 1332.9894382842508,
        "cat": 1012.3309027273604,
        "deer": 1608.0743805371199,
        "dog": 1187.0558193548538,
        "frog": 1854.4772872205904,
        "horse": 1322.7790624226654,
        "ship": 1087.9123467034697,
        "truck": 1115.4665618160182
    },
    "fid": 874.9572861027708,
    "wasserstein_distance": null,
    "g_loss": null,
    "g_cost": null,
    "d_loss_real": null,
    "d_loss_fake": null
}