{
    "epoch": 176,
    "avg_current_window": 1008.6022884712871,
    "avg_prior_window": 1019.227700431726,
    "inception_score_mean": 2.101256938080436,
    "inception_score_std": 0.1347877401409239,
    "fid_per_class": {
        "airplane": 954.3500907169887,
        "automobile": 1141.072250318489,
        "bird": 1322.1908695345464,
        "cat": 954.2539910075077,
        "deer": 1444.7331561432557,
        "dog": 1069.4707067879162,
        "frog": 1541.2576174786254,
        "horse": 1244.38050310582,
        "ship": 1016.6357140560879,
        "truck": 1084.6127337190687
    },
    "fid": 763.26965098702,
    "wasserstein_distance": null,
    "g_loss": null,
    "g_cost": null,
    "d_loss_real": null,
    "d_loss_fake": null
}