{
    "epoch": 150,
    "avg_current_window": 1045.9212900770988,
    "avg_prior_window": 1059.6096783121013,
    "inception_score_mean": 1.9842033893554558,
    "inception_score_std": 0.13137712987512914,
    "fid_per_class": {
        "airplane": 998.4809393703304,
        "automobile": 1139.5885922630546,
        "bird": 1211.672103149515,
        "cat": 916.1068584491745,
        "deer": 1403.5624914762684,
        "dog": 1060.8720586017398,
        "frog": 1607.634190287321,
        "horse": 1272.7905046928506,
        "ship": 1009.3032537366571,
        "truck": 1077.184198475983
    },
    "fid": 752.0198544270521,
    "wasserstein_distance": null,
    "g_loss": null,
    "g_cost": null,
    "d_loss_real": null,
    "d_loss_fake": null
}