{
    "epoch": 105,
    "avg_current_window": 1140.7256875614319,
    "avg_prior_window": 1163.0506993768468,
    "inception_score_mean": 1.9722880144731085,
    "inception_score_std": 0.1284380878777522,
    "fid_per_class": {
        "airplane": 1012.0785280158436,
        "automobile": 1227.451755244398,
        "bird": 1245.8055336238958,
        "cat": 952.8931705500436,
        "deer": 1421.5295424186372,
        "dog": 1123.4144986835374,
        "frog": 1638.0167317195444,
        "horse": 1195.1365448877218,
        "ship": 998.3009143647434,
        "truck": 1099.982459070182
    },
    "fid": 793.2944791755147,
    "wasserstein_distance": null,
    "g_loss": null,
    "g_cost": null,
    "d_loss_real": null,
    "d_loss_fake": null
}