{
    "epoch": 103,
    "avg_current_window": 1146.5118796390864,
    "avg_prior_window": 1169.1480781522814,
    "inception_score_mean": 1.967498119174006,
    "inception_score_std": 0.14786839127184617,
    "fid_per_class": {
        "airplane": 1013.2354504765945,
        "automobile": 1163.9283720161557,
        "bird": 1320.0811930951963,
        "cat": 1007.8556898198053,
        "deer": 1466.9281052408005,
        "dog": 1215.6139270334188,
        "frog": 1713.3208172387278,
        "horse": 1251.9640585283707,
        "ship": 1022.5896639306459,
        "truck": 1085.7747642231302
    },
    "fid": 818.8096950967122,
    "wasserstein_distance": null,
    "g_loss": null,
    "g_cost": null,
    "d_loss_real": null,
    "d_loss_fake": null
}