{
    "epoch": 144,
    "avg_current_window": 1055.7592516937943,
    "avg_prior_window": 1070.7327741108586,
    "inception_score_mean": 2.0007837672084907,
    "inception_score_std": 0.09293843960492182,
    "fid_per_class": {
        "airplane": 985.256920130033,
        "automobile": 1073.0381952115013,
        "bird": 1244.896920953801,
        "cat": 988.813003202265,
        "deer": 1436.3161162594615,
        "dog": 1154.5778145531253,
        "frog": 1806.833638497405,
        "horse": 1265.264547905421,
        "ship": 1027.315969364228,
        "truck": 1116.8684780459294
    },
    "fid": 798.3866195219241,
    "wasserstein_distance": null,
    "g_loss": null,
    "g_cost": null,
    "d_loss_real": null,
    "d_loss_fake": null
}