{
    "epoch": 19,
    "avg_current_window": 1690.2811445658442,
    "avg_prior_window": 1870.1613867845913,
    "inception_score_mean": 1.3609161904678426,
    "inception_score_std": 0.06742866280331561,
    "fid_per_class": {
        "airplane": 1378.6885404238872,
        "automobile": 1653.781070515845,
        "bird": 2001.375748877144,
        "cat": 1679.3632420667213,
        "deer": 2095.450635401876,
        "dog": 2096.3699019803194,
        "frog": 2375.037975692101,
        "horse": 1723.2496473916895,
        "ship": 1250.0465460112298,
        "truck": 1504.150234108741
    },
    "fid": 1493.4373598677753,
    "wasserstein_distance": null,
    "g_loss": null,
    "g_cost": null,
    "d_loss_real": null,
    "d_loss_fake": null
}