{
    "epoch": 199,
    "avg_current_window": 984.211991524278,
    "avg_prior_window": 992.9536025082598,
    "inception_score_mean": 2.078423118894256,
    "inception_score_std": 0.1005707665611422,
    "fid_per_class": {
        "airplane": 962.4759893527162,
        "automobile": 1000.4331502335394,
        "bird": 1256.2222149497352,
        "cat": 1043.5796304190012,
        "deer": 1416.732738574094,
        "dog": 1131.1237076984316,
        "frog": 1565.8662590486206,
        "horse": 1321.8712293455,
        "ship": 974.2451601045291,
        "truck": 1018.7926022372469
    },
    "fid": 776.371374724304,
    "wasserstein_distance": null,
    "g_loss": null,
    "g_cost": null,
    "d_loss_real": null,
    "d_loss_fake": null
}