{
    "epoch": 195,
    "avg_current_window": 987.8615327518072,
    "avg_prior_window": 997.7304968878213,
    "inception_score_mean": 2.087408220786494,
    "inception_score_std": 0.13676019524161812,
    "fid_per_class": {
        "airplane": 988.9653932670923,
        "automobile": 1120.714128498028,
        "bird": 1269.9537204322821,
        "cat": 1061.9967886057025,
        "deer": 1411.3996295583706,
        "dog": 1213.2074548631233,
        "frog": 1672.5449031991307,
        "horse": 1328.7986398461012,
        "ship": 1044.208686342908,
        "truck": 1206.6575644526135
    },
    "fid": 829.066743931207,
    "wasserstein_distance": null,
    "g_loss": null,
    "g_cost": null,
    "d_loss_real": null,
    "d_loss_fake": null
}