{
    "epoch": 22,
    "avg_current_window": 1661.8961173088364,
    "avg_prior_window": 1796.8833535038175,
    "inception_score_mean": 1.6355730985434,
    "inception_score_std": 0.18134967056137669,
    "fid_per_class": {
        "airplane": 1392.0696885866532,
        "automobile": 1406.3521759248824,
        "bird": 2001.8766927598472,
        "cat": 1719.4106852621085,
        "deer": 2176.2861953534634,
        "dog": 2137.8107652751023,
        "frog": 2545.174840756262,
        "horse": 1847.0411519501713,
        "ship": 1430.5734444724073,
        "truck": 1306.0404485460517
    },
    "fid": 1456.16274135747,
    "wasserstein_distance": null,
    "g_loss": null,
    "g_cost": null,
    "d_loss_real": null,
    "d_loss_fake": null
}