{
    "epoch": 169,
    "avg_current_window": 1016.6021044717415,
    "avg_prior_window": 1028.8386635017853,
    "inception_score_mean": 2.0335933055816025,
    "inception_score_std": 0.1264659319768444,
    "fid_per_class": {
        "airplane": 1019.8980145059561,
        "automobile": 1060.592123727332,
        "bird": 1318.2708104393112,
        "cat": 996.6147522336796,
        "deer": 1511.97634980276,
        "dog": 1240.0297815186693,
        "frog": 1709.9286135114182,
        "horse": 1299.6856024969566,
        "ship": 1001.5203322426712,
        "truck": 1038.0367259228033
    },
    "fid": 818.5515110803731,
    "wasserstein_distance": null,
    "g_loss": null,
    "g_cost": null,
    "d_loss_real": null,
    "d_loss_fake": null
}