{
    "epoch": 18,
    "avg_current_window": 1697.056500531383,
    "avg_prior_window": 1874.3364453527251,
    "inception_score_mean": 1.2888271697651086,
    "inception_score_std": 0.0821010054951426,
    "fid_per_class": {
        "airplane": 1405.7858428587501,
        "automobile": 1610.544444280489,
        "bird": 2158.730926993926,
        "cat": 1685.6968674521436,
        "deer": 2158.4240924309333,
        "dog": 1885.909032762033,
        "frog": 2529.498077780826,
        "horse": 2001.3070694923667,
        "ship": 1306.8268505326928,
        "truck": 1658.2477308486273
    },
    "fid": 1568.3247371861428,
    "wasserstein_distance": null,
    "g_loss": null,
    "g_cost": null,
    "d_loss_real": null,
    "d_loss_fake": null
}