{
    "epoch": 99,
    "avg_current_window": 1157.3385016052887,
    "avg_prior_window": 1181.9355395708208,
    "inception_score_mean": 1.9388741558289233,
    "inception_score_std": 0.1504621890585274,
    "fid_per_class": {
        "airplane": 1009.0938778672783,
        "automobile": 1186.2536767200604,
        "bird": 1380.8970097299168,
        "cat": 1064.2520101635912,
        "deer": 1597.0208235102036,
        "dog": 1246.4733181741278,
        "frog": 1911.7782689191095,
        "horse": 1329.5224397180234,
        "ship": 1006.6848469499239,
        "truck": 1137.726431040162
    },
    "fid": 896.3055578740167,
    "wasserstein_distance": null,
    "g_loss": null,
    "g_cost": null,
    "d_loss_real": null,
    "d_loss_fake": null
}