{
    "epoch": 37,
    "avg_current_window": 1479.4884014715656,
    "avg_prior_window": 1577.8945042601713,
    "inception_score_mean": 1.8091854912854632,
    "inception_score_std": 0.20900051353663346,
    "fid_per_class": {
        "airplane": 1168.3983042649334,
        "automobile": 1312.4278994352503,
        "bird": 1543.0219217921212,
        "cat": 1280.8661407318264,
        "deer": 1769.8159041902682,
        "dog": 1475.0298984304027,
        "frog": 2064.513130352422,
        "horse": 1591.1971232895735,
        "ship": 1166.3269414482418,
        "truck": 1291.8719329186379
    },
    "fid": 1099.7319400183687,
    "wasserstein_distance": null,
    "g_loss": null,
    "g_cost": null,
    "d_loss_real": null,
    "d_loss_fake": null
}