{
    "epoch": 74,
    "avg_current_window": 1242.3831914334664,
    "avg_prior_window": 1275.1735358422086,
    "inception_score_mean": 1.8750955485344207,
    "inception_score_std": 0.12229482754931086,
    "fid_per_class": {
        "airplane": 1066.9168928553931,
        "automobile": 1217.7839829712982,
        "bird": 1500.3721304108963,
        "cat": 1148.0108644782376,
        "deer": 1782.8675202547083,
        "dog": 1320.7443577484928,
        "frog": 1931.5396141929268,
        "horse": 1519.1005944723452,
        "ship": 1037.4127962335106,
        "truck": 1088.8540032237788
    },
    "fid": 975.5619419320482,
    "wasserstein_distance": null,
    "g_loss": null,
    "g_cost": null,
    "d_loss_real": null,
    "d_loss_fake": null
}