{
    "epoch": 96,
    "avg_current_window": 1166.2094848419833,
    "avg_prior_window": 1192.8288863530593,
    "inception_score_mean": 1.9845474228822895,
    "inception_score_std": 0.13740960779791067,
    "fid_per_class": {
        "airplane": 1014.9893856165318,
        "automobile": 1151.4082801268185,
        "bird": 1351.4433586569548,
        "cat": 1027.8013256546071,
        "deer": 1549.9700553373661,
        "dog": 1198.8880652777793,
        "frog": 1793.688804569782,
        "horse": 1280.820447160001,
        "ship": 1032.877390451792,
        "truck": 1106.8053674357063
    },
    "fid": 847.7619413659634,
    "wasserstein_distance": null,
    "g_loss": null,
    "g_cost": null,
    "d_loss_real": null,
    "d_loss_fake": null
}