{
    "epoch": 167,
    "avg_current_window": 1019.4401906295883,
    "avg_prior_window": 1032.2998907902677,
    "inception_score_mean": 2.046659887996393,
    "inception_score_std": 0.09038482829266767,
    "fid_per_class": {
        "airplane": 1009.1944033988763,
        "automobile": 1091.6948769632409,
        "bird": 1319.1443702909519,
        "cat": 970.445474452498,
        "deer": 1453.1334210369278,
        "dog": 1119.780576346381,
        "frog": 1700.2466109710458,
        "horse": 1274.4948315690394,
        "ship": 996.814357278048,
        "truck": 1083.2486153511863
    },
    "fid": 794.0204998665777,
    "wasserstein_distance": null,
    "g_loss": null,
    "g_cost": null,
    "d_loss_real": null,
    "d_loss_fake": null
}