{
    "epoch": 61,
    "avg_current_window": 1298.5058410992708,
    "avg_prior_window": 1343.380210539506,
    "inception_score_mean": 1.8631043386749788,
    "inception_score_std": 0.16903421350866407,
    "fid_per_class": {
        "airplane": 1126.1154655904804,
        "automobile": 1233.6673002698726,
        "bird": 1515.7074284365713,
        "cat": 1176.1739068067002,
        "deer": 1750.113427641374,
        "dog": 1407.669565125406,
        "frog": 1873.953577692274,
        "horse": 1490.7721876624862,
        "ship": 1153.717310030563,
        "truck": 1129.0783987335776
    },
    "fid": 1016.4334570148884,
    "wasserstein_distance": null,
    "g_loss": null,
    "g_cost": null,
    "d_loss_real": null,
    "d_loss_fake": null
}