{
    "epoch": 85,
    "avg_current_window": 1202.9105794064444,
    "avg_prior_window": 1233.1519346414657,
    "inception_score_mean": 1.992677226970478,
    "inception_score_std": 0.1054053788913008,
    "fid_per_class": {
        "airplane": 1080.1970492106288,
        "automobile": 1160.7193542757866,
        "bird": 1345.221048901048,
        "cat": 1058.4091326761754,
        "deer": 1594.0318200319157,
        "dog": 1254.8036763488535,
        "frog": 1861.4903993450635,
        "horse": 1440.3389191448186,
        "ship": 1061.721539048514,
        "truck": 1086.4425342388802
    },
    "fid": 903.1220880505364,
    "wasserstein_distance": null,
    "g_loss": null,
    "g_cost": null,
    "d_loss_real": null,
    "d_loss_fake": null
}