{
    "epoch": 5,
    "avg_current_window": 1668.3466380535913,
    "avg_prior_window": 2147.0481525656824,
    "inception_score_mean": 1.0447985730275409,
    "inception_score_std": 0.02327623627026744,
    "fid_per_class": {
        "airplane": 1773.3974694226313,
        "automobile": 1913.5711399254947,
        "bird": 2130.569539967978,
        "cat": 2052.204512260451,
        "deer": 2172.2973239854405,
        "dog": 2187.4683891372706,
        "frog": 2369.6288037659597,
        "horse": 2069.069646938734,
        "ship": 1561.7005358080555,
        "truck": 1612.7852744999732
    },
    "fid": 1794.8982253718882,
    "wasserstein_distance": null,
    "g_loss": null,
    "g_cost": null,
    "d_loss_real": null,
    "d_loss_fake": null
}