{
    "epoch": 57,
    "avg_current_window": 1319.8121366703917,
    "avg_prior_window": 1369.5686001583658,
    "inception_score_mean": 1.8398733843970334,
    "inception_score_std": 0.10841519466226529,
    "fid_per_class": {
        "airplane": 1123.5925332570068,
        "automobile": 1172.7865802241472,
        "bird": 1411.0489216533979,
        "cat": 1114.7977038416518,
        "deer": 1756.9514609932376,
        "dog": 1304.381956100915,
        "frog": 1963.8162024090518,
        "horse": 1427.4192080279727,
        "ship": 1153.4344737229344,
        "truck": 1119.9060574227235
    },
    "fid": 969.5140255694035,
    "wasserstein_distance": null,
    "g_loss": null,
    "g_cost": null,
    "d_loss_real": null,
    "d_loss_fake": null
}