{
    "epoch": 114,
    "avg_current_window": 1116.1461991689055,
    "avg_prior_window": 1137.3158551697247,
    "inception_score_mean": 1.9546780201864995,
    "inception_score_std": 0.15547855114481324,
    "fid_per_class": {
        "airplane": 1071.3174622061401,
        "automobile": 1166.9878728959834,
        "bird": 1354.309506788376,
        "cat": 1054.0772672683274,
        "deer": 1585.3763181318527,
        "dog": 1273.4587337393841,
        "frog": 1807.3538123429507,
        "horse": 1228.9117202008156,
        "ship": 1152.9787827437494,
        "truck": 1132.2016699265318
    },
    "fid": 894.0410049306438,
    "wasserstein_distance": null,
    "g_loss": null,
    "g_cost": null,
    "d_loss_real": null,
    "d_loss_fake": null
}