{
    "epoch": 108,
    "avg_current_window": 1132.0086113204932,
    "avg_prior_window": 1154.461488329346,
    "inception_score_mean": 1.9551990750583776,
    "inception_score_std": 0.16498843852855452,
    "fid_per_class": {
        "airplane": 1037.189624262123,
        "automobile": 1148.4767691906382,
        "bird": 1357.9293549298577,
        "cat": 984.6934414836184,
        "deer": 1571.9981125740912,
        "dog": 1164.7875936591797,
        "frog": 1822.802124838576,
        "horse": 1350.4567181627167,
        "ship": 1110.2097287521615,
        "truck": 1153.7956559480374
    },
    "fid": 866.1687649742004,
    "wasserstein_distance": null,
    "g_loss": null,
    "g_cost": null,
    "d_loss_real": null,
    "d_loss_fake": null
}