{
    "epoch": 8,
    "avg_current_window": 1747.7325062334664,
    "avg_prior_window": 1.0,
    "inception_score_mean": 1.1159097931955588,
    "inception_score_std": 0.03182769750772587,
    "fid_per_class": {
        "airplane": 1671.794458254874,
        "automobile": 1797.7399299671085,
        "bird": 1885.4915523648267,
        "cat": 1885.3932581203903,
        "deer": 2241.5853649707574,
        "dog": 2150.405917998308,
        "frog": 2337.1963357028562,
        "horse": 1913.5455273784214,
        "ship": 1644.6321287956139,
        "truck": 1589.5596063505113
    },
    "fid": 1741.456627763791,
    "wasserstein_distance": null,
    "g_loss": null,
    "g_cost": null,
    "d_loss_real": null,
    "d_loss_fake": null
}