{
    "epoch": 47,
    "avg_current_window": 962.3675653540108,
    "avg_prior_window": 1008.2561021563376,
    "inception_score_mean": 1.7895332070467103,
    "inception_score_std": 0.13694053216195987,
    "fid_per_class": {
        "airplane": 862.7503703415464,
        "automobile": 1064.5647166592084,
        "bird": 1167.1014536928146,
        "cat": 942.7455619880012,
        "deer": 1214.6848138683167,
        "dog": 920.4516707539419,
        "frog": 1268.59201849539,
        "horse": 1209.9302452493725,
        "ship": 814.2284992757238,
        "truck": 987.9504915440839
    },
    "fid": 656.6483991804761
}