{
    "epoch": 32,
    "avg_current_window": 1065.8576926426495,
    "avg_prior_window": 1145.5842963653931,
    "inception_score_mean": 1.8103913772515572,
    "inception_score_std": 0.14509557740758114,
    "fid_per_class": {
        "airplane": 987.518067282615,
        "automobile": 1197.0297556673827,
        "bird": 1221.605946539151,
        "cat": 1008.0600431634027,
        "deer": 1217.4506458989108,
        "dog": 1027.8152096675542,
        "frog": 1409.0126275693262,
        "horse": 1331.5530694750826,
        "ship": 897.7782216133526,
        "truck": 951.6747241344136
    },
    "fid": 741.8865282103867
}