{
    "epoch": 5,
    "avg_current_window": 1379.8215045706465,
    "avg_prior_window": 1859.7931154711014,
    "inception_score_mean": 1.4199348987878968,
    "inception_score_std": 0.0359033634581901,
    "fid_per_class": {
        "airplane": 1388.359804847612,
        "automobile": 1417.2914314675158,
        "bird": 1446.5522393146794,
        "cat": 1454.710113549644,
        "deer": 1419.0559165924521,
        "dog": 1531.14713842079,
        "frog": 1685.9418726387737,
        "horse": 1611.831468807833,
        "ship": 1376.2105115580237,
        "truck": 1399.4323405375574
    },
    "fid": 1225.698478009249
}