{
    "epoch": 3,
    "avg_current_window": 607.3226674407546,
    "avg_prior_window": 1861.7931154711014,
    "inception_score_mean": 1.2506117190981476,
    "inception_score_std": 0.02315802713208558,
    "fid_per_class": {
        "airplane": 1729.7905641849916,
        "automobile": 1757.3858442468895,
        "bird": 1987.7345422734645,
        "cat": 2010.2643844301276,
        "deer": 2241.3603687797977,
        "dog": 2062.9456545286557,
        "frog": 2287.578998702573,
        "horse": 2229.721723423504,
        "ship": 1689.8165193087966,
        "truck": 1640.8602625334952
    },
    "fid": 1796.6354694683162
}