{
    "epoch": 35,
    "avg_current_window": 1037.7635762545044,
    "avg_prior_window": 1113.1768273784648,
    "inception_score_mean": 1.71747640773282,
    "inception_score_std": 0.11258329359171572,
    "fid_per_class": {
        "airplane": 1031.5083854038799,
        "automobile": 1211.06410147967,
        "bird": 1280.2930836945834,
        "cat": 1054.234040006104,
        "deer": 1306.7883981541831,
        "dog": 1115.3199958283546,
        "frog": 1453.2671251354657,
        "horse": 1406.3767914641726,
        "ship": 924.0564881348364,
        "truck": 1070.992281718914
    },
    "fid": 816.4017526573599
}