{
    "epoch": 41,
    "avg_current_window": 997.4131706949097,
    "avg_prior_window": 1053.7811210829798,
    "inception_score_mean": 1.7611321084546112,
    "inception_score_std": 0.12197514232042404,
    "fid_per_class": {
        "airplane": 895.0174330605416,
        "automobile": 1131.8879068814983,
        "bird": 1198.773722705439,
        "cat": 952.8217059388708,
        "deer": 1227.4495733683566,
        "dog": 1027.3393131812966,
        "frog": 1276.655829445641,
        "horse": 1304.3141087511476,
        "ship": 773.8435703193619,
        "truck": 1017.5509879135636
    },
    "fid": 708.5312889899086
}