{
    "epoch": 179,
    "avg_current_window": 744.4581793128739,
    "avg_prior_window": 750.7523222116216,
    "inception_score_mean": 1.971511976400805,
    "inception_score_std": 0.13946120170286846,
    "fid_per_class": {
        "airplane": 920.014115044949,
        "automobile": 1171.2353331739596,
        "bird": 1258.8465836496907,
        "cat": 1023.4238982683103,
        "deer": 1305.6036593655804,
        "dog": 1005.5861866897907,
        "frog": 1434.9857034300858,
        "horse": 1216.5880464022205,
        "ship": 921.8254230346379,
        "truck": 1058.5379471601918
    },
    "fid": 744.9809753188395
}