{
    "epoch": 123,
    "avg_current_window": 782.7408591182701,
    "avg_prior_window": 793.5935379485159,
    "inception_score_mean": 2.0116747918488938,
    "inception_score_std": 0.11508752966407503,
    "fid_per_class": {
        "airplane": 869.8943592809696,
        "automobile": 1086.2204024419989,
        "bird": 1149.6952088661922,
        "cat": 933.5966728450201,
        "deer": 1152.6276625009307,
        "dog": 910.9342163204748,
        "frog": 1161.2814975453007,
        "horse": 1146.8564655826535,
        "ship": 796.4126624489452,
        "truck": 1036.2608054339075
    },
    "fid": 630.9397067360089
}