{
    "epoch": 46,
    "avg_current_window": 966.9901966706879,
    "avg_prior_window": 1014.694421645883,
    "inception_score_mean": 1.82837707740768,
    "inception_score_std": 0.11333638817077099,
    "fid_per_class": {
        "airplane": 904.7457037514264,
        "automobile": 1074.4378693551805,
        "bird": 1269.9953402794013,
        "cat": 1012.6552580534733,
        "deer": 1376.177569444947,
        "dog": 1116.0314593746593,
        "frog": 1472.8563410471106,
        "horse": 1287.6895723854238,
        "ship": 769.8669437829883,
        "truck": 953.2028140220399
    },
    "fid": 749.7265247868622
}