{
    "epoch": 106,
    "avg_current_window": 801.7597592643571,
    "avg_prior_window": 815.7296516545848,
    "inception_score_mean": 1.9642008233700838,
    "inception_score_std": 0.14863510672922,
    "fid_per_class": {
        "airplane": 860.8463074288362,
        "automobile": 1089.1984774740095,
        "bird": 1121.4490371141237,
        "cat": 937.1900143151788,
        "deer": 1201.3928254717734,
        "dog": 946.842502818535,
        "frog": 1178.97643107732,
        "horse": 1107.0855177412784,
        "ship": 762.5245909785021,
        "truck": 1086.8657283640753
    },
    "fid": 637.4088618545729
}