{
    "epoch": 116,
    "avg_current_window": 789.9248518033436,
    "avg_prior_window": 801.5424735081198,
    "inception_score_mean": 1.968328667687026,
    "inception_score_std": 0.14198871109612377,
    "fid_per_class": {
        "airplane": 939.1745251152594,
        "automobile": 1177.8224255633609,
        "bird": 1208.4768043275528,
        "cat": 954.2233436278577,
        "deer": 1210.8023153323152,
        "dog": 924.3993938360334,
        "frog": 1311.178241916909,
        "horse": 1180.961761888676,
        "ship": 792.1936118526658,
        "truck": 1049.763983756914
    },
    "fid": 668.3678425244987
}