{
    "epoch": 39,
    "avg_current_window": 1011.2245678478115,
    "avg_prior_window": 1068.286034379637,
    "inception_score_mean": 1.7791439070338584,
    "inception_score_std": 0.12184319314816953,
    "fid_per_class": {
        "airplane": 958.3056384585627,
        "automobile": 1186.0641960152016,
        "bird": 1278.0734281813407,
        "cat": 1000.9297350236932,
        "deer": 1251.4300072849692,
        "dog": 1036.1113058152619,
        "frog": 1362.207551609697,
        "horse": 1283.0951879743566,
        "ship": 847.48280097677,
        "truck": 1064.603971985636
    },
    "fid": 751.9521005822735
}