{
    "epoch": 98,
    "avg_current_window": 813.6908495036731,
    "avg_prior_window": 828.4528999436667,
    "inception_score_mean": 2.012879241363899,
    "inception_score_std": 0.13318237576892003,
    "fid_per_class": {
        "airplane": 887.4691535001934,
        "automobile": 1140.3515335575057,
        "bird": 1148.1532116054036,
        "cat": 963.1771565665041,
        "deer": 1189.688989049977,
        "dog": 966.7335034775356,
        "frog": 1238.0223073287266,
        "horse": 1144.595214974938,
        "ship": 777.0414634545929,
        "truck": 980.7689166220223
    },
    "fid": 648.2133625353083
}