{
    "epoch": 66,
    "avg_current_window": 884.6725537550443,
    "avg_prior_window": 912.3807099421641,
    "inception_score_mean": 1.8913127826274068,
    "inception_score_std": 0.10013232022913433,
    "fid_per_class": {
        "airplane": 887.931878740985,
        "automobile": 1103.3515399984199,
        "bird": 1323.5229468818843,
        "cat": 980.0996230606657,
        "deer": 1336.0374720633888,
        "dog": 1016.9000755033263,
        "frog": 1442.402602836685,
        "horse": 1225.497454597241,
        "ship": 746.0660372674087,
        "truck": 1033.784449196245
    },
    "fid": 725.09285310506
}