{
    "epoch": 33,
    "avg_current_window": 1056.0403846295505,
    "avg_prior_window": 1133.5285852978573,
    "inception_score_mean": 1.8284307163253917,
    "inception_score_std": 0.15089491559238993,
    "fid_per_class": {
        "airplane": 970.1922378560762,
        "automobile": 1211.337844457229,
        "bird": 1247.4947064963658,
        "cat": 995.4388496862607,
        "deer": 1165.2572616308537,
        "dog": 1030.8645506121832,
        "frog": 1227.1187825434804,
        "horse": 1249.2063975640092,
        "ship": 919.899317677118,
        "truck": 1109.889721765122
    },
    "fid": 720.0961625590487
}