{
    "epoch": 83,
    "avg_current_window": 840.7706418735605,
    "avg_prior_window": 861.1158352139743,
    "inception_score_mean": 1.8699621006951674,
    "inception_score_std": 0.12533518661466458,
    "fid_per_class": {
        "airplane": 938.9325978052237,
        "automobile": 1130.2593673251426,
        "bird": 1160.296856108085,
        "cat": 918.6152254680983,
        "deer": 1119.7152328917753,
        "dog": 976.5746146942695,
        "frog": 1229.7388285615002,
        "horse": 1200.3883813117657,
        "ship": 812.7520378896857,
        "truck": 1140.5048093932712
    },
    "fid": 667.2359933507307
}