{
    "epoch": 103,
    "avg_current_window": 806.2987001558081,
    "avg_prior_window": 820.3052715703599,
    "inception_score_mean": 1.9914659812323474,
    "inception_score_std": 0.12915206165905138,
    "fid_per_class": {
        "airplane": 896.9099384972048,
        "automobile": 1072.2083997534944,
        "bird": 1160.6174729405384,
        "cat": 958.7281772631284,
        "deer": 1225.5413445702925,
        "dog": 940.1310739377572,
        "frog": 1219.6139141484182,
        "horse": 1120.4489281484143,
        "ship": 741.1374870569882,
        "truck": 1061.134714649927
    },
    "fid": 638.0740535167802
}