{
    "epoch": 89,
    "avg_current_window": 828.12787447312,
    "avg_prior_window": 846.7400987605242,
    "inception_score_mean": 1.98713029003398,
    "inception_score_std": 0.08610502309409966,
    "fid_per_class": {
        "airplane": 883.3968834356116,
        "automobile": 1157.8522632259112,
        "bird": 1105.6517375810904,
        "cat": 888.0659913326788,
        "deer": 1111.9291294119728,
        "dog": 887.1151808284335,
        "frog": 1146.669781232205,
        "horse": 1111.3906882446558,
        "ship": 783.3511739462689,
        "truck": 1082.4934529048915
    },
    "fid": 602.3249704212191
}