{
    "epoch": 107,
    "avg_current_window": 800.2237695689386,
    "avg_prior_window": 814.2035893730219,
    "inception_score_mean": 1.9857420755996713,
    "inception_score_std": 0.20295295318905715,
    "fid_per_class": {
        "airplane": 951.0821023568268,
        "automobile": 1125.5026172689982,
        "bird": 1150.1092797338788,
        "cat": 943.89602818268,
        "deer": 1149.543947308319,
        "dog": 943.1530346017172,
        "frog": 1218.021652743937,
        "horse": 1153.5484286204487,
        "ship": 802.6246668884678,
        "truck": 1051.7626763343624
    },
    "fid": 635.3424106702878
}