{
    "epoch": 155,
    "avg_current_window": 758.0724911684479,
    "avg_prior_window": 766.309138187414,
    "inception_score_mean": 2.0238827693833614,
    "inception_score_std": 0.17782700865110018,
    "fid_per_class": {
        "airplane": 920.6326419018475,
        "automobile": 1058.4653686644142,
        "bird": 1179.5459393358888,
        "cat": 982.1446196311465,
        "deer": 1230.792454097166,
        "dog": 993.2062109207392,
        "frog": 1270.0827279080643,
        "horse": 1146.458731693074,
        "ship": 812.5284758481107,
        "truck": 1014.6395249111092
    },
    "fid": 661.6127421677897
}