{
    "epoch": 84,
    "avg_current_window": 838.7047532006696,
    "avg_prior_window": 858.5820528577507,
    "inception_score_mean": 1.9043414687696973,
    "inception_score_std": 0.10561865431626194,
    "fid_per_class": {
        "airplane": 872.5402128077424,
        "automobile": 1194.0803941023967,
        "bird": 1148.2238995174343,
        "cat": 961.3564895262662,
        "deer": 1197.873400135552,
        "dog": 929.072213667109,
        "frog": 1239.8419758011396,
        "horse": 1173.2259647752526,
        "ship": 797.9050259939902,
        "truck": 1036.7608228117306
    },
    "fid": 674.9690270277931
}