{
    "epoch": 60,
    "avg_current_window": 905.1854655520178,
    "avg_prior_window": 936.4893603437766,
    "inception_score_mean": 1.7780717197608726,
    "inception_score_std": 0.11668615733594832,
    "fid_per_class": {
        "airplane": 866.3450958933263,
        "automobile": 1150.8308829819434,
        "bird": 1210.9796226114322,
        "cat": 946.914615027423,
        "deer": 1240.646147960692,
        "dog": 958.8385820914959,
        "frog": 1310.6767117447175,
        "horse": 1213.8721407095313,
        "ship": 822.4071428268328,
        "truck": 1036.8249201322997
    },
    "fid": 687.9108187736263
}