{
    "epoch": 126,
    "avg_current_window": 779.8121357357509,
    "avg_prior_window": 790.2068487228764,
    "inception_score_mean": 1.9588369600765474,
    "inception_score_std": 0.10037586513116577,
    "fid_per_class": {
        "airplane": 874.3181361181894,
        "automobile": 1152.611851371468,
        "bird": 1174.970737087674,
        "cat": 952.9406415803473,
        "deer": 1130.6319185483108,
        "dog": 877.4176475608891,
        "frog": 1178.921393475524,
        "horse": 1208.1405547382165,
        "ship": 806.9395893193321,
        "truck": 1106.4015301967333
    },
    "fid": 654.7923934592133
}