{
    "epoch": 171,
    "avg_current_window": 748.6448461040419,
    "avg_prior_window": 755.3561380571506,
    "inception_score_mean": 2.0224891539510508,
    "inception_score_std": 0.14780950095345619,
    "fid_per_class": {
        "airplane": 829.0773594458933,
        "automobile": 1081.6924036773576,
        "bird": 1132.07677406503,
        "cat": 915.8509984853677,
        "deer": 1109.1247234289174,
        "dog": 888.8557657932985,
        "frog": 1186.9177785547704,
        "horse": 1024.4970857735286,
        "ship": 805.1557871705459,
        "truck": 939.4691873991117
    },
    "fid": 597.8361272761939
}