{
    "epoch": 196,
    "avg_current_window": 737.2167793580436,
    "avg_prior_window": 742.842369521782,
    "inception_score_mean": 1.9464075230502083,
    "inception_score_std": 0.14761663448678147,
    "fid_per_class": {
        "airplane": 945.1985461341219,
        "automobile": 1057.4221870724557,
        "bird": 1180.9333350522584,
        "cat": 1054.3655885593876,
        "deer": 1267.0761752865053,
        "dog": 967.3966285673021,
        "frog": 1420.6277364889488,
        "horse": 1123.494953528545,
        "ship": 835.3575760772483,
        "truck": 1050.2567413946822
    },
    "fid": 676.8882556551657
}