{
    "epoch": 48,
    "avg_current_window": 955.9984160587288,
    "avg_prior_window": 1001.0291871055513,
    "inception_score_mean": 1.8239799271741088,
    "inception_score_std": 0.10765203173257065,
    "fid_per_class": {
        "airplane": 885.2802513594876,
        "automobile": 1050.7621690763933,
        "bird": 1179.4991849267058,
        "cat": 951.213595302647,
        "deer": 1265.0132511749007,
        "dog": 986.2062898083763,
        "frog": 1322.5060119539012,
        "horse": 1191.9288911543063,
        "ship": 748.0655908652204,
        "truck": 997.4592629070489
    },
    "fid": 685.7801073520317
}