{
    "epoch": 68,
    "avg_current_window": 878.9807973612701,
    "avg_prior_window": 904.3978653458596,
    "inception_score_mean": 1.9145088165802047,
    "inception_score_std": 0.10872941779419379,
    "fid_per_class": {
        "airplane": 900.66243346077,
        "automobile": 1139.465606173846,
        "bird": 1209.6723658597912,
        "cat": 915.7497983052582,
        "deer": 1185.9791174760162,
        "dog": 934.6969476256469,
        "frog": 1213.9244971298572,
        "horse": 1197.2873012398136,
        "ship": 794.5349158558271,
        "truck": 1014.7061222291735
    },
    "fid": 657.76926256164
}