{
    "epoch": 15,
    "avg_current_window": 1253.698959368442,
    "avg_prior_window": 1435.853178337345,
    "inception_score_mean": 1.5175731258909606,
    "inception_score_std": 0.06183341443822133,
    "fid_per_class": {
        "airplane": 1103.841307930907,
        "automobile": 1238.1559834640373,
        "bird": 1403.455727837768,
        "cat": 1170.5467703496286,
        "deer": 1385.9355104632104,
        "dog": 1296.5081735663277,
        "frog": 1663.7638902474669,
        "horse": 1419.9808293785104,
        "ship": 951.9576953393871,
        "truck": 1118.4809472113313
    },
    "fid": 921.2343708726327
}