{
    "epoch": 85,
    "avg_current_window": 836.7784505398122,
    "avg_prior_window": 855.8827233059546,
    "inception_score_mean": 1.896551459277833,
    "inception_score_std": 0.13243738980145106,
    "fid_per_class": {
        "airplane": 873.9314094225224,
        "automobile": 1134.8757694558303,
        "bird": 1107.4829311017845,
        "cat": 923.0623256518256,
        "deer": 1137.7584002252306,
        "dog": 906.0714284174385,
        "frog": 1164.4187128630292,
        "horse": 1187.5541595390641,
        "ship": 781.7228105187455,
        "truck": 1050.7916615569766
    },
    "fid": 641.8329467751764
}