{
    "epoch": 29,
    "avg_current_window": 1094.4413927013793,
    "avg_prior_window": 1183.42428510123,
    "inception_score_mean": 1.7838367833739468,
    "inception_score_std": 0.12951987311588073,
    "fid_per_class": {
        "airplane": 1018.5619326232762,
        "automobile": 1176.884540983428,
        "bird": 1320.1348105765087,
        "cat": 1030.4401137864863,
        "deer": 1203.367410830364,
        "dog": 1135.691302682981,
        "frog": 1473.5069347336566,
        "horse": 1407.4682651812493,
        "ship": 881.2836406284805,
        "truck": 1039.155870828231
    },
    "fid": 804.9928087068371
}