{
    "epoch": 160,
    "avg_current_window": 755.900211019234,
    "avg_prior_window": 762.3409604727563,
    "inception_score_mean": 2.0122840978136973,
    "inception_score_std": 0.16356007180760912,
    "fid_per_class": {
        "airplane": 868.1925369235076,
        "automobile": 1138.6530902524446,
        "bird": 1204.1955023262524,
        "cat": 978.1125369204046,
        "deer": 1186.5147936655903,
        "dog": 942.8067496216845,
        "frog": 1250.7886117896078,
        "horse": 1216.6919711329706,
        "ship": 832.9093983097071,
        "truck": 982.585705146005
    },
    "fid": 664.9259831979662
}