{
    "epoch": 149,
    "avg_current_window": 761.975620873302,
    "avg_prior_window": 770.0975717983976,
    "inception_score_mean": 1.9389084436454116,
    "inception_score_std": 0.1835413173435777,
    "fid_per_class": {
        "airplane": 928.2453174473133,
        "automobile": 1154.2412080597344,
        "bird": 1162.0247466115763,
        "cat": 1025.1293879028206,
        "deer": 1241.742841188282,
        "dog": 966.86140531822,
        "frog": 1446.7073382170352,
        "horse": 1214.9541290900174,
        "ship": 890.6568272368299,
        "truck": 1101.6474635426396
    },
    "fid": 722.6026808653666
}