{
    "epoch": 195,
    "avg_current_window": 737.4982638847588,
    "avg_prior_window": 743.476777478022,
    "inception_score_mean": 1.969654203808068,
    "inception_score_std": 0.16107771774289983,
    "fid_per_class": {
        "airplane": 951.6575439759167,
        "automobile": 1129.0492349514875,
        "bird": 1160.0585591540166,
        "cat": 994.0574136337444,
        "deer": 1197.305235449714,
        "dog": 922.0960642586533,
        "frog": 1340.079492214481,
        "horse": 1176.2798956066963,
        "ship": 936.8705545109646,
        "truck": 1019.4011560094114
    },
    "fid": 682.3272966485896
}