{
    "epoch": 87,
    "avg_current_window": 832.4389104256079,
    "avg_prior_window": 851.0239423842137,
    "inception_score_mean": 1.8991836364805745,
    "inception_score_std": 0.08187667256918776,
    "fid_per_class": {
        "airplane": 845.5304728072226,
        "automobile": 1125.3953742237386,
        "bird": 1089.8336703224256,
        "cat": 883.1647484955791,
        "deer": 1095.9544250570193,
        "dog": 888.5395892186308,
        "frog": 1089.586836169361,
        "horse": 1168.448587744075,
        "ship": 750.0628005335652,
        "truck": 1073.0060710190542
    },
    "fid": 601.8541916835104
}