{
    "epoch": 115,
    "avg_current_window": 790.8966642110421,
    "avg_prior_window": 802.7490060267318,
    "inception_score_mean": 1.9816399065994936,
    "inception_score_std": 0.09527848237970714,
    "fid_per_class": {
        "airplane": 919.87986795703,
        "automobile": 1104.9247335484088,
        "bird": 1181.4550741496982,
        "cat": 1007.4280642470319,
        "deer": 1266.442919464735,
        "dog": 949.2901952088183,
        "frog": 1279.0918761591374,
        "horse": 1206.5720667305977,
        "ship": 808.2778072544461,
        "truck": 1120.9609034358118
    },
    "fid": 678.1664249180144
}