{
    "epoch": 14,
    "avg_current_window": 1272.3697147390008,
    "avg_prior_window": 1469.748340040952,
    "inception_score_mean": 1.6105744532414932,
    "inception_score_std": 0.047666992417118144,
    "fid_per_class": {
        "airplane": 1183.1799410389062,
        "automobile": 1185.2748720099044,
        "bird": 1431.5731224208541,
        "cat": 1415.416482179688,
        "deer": 1397.691463357972,
        "dog": 1432.2611164909,
        "frog": 1727.3074615165583,
        "horse": 1431.713950732173,
        "ship": 1024.8008573444051,
        "truck": 997.9155547770313
    },
    "fid": 992.3083841806222
}