{
    "epoch": 70,
    "avg_current_window": 872.7641687744829,
    "avg_prior_window": 898.2829007358912,
    "inception_score_mean": 1.807340006843782,
    "inception_score_std": 0.12439243765191567,
    "fid_per_class": {
        "airplane": 923.2083378779234,
        "automobile": 1162.8166040271317,
        "bird": 1216.4382021310385,
        "cat": 1007.871778515805,
        "deer": 1315.2957299294985,
        "dog": 982.2417033755771,
        "frog": 1344.2345166799253,
        "horse": 1177.1379529254539,
        "ship": 824.222272315247,
        "truck": 984.3628189723788
    },
    "fid": 728.7528778635761
}