{
    "epoch": 96,
    "avg_current_window": 817.0370740577188,
    "avg_prior_window": 831.1016859889971,
    "inception_score_mean": 1.9045501212319564,
    "inception_score_std": 0.14413785169425966,
    "fid_per_class": {
        "airplane": 890.1675847848187,
        "automobile": 1135.5144071354416,
        "bird": 1209.4131459772407,
        "cat": 957.5719874691367,
        "deer": 1180.6885746502526,
        "dog": 954.8459757712876,
        "frog": 1242.3808242607365,
        "horse": 1157.5907306269673,
        "ship": 771.3862912614877,
        "truck": 1007.8503605881285
    },
    "fid": 658.3948167686195
}