{
    "epoch": 175,
    "avg_current_window": 746.462308941841,
    "avg_prior_window": 753.0486393164186,
    "inception_score_mean": 1.9803438476802224,
    "inception_score_std": 0.1212979529679413,
    "fid_per_class": {
        "airplane": 985.5203160385406,
        "automobile": 1092.175007984204,
        "bird": 1228.4662909225617,
        "cat": 979.8695710641857,
        "deer": 1239.1496394174524,
        "dog": 976.9013953650632,
        "frog": 1323.6786695009905,
        "horse": 1197.970460584182,
        "ship": 920.2311779735126,
        "truck": 998.2210396497042
    },
    "fid": 696.8384359247359
}