{
    "epoch": 137,
    "avg_current_window": 770.2871333745749,
    "avg_prior_window": 779.8747467355568,
    "inception_score_mean": 1.939868036596237,
    "inception_score_std": 0.14553771935502022,
    "fid_per_class": {
        "airplane": 867.2170052135671,
        "automobile": 1074.597720204211,
        "bird": 1238.4591153057695,
        "cat": 977.2741371811928,
        "deer": 1220.3609398990973,
        "dog": 962.2104659295856,
        "frog": 1294.2796142630307,
        "horse": 1156.837836655838,
        "ship": 781.3340066502305,
        "truck": 980.552355757442
    },
    "fid": 665.635644678783
}