{
    "epoch": 99,
    "avg_current_window": 812.0193597363159,
    "avg_prior_window": 826.8376830277099,
    "inception_score_mean": 1.9717483197379682,
    "inception_score_std": 0.14575135000498235,
    "fid_per_class": {
        "airplane": 824.1251415313423,
        "automobile": 1064.8273035815432,
        "bird": 1167.8110448464806,
        "cat": 989.4561942067808,
        "deer": 1230.4898561325303,
        "dog": 998.5337478900872,
        "frog": 1256.0169179457719,
        "horse": 1182.06588228158,
        "ship": 822.224258945946,
        "truck": 989.4010491003111
    },
    "fid": 656.9268395443728
}