{
    "epoch": 18,
    "avg_current_window": 1215.6261844295389,
    "avg_prior_window": 1370.2443081804622,
    "inception_score_mean": 1.5216521296941123,
    "inception_score_std": 0.06570351893598195,
    "fid_per_class": {
        "airplane": 1089.9372608350318,
        "automobile": 1224.4399941886868,
        "bird": 1257.5430765735096,
        "cat": 1141.7528766664932,
        "deer": 1344.3016271857095,
        "dog": 1271.5334490627743,
        "frog": 1490.2954833304027,
        "horse": 1418.8107884759056,
        "ship": 982.5924584781404,
        "truck": 1146.7805588301217
    },
    "fid": 891.2655478809301
}