{
    "epoch": 65,
    "avg_current_window": 887.3195027211694,
    "avg_prior_window": 916.6506458649116,
    "inception_score_mean": 1.7866888589841938,
    "inception_score_std": 0.09623238859381007,
    "fid_per_class": {
        "airplane": 860.7228727998529,
        "automobile": 1141.714897272257,
        "bird": 1235.3021185455248,
        "cat": 939.7331433389757,
        "deer": 1291.417904090556,
        "dog": 969.7783081300015,
        "frog": 1341.8489238790055,
        "horse": 1265.275854078047,
        "ship": 816.3864473500787,
        "truck": 1050.9177915301013
    },
    "fid": 712.6208709569114
}