{
    "epoch": 21,
    "avg_current_window": 1166.31180283289,
    "avg_prior_window": 1284.7705252626981,
    "inception_score_mean": 1.809782998381634,
    "inception_score_std": 0.09103207352509028,
    "fid_per_class": {
        "airplane": 1226.1413968662582,
        "automobile": 1254.2220567982508,
        "bird": 1582.028829435673,
        "cat": 1631.4592736924124,
        "deer": 1659.7459632370678,
        "dog": 1671.7049672590028,
        "frog": 2011.455572004319,
        "horse": 1795.4465461873237,
        "ship": 1044.1253057063775,
        "truck": 1163.35334965966
    },
    "fid": 1161.7895139938946
}