{
    "epoch": 199,
    "avg_current_window": 736.0987693413509,
    "avg_prior_window": 741.2998013274637,
    "inception_score_mean": 1.989205929175164,
    "inception_score_std": 0.08565171357793339,
    "fid_per_class": {
        "airplane": 880.3673048215938,
        "automobile": 1111.6071588766783,
        "bird": 1159.925536794946,
        "cat": 958.9630606442789,
        "deer": 1187.0112380906558,
        "dog": 925.1919905608952,
        "frog": 1208.1448755255267,
        "horse": 1186.1242358625896,
        "ship": 810.7718796880852,
        "truck": 965.2624758748198
    },
    "fid": 645.452453930354
}