{
    "epoch": 78,
    "avg_current_window": 851.7512241385135,
    "avg_prior_window": 873.2011300480829,
    "inception_score_mean": 1.7895979766831531,
    "inception_score_std": 0.14595435408321147,
    "fid_per_class": {
        "airplane": 931.4145332414863,
        "automobile": 1189.9210421678206,
        "bird": 1195.0982719766118,
        "cat": 1000.3365143045125,
        "deer": 1301.1176974526288,
        "dog": 955.9860121268453,
        "frog": 1303.2941849239844,
        "horse": 1211.9408710245011,
        "ship": 874.0096029040508,
        "truck": 1103.1139856461755
    },
    "fid": 730.4396638859258
}