{
    "epoch": 52,
    "avg_current_window": 936.3314369045767,
    "avg_prior_window": 976.3388078897657,
    "inception_score_mean": 1.8590217475248536,
    "inception_score_std": 0.0990062150924194,
    "fid_per_class": {
        "airplane": 849.6492586547943,
        "automobile": 1052.7069222116472,
        "bird": 1212.4625049483143,
        "cat": 1023.3535941919428,
        "deer": 1364.4633505246416,
        "dog": 972.8182515305504,
        "frog": 1360.2925350510332,
        "horse": 1293.1736235031753,
        "ship": 735.6264377269811,
        "truck": 920.3519604856713
    },
    "fid": 698.05090042807
}