{
    "epoch": 28,
    "avg_current_window": 1104.6705714952006,
    "avg_prior_window": 1197.7947923375139,
    "inception_score_mean": 1.7069953514724028,
    "inception_score_std": 0.0607975879985446,
    "fid_per_class": {
        "airplane": 1036.7836706491728,
        "automobile": 1273.0304881550387,
        "bird": 1376.315902002909,
        "cat": 1006.4615196128959,
        "deer": 1202.9813899434544,
        "dog": 1097.7271301470812,
        "frog": 1392.180304567267,
        "horse": 1370.0898135770226,
        "ship": 904.2041641606381,
        "truck": 1121.2680667306172
    },
    "fid": 808.0243864743859
}