{
    "epoch": 31,
    "avg_current_window": 1077.2678974630305,
    "avg_prior_window": 1159.5843413436403,
    "inception_score_mean": 1.8108637517544106,
    "inception_score_std": 0.14254394651218244,
    "fid_per_class": {
        "airplane": 922.8020935889994,
        "automobile": 1216.8245635514063,
        "bird": 1254.1136949157583,
        "cat": 982.5635380165394,
        "deer": 1192.2959762955606,
        "dog": 1013.0161292703275,
        "frog": 1293.2396859121748,
        "horse": 1280.808222383977,
        "ship": 872.1359909233678,
        "truck": 1027.7251655760106
    },
    "fid": 712.1413432108417
}