{
    "epoch": 80,
    "avg_current_window": 847.8497771970287,
    "avg_prior_window": 867.8579760447642,
    "inception_score_mean": 1.85171044494134,
    "inception_score_std": 0.12745846428510452,
    "fid_per_class": {
        "airplane": 846.5543500772143,
        "automobile": 1095.7325369906089,
        "bird": 1148.5987514575204,
        "cat": 903.3913580971478,
        "deer": 1162.9352289164772,
        "dog": 937.5159937044505,
        "frog": 1177.6200559385995,
        "horse": 1151.7513152042654,
        "ship": 787.7374797700804,
        "truck": 1018.3611816591442
    },
    "fid": 642.6356887140689
}