{
    "epoch": 158,
    "avg_current_window": 756.4371033168982,
    "avg_prior_window": 763.6085062779143,
    "inception_score_mean": 1.9603394049297815,
    "inception_score_std": 0.13076126989660344,
    "fid_per_class": {
        "airplane": 902.795430438663,
        "automobile": 1159.5402387797799,
        "bird": 1236.8831515879815,
        "cat": 1031.9237280836762,
        "deer": 1306.2053772746965,
        "dog": 1011.1636871590105,
        "frog": 1407.9618697673714,
        "horse": 1274.8762251210458,
        "ship": 912.5870397241434,
        "truck": 1054.1784469330828
    },
    "fid": 739.7810898560092
}