{
    "epoch": 6,
    "avg_current_window": 1354.1343334770802,
    "avg_prior_window": 3.0,
    "inception_score_mean": 1.48291694035107,
    "inception_score_std": 0.06063607884440053,
    "fid_per_class": {
        "airplane": 1183.4209238541118,
        "automobile": 1412.4952039406046,
        "bird": 1214.8326330100745,
        "cat": 1355.532596672358,
        "deer": 1368.1129400584036,
        "dog": 1498.8731911157015,
        "frog": 1597.7525232132177,
        "horse": 1533.2263098831997,
        "ship": 1190.3253913541917,
        "truck": 1346.2955405431608
    },
    "fid": 1059.3139337227758
}