{
    "epoch": 183,
    "avg_current_window": 743.5840190581982,
    "avg_prior_window": 748.6405286348563,
    "inception_score_mean": 2.01149963208188,
    "inception_score_std": 0.17203469523308768,
    "fid_per_class": {
        "airplane": 870.2131805892143,
        "automobile": 1089.647537809859,
        "bird": 1208.1338725835749,
        "cat": 936.3973966348465,
        "deer": 1172.6591861653567,
        "dog": 913.3918133094007,
        "frog": 1302.5214011579433,
        "horse": 1152.1978433397626,
        "ship": 823.2359840967872,
        "truck": 992.569757348031
    },
    "fid": 650.1421764797776
}