{
    "epoch": 79,
    "avg_current_window": 850.2156347682277,
    "avg_prior_window": 870.4459986447811,
    "inception_score_mean": 1.864081418066632,
    "inception_score_std": 0.09644903090367826,
    "fid_per_class": {
        "airplane": 872.6511579343153,
        "automobile": 1145.672158807295,
        "bird": 1157.8090733116667,
        "cat": 924.5409887645985,
        "deer": 1219.046601289259,
        "dog": 944.690791846594,
        "frog": 1265.2515239453778,
        "horse": 1141.9646856103607,
        "ship": 777.3477299430898,
        "truck": 1044.8409279862722
    },
    "fid": 660.9470290723125
}