{
    "epoch": 200,
    "avg_current_window": 735.645537764296,
    "avg_prior_window": 740.9973782265463,
    "inception_score_mean": 2.054459812060797,
    "inception_score_std": 0.18574452656681614,
    "fid_per_class": {
        "airplane": 875.6155365931241,
        "automobile": 1053.6708428055724,
        "bird": 1147.2829425434913,
        "cat": 942.9432212581384,
        "deer": 1156.5591928531883,
        "dog": 898.4253672019686,
        "frog": 1323.7983975752563,
        "horse": 1188.924698827429,
        "ship": 811.6535869317856,
        "truck": 1022.0875106973715
    },
    "fid": 638.934620758984
}