{
    "epoch": 64,
    "avg_current_window": 890.2666486998305,
    "avg_prior_window": 920.5275920867978,
    "inception_score_mean": 1.7926006440033013,
    "inception_score_std": 0.1320118232430271,
    "fid_per_class": {
        "airplane": 841.5430110934915,
        "automobile": 1114.1575517615292,
        "bird": 1213.6901397220367,
        "cat": 939.0332412816995,
        "deer": 1226.493304213473,
        "dog": 997.0790320164018,
        "frog": 1288.4947232125205,
        "horse": 1216.1621550106609,
        "ship": 822.7319352934572,
        "truck": 1028.2043324169301
    },
    "fid": 698.7021600868592
}