{
    "epoch": 167,
    "avg_current_window": 750.8330474101018,
    "avg_prior_window": 758.6903754216942,
    "inception_score_mean": 1.9899078100388359,
    "inception_score_std": 0.1490119428404263,
    "fid_per_class": {
        "airplane": 881.7420676995537,
        "automobile": 1110.4547376523446,
        "bird": 1188.958364088353,
        "cat": 974.3221041658592,
        "deer": 1201.1962620257164,
        "dog": 923.6916867078111,
        "frog": 1339.0030956717521,
        "horse": 1094.291220342603,
        "ship": 815.8412848986644,
        "truck": 1016.8855562971776
    },
    "fid": 656.141763315799
}