{
    "epoch": 185,
    "avg_current_window": 742.5109648307778,
    "avg_prior_window": 748.5290471515324,
    "inception_score_mean": 2.016973069162019,
    "inception_score_std": 0.14380290704186743,
    "fid_per_class": {
        "airplane": 878.5423317904558,
        "automobile": 1118.734636037534,
        "bird": 1160.6658025355161,
        "cat": 929.0110556499016,
        "deer": 1193.1043651546781,
        "dog": 925.4294906431442,
        "frog": 1196.6133235924997,
        "horse": 1166.8587670816114,
        "ship": 904.6526164546896,
        "truck": 989.0339607580312
    },
    "fid": 648.6962500165411
}