{
    "epoch": 111,
    "avg_current_window": 795.5170329994639,
    "avg_prior_window": 807.7730504139286,
    "inception_score_mean": 1.9910085868495695,
    "inception_score_std": 0.10463004015364197,
    "fid_per_class": {
        "airplane": 901.4955909023653,
        "automobile": 1167.5759190905803,
        "bird": 1194.0459221041924,
        "cat": 976.2385559015531,
        "deer": 1255.493164717108,
        "dog": 887.2510437831974,
        "frog": 1306.7750828992735,
        "horse": 1147.9484938194146,
        "ship": 757.9182182896136,
        "truck": 1052.223909990865
    },
    "fid": 668.8238964608031
}