{
    "epoch": 197,
    "avg_current_window": 736.9105431971152,
    "avg_prior_window": 742.4509331608596,
    "inception_score_mean": 1.9267270254631215,
    "inception_score_std": 0.153574662435465,
    "fid_per_class": {
        "airplane": 868.0802471142113,
        "automobile": 1156.1416697996797,
        "bird": 1099.8533826016887,
        "cat": 936.4511816368021,
        "deer": 1089.8074933469024,
        "dog": 932.4201273593967,
        "frog": 1231.823636060773,
        "horse": 1158.259128282391,
        "ship": 869.0018352872385,
        "truck": 1063.988408192794
    },
    "fid": 643.5481428596934
}