{
    "epoch": 130,
    "avg_current_window": 776.4422218993346,
    "avg_prior_window": 786.0506328216369,
    "inception_score_mean": 2.0282283293540706,
    "inception_score_std": 0.09317799089687959,
    "fid_per_class": {
        "airplane": 950.1986287385859,
        "automobile": 1171.2230650958168,
        "bird": 1178.4656900546788,
        "cat": 989.1221332822945,
        "deer": 1180.1950467195904,
        "dog": 974.7412157772814,
        "frog": 1393.9585750523179,
        "horse": 1191.5685284958272,
        "ship": 871.5519554158125,
        "truck": 1075.4893176632577
    },
    "fid": 706.3375314965272
}