{
    "epoch": 90,
    "avg_current_window": 825.6189533169878,
    "avg_prior_window": 844.329426384226,
    "inception_score_mean": 1.9556185551915397,
    "inception_score_std": 0.1287332546152583,
    "fid_per_class": {
        "airplane": 853.3008777003927,
        "automobile": 1106.9391789642361,
        "bird": 1153.385852039377,
        "cat": 935.926547815383,
        "deer": 1146.8487677779235,
        "dog": 971.8756279601599,
        "frog": 1290.5430133358946,
        "horse": 1155.1242079157018,
        "ship": 764.4310758696131,
        "truck": 1041.2754543529197
    },
    "fid": 648.5453464769845
}