{
    "epoch": 189,
    "avg_current_window": 740.3721972738308,
    "avg_prior_window": 746.5463505092059,
    "inception_score_mean": 1.9770164838998858,
    "inception_score_std": 0.16384447560415874,
    "fid_per_class": {
        "airplane": 875.0186029250933,
        "automobile": 1124.2827610308357,
        "bird": 1165.7363293139247,
        "cat": 1002.2380979284621,
        "deer": 1183.641219351253,
        "dog": 927.8903638018096,
        "frog": 1330.506098064443,
        "horse": 1213.1890376887613,
        "ship": 869.2034752808481,
        "truck": 921.5298334088396
    },
    "fid": 667.5035982595691
}