{
    "epoch": 22,
    "avg_current_window": 2016.0137969829061,
    "avg_prior_window": 2089.8066807893106,
    "inception_score_mean": 1.0828549088566226,
    "inception_score_std": 0.043793702231716455,
    "fid_per_class": {
        "airplane": 1525.6252544254094,
        "automobile": 1931.4173660337042,
        "bird": 2147.110862111732,
        "cat": 2131.594941149554,
        "deer": 2341.664703010436,
        "dog": 2224.6606988585604,
        "frog": 2176.961416273994,
        "horse": 2073.537730059167,
        "ship": 1799.8109767465558,
        "truck": 1598.092442668004
    },
    "fid": 1745.3576614075719,
    "wasserstein_distance": null,
    "g_loss": null,
    "g_cost": null,
    "d_loss_real": null,
    "d_loss_fake": null
}