{
    "epoch": 31,
    "avg_current_window": 1903.5180885954446,
    "avg_prior_window": 2031.7770926591502,
    "inception_score_mean": 1.2899629439716238,
    "inception_score_std": 0.07115616833912468,
    "fid_per_class": {
        "airplane": 1535.8072360449323,
        "automobile": 1504.8690888547249,
        "bird": 2035.0944278139877,
        "cat": 1705.1040770199675,
        "deer": 2035.6478155819646,
        "dog": 1835.5273051888398,
        "frog": 2223.498756504576,
        "horse": 1836.3868722064617,
        "ship": 1359.2799439255375,
        "truck": 1382.5756361708375
    },
    "fid": 1470.945871880865,
    "wasserstein_distance": null,
    "g_loss": null,
    "g_cost": null,
    "d_loss_real": null,
    "d_loss_fake": null
}