{
    "epoch": 156,
    "avg_current_window": 1191.4679692986315,
    "avg_prior_window": 1207.7190196422384,
    "inception_score_mean": 1.9754294059274007,
    "inception_score_std": 0.09810202854675429,
    "fid_per_class": {
        "airplane": 1029.8513629870185,
        "automobile": 1163.7029304187492,
        "bird": 1417.7776977421972,
        "cat": 1056.811029766673,
        "deer": 1616.2890038608675,
        "dog": 1200.1511374248535,
        "frog": 1707.2300261393502,
        "horse": 1283.499769418693,
        "ship": 977.6342633157535,
        "truck": 1178.23471079402
    },
    "fid": 861.9663437059569,
    "wasserstein_distance": null,
    "g_loss": null,
    "g_cost": null,
    "d_loss_real": null,
    "d_loss_fake": null
}