{
    "epoch": 83,
    "avg_current_window": 1438.537764994183,
    "avg_prior_window": 1480.8569474221404,
    "inception_score_mean": 1.8238753435849024,
    "inception_score_std": 0.14060439087908053,
    "fid_per_class": {
        "airplane": 1188.5403806861943,
        "automobile": 1277.6436541891576,
        "bird": 1564.8599310633408,
        "cat": 1323.4526705908222,
        "deer": 1762.3074718199057,
        "dog": 1342.9245312260264,
        "frog": 2021.9686644965695,
        "horse": 1452.7963515872457,
        "ship": 1122.4321392071652,
        "truck": 1174.6840305318522
    },
    "fid": 1083.1190303006756,
    "wasserstein_distance": null,
    "g_loss": null,
    "g_cost": null,
    "d_loss_real": null,
    "d_loss_fake": null
}