{
    "epoch": 162,
    "avg_current_window": 1178.778633868448,
    "avg_prior_window": 1194.706748501061,
    "inception_score_mean": 1.973879965100164,
    "inception_score_std": 0.11226370427659603,
    "fid_per_class": {
        "airplane": 1027.6652016254086,
        "automobile": 1129.5493257237715,
        "bird": 1351.0496648898206,
        "cat": 1037.689087033582,
        "deer": 1599.9889203515481,
        "dog": 1129.3170432360398,
        "frog": 1604.9340881482426,
        "horse": 1235.8123864952886,
        "ship": 1025.7607201226356,
        "truck": 1052.9746525164887
    },
    "fid": 804.5419315478899,
    "wasserstein_distance": null,
    "g_loss": null,
    "g_cost": null,
    "d_loss_real": null,
    "d_loss_fake": null
}