{
    "epoch": 142,
    "avg_current_window": 1221.8353973067342,
    "avg_prior_window": 1241.3102830087523,
    "inception_score_mean": 1.9829757442377318,
    "inception_score_std": 0.16210085719917217,
    "fid_per_class": {
        "airplane": 1074.9251591627883,
        "automobile": 1227.7140464086801,
        "bird": 1464.9345372794164,
        "cat": 1139.4102789189185,
        "deer": 1725.199205896737,
        "dog": 1286.5809697577965,
        "frog": 1896.4850131378307,
        "horse": 1431.7739962441653,
        "ship": 1045.6794689119783,
        "truck": 1137.8678275699924
    },
    "fid": 959.1091682339595,
    "wasserstein_distance": null,
    "g_loss": null,
    "g_cost": null,
    "d_loss_real": null,
    "d_loss_fake": null
}