{
    "epoch": 178,
    "avg_current_window": 1147.7410802628883,
    "avg_prior_window": 1161.3111599311828,
    "inception_score_mean": 2.0644091463507417,
    "inception_score_std": 0.16472546612873482,
    "fid_per_class": {
        "airplane": 1057.2477508404097,
        "automobile": 1180.117010261627,
        "bird": 1321.7953375205884,
        "cat": 1042.9488723574752,
        "deer": 1528.602110990157,
        "dog": 1062.4713175378506,
        "frog": 1615.6928896419806,
        "horse": 1233.4278295293393,
        "ship": 1027.3219188465546,
        "truck": 1020.0019248452322
    },
    "fid": 812.826512147555,
    "wasserstein_distance": null,
    "g_loss": null,
    "g_cost": null,
    "d_loss_real": null,
    "d_loss_fake": null
}