{
    "epoch": 38,
    "avg_current_window": 1818.9198566554612,
    "avg_prior_window": 1920.6613907339818,
    "inception_score_mean": 1.4812969250486525,
    "inception_score_std": 0.09201248850109547,
    "fid_per_class": {
        "airplane": 1300.6437043417864,
        "automobile": 1360.3368570997523,
        "bird": 1733.054607876143,
        "cat": 1660.8851033965723,
        "deer": 2060.172677547448,
        "dog": 1673.4262414917341,
        "frog": 2216.745057939597,
        "horse": 1539.8075102949467,
        "ship": 1217.3989460116532,
        "truck": 1223.2191341471294
    },
    "fid": 1242.7133860211536,
    "wasserstein_distance": null,
    "g_loss": null,
    "g_cost": null,
    "d_loss_real": null,
    "d_loss_fake": null
}