{
    "epoch": 43,
    "avg_current_window": 1760.3369787063302,
    "avg_prior_window": 1851.622840498123,
    "inception_score_mean": 1.6036168527033534,
    "inception_score_std": 0.10367649378112892,
    "fid_per_class": {
        "airplane": 1355.7188551896725,
        "automobile": 1436.7311982494775,
        "bird": 1665.8416720572075,
        "cat": 1451.7651307036426,
        "deer": 1976.8216426561937,
        "dog": 1552.2266276224832,
        "frog": 2231.2813439499823,
        "horse": 1686.723178506367,
        "ship": 1378.747083039023,
        "truck": 1301.8275510131405
    },
    "fid": 1286.2266033091664,
    "wasserstein_distance": null,
    "g_loss": null,
    "g_cost": null,
    "d_loss_real": null,
    "d_loss_fake": null
}