{
    "epoch": 177,
    "avg_current_window": 1149.1406559122127,
    "avg_prior_window": 1163.0402169659035,
    "inception_score_mean": 2.0139650416541324,
    "inception_score_std": 0.18142044476482982,
    "fid_per_class": {
        "airplane": 1088.8502967570842,
        "automobile": 1240.4591561362245,
        "bird": 1450.2574332117565,
        "cat": 1154.047278615897,
        "deer": 1700.8683965596363,
        "dog": 1209.5681031541794,
        "frog": 1893.4781052724272,
        "horse": 1323.4293367355042,
        "ship": 1008.9025216520681,
        "truck": 1064.0531595036268
    },
    "fid": 900.0161903324849,
    "wasserstein_distance": null,
    "g_loss": null,
    "g_cost": null,
    "d_loss_real": null,
    "d_loss_fake": null
}