{
    "epoch": 5,
    "avg_current_window": 1759.0638841546213,
    "avg_prior_window": 2411.905568425188,
    "inception_score_mean": 1.0441744868428573,
    "inception_score_std": 0.013327027723563895,
    "fid_per_class": {
        "airplane": 2166.9249808860413,
        "automobile": 2379.2618813496165,
        "bird": 2523.17911192582,
        "cat": 2785.070375776776,
        "deer": 2581.322058640922,
        "dog": 2561.576180901493,
        "frog": 2554.1631717834034,
        "horse": 2464.8090009187,
        "ship": 2227.8373339420377,
        "truck": 1848.1907648750337
    },
    "fid": 2286.8167399112376,
    "wasserstein_distance": null,
    "g_loss": null,
    "g_cost": null,
    "d_loss_real": null,
    "d_loss_fake": null
}