{
    "epoch": 60,
    "avg_current_window": 1589.586112247121,
    "avg_prior_window": 1650.0188435426944,
    "inception_score_mean": 1.857474403730053,
    "inception_score_std": 0.15712653270728602,
    "fid_per_class": {
        "airplane": 1160.7074115378919,
        "automobile": 1273.117789648307,
        "bird": 1454.7993615105743,
        "cat": 1166.174969545029,
        "deer": 1798.561486751536,
        "dog": 1249.3230703912948,
        "frog": 2060.414420620188,
        "horse": 1478.7111095780638,
        "ship": 1114.503220311246,
        "truck": 1161.7559756340302
    },
    "fid": 1024.549599889222,
    "wasserstein_distance": null,
    "g_loss": null,
    "g_cost": null,
    "d_loss_real": null,
    "d_loss_fake": null
}