{
    "epoch": 72,
    "avg_current_window": 1500.438690159264,
    "avg_prior_window": 1548.600664359225,
    "inception_score_mean": 1.8348698944133595,
    "inception_score_std": 0.08995055579024618,
    "fid_per_class": {
        "airplane": 1220.067475156606,
        "automobile": 1281.6902940499267,
        "bird": 1525.005838727712,
        "cat": 1205.7767738545451,
        "deer": 1780.570962179455,
        "dog": 1209.0966851561393,
        "frog": 2072.119828126093,
        "horse": 1510.5260517351235,
        "ship": 1104.155317827598,
        "truck": 1186.4977298986664
    },
    "fid": 1043.053207241891,
    "wasserstein_distance": null,
    "g_loss": null,
    "g_cost": null,
    "d_loss_real": null,
    "d_loss_fake": null
}