{
    "epoch": 8,
    "avg_current_window": 1930.9810671332937,
    "avg_prior_window": 1.0,
    "inception_score_mean": 1.1583106456357974,
    "inception_score_std": 0.047697977046678594,
    "fid_per_class": {
        "airplane": 1877.3194982470172,
        "automobile": 1772.4025529781165,
        "bird": 2292.1381181126335,
        "cat": 2358.195541970139,
        "deer": 2517.71572648768,
        "dog": 2219.5943462512923,
        "frog": 2487.3679713023575,
        "horse": 2175.0829642061753,
        "ship": 1982.8815273776306,
        "truck": 1603.3465269518686
    },
    "fid": 1976.4590803886204,
    "wasserstein_distance": null,
    "g_loss": null,
    "g_cost": null,
    "d_loss_real": null,
    "d_loss_fake": null
}