{
    "epoch": 138,
    "avg_current_window": 1232.3152809579642,
    "avg_prior_window": 1251.6719928917084,
    "inception_score_mean": 1.9779452704981484,
    "inception_score_std": 0.14089359824418157,
    "fid_per_class": {
        "airplane": 1078.482474338246,
        "automobile": 1129.2344979811642,
        "bird": 1408.6575949224093,
        "cat": 1078.147329287925,
        "deer": 1583.55584904907,
        "dog": 1192.3023093616878,
        "frog": 1816.1748934325888,
        "horse": 1331.3005416066833,
        "ship": 1063.0042515125288,
        "truck": 1151.539073987605
    },
    "fid": 896.7730514613828,
    "wasserstein_distance": null,
    "g_loss": null,
    "g_cost": null,
    "d_loss_real": null,
    "d_loss_fake": null
}