{
    "epoch": 15,
    "avg_current_window": 2006.2517804072272,
    "avg_prior_window": 2132.021036212422,
    "inception_score_mean": 1.1786475263333034,
    "inception_score_std": 0.04889168464831777,
    "fid_per_class": {
        "airplane": 1918.3635015743198,
        "automobile": 1465.7327617583987,
        "bird": 1894.9927328612976,
        "cat": 1359.2295412439667,
        "deer": 1783.4257919408274,
        "dog": 1565.61504614219,
        "frog": 1769.313850408729,
        "horse": 1803.5949207621238,
        "ship": 2077.868920155474,
        "truck": 1559.7611969311483
    },
    "fid": 1406.9879002478506,
    "wasserstein_distance": null,
    "g_loss": null,
    "g_cost": null,
    "d_loss_real": null,
    "d_loss_fake": null
}