{
    "epoch": 164,
    "avg_current_window": 1174.3914812325352,
    "avg_prior_window": 1190.372201465804,
    "inception_score_mean": 2.0281893424779156,
    "inception_score_std": 0.24065227770848743,
    "fid_per_class": {
        "airplane": 1094.8483636115998,
        "automobile": 1139.9569028570772,
        "bird": 1375.2667197171393,
        "cat": 1085.817284524724,
        "deer": 1549.5948869678991,
        "dog": 1128.998985266734,
        "frog": 1649.0794184416434,
        "horse": 1243.295482754458,
        "ship": 1023.4549776874364,
        "truck": 1100.0742978716157
    },
    "fid": 846.3480464406412,
    "wasserstein_distance": null,
    "g_loss": null,
    "g_cost": null,
    "d_loss_real": null,
    "d_loss_fake": null
}