{
    "epoch": 33,
    "avg_current_window": 1876.0873736050544,
    "avg_prior_window": 2000.069523589563,
    "inception_score_mean": 1.3542015822921367,
    "inception_score_std": 0.0688078382567158,
    "fid_per_class": {
        "airplane": 1470.6709120232892,
        "automobile": 1571.8354715610744,
        "bird": 2123.7147445612245,
        "cat": 1654.9067400896242,
        "deer": 2195.9733162182674,
        "dog": 1705.1132631563744,
        "frog": 2300.5989284056495,
        "horse": 1820.7231062325102,
        "ship": 1441.921065995002,
        "truck": 1380.244461230452
    },
    "fid": 1470.9425652546063,
    "wasserstein_distance": null,
    "g_loss": null,
    "g_cost": null,
    "d_loss_real": null,
    "d_loss_fake": null
}