{
    "epoch": 54,
    "avg_current_window": 1637.893247990259,
    "avg_prior_window": 1711.6155679159301,
    "inception_score_mean": 1.9421422335025735,
    "inception_score_std": 0.11996084735880495,
    "fid_per_class": {
        "airplane": 1217.6848973744784,
        "automobile": 1295.3618880003028,
        "bird": 1567.9866959708324,
        "cat": 1247.3398826672992,
        "deer": 1911.4093756984323,
        "dog": 1337.2575559525915,
        "frog": 2211.8771756181354,
        "horse": 1576.14886562684,
        "ship": 1276.6063969770707,
        "truck": 1246.9163313248757
    },
    "fid": 1142.127202248817,
    "wasserstein_distance": null,
    "g_loss": null,
    "g_cost": null,
    "d_loss_real": null,
    "d_loss_fake": null
}