{
    "epoch": 179,
    "avg_current_window": 1145.8700491560987,
    "avg_prior_window": 1159.5205392952791,
    "inception_score_mean": 1.9698030865912806,
    "inception_score_std": 0.16610652850240767,
    "fid_per_class": {
        "airplane": 1053.5275217527255,
        "automobile": 1125.271343096653,
        "bird": 1284.163976979251,
        "cat": 1102.9701961243536,
        "deer": 1612.7885522863369,
        "dog": 1099.5706419901858,
        "frog": 1723.6631082004596,
        "horse": 1223.1524150108746,
        "ship": 994.796617516276,
        "truck": 1047.0585134595904
    },
    "fid": 826.5270822157797,
    "wasserstein_distance": null,
    "g_loss": null,
    "g_cost": null,
    "d_loss_real": null,
    "d_loss_fake": null
}