{
    "epoch": 171,
    "avg_current_window": 1160.4680941599293,
    "avg_prior_window": 1175.334333167241,
    "inception_score_mean": 2.0216706448394524,
    "inception_score_std": 0.10823969388661571,
    "fid_per_class": {
        "airplane": 1045.6949385259968,
        "automobile": 1115.1481356390186,
        "bird": 1270.4379125749035,
        "cat": 1072.880742913238,
        "deer": 1494.3952248050546,
        "dog": 1152.233617740285,
        "frog": 1662.9013037838608,
        "horse": 1196.4993593330282,
        "ship": 1034.3138966253678,
        "truck": 1081.685566179635
    },
    "fid": 804.2985772452328,
    "wasserstein_distance": null,
    "g_loss": null,
    "g_cost": null,
    "d_loss_real": null,
    "d_loss_fake": null
}