{
    "epoch": 46,
    "avg_current_window": 1723.8371546623634,
    "avg_prior_window": 1815.667062400403,
    "inception_score_mean": 1.674333976342955,
    "inception_score_std": 0.11753231681052241,
    "fid_per_class": {
        "airplane": 1257.1583971237246,
        "automobile": 1309.3813548158294,
        "bird": 1664.68830145855,
        "cat": 1372.1010678834887,
        "deer": 2037.4535946202084,
        "dog": 1489.7730145048245,
        "frog": 2111.896052280277,
        "horse": 1708.694471709779,
        "ship": 1308.752416127235,
        "truck": 1226.1679513848471
    },
    "fid": 1217.661976994263,
    "wasserstein_distance": null,
    "g_loss": null,
    "g_cost": null,
    "d_loss_real": null,
    "d_loss_fake": null
}