{
    "epoch": 27,
    "avg_current_window": 1956.52608922733,
    "avg_prior_window": 2095.3482361377955,
    "inception_score_mean": 1.2333788744438015,
    "inception_score_std": 0.10179041835053988,
    "fid_per_class": {
        "airplane": 1663.9091024610113,
        "automobile": 1623.952981992469,
        "bird": 2051.9483281773487,
        "cat": 1996.9990636049915,
        "deer": 2254.658937995311,
        "dog": 1832.710686469816,
        "frog": 2428.9337648674546,
        "horse": 1819.9539851327252,
        "ship": 1472.1914572651042,
        "truck": 1343.6879902103187
    },
    "fid": 1594.6971946367553,
    "wasserstein_distance": null,
    "g_loss": null,
    "g_cost": null,
    "d_loss_real": null,
    "d_loss_fake": null
}