{
    "epoch": 13,
    "avg_current_window": 2024.051776916539,
    "avg_prior_window": 2178.0384521818714,
    "inception_score_mean": 1.0710244053128968,
    "inception_score_std": 0.013748610369600034,
    "fid_per_class": {
        "airplane": 1769.627659462688,
        "automobile": 1836.89869647239,
        "bird": 2218.862132631164,
        "cat": 1878.7304944324078,
        "deer": 2123.3909557113166,
        "dog": 1775.657967997591,
        "frog": 2315.5623956553973,
        "horse": 1884.04364030338,
        "ship": 1945.4704742302338,
        "truck": 1925.5794073081643
    },
    "fid": 1684.9109922942807,
    "wasserstein_distance": null,
    "g_loss": null,
    "g_cost": null,
    "d_loss_real": null,
    "d_loss_fake": null
}