{
    "epoch": 200,
    "avg_current_window": 1111.4459320386554,
    "avg_prior_window": 1123.3693027339132,
    "inception_score_mean": 1.9826472032549003,
    "inception_score_std": 0.11636601644972448,
    "fid_per_class": {
        "airplane": 1029.4861561391995,
        "automobile": 1120.2864633403717,
        "bird": 1305.057548584317,
        "cat": 1045.9761274385999,
        "deer": 1542.9899771482537,
        "dog": 1095.753627954186,
        "frog": 1646.9380806306726,
        "horse": 1185.5067890772127,
        "ship": 979.3223772068446,
        "truck": 1034.5843029122168
    },
    "fid": 785.2712779630328,
    "wasserstein_distance": null,
    "g_loss": null,
    "g_cost": null,
    "d_loss_real": null,
    "d_loss_fake": null
}