{
    "epoch": 6,
    "avg_current_window": 1847.0226934473906,
    "avg_prior_window": 3.0,
    "inception_score_mean": 1.0540803544401753,
    "inception_score_std": 0.03464760669875763,
    "fid_per_class": {
        "airplane": 2088.623646311382,
        "automobile": 2134.613669945553,
        "bird": 2297.673266041986,
        "cat": 2554.1769988007773,
        "deer": 2425.4059967007925,
        "dog": 2432.036938097218,
        "frog": 2474.2847130606483,
        "horse": 2308.060402475603,
        "ship": 2259.592853711621,
        "truck": 2009.2936205267492
    },
    "fid": 2162.2751506129716,
    "wasserstein_distance": null,
    "g_loss": null,
    "g_cost": null,
    "d_loss_real": null,
    "d_loss_fake": null
}