{
    "epoch": 132,
    "avg_current_window": 1247.9685342147784,
    "avg_prior_window": 1269.5443851681134,
    "inception_score_mean": 1.9277443393632645,
    "inception_score_std": 0.08342727774309384,
    "fid_per_class": {
        "airplane": 1060.77633153576,
        "automobile": 1217.2191166886118,
        "bird": 1368.8716582771758,
        "cat": 1102.0322781467585,
        "deer": 1640.6386770410832,
        "dog": 1198.5442207426572,
        "frog": 1941.3668972518244,
        "horse": 1320.028673817708,
        "ship": 942.7982115816635,
        "truck": 1131.457428702979
    },
    "fid": 897.7109034107127,
    "wasserstein_distance": null,
    "g_loss": null,
    "g_cost": null,
    "d_loss_real": null,
    "d_loss_fake": null
}