{
    "epoch": 76,
    "avg_current_window": 1477.450331101541,
    "avg_prior_window": 1521.571629457282,
    "inception_score_mean": 1.7899143868122678,
    "inception_score_std": 0.10951892314612706,
    "fid_per_class": {
        "airplane": 1267.3701560522863,
        "automobile": 1280.8754263456108,
        "bird": 1548.1769683410753,
        "cat": 1376.0890342573346,
        "deer": 1847.179626476713,
        "dog": 1401.8140360230493,
        "frog": 2080.531422192122,
        "horse": 1540.9957242723178,
        "ship": 1133.7012523614303,
        "truck": 1238.9140945791703
    },
    "fid": 1130.3452813201923,
    "wasserstein_distance": null,
    "g_loss": null,
    "g_cost": null,
    "d_loss_real": null,
    "d_loss_fake": null
}