{
    "epoch": 192,
    "avg_current_window": 1123.616326744159,
    "avg_prior_window": 1136.3214146230787,
    "inception_score_mean": 1.944352409668306,
    "inception_score_std": 0.09938379947061939,
    "fid_per_class": {
        "airplane": 1015.451448987721,
        "automobile": 1155.6877545347381,
        "bird": 1364.290810823797,
        "cat": 1122.4124786972493,
        "deer": 1593.3543322185083,
        "dog": 1167.3273555867836,
        "frog": 1690.5498019322085,
        "horse": 1254.300816269104,
        "ship": 1027.2585573362373,
        "truck": 1117.5030177727779
    },
    "fid": 854.375060910828,
    "wasserstein_distance": null,
    "g_loss": null,
    "g_cost": null,
    "d_loss_real": null,
    "d_loss_fake": null
}