{
    "epoch": 187,
    "avg_current_window": 1131.62848651149,
    "avg_prior_window": 1145.0645356168081,
    "inception_score_mean": 1.9318909728075393,
    "inception_score_std": 0.13579797524528023,
    "fid_per_class": {
        "airplane": 1041.9545823362525,
        "automobile": 1140.271787255667,
        "bird": 1364.2060996722093,
        "cat": 1113.1887283253063,
        "deer": 1564.3034395427749,
        "dog": 1178.0888290662983,
        "frog": 1894.7653331450406,
        "horse": 1327.363901226788,
        "ship": 994.6380914541232,
        "truck": 1104.9604996251887
    },
    "fid": 877.5775568670739,
    "wasserstein_distance": null,
    "g_loss": null,
    "g_cost": null,
    "d_loss_real": null,
    "d_loss_fake": null
}