{
    "epoch": 103,
    "avg_current_window": 1345.3650731909481,
    "avg_prior_window": 1375.421180594134,
    "inception_score_mean": 1.9952869501331327,
    "inception_score_std": 0.15517372845263372,
    "fid_per_class": {
        "airplane": 1038.4021956872296,
        "automobile": 1216.1627935601305,
        "bird": 1444.7467991330668,
        "cat": 1176.6376806491635,
        "deer": 1675.8338780781023,
        "dog": 1213.8127669077576,
        "frog": 1955.0290347746436,
        "horse": 1424.8587639659836,
        "ship": 993.072740616242,
        "truck": 1101.4260438554393
    },
    "fid": 930.6408808830606,
    "wasserstein_distance": null,
    "g_loss": null,
    "g_cost": null,
    "d_loss_real": null,
    "d_loss_fake": null
}