{
    "epoch": 169,
    "avg_current_window": 1164.2101451908245,
    "avg_prior_window": 1179.552140052295,
    "inception_score_mean": 2.058855277564524,
    "inception_score_std": 0.1912345614006128,
    "fid_per_class": {
        "airplane": 1034.4056307323272,
        "automobile": 1191.2587789961856,
        "bird": 1346.4460270545987,
        "cat": 1101.2044518100722,
        "deer": 1597.4184335362488,
        "dog": 1171.8397912000808,
        "frog": 1774.9297538962555,
        "horse": 1290.2273411851663,
        "ship": 998.2999372858621,
        "truck": 1145.7130207787363
    },
    "fid": 869.1097279267497,
    "wasserstein_distance": null,
    "g_loss": null,
    "g_cost": null,
    "d_loss_real": null,
    "d_loss_fake": null
}