{
    "epoch": 90,
    "avg_current_window": 1405.0970135433372,
    "avg_prior_window": 1440.8809814587532,
    "inception_score_mean": 1.9854298340400398,
    "inception_score_std": 0.11256335356925024,
    "fid_per_class": {
        "airplane": 1101.2503839492192,
        "automobile": 1274.6378269998484,
        "bird": 1406.5742092857638,
        "cat": 1157.1994776909314,
        "deer": 1687.9267303255074,
        "dog": 1224.3283189154313,
        "frog": 1806.8457051090998,
        "horse": 1425.886013280906,
        "ship": 1080.1264863159474,
        "truck": 1117.507590749203
    },
    "fid": 941.3617465302193,
    "wasserstein_distance": null,
    "g_loss": null,
    "g_cost": null,
    "d_loss_real": null,
    "d_loss_fake": null
}