{
    "epoch": 91,
    "avg_current_window": 1400.0010215981383,
    "avg_prior_window": 1435.7310412153327,
    "inception_score_mean": 1.9572506267249203,
    "inception_score_std": 0.1756102870787917,
    "fid_per_class": {
        "airplane": 1034.4834140186736,
        "automobile": 1184.6922311191097,
        "bird": 1420.9443389770677,
        "cat": 1064.299954627335,
        "deer": 1570.9507071230869,
        "dog": 1179.8133566272609,
        "frog": 1874.2691415582995,
        "horse": 1260.9490201273256,
        "ship": 1070.0604845831062,
        "truck": 1109.6592943755895
    },
    "fid": 879.1470346285515,
    "wasserstein_distance": null,
    "g_loss": null,
    "g_cost": null,
    "d_loss_real": null,
    "d_loss_fake": null
}