{
    "epoch": 9,
    "avg_current_window": 1936.034179717219,
    "avg_prior_window": 2198.8298551932767,
    "inception_score_mean": 1.0747167217873765,
    "inception_score_std": 0.012944691309181048,
    "fid_per_class": {
        "airplane": 1883.4770579899675,
        "automobile": 2195.4440959797384,
        "bird": 2196.5748935932493,
        "cat": 1813.8371938106202,
        "deer": 2319.2218581344405,
        "dog": 2090.479404561212,
        "frog": 2316.3133445478625,
        "horse": 2201.5070081418116,
        "ship": 2018.7769049712238,
        "truck": 1915.6735545204515
    },
    "fid": 1927.0711641188248,
    "wasserstein_distance": null,
    "g_loss": null,
    "g_cost": null,
    "d_loss_real": null,
    "d_loss_fake": null
}