{
    "epoch": 180,
    "avg_current_window": 1144.095921561986,
    "avg_prior_window": 1157.6451438266472,
    "inception_score_mean": 2.0134855778242424,
    "inception_score_std": 0.18262154757516472,
    "fid_per_class": {
        "airplane": 1042.993339693552,
        "automobile": 1137.9098245663838,
        "bird": 1369.416666305855,
        "cat": 1142.1167492980483,
        "deer": 1552.8648462227002,
        "dog": 1157.1244633634478,
        "frog": 1704.1676595269935,
        "horse": 1284.4098903491672,
        "ship": 1026.5917531447105,
        "truck": 1034.3406374226481
    },
    "fid": 844.863776144073,
    "wasserstein_distance": null,
    "g_loss": null,
    "g_cost": null,
    "d_loss_real": null,
    "d_loss_fake": null
}