{
    "epoch": 78,
    "avg_current_window": 1467.5635725924872,
    "avg_prior_window": 1508.065966593964,
    "inception_score_mean": 1.8887118310461772,
    "inception_score_std": 0.17328327466413876,
    "fid_per_class": {
        "airplane": 1147.4419276112699,
        "automobile": 1244.986910328629,
        "bird": 1571.982470813246,
        "cat": 1207.6944728943893,
        "deer": 1765.1152439191821,
        "dog": 1287.6242343000927,
        "frog": 2125.2767684663904,
        "horse": 1541.0367756604676,
        "ship": 1081.342226826075,
        "truck": 1088.324008169087
    },
    "fid": 1036.8832367129446,
    "wasserstein_distance": null,
    "g_loss": null,
    "g_cost": null,
    "d_loss_real": null,
    "d_loss_fake": null
}