{
    "epoch": 14,
    "avg_current_window": 1999.8274351578061,
    "avg_prior_window": 2150.153197952644,
    "inception_score_mean": 1.0795990756516258,
    "inception_score_std": 0.09058467617854216,
    "fid_per_class": {
        "airplane": 1960.52476142501,
        "automobile": 2025.0123448421673,
        "bird": 2080.48586516648,
        "cat": 2465.1492203863454,
        "deer": 2729.0752179128845,
        "dog": 2581.54731369385,
        "frog": 2553.890193170984,
        "horse": 2427.2289665673184,
        "ship": 2207.0943380737585,
        "truck": 1854.4117272180247
    },
    "fid": 2096.192613899123,
    "wasserstein_distance": null,
    "g_loss": null,
    "g_cost": null,
    "d_loss_real": null,
    "d_loss_fake": null
}