{
    "epoch": 66,
    "avg_current_window": 1539.9083146163198,
    "avg_prior_window": 1597.2672790414044,
    "inception_score_mean": 1.9073329744289313,
    "inception_score_std": 0.12261222002313772,
    "fid_per_class": {
        "airplane": 1136.9587874472318,
        "automobile": 1244.0335734802,
        "bird": 1476.5612175223891,
        "cat": 1206.5652651326195,
        "deer": 1782.8669231028296,
        "dog": 1273.5313771178905,
        "frog": 2125.2951641121945,
        "horse": 1542.8932672628398,
        "ship": 1151.175619726845,
        "truck": 1140.40682250404
    },
    "fid": 1050.0859039549177,
    "wasserstein_distance": null,
    "g_loss": null,
    "g_cost": null,
    "d_loss_real": null,
    "d_loss_fake": null
}