{
    "epoch": 130,
    "avg_current_window": 1253.7973101777193,
    "avg_prior_window": 1275.3989938902537,
    "inception_score_mean": 2.0169794125097096,
    "inception_score_std": 0.1156609002351101,
    "fid_per_class": {
        "airplane": 1055.1026396576997,
        "automobile": 1160.3628077156582,
        "bird": 1340.7528589211524,
        "cat": 1094.6892497927215,
        "deer": 1626.450318694192,
        "dog": 1133.6151765424763,
        "frog": 1896.3111448584925,
        "horse": 1357.2249812481455,
        "ship": 981.1993961950411,
        "truck": 1113.743666117391
    },
    "fid": 870.7814790781176,
    "wasserstein_distance": null,
    "g_loss": null,
    "g_cost": null,
    "d_loss_real": null,
    "d_loss_fake": null
}