{
    "epoch": 167,
    "avg_current_window": 1168.2964030285152,
    "avg_prior_window": 1183.7449420878793,
    "inception_score_mean": 2.116279906157366,
    "inception_score_std": 0.2591275037194775,
    "fid_per_class": {
        "airplane": 1014.871008180352,
        "automobile": 1114.5551211055624,
        "bird": 1362.037561842073,
        "cat": 1013.768527212409,
        "deer": 1466.0005465406125,
        "dog": 1145.5854853123446,
        "frog": 1710.3131142256595,
        "horse": 1171.8556567628466,
        "ship": 1030.8244598182714,
        "truck": 1076.1241258292139
    },
    "fid": 796.5224873349188,
    "wasserstein_distance": null,
    "g_loss": null,
    "g_cost": null,
    "d_loss_real": null,
    "d_loss_fake": null
}