{
    "epoch": 92,
    "avg_current_window": 1394.339565218034,
    "avg_prior_window": 1431.6894988449092,
    "inception_score_mean": 1.8901302038338053,
    "inception_score_std": 0.14887371928295812,
    "fid_per_class": {
        "airplane": 1089.6391780121312,
        "automobile": 1182.4344307052684,
        "bird": 1475.2262517482973,
        "cat": 1184.4252983031847,
        "deer": 1699.6855831649941,
        "dog": 1278.6835538367995,
        "frog": 1979.068574371177,
        "horse": 1438.8837035388685,
        "ship": 1051.9410405689987,
        "truck": 1138.2936268993444
    },
    "fid": 983.3474884597839,
    "wasserstein_distance": null,
    "g_loss": null,
    "g_cost": null,
    "d_loss_real": null,
    "d_loss_fake": null
}