{
    "epoch": 135,
    "avg_current_window": 1239.6489193155712,
    "avg_prior_window": 1260.4956292475508,
    "inception_score_mean": 2.027336591454418,
    "inception_score_std": 0.14809885173826254,
    "fid_per_class": {
        "airplane": 1036.2376440002508,
        "automobile": 1186.3472996805808,
        "bird": 1311.2510939691495,
        "cat": 1114.7655887486696,
        "deer": 1664.0388532122429,
        "dog": 1263.3227158286459,
        "frog": 1846.2031540862574,
        "horse": 1284.2954555017584,
        "ship": 1010.7645677206328,
        "truck": 1085.8964971819114
    },
    "fid": 868.4482723182562,
    "wasserstein_distance": null,
    "g_loss": null,
    "g_cost": null,
    "d_loss_real": null,
    "d_loss_fake": null
}