{
    "epoch": 29,
    "avg_current_window": 1931.1016089830262,
    "avg_prior_window": 2064.172554728683,
    "inception_score_mean": 1.2512461672298578,
    "inception_score_std": 0.05689099975110633,
    "fid_per_class": {
        "airplane": 1709.9091093621755,
        "automobile": 1722.3347887177847,
        "bird": 1923.2156233273763,
        "cat": 1742.5119872590835,
        "deer": 2064.786310606364,
        "dog": 1945.5731488691142,
        "frog": 2249.4388047651564,
        "horse": 1830.7700979026345,
        "ship": 1582.8723991979014,
        "truck": 1670.2721124191416
    },
    "fid": 1629.805213952365,
    "wasserstein_distance": null,
    "g_loss": null,
    "g_cost": null,
    "d_loss_real": null,
    "d_loss_fake": null
}