{
    "epoch": 65,
    "avg_current_window": 1545.8766988507737,
    "avg_prior_window": 1606.6619389119412,
    "inception_score_mean": 1.741724286272919,
    "inception_score_std": 0.18059523971112534,
    "fid_per_class": {
        "airplane": 1171.7218912375365,
        "automobile": 1334.3725847495325,
        "bird": 1539.2146756622103,
        "cat": 1417.519886838994,
        "deer": 1886.553213725857,
        "dog": 1348.2076534230023,
        "frog": 2287.3196406387947,
        "horse": 1657.1511076670376,
        "ship": 1103.9507303070284,
        "truck": 1217.4444097746848
    },
    "fid": 1151.9633393768233,
    "wasserstein_distance": null,
    "g_loss": null,
    "g_cost": null,
    "d_loss_real": null,
    "d_loss_fake": null
}