{
    "epoch": 172,
    "avg_current_window": 1158.3973411546112,
    "avg_prior_window": 1173.0659987610595,
    "inception_score_mean": 2.0118719315542206,
    "inception_score_std": 0.13906188194500518,
    "fid_per_class": {
        "airplane": 1007.1654733553045,
        "automobile": 1096.7774036775108,
        "bird": 1325.8524471435483,
        "cat": 1040.5273528809491,
        "deer": 1556.7689982536303,
        "dog": 1097.008099168351,
        "frog": 1730.5991383563585,
        "horse": 1224.6436761946843,
        "ship": 991.140069995037,
        "truck": 1042.0525225848264
    },
    "fid": 798.574639542297,
    "wasserstein_distance": null,
    "g_loss": null,
    "g_cost": null,
    "d_loss_real": null,
    "d_loss_fake": null
}