{
    "epoch": 198,
    "avg_current_window": 1114.5788314365118,
    "avg_prior_window": 1126.2876661846058,
    "inception_score_mean": 1.997268712187957,
    "inception_score_std": 0.10299167192235315,
    "fid_per_class": {
        "airplane": 974.7819620618105,
        "automobile": 1115.0483309981523,
        "bird": 1369.2408705806113,
        "cat": 1080.0388774086025,
        "deer": 1465.9018556159042,
        "dog": 1139.1128087945153,
        "frog": 1625.2538015955106,
        "horse": 1160.6618176169964,
        "ship": 976.4028776410967,
        "truck": 970.5283003225948
    },
    "fid": 791.6752722205091,
    "wasserstein_distance": null,
    "g_loss": null,
    "g_cost": null,
    "d_loss_real": null,
    "d_loss_fake": null
}