{
    "epoch": 189,
    "avg_current_window": 1128.709273822606,
    "avg_prior_window": 1141.047888388507,
    "inception_score_mean": 2.0512409114790486,
    "inception_score_std": 0.1399305482032786,
    "fid_per_class": {
        "airplane": 999.4152562932364,
        "automobile": 1123.6703827300844,
        "bird": 1314.4233826015634,
        "cat": 1099.399038878299,
        "deer": 1550.869999280727,
        "dog": 1135.2145669953284,
        "frog": 1728.9100618689736,
        "horse": 1215.601584534201,
        "ship": 1014.5390995484058,
        "truck": 1009.1032911813411
    },
    "fid": 810.0762948680083,
    "wasserstein_distance": null,
    "g_loss": null,
    "g_cost": null,
    "d_loss_real": null,
    "d_loss_fake": null
}