{
    "epoch": 52,
    "avg_current_window": 1659.3616230166817,
    "avg_prior_window": 1736.1064410611389,
    "inception_score_mean": 1.9012695569902267,
    "inception_score_std": 0.12836800830188244,
    "fid_per_class": {
        "airplane": 1181.7408481365876,
        "automobile": 1270.521124645075,
        "bird": 1555.8206699529042,
        "cat": 1216.334004451258,
        "deer": 1853.5313913506347,
        "dog": 1330.215864821946,
        "frog": 2033.9454910025097,
        "horse": 1552.9846574528128,
        "ship": 1129.360873515445,
        "truck": 1192.895137080469
    },
    "fid": 1066.337309322696,
    "wasserstein_distance": null,
    "g_loss": null,
    "g_cost": null,
    "d_loss_real": null,
    "d_loss_fake": null
}