{
    "epoch": 49,
    "avg_current_window": 1687.5308831564028,
    "avg_prior_window": 1777.5870825011123,
    "inception_score_mean": 1.8727419416125322,
    "inception_score_std": 0.16933544587723315,
    "fid_per_class": {
        "airplane": 1272.8458146400526,
        "automobile": 1335.62509527082,
        "bird": 1609.8103995035867,
        "cat": 1391.580443557888,
        "deer": 1943.5897653818215,
        "dog": 1407.5603859882576,
        "frog": 2115.6501172781027,
        "horse": 1611.4021359057188,
        "ship": 1304.4757030401279,
        "truck": 1295.7206554407944
    },
    "fid": 1180.149553216829,
    "wasserstein_distance": null,
    "g_loss": null,
    "g_cost": null,
    "d_loss_real": null,
    "d_loss_fake": null
}