{
    "epoch": 70,
    "avg_current_window": 1512.7442438126668,
    "avg_prior_window": 1563.5992117642631,
    "inception_score_mean": 1.745992269083504,
    "inception_score_std": 0.12800208668319762,
    "fid_per_class": {
        "airplane": 1230.4785073917396,
        "automobile": 1344.0727035518435,
        "bird": 1627.591666435039,
        "cat": 1313.539884380606,
        "deer": 1884.2440931239857,
        "dog": 1278.6912076887395,
        "frog": 2176.692983722343,
        "horse": 1599.0900348037912,
        "ship": 1120.273936706775,
        "truck": 1225.6715907191738
    },
    "fid": 1132.6374845035816,
    "wasserstein_distance": null,
    "g_loss": null,
    "g_cost": null,
    "d_loss_real": null,
    "d_loss_fake": null
}