{
    "epoch": 183,
    "avg_current_window": 1138.8073523620715,
    "avg_prior_window": 1152.307521342369,
    "inception_score_mean": 2.0718451801301887,
    "inception_score_std": 0.14100400867194765,
    "fid_per_class": {
        "airplane": 1014.6741781986707,
        "automobile": 1136.7726306408144,
        "bird": 1301.4340364187533,
        "cat": 1048.9978687899545,
        "deer": 1475.063788221827,
        "dog": 1122.077949953069,
        "frog": 1576.1556964523386,
        "horse": 1209.5975896236928,
        "ship": 1026.511616742344,
        "truck": 1032.1548900062785
    },
    "fid": 768.3633324521987,
    "wasserstein_distance": null,
    "g_loss": null,
    "g_cost": null,
    "d_loss_real": null,
    "d_loss_fake": null
}