{
    "epoch": 115,
    "avg_current_window": 1301.8193998216416,
    "avg_prior_window": 1327.2314695858174,
    "inception_score_mean": 1.9804646432910917,
    "inception_score_std": 0.16764398049845383,
    "fid_per_class": {
        "airplane": 1140.3298526746585,
        "automobile": 1182.5287808155667,
        "bird": 1397.410522101226,
        "cat": 1215.5313656473622,
        "deer": 1700.9013684906004,
        "dog": 1188.5379121901778,
        "frog": 1815.116430058915,
        "horse": 1426.1569039208284,
        "ship": 1013.2077070331109,
        "truck": 1125.0130363784979
    },
    "fid": 917.5783605471445,
    "wasserstein_distance": null,
    "g_loss": null,
    "g_cost": null,
    "d_loss_real": null,
    "d_loss_fake": null
}