{
    "epoch": 141,
    "avg_current_window": 1224.5126642636192,
    "avg_prior_window": 1243.3655467650965,
    "inception_score_mean": 1.9740227797711705,
    "inception_score_std": 0.13418767271935364,
    "fid_per_class": {
        "airplane": 1047.788455815764,
        "automobile": 1141.1584916548002,
        "bird": 1359.7664253150142,
        "cat": 999.678975262753,
        "deer": 1537.7231201004302,
        "dog": 1125.1311426292602,
        "frog": 1814.886623969,
        "horse": 1338.895113315864,
        "ship": 974.1381597792722,
        "truck": 1071.4883770695553
    },
    "fid": 844.3407563859787,
    "wasserstein_distance": null,
    "g_loss": null,
    "g_cost": null,
    "d_loss_real": null,
    "d_loss_fake": null
}