{
    "epoch": 190,
    "avg_current_window": 1127.0322581438977,
    "avg_prior_window": 1139.7586632143355,
    "inception_score_mean": 2.0165734302561598,
    "inception_score_std": 0.16012739204880494,
    "fid_per_class": {
        "airplane": 996.9914666700882,
        "automobile": 1145.67712985267,
        "bird": 1350.8063407928885,
        "cat": 1096.4698772963202,
        "deer": 1500.8196153029044,
        "dog": 1086.6570263278502,
        "frog": 1667.2516783570777,
        "horse": 1172.5999691829402,
        "ship": 938.879988381678,
        "truck": 1031.0162270003589
    },
    "fid": 802.1131197690238,
    "wasserstein_distance": null,
    "g_loss": null,
    "g_cost": null,
    "d_loss_real": null,
    "d_loss_fake": null
}