{
    "epoch": 125,
    "avg_current_window": 1267.6693344633854,
    "avg_prior_window": 1291.474162635654,
    "inception_score_mean": 1.9118563777226534,
    "inception_score_std": 0.13569356437494873,
    "fid_per_class": {
        "airplane": 1117.0268352148696,
        "automobile": 1222.439470151468,
        "bird": 1483.065186424623,
        "cat": 1122.8575497140332,
        "deer": 1743.8490256746281,
        "dog": 1256.4569298970196,
        "frog": 2012.7842361275384,
        "horse": 1336.6392239043175,
        "ship": 1044.3071290136113,
        "truck": 1147.7993483131954
    },
    "fid": 966.2074283585376,
    "wasserstein_distance": null,
    "g_loss": null,
    "g_cost": null,
    "d_loss_real": null,
    "d_loss_fake": null
}