{
    "epoch": 117,
    "avg_current_window": 1293.924956679479,
    "avg_prior_window": 1319.9846136596111,
    "inception_score_mean": 1.9127228244016217,
    "inception_score_std": 0.17033548576562688,
    "fid_per_class": {
        "airplane": 1011.8827842581761,
        "automobile": 1139.619714890573,
        "bird": 1312.4155056127595,
        "cat": 1066.1557845699783,
        "deer": 1492.6979241963975,
        "dog": 1109.8198582620985,
        "frog": 1806.7853375348081,
        "horse": 1268.307974506202,
        "ship": 1014.0661908243089,
        "truck": 1106.310371751526
    },
    "fid": 826.7244388151325,
    "wasserstein_distance": null,
    "g_loss": null,
    "g_cost": null,
    "d_loss_real": null,
    "d_loss_fake": null
}