{
    "epoch": 58,
    "avg_current_window": 1603.4362994864991,
    "avg_prior_window": 1668.7968941787544,
    "inception_score_mean": 1.780124511823076,
    "inception_score_std": 0.1127991017747072,
    "fid_per_class": {
        "airplane": 1261.5243579757698,
        "automobile": 1349.3286546277182,
        "bird": 1636.704527230239,
        "cat": 1350.0380944839762,
        "deer": 1787.6236328985901,
        "dog": 1399.3448753753132,
        "frog": 2327.385457099601,
        "horse": 1759.0190050963804,
        "ship": 1144.8125186180243,
        "truck": 1233.1009967192072
    },
    "fid": 1176.409367776485,
    "wasserstein_distance": null,
    "g_loss": null,
    "g_cost": null,
    "d_loss_real": null,
    "d_loss_fake": null
}