{
    "epoch": 63,
    "avg_current_window": 1562.2856183472247,
    "avg_prior_window": 1623.7192196205767,
    "inception_score_mean": 1.9806225332884846,
    "inception_score_std": 0.1931323079627244,
    "fid_per_class": {
        "airplane": 1100.7393606748542,
        "automobile": 1246.6596950533358,
        "bird": 1445.9412885485704,
        "cat": 1132.834418487184,
        "deer": 1754.581133276506,
        "dog": 1270.9116489281992,
        "frog": 2006.7527992988607,
        "horse": 1431.926381499408,
        "ship": 1084.6145933764365,
        "truck": 1156.7962814203863
    },
    "fid": 979.9652702142412,
    "wasserstein_distance": null,
    "g_loss": null,
    "g_cost": null,
    "d_loss_real": null,
    "d_loss_fake": null
}