{
    "epoch": 188,
    "avg_current_window": 1130.277151779339,
    "avg_prior_window": 1143.006059096783,
    "inception_score_mean": 2.0709138028853173,
    "inception_score_std": 0.16743839025215534,
    "fid_per_class": {
        "airplane": 1065.772124729327,
        "automobile": 1153.1031375429961,
        "bird": 1340.8353551439118,
        "cat": 1069.3690941395953,
        "deer": 1573.7357908984545,
        "dog": 1128.9993409797357,
        "frog": 1749.8976420634817,
        "horse": 1233.9971947437482,
        "ship": 1015.3530278552294,
        "truck": 1017.8578037246775
    },
    "fid": 833.9482179568073,
    "wasserstein_distance": null,
    "g_loss": null,
    "g_cost": null,
    "d_loss_real": null,
    "d_loss_fake": null
}