{
    "epoch": 163,
    "avg_current_window": 1176.4827031793648,
    "avg_prior_window": 1192.5863314531632,
    "inception_score_mean": 1.9569133274925938,
    "inception_score_std": 0.12025787047228406,
    "fid_per_class": {
        "airplane": 998.6155603900143,
        "automobile": 1179.6312375792454,
        "bird": 1381.9368131042916,
        "cat": 1049.4618625419105,
        "deer": 1616.441576158869,
        "dog": 1124.412244607454,
        "frog": 1663.1189938045854,
        "horse": 1261.5265565796408,
        "ship": 1031.3855031942608,
        "truck": 1108.7228027023173
    },
    "fid": 833.5223038993025,
    "wasserstein_distance": null,
    "g_loss": null,
    "g_cost": null,
    "d_loss_real": null,
    "d_loss_fake": null
}