{
    "epoch": 88,
    "avg_current_window": 1415.4202999943989,
    "avg_prior_window": 1451.5873918652753,
    "inception_score_mean": 1.9646593500910394,
    "inception_score_std": 0.1723875795451148,
    "fid_per_class": {
        "airplane": 1101.7027325936706,
        "automobile": 1183.589501139288,
        "bird": 1455.9458952380826,
        "cat": 1095.7647051086683,
        "deer": 1621.4714760466013,
        "dog": 1248.4349260741674,
        "frog": 1913.2753872595245,
        "horse": 1380.0846051333929,
        "ship": 1095.0475991375297,
        "truck": 1136.53984740649
    },
    "fid": 938.2424544127236,
    "wasserstein_distance": null,
    "g_loss": null,
    "g_cost": null,
    "d_loss_real": null,
    "d_loss_fake": null
}