{
    "epoch": 122,
    "avg_current_window": 1277.20860481188,
    "avg_prior_window": 1300.9909775240528,
    "inception_score_mean": 1.9632950586438938,
    "inception_score_std": 0.1154286947147673,
    "fid_per_class": {
        "airplane": 1029.43639179112,
        "automobile": 1112.5104411129914,
        "bird": 1223.1886226339304,
        "cat": 998.6443992629471,
        "deer": 1469.4105476587358,
        "dog": 1134.7173000695102,
        "frog": 1710.187205996003,
        "horse": 1208.307634933979,
        "ship": 1014.3674240816733,
        "truck": 1089.3247808257424
    },
    "fid": 806.157161241629,
    "wasserstein_distance": null,
    "g_loss": null,
    "g_cost": null,
    "d_loss_real": null,
    "d_loss_fake": null
}