{
    "epoch": 28,
    "avg_current_window": 1943.603628706238,
    "avg_prior_window": 2087.506842392286,
    "inception_score_mean": 1.248899781803393,
    "inception_score_std": 0.0784556819048255,
    "fid_per_class": {
        "airplane": 1778.7647163500726,
        "automobile": 1700.6750624493554,
        "bird": 1927.8756990647555,
        "cat": 2016.4088372406627,
        "deer": 2120.8594203952603,
        "dog": 1819.660627703536,
        "frog": 2155.0292949423765,
        "horse": 1804.1450927187684,
        "ship": 1625.4722294597257,
        "truck": 1509.744940822121
    },
    "fid": 1581.0450567330995,
    "wasserstein_distance": null,
    "g_loss": null,
    "g_cost": null,
    "d_loss_real": null,
    "d_loss_fake": null
}