{
    "epoch": 118,
    "avg_current_window": 1289.9656302568999,
    "avg_prior_window": 1316.5156372275264,
    "inception_score_mean": 2.104453748771039,
    "inception_score_std": 0.19042195134071555,
    "fid_per_class": {
        "airplane": 1061.5519266671447,
        "automobile": 1189.9885023999095,
        "bird": 1391.5989656305094,
        "cat": 1117.7186055093543,
        "deer": 1656.1372501240212,
        "dog": 1135.9097671998602,
        "frog": 1876.435958611498,
        "horse": 1310.7478946450399,
        "ship": 1074.5303894103863,
        "truck": 1086.825627031161
    },
    "fid": 892.5036123211003,
    "wasserstein_distance": null,
    "g_loss": null,
    "g_cost": null,
    "d_loss_real": null,
    "d_loss_fake": null
}