{
    "epoch": 134,
    "avg_current_window": 1242.3311571238598,
    "avg_prior_window": 1263.516669171345,
    "inception_score_mean": 1.9280241618794052,
    "inception_score_std": 0.10137824180857072,
    "fid_per_class": {
        "airplane": 1086.7145237167363,
        "automobile": 1159.2601233329492,
        "bird": 1422.4978224684144,
        "cat": 1042.5712356138638,
        "deer": 1671.0897222573792,
        "dog": 1152.184218210381,
        "frog": 1797.4450414786857,
        "horse": 1374.3302200035332,
        "ship": 957.1560950901023,
        "truck": 1110.9021940208552
    },
    "fid": 880.2290530049135,
    "wasserstein_distance": null,
    "g_loss": null,
    "g_cost": null,
    "d_loss_real": null,
    "d_loss_fake": null
}