{
    "epoch": 21,
    "avg_current_window": 1984.7673801651877,
    "avg_prior_window": 2115.8823837154073,
    "inception_score_mean": 1.000000000004532,
    "inception_score_std": 3.4360828182617496e-12,
    "fid_per_class": {
        "airplane": 2220.554491394694,
        "automobile": 2432.3290047598866,
        "bird": 2662.2286591770658,
        "cat": 2728.9913570508033,
        "deer": 3138.5468849015006,
        "dog": 2793.122070839133,
        "frog": 3064.5743858166516,
        "horse": 2794.3765113014583,
        "ship": 2566.855512846225,
        "truck": 2395.9844326547327
    },
    "fid": 2672.188550154994,
    "wasserstein_distance": null,
    "g_loss": null,
    "g_cost": null,
    "d_loss_real": null,
    "d_loss_fake": null
}