{
    "epoch": 140,
    "avg_current_window": 1226.7758827729813,
    "avg_prior_window": 1246.0818694808918,
    "inception_score_mean": 1.9498100666481435,
    "inception_score_std": 0.10501503792368341,
    "fid_per_class": {
        "airplane": 1022.2176492617974,
        "automobile": 1147.114998556934,
        "bird": 1345.458853975174,
        "cat": 1151.2082295180903,
        "deer": 1566.1594558608363,
        "dog": 1309.5970441857162,
        "frog": 1854.5019301514935,
        "horse": 1371.7292135881464,
        "ship": 969.6636118847074,
        "truck": 1182.209549620401
    },
    "fid": 907.6620729529147,
    "wasserstein_distance": null,
    "g_loss": null,
    "g_cost": null,
    "d_loss_real": null,
    "d_loss_fake": null
}