{
    "epoch": 116,
    "avg_current_window": 1587.7313204262584,
    "avg_prior_window": 1625.5991722741696,
    "inception_score_mean": 1.9595635875156667,
    "inception_score_std": 0.11191468104786025,
    "fid_per_class": {
        "airplane": 1011.5700089347332,
        "automobile": 1276.8918844377386,
        "bird": 1358.3431770976026,
        "cat": 1070.9543741917994,
        "deer": 1540.7403089140519,
        "dog": 1177.0006567675719,
        "frog": 1712.6835087568334,
        "horse": 1370.0463732379217,
        "ship": 922.9121549472682,
        "truck": 1156.4463558559069
    },
    "fid": 871.9985524274045,
    "wasserstein_distance": null,
    "g_loss": null,
    "g_cost": null,
    "d_loss_real": null,
    "d_loss_fake": null
}