{
    "epoch": 38,
    "avg_current_window": 2424.2130743058074,
    "avg_prior_window": 2583.8692874862472,
    "inception_score_mean": 1.1680910480766369,
    "inception_score_std": 0.01963447031899061,
    "fid_per_class": {
        "airplane": 1677.731717532429,
        "automobile": 1622.0280891039497,
        "bird": 1867.2399063120642,
        "cat": 1812.8360051498635,
        "deer": 1981.6383225318173,
        "dog": 1912.7186862801088,
        "frog": 2196.8349235076557,
        "horse": 1884.6598687104452,
        "ship": 1505.2169204840736,
        "truck": 1591.773399893385
    },
    "fid": 1588.8939550991065,
    "wasserstein_distance": null,
    "g_loss": null,
    "g_cost": null,
    "d_loss_real": null,
    "d_loss_fake": null
}