{
    "epoch": 59,
    "avg_current_window": 2089.6982136246065,
    "avg_prior_window": 2178.2328611746684,
    "inception_score_mean": 1.643237049344706,
    "inception_score_std": 0.10991759051543858,
    "fid_per_class": {
        "airplane": 1371.9577478274603,
        "automobile": 1456.6901542599483,
        "bird": 1740.0027260090633,
        "cat": 1492.6384165222776,
        "deer": 1856.9470732830184,
        "dog": 1703.8362412193374,
        "frog": 2085.778586555931,
        "horse": 1784.454280893612,
        "ship": 1224.981301155929,
        "truck": 1357.4491720865722
    },
    "fid": 1293.877446901185,
    "wasserstein_distance": null,
    "g_loss": null,
    "g_cost": null,
    "d_loss_real": null,
    "d_loss_fake": null
}