{
    "epoch": 158,
    "avg_current_window": 1404.090530146214,
    "avg_prior_window": 1427.4457850582535,
    "inception_score_mean": 2.0884230922007196,
    "inception_score_std": 0.11998509285008982,
    "fid_per_class": {
        "airplane": 933.2216617675995,
        "automobile": 1249.6527893047971,
        "bird": 1320.2005339771626,
        "cat": 1166.1943525625074,
        "deer": 1430.4751247133267,
        "dog": 1243.5689525917203,
        "frog": 1731.3112914215155,
        "horse": 1287.877163965187,
        "ship": 960.9246362205856,
        "truck": 1209.3413869575077
    },
    "fid": 852.3743837911877,
    "wasserstein_distance": null,
    "g_loss": null,
    "g_cost": null,
    "d_loss_real": null,
    "d_loss_fake": null
}