{
    "epoch": 183,
    "avg_current_window": 1330.438555800536,
    "avg_prior_window": 1348.7247111815338,
    "inception_score_mean": 2.0347855827260415,
    "inception_score_std": 0.21161490412228762,
    "fid_per_class": {
        "airplane": 1040.7200913458742,
        "automobile": 1237.4530605780997,
        "bird": 1324.4690548540152,
        "cat": 1163.1999140522053,
        "deer": 1478.2929236704526,
        "dog": 1243.2084652036099,
        "frog": 1731.6016409218373,
        "horse": 1365.3519245298219,
        "ship": 1000.7757378624807,
        "truck": 1234.533675155427
    },
    "fid": 881.324241405616,
    "wasserstein_distance": null,
    "g_loss": null,
    "g_cost": null,
    "d_loss_real": null,
    "d_loss_fake": null
}