{
    "epoch": 113,
    "avg_current_window": 1605.2385690837334,
    "avg_prior_window": 1645.2554136489503,
    "inception_score_mean": 2.009756733139527,
    "inception_score_std": 0.17689601972297309,
    "fid_per_class": {
        "airplane": 1006.068856750472,
        "automobile": 1260.2664627421489,
        "bird": 1390.1883772473852,
        "cat": 1150.392264265971,
        "deer": 1521.4778776155579,
        "dog": 1241.8054587511015,
        "frog": 1738.094685616751,
        "horse": 1413.338000815076,
        "ship": 995.9924894298433,
        "truck": 1220.144064180002
    },
    "fid": 922.603394023492,
    "wasserstein_distance": null,
    "g_loss": null,
    "g_cost": null,
    "d_loss_real": null,
    "d_loss_fake": null
}