{
    "epoch": 101,
    "avg_current_window": 1684.8041230476979,
    "avg_prior_window": 1731.0285342348561,
    "inception_score_mean": 1.8773659938048755,
    "inception_score_std": 0.1428290164429846,
    "fid_per_class": {
        "airplane": 1032.5338537145512,
        "automobile": 1310.5801158849756,
        "bird": 1377.5287068605778,
        "cat": 1114.9928452253148,
        "deer": 1492.1898996400837,
        "dog": 1211.5079592239,
        "frog": 1755.7737595623403,
        "horse": 1385.1456495311813,
        "ship": 976.1744234385949,
        "truck": 1191.7192221509101
    },
    "fid": 912.1835936125406,
    "wasserstein_distance": null,
    "g_loss": null,
    "g_cost": null,
    "d_loss_real": null,
    "d_loss_fake": null
}