{
    "epoch": 142,
    "avg_current_window": 1462.6621599702987,
    "avg_prior_window": 1489.7766314786966,
    "inception_score_mean": 2.0451434917037146,
    "inception_score_std": 0.15451541566431662,
    "fid_per_class": {
        "airplane": 992.6133567972583,
        "automobile": 1267.953670534154,
        "bird": 1372.3241637653027,
        "cat": 1192.29445850407,
        "deer": 1575.5867484386606,
        "dog": 1332.00275793217,
        "frog": 1784.2264669361143,
        "horse": 1392.848467639745,
        "ship": 944.518317047161,
        "truck": 1220.001837659066
    },
    "fid": 922.2098423364235,
    "wasserstein_distance": null,
    "g_loss": null,
    "g_cost": null,
    "d_loss_real": null,
    "d_loss_fake": null
}