{
    "epoch": 109,
    "avg_current_window": 1630.1613272851985,
    "avg_prior_window": 1673.2235087356544,
    "inception_score_mean": 1.9901071049456807,
    "inception_score_std": 0.17943263629757847,
    "fid_per_class": {
        "airplane": 1110.7339378007346,
        "automobile": 1286.722256585314,
        "bird": 1370.9995939119985,
        "cat": 1115.0545473058082,
        "deer": 1512.0441534645454,
        "dog": 1205.5113415182748,
        "frog": 1656.2614407122328,
        "horse": 1345.0071317666063,
        "ship": 964.7359669649974,
        "truck": 1220.1555571113645
    },
    "fid": 896.6389154596932,
    "wasserstein_distance": null,
    "g_loss": null,
    "g_cost": null,
    "d_loss_real": null,
    "d_loss_fake": null
}