{
    "epoch": 66,
    "avg_current_window": 2008.4432312883987,
    "avg_prior_window": 2085.915962459863,
    "inception_score_mean": 1.6034011430042816,
    "inception_score_std": 0.1031358557687393,
    "fid_per_class": {
        "airplane": 1265.508821839811,
        "automobile": 1459.6815861280882,
        "bird": 1653.6450752253247,
        "cat": 1536.968469359492,
        "deer": 1671.533002967623,
        "dog": 1642.174774695312,
        "frog": 2026.4874060269271,
        "horse": 1756.5207300236402,
        "ship": 1181.0012465360917,
        "truck": 1390.6123112608946
    },
    "fid": 1249.0670595934512,
    "wasserstein_distance": null,
    "g_loss": null,
    "g_cost": null,
    "d_loss_real": null,
    "d_loss_fake": null
}