{
    "epoch": 160,
    "avg_current_window": 1397.381972723795,
    "avg_prior_window": 1419.951469380117,
    "inception_score_mean": 2.0174678002747854,
    "inception_score_std": 0.19345914572884576,
    "fid_per_class": {
        "airplane": 951.4547620009896,
        "automobile": 1274.2391639122625,
        "bird": 1387.155649566699,
        "cat": 1156.5683287896009,
        "deer": 1498.645698100954,
        "dog": 1263.0672422705961,
        "frog": 1820.7034721528807,
        "horse": 1374.2692771654563,
        "ship": 945.0876975238461,
        "truck": 1152.2546120523134
    },
    "fid": 879.0634770486937,
    "wasserstein_distance": null,
    "g_loss": null,
    "g_cost": null,
    "d_loss_real": null,
    "d_loss_fake": null
}