{
    "epoch": 27,
    "avg_current_window": 2533.4864007476654,
    "avg_prior_window": 2630.507515778933,
    "inception_score_mean": 1.0352630926139343,
    "inception_score_std": 0.003343352567885913,
    "fid_per_class": {
        "airplane": 1989.4464107420335,
        "automobile": 2156.810073751759,
        "bird": 2470.5591719257845,
        "cat": 2273.9235586479763,
        "deer": 2762.3704199854174,
        "dog": 2286.864785385408,
        "frog": 2696.451315743977,
        "horse": 2455.7079653501205,
        "ship": 2109.9549395161307,
        "truck": 2007.9037490828662
    },
    "fid": 2207.392396290931,
    "wasserstein_distance": null,
    "g_loss": null,
    "g_cost": null,
    "d_loss_real": null,
    "d_loss_fake": null
}