{
    "epoch": 127,
    "avg_current_window": 1529.276411279918,
    "avg_prior_window": 1561.8378052558276,
    "inception_score_mean": 1.9059484095591859,
    "inception_score_std": 0.14939057685532123,
    "fid_per_class": {
        "airplane": 985.6884920345384,
        "automobile": 1319.3953823878146,
        "bird": 1324.3702395667406,
        "cat": 1191.9417903080987,
        "deer": 1499.8850208284073,
        "dog": 1226.6586111962638,
        "frog": 1885.1946868848918,
        "horse": 1432.8064425492353,
        "ship": 971.8930835362132,
        "truck": 1226.0045289065174
    },
    "fid": 938.5356728330885,
    "wasserstein_distance": null,
    "g_loss": null,
    "g_cost": null,
    "d_loss_real": null,
    "d_loss_fake": null
}