{
    "epoch": 77,
    "avg_current_window": 1890.102804098073,
    "avg_prior_window": 1959.4993782357244,
    "inception_score_mean": 1.7982302548725158,
    "inception_score_std": 0.14817550455273887,
    "fid_per_class": {
        "airplane": 1046.1211692267252,
        "automobile": 1355.7391912177409,
        "bird": 1479.0900078144023,
        "cat": 1271.7271766030967,
        "deer": 1612.790751746669,
        "dog": 1402.5559536566075,
        "frog": 1888.525095455392,
        "horse": 1445.5952322232492,
        "ship": 1055.9431506713045,
        "truck": 1238.9920991844692
    },
    "fid": 1035.4735642054202,
    "wasserstein_distance": null,
    "g_loss": null,
    "g_cost": null,
    "d_loss_real": null,
    "d_loss_fake": null
}