{
    "epoch": 196,
    "avg_current_window": 1298.6550683733424,
    "avg_prior_window": 1314.895298384762,
    "inception_score_mean": 2.0835062141372553,
    "inception_score_std": 0.16531067921989548,
    "fid_per_class": {
        "airplane": 989.8902258499613,
        "automobile": 1220.9380901381505,
        "bird": 1322.7430066290797,
        "cat": 1122.405660149393,
        "deer": 1459.4295606025275,
        "dog": 1183.0611834786137,
        "frog": 1696.1498402643047,
        "horse": 1280.155513685478,
        "ship": 991.5720851148337,
        "truck": 1190.9775441047113
    },
    "fid": 835.7331905967201,
    "wasserstein_distance": null,
    "g_loss": null,
    "g_cost": null,
    "d_loss_real": null,
    "d_loss_fake": null
}