{
    "epoch": 21,
    "avg_current_window": 2509.3569381422035,
    "avg_prior_window": 2625.005210193766,
    "inception_score_mean": 1.0000000000187808,
    "inception_score_std": 7.862605956185e-12,
    "fid_per_class": {
        "airplane": 2101.037118278938,
        "automobile": 2473.583455019192,
        "bird": 2375.392633807972,
        "cat": 2649.9591523992253,
        "deer": 2821.192407845737,
        "dog": 2507.7167243805147,
        "frog": 2650.3379064112332,
        "horse": 2631.389850489126,
        "ship": 2481.6260479154244,
        "truck": 2452.276265741374
    },
    "fid": 2506.7235662722233,
    "wasserstein_distance": null,
    "g_loss": null,
    "g_cost": null,
    "d_loss_real": null,
    "d_loss_fake": null
}