{
    "epoch": 195,
    "avg_current_window": 1300.8873214757684,
    "avg_prior_window": 1317.4477216279406,
    "inception_score_mean": 2.0967732778153585,
    "inception_score_std": 0.21639622246219267,
    "fid_per_class": {
        "airplane": 1032.299342423924,
        "automobile": 1187.0954795696346,
        "bird": 1358.945566517713,
        "cat": 1173.7085921726152,
        "deer": 1451.7547296819039,
        "dog": 1227.397862878003,
        "frog": 1735.293500921961,
        "horse": 1336.4632722808437,
        "ship": 956.7903128761443,
        "truck": 1179.708751247422
    },
    "fid": 863.3657134002826,
    "wasserstein_distance": null,
    "g_loss": null,
    "g_cost": null,
    "d_loss_real": null,
    "d_loss_fake": null
}