{
    "epoch": 123,
    "avg_current_window": 1549.1399369204144,
    "avg_prior_window": 1583.5916192484547,
    "inception_score_mean": 1.944867280177543,
    "inception_score_std": 0.17729647675175658,
    "fid_per_class": {
        "airplane": 1038.1568530122481,
        "automobile": 1300.1314270946973,
        "bird": 1371.370539846421,
        "cat": 1192.0978147637743,
        "deer": 1541.6792408210283,
        "dog": 1293.5285205525824,
        "frog": 1915.3156748291876,
        "horse": 1374.7373966355058,
        "ship": 979.0645845226286,
        "truck": 1283.5416812971891
    },
    "fid": 933.6202738510699,
    "wasserstein_distance": null,
    "g_loss": null,
    "g_cost": null,
    "d_loss_real": null,
    "d_loss_fake": null
}