{
    "epoch": 171,
    "avg_current_window": 1363.801354855346,
    "avg_prior_window": 1384.1000158768857,
    "inception_score_mean": 2.1707346734333774,
    "inception_score_std": 0.1830674845423519,
    "fid_per_class": {
        "airplane": 997.8681161440007,
        "automobile": 1276.3864741241543,
        "bird": 1305.2119292029029,
        "cat": 1244.2554559390194,
        "deer": 1545.6626129756248,
        "dog": 1281.5054807232486,
        "frog": 1775.211691385557,
        "horse": 1339.820595395528,
        "ship": 933.5397959951147,
        "truck": 1201.5211037930535
    },
    "fid": 892.1801628683568,
    "wasserstein_distance": null,
    "g_loss": null,
    "g_cost": null,
    "d_loss_real": null,
    "d_loss_fake": null
}