{
    "epoch": 170,
    "avg_current_window": 1366.9306529189653,
    "avg_prior_window": 1387.1823991438844,
    "inception_score_mean": 2.0585447060353412,
    "inception_score_std": 0.1792329075476363,
    "fid_per_class": {
        "airplane": 966.1006777006452,
        "automobile": 1258.0912310316205,
        "bird": 1260.0247633221566,
        "cat": 1117.6792401394323,
        "deer": 1425.9145863290362,
        "dog": 1203.3497119172291,
        "frog": 1705.080018374514,
        "horse": 1272.3444775262649,
        "ship": 956.8118995382108,
        "truck": 1186.4744638481864
    },
    "fid": 831.8206840401252,
    "wasserstein_distance": null,
    "g_loss": null,
    "g_cost": null,
    "d_loss_real": null,
    "d_loss_fake": null
}