{
    "epoch": 145,
    "avg_current_window": 1450.9776332487124,
    "avg_prior_window": 1477.0891092471313,
    "inception_score_mean": 2.030054170806867,
    "inception_score_std": 0.2538512483041836,
    "fid_per_class": {
        "airplane": 958.6437575965169,
        "automobile": 1268.9954133890737,
        "bird": 1339.0437715970293,
        "cat": 1142.8017103279044,
        "deer": 1575.8058280832174,
        "dog": 1142.2064671436515,
        "frog": 1705.2390198737007,
        "horse": 1439.553288723132,
        "ship": 927.6100233058546,
        "truck": 1166.1096854911111
    },
    "fid": 873.2023925898035,
    "wasserstein_distance": null,
    "g_loss": null,
    "g_cost": null,
    "d_loss_real": null,
    "d_loss_fake": null
}