{
    "epoch": 164,
    "avg_current_window": 1384.9502279422998,
    "avg_prior_window": 1406.1705385899822,
    "inception_score_mean": 2.0987066203355718,
    "inception_score_std": 0.15482738477453445,
    "fid_per_class": {
        "airplane": 935.5570813817958,
        "automobile": 1272.8347667273322,
        "bird": 1315.0121230926368,
        "cat": 1234.2511290511347,
        "deer": 1492.2113779612068,
        "dog": 1247.0859591868007,
        "frog": 1685.209166423723,
        "horse": 1338.9559054899867,
        "ship": 953.265373943761,
        "truck": 1196.0910765835304
    },
    "fid": 858.6690120994263,
    "wasserstein_distance": null,
    "g_loss": null,
    "g_cost": null,
    "d_loss_real": null,
    "d_loss_fake": null
}