{
    "epoch": 50,
    "avg_current_window": 2206.058459599159,
    "avg_prior_window": 2315.8535752054963,
    "inception_score_mean": 1.3887543776351954,
    "inception_score_std": 0.0701024725122354,
    "fid_per_class": {
        "airplane": 1540.2939914578114,
        "automobile": 1654.0017861109204,
        "bird": 2010.8461186301615,
        "cat": 1837.7920791070828,
        "deer": 2103.287897549392,
        "dog": 2001.3247804225111,
        "frog": 2428.6479784756616,
        "horse": 1897.843510610322,
        "ship": 1280.175101154623,
        "truck": 1496.4854047518897
    },
    "fid": 1558.4377875289433,
    "wasserstein_distance": null,
    "g_loss": null,
    "g_cost": null,
    "d_loss_real": null,
    "d_loss_fake": null
}