{
    "epoch": 152,
    "avg_current_window": 1425.041760048224,
    "avg_prior_window": 1449.5439916321136,
    "inception_score_mean": 2.047390319071739,
    "inception_score_std": 0.11506755610913504,
    "fid_per_class": {
        "airplane": 1005.8958128820937,
        "automobile": 1283.303534594125,
        "bird": 1349.6823177680596,
        "cat": 1192.0736347680333,
        "deer": 1546.2531052679442,
        "dog": 1289.0292075289194,
        "frog": 1809.1624382622513,
        "horse": 1442.2318952285623,
        "ship": 932.8700526853326,
        "truck": 1203.8053074265104
    },
    "fid": 923.150025203732,
    "wasserstein_distance": null,
    "g_loss": null,
    "g_cost": null,
    "d_loss_real": null,
    "d_loss_fake": null
}