{
    "epoch": 181,
    "avg_current_window": 1335.8325628990565,
    "avg_prior_window": 1354.3220549385398,
    "inception_score_mean": 2.103851159264046,
    "inception_score_std": 0.17067928221773215,
    "fid_per_class": {
        "airplane": 939.5477770494758,
        "automobile": 1236.3884314182897,
        "bird": 1233.2988994403531,
        "cat": 1152.313777108233,
        "deer": 1474.7865807882395,
        "dog": 1214.092441029713,
        "frog": 1633.330741689887,
        "horse": 1161.526724005801,
        "ship": 969.1866322828719,
        "truck": 1217.5508054241232
    },
    "fid": 820.6120645406731,
    "wasserstein_distance": null,
    "g_loss": null,
    "g_cost": null,
    "d_loss_real": null,
    "d_loss_fake": null
}