{
    "epoch": 65,
    "avg_current_window": 2018.7573891257168,
    "avg_prior_window": 2098.963194358206,
    "inception_score_mean": 1.6024413095536167,
    "inception_score_std": 0.12719615538617876,
    "fid_per_class": {
        "airplane": 1418.4144859821233,
        "automobile": 1588.134218858353,
        "bird": 1680.180414096561,
        "cat": 1480.1465348342463,
        "deer": 1769.2571445413753,
        "dog": 1682.7990334892497,
        "frog": 2194.076007118924,
        "horse": 1725.5517987205062,
        "ship": 1256.7888646077604,
        "truck": 1555.5506774188716
    },
    "fid": 1338.0229718627122,
    "wasserstein_distance": null,
    "g_loss": null,
    "g_cost": null,
    "d_loss_real": null,
    "d_loss_fake": null
}