{
    "epoch": 33,
    "avg_current_window": 2517.693198670344,
    "avg_prior_window": 2600.8940818109504,
    "inception_score_mean": 1.009371692219145,
    "inception_score_std": 0.0011957607146373193,
    "fid_per_class": {
        "airplane": 2030.8012716719156,
        "automobile": 1942.1837172872913,
        "bird": 2528.0720620324964,
        "cat": 2292.357049473568,
        "deer": 2524.5408293030064,
        "dog": 2367.545701842142,
        "frog": 2835.0680512114345,
        "horse": 2326.480742282408,
        "ship": 1857.3565887573905,
        "truck": 1814.1747547731986
    },
    "fid": 2183.8109309248107,
    "wasserstein_distance": null,
    "g_loss": null,
    "g_cost": null,
    "d_loss_real": null,
    "d_loss_fake": null
}