{
    "epoch": 178,
    "avg_current_window": 1343.89822433507,
    "avg_prior_window": 1363.1455781968994,
    "inception_score_mean": 2.1221227876633124,
    "inception_score_std": 0.18459543950286159,
    "fid_per_class": {
        "airplane": 957.6903296059943,
        "automobile": 1227.3127928515933,
        "bird": 1349.1834255292629,
        "cat": 1208.0355479634472,
        "deer": 1500.9177683499706,
        "dog": 1174.6602311714187,
        "frog": 1752.684317749182,
        "horse": 1265.2301911087552,
        "ship": 968.2776434030475,
        "truck": 1209.504298102696
    },
    "fid": 859.1146586705465,
    "wasserstein_distance": null,
    "g_loss": null,
    "g_cost": null,
    "d_loss_real": null,
    "d_loss_fake": null
}