{
    "epoch": 144,
    "avg_current_window": 1455.088372186017,
    "avg_prior_window": 1481.0767418113114,
    "inception_score_mean": 2.013422453531665,
    "inception_score_std": 0.17610466840362463,
    "fid_per_class": {
        "airplane": 975.2792347061084,
        "automobile": 1263.0129847957955,
        "bird": 1296.1166905294208,
        "cat": 1080.0505271988532,
        "deer": 1498.6052293546916,
        "dog": 1221.4784725383736,
        "frog": 1696.6057693543435,
        "horse": 1328.4369572693151,
        "ship": 920.325895156596,
        "truck": 1137.894823791979
    },
    "fid": 859.0312262768695,
    "wasserstein_distance": null,
    "g_loss": null,
    "g_cost": null,
    "d_loss_real": null,
    "d_loss_fake": null
}