{
    "epoch": 40,
    "avg_current_window": 2382.192897331967,
    "avg_prior_window": 2537.1162240321723,
    "inception_score_mean": 1.2545059045008078,
    "inception_score_std": 0.06901854128391754,
    "fid_per_class": {
        "airplane": 1528.6833460918997,
        "automobile": 1528.4343841075683,
        "bird": 1934.193442659976,
        "cat": 1679.5599517597611,
        "deer": 2095.4157385703807,
        "dog": 1928.5520819728276,
        "frog": 2211.569100542674,
        "horse": 1711.9170843365143,
        "ship": 1508.7208467949029,
        "truck": 1568.7416455594928
    },
    "fid": 1505.8694442973333,
    "wasserstein_distance": null,
    "g_loss": null,
    "g_cost": null,
    "d_loss_real": null,
    "d_loss_fake": null
}