{
    "epoch": 68,
    "avg_current_window": 1985.3605142459076,
    "avg_prior_window": 2063.763131232145,
    "inception_score_mean": 1.731432814936738,
    "inception_score_std": 0.16139198609418223,
    "fid_per_class": {
        "airplane": 1124.5025623586573,
        "automobile": 1493.4488650040735,
        "bird": 1555.6751515113497,
        "cat": 1427.434186622767,
        "deer": 1603.985527782454,
        "dog": 1675.826235949009,
        "frog": 2005.785678018109,
        "horse": 1706.0063405107414,
        "ship": 1114.11283542886,
        "truck": 1365.8485942191498
    },
    "fid": 1172.9834168650532,
    "wasserstein_distance": null,
    "g_loss": null,
    "g_cost": null,
    "d_loss_real": null,
    "d_loss_fake": null
}