{
    "epoch": 12,
    "avg_current_window": 2417.9993501150343,
    "avg_prior_window": 2672.4531731055026,
    "inception_score_mean": 1.0016476456216843,
    "inception_score_std": 0.0006243060677189816,
    "fid_per_class": {
        "airplane": 2154.8068872485787,
        "automobile": 2362.8425995218386,
        "bird": 2529.828328114644,
        "cat": 2601.091785153515,
        "deer": 2828.9749332923784,
        "dog": 2498.376912172258,
        "frog": 2827.712512755619,
        "horse": 2541.384221406876,
        "ship": 2450.1955127872725,
        "truck": 2383.115368890844
    },
    "fid": 2504.9500014466066,
    "wasserstein_distance": null,
    "g_loss": null,
    "g_cost": null,
    "d_loss_real": null,
    "d_loss_fake": null
}