{
    "epoch": 42,
    "avg_current_window": 2339.8956990562524,
    "avg_prior_window": 2489.732346584343,
    "inception_score_mean": 1.2392602599625893,
    "inception_score_std": 0.0357130201743649,
    "fid_per_class": {
        "airplane": 1549.188375425627,
        "automobile": 1624.2104587830195,
        "bird": 1732.806858401738,
        "cat": 1620.1601432384814,
        "deer": 1862.6691849408005,
        "dog": 1761.2756673173342,
        "frog": 2097.8254361311124,
        "horse": 1684.5399817219009,
        "ship": 1431.0037788098496,
        "truck": 1486.813967424614
    },
    "fid": 1456.289192707141,
    "wasserstein_distance": null,
    "g_loss": null,
    "g_cost": null,
    "d_loss_real": null,
    "d_loss_fake": null
}