{
    "epoch": 102,
    "avg_current_window": 1677.2294119748042,
    "avg_prior_window": 1723.7093142504145,
    "inception_score_mean": 1.8217906193510278,
    "inception_score_std": 0.13500956310724413,
    "fid_per_class": {
        "airplane": 1052.881675013919,
        "automobile": 1340.1193039285927,
        "bird": 1385.566904841325,
        "cat": 1261.1924993509688,
        "deer": 1567.7042145643577,
        "dog": 1324.79498374059,
        "frog": 1802.5072059792562,
        "horse": 1501.4393071973057,
        "ship": 1000.4139488884446,
        "truck": 1291.1694995258908
    },
    "fid": 991.4665499775522,
    "wasserstein_distance": null,
    "g_loss": null,
    "g_cost": null,
    "d_loss_real": null,
    "d_loss_fake": null
}