{
    "epoch": 154,
    "avg_current_window": 1418.1766565838493,
    "avg_prior_window": 1442.1819824180493,
    "inception_score_mean": 2.132383148002431,
    "inception_score_std": 0.1989713182565263,
    "fid_per_class": {
        "airplane": 937.3880312066132,
        "automobile": 1269.6477657262553,
        "bird": 1343.32188618257,
        "cat": 1154.2631080327997,
        "deer": 1442.6205983053076,
        "dog": 1195.136942190565,
        "frog": 1690.958164303105,
        "horse": 1380.793933978398,
        "ship": 917.2787642500346,
        "truck": 1232.8437210281409
    },
    "fid": 860.4739951660916,
    "wasserstein_distance": null,
    "g_loss": null,
    "g_cost": null,
    "d_loss_real": null,
    "d_loss_fake": null
}