{
    "epoch": 99,
    "avg_current_window": 1698.8931762706063,
    "avg_prior_window": 1747.562162511508,
    "inception_score_mean": 1.8477825036125868,
    "inception_score_std": 0.16407304436650402,
    "fid_per_class": {
        "airplane": 1128.750180680836,
        "automobile": 1332.9444031348464,
        "bird": 1374.7131109095442,
        "cat": 1223.067248351853,
        "deer": 1578.3148732446302,
        "dog": 1267.1935434378524,
        "frog": 1760.1551953661067,
        "horse": 1478.9350980994,
        "ship": 997.0360573096024,
        "truck": 1265.807870031434
    },
    "fid": 984.8821927183941,
    "wasserstein_distance": null,
    "g_loss": null,
    "g_cost": null,
    "d_loss_real": null,
    "d_loss_fake": null
}