{
    "epoch": 128,
    "avg_current_window": 1524.6612492608022,
    "avg_prior_window": 1556.730345650911,
    "inception_score_mean": 2.051041295008374,
    "inception_score_std": 0.16603451702683514,
    "fid_per_class": {
        "airplane": 978.4932955507893,
        "automobile": 1254.8840370268583,
        "bird": 1298.7956479106913,
        "cat": 1104.452942376805,
        "deer": 1538.9721590018057,
        "dog": 1157.6464735687714,
        "frog": 1730.1866156602339,
        "horse": 1356.785810533438,
        "ship": 975.0467230287919,
        "truck": 1176.2905658910445
    },
    "fid": 870.2282057418954,
    "wasserstein_distance": null,
    "g_loss": null,
    "g_cost": null,
    "d_loss_real": null,
    "d_loss_fake": null
}