{
    "epoch": 98,
    "avg_current_window": 1706.120443696839,
    "avg_prior_window": 1755.5691451602058,
    "inception_score_mean": 1.9341113545416828,
    "inception_score_std": 0.1561305051021784,
    "fid_per_class": {
        "airplane": 1060.156825037843,
        "automobile": 1386.8012518612502,
        "bird": 1401.3786800190935,
        "cat": 1198.3749689165188,
        "deer": 1647.8467006000285,
        "dog": 1346.4715090913714,
        "frog": 1786.196718778906,
        "horse": 1468.1318160042001,
        "ship": 1057.9034459526215,
        "truck": 1278.6070126501934
    },
    "fid": 990.6209684998023,
    "wasserstein_distance": null,
    "g_loss": null,
    "g_cost": null,
    "d_loss_real": null,
    "d_loss_fake": null
}