{
    "epoch": 111,
    "avg_current_window": 1617.1424214849558,
    "avg_prior_window": 1658.9162676501169,
    "inception_score_mean": 1.850358218489139,
    "inception_score_std": 0.18541841510069604,
    "fid_per_class": {
        "airplane": 1033.6763146636988,
        "automobile": 1307.0347666041225,
        "bird": 1321.6127096854257,
        "cat": 1143.1438051236894,
        "deer": 1585.3944491387908,
        "dog": 1217.6930251454355,
        "frog": 1763.7046996348254,
        "horse": 1427.0307827127363,
        "ship": 945.8000891991113,
        "truck": 1263.126998994282
    },
    "fid": 938.6993376027324,
    "wasserstein_distance": null,
    "g_loss": null,
    "g_cost": null,
    "d_loss_real": null,
    "d_loss_fake": null
}