{
    "epoch": 166,
    "avg_current_window": 1378.825878667114,
    "avg_prior_window": 1399.8219887503876,
    "inception_score_mean": 2.077192433536322,
    "inception_score_std": 0.19838497766910504,
    "fid_per_class": {
        "airplane": 997.9471289321252,
        "automobile": 1314.5520255297229,
        "bird": 1313.264399252334,
        "cat": 1147.6194853839052,
        "deer": 1545.3845750497208,
        "dog": 1210.7007408361878,
        "frog": 1766.02800506327,
        "horse": 1356.8611554552738,
        "ship": 944.6479861166215,
        "truck": 1199.9263532674727
    },
    "fid": 875.5067768220975,
    "wasserstein_distance": null,
    "g_loss": null,
    "g_cost": null,
    "d_loss_real": null,
    "d_loss_fake": null
}