{
    "epoch": 93,
    "avg_current_window": 1744.9596470695888,
    "avg_prior_window": 1798.7096174025864,
    "inception_score_mean": 1.859318134072065,
    "inception_score_std": 0.17848622239991202,
    "fid_per_class": {
        "airplane": 1078.9832227419479,
        "automobile": 1300.5814991484185,
        "bird": 1417.3710646387692,
        "cat": 1215.5740928079442,
        "deer": 1574.4279283331657,
        "dog": 1343.9979569540985,
        "frog": 1801.4027358058079,
        "horse": 1446.2851344970215,
        "ship": 1004.6646543571559,
        "truck": 1228.3950439255586
    },
    "fid": 986.6833224273745,
    "wasserstein_distance": null,
    "g_loss": null,
    "g_cost": null,
    "d_loss_real": null,
    "d_loss_fake": null
}