{
    "epoch": 53,
    "avg_current_window": 2167.4877886614563,
    "avg_prior_window": 2266.3934141954182,
    "inception_score_mean": 1.509010138187227,
    "inception_score_std": 0.0951936325934662,
    "fid_per_class": {
        "airplane": 1398.226517648426,
        "automobile": 1387.1049586260947,
        "bird": 1852.374020521079,
        "cat": 1560.4215367423294,
        "deer": 1775.3883848036228,
        "dog": 1856.6680396319096,
        "frog": 2071.4003719288994,
        "horse": 1662.6107846143118,
        "ship": 1425.8048079846708,
        "truck": 1335.7755770544695
    },
    "fid": 1338.264831127447,
    "wasserstein_distance": null,
    "g_loss": null,
    "g_cost": null,
    "d_loss_real": null,
    "d_loss_fake": null
}