{
    "epoch": 135,
    "avg_current_window": 1492.0472371109172,
    "avg_prior_window": 1521.8093285465445,
    "inception_score_mean": 1.9985383222633537,
    "inception_score_std": 0.16474928091982172,
    "fid_per_class": {
        "airplane": 942.640705521267,
        "automobile": 1217.940206388058,
        "bird": 1336.3421770986401,
        "cat": 1165.0587539472467,
        "deer": 1522.720138035012,
        "dog": 1282.4485042026058,
        "frog": 1863.4568329866013,
        "horse": 1308.9846273606645,
        "ship": 987.3836544315714,
        "truck": 1197.2680980655036
    },
    "fid": 883.412002695498,
    "wasserstein_distance": null,
    "g_loss": null,
    "g_cost": null,
    "d_loss_real": null,
    "d_loss_fake": null
}