{
    "epoch": 192,
    "avg_current_window": 1308.0468853723414,
    "avg_prior_window": 1325.1383808390929,
    "inception_score_mean": 2.101244026567378,
    "inception_score_std": 0.22016206403923913,
    "fid_per_class": {
        "airplane": 957.0747242629986,
        "automobile": 1211.5217057802895,
        "bird": 1369.305574711192,
        "cat": 1181.1250412366758,
        "deer": 1470.3602031265245,
        "dog": 1199.5871802058846,
        "frog": 1784.2505310445028,
        "horse": 1288.693257797924,
        "ship": 994.4449358720008,
        "truck": 1174.4261702229733
    },
    "fid": 858.1671799889073,
    "wasserstein_distance": null,
    "g_loss": null,
    "g_cost": null,
    "d_loss_real": null,
    "d_loss_fake": null
}