{
    "epoch": 189,
    "avg_current_window": 1315.6031083031078,
    "avg_prior_window": 1332.5688245133058,
    "inception_score_mean": 2.1361685682619362,
    "inception_score_std": 0.1444566926560944,
    "fid_per_class": {
        "airplane": 1011.7749691958628,
        "automobile": 1248.6170925024503,
        "bird": 1296.2600315587201,
        "cat": 1170.8880182418288,
        "deer": 1379.319829133889,
        "dog": 1216.5177172459175,
        "frog": 1587.7594073378211,
        "horse": 1256.3187734933736,
        "ship": 961.5341663869356,
        "truck": 1126.0523364641022
    },
    "fid": 822.474263583028,
    "wasserstein_distance": null,
    "g_loss": null,
    "g_cost": null,
    "d_loss_real": null,
    "d_loss_fake": null
}