{
    "epoch": 96,
    "avg_current_window": 1721.224394799469,
    "avg_prior_window": 1772.5878517012854,
    "inception_score_mean": 1.8834395477109613,
    "inception_score_std": 0.16591911908881735,
    "fid_per_class": {
        "airplane": 1022.5643087062009,
        "automobile": 1278.6828889391718,
        "bird": 1316.9514565183486,
        "cat": 1206.6317513255435,
        "deer": 1551.8018815866355,
        "dog": 1327.9935163869234,
        "frog": 1711.5692697567529,
        "horse": 1404.1675865743314,
        "ship": 967.4984449425001,
        "truck": 1228.4234761712423
    },
    "fid": 941.1973857971708,
    "wasserstein_distance": null,
    "g_loss": null,
    "g_cost": null,
    "d_loss_real": null,
    "d_loss_fake": null
}