{
    "epoch": 105,
    "avg_current_window": 1657.2880467476957,
    "avg_prior_window": 1701.6521642781747,
    "inception_score_mean": 1.8834424181810974,
    "inception_score_std": 0.1520908912764453,
    "fid_per_class": {
        "airplane": 979.5616590789837,
        "automobile": 1293.830528414923,
        "bird": 1381.3847229489224,
        "cat": 1101.1212294046163,
        "deer": 1523.2714277594973,
        "dog": 1227.5550377881573,
        "frog": 1736.0077590816418,
        "horse": 1376.7379100605194,
        "ship": 994.263676611147,
        "truck": 1171.6266440372838
    },
    "fid": 890.2827458600136,
    "wasserstein_distance": null,
    "g_loss": null,
    "g_cost": null,
    "d_loss_real": null,
    "d_loss_fake": null
}