{
    "epoch": 56,
    "avg_current_window": 2124.4119809228955,
    "avg_prior_window": 2222.813556549534,
    "inception_score_mean": 1.4185925793327763,
    "inception_score_std": 0.07724515833413363,
    "fid_per_class": {
        "airplane": 1494.5056760117493,
        "automobile": 1683.2159098433458,
        "bird": 2204.7341726276086,
        "cat": 1920.5863662463312,
        "deer": 2020.9337718322313,
        "dog": 2169.5038447765537,
        "frog": 2506.417144848315,
        "horse": 1983.1213022705463,
        "ship": 1342.0684426825992,
        "truck": 1520.633737725912
    },
    "fid": 1556.1901172117407,
    "wasserstein_distance": null,
    "g_loss": null,
    "g_cost": null,
    "d_loss_real": null,
    "d_loss_fake": null
}