{
    "epoch": 9,
    "avg_current_window": 2371.564912318215,
    "avg_prior_window": 2699.1097881548567,
    "inception_score_mean": 1.0000000000031917,
    "inception_score_std": 2.63553542591518e-13,
    "fid_per_class": {
        "airplane": 2131.437276480131,
        "automobile": 2485.4987994769913,
        "bird": 2568.253909849599,
        "cat": 2828.3873735133316,
        "deer": 2993.0475423340467,
        "dog": 2716.5203963060153,
        "frog": 2975.9874874656393,
        "horse": 2734.313826407643,
        "ship": 2514.7813322648053,
        "truck": 2498.150976881359
    },
    "fid": 2636.9113953499773,
    "wasserstein_distance": null,
    "g_loss": null,
    "g_cost": null,
    "d_loss_real": null,
    "d_loss_fake": null
}