{
    "epoch": 141,
    "avg_current_window": 1466.6132999616907,
    "avg_prior_window": 1494.0353272324148,
    "inception_score_mean": 2.030273413734693,
    "inception_score_std": 0.18743801923083267,
    "fid_per_class": {
        "airplane": 966.5689962842665,
        "automobile": 1269.1717519458152,
        "bird": 1349.503524574374,
        "cat": 1198.067881314491,
        "deer": 1588.3217784324947,
        "dog": 1275.2506140508535,
        "frog": 1869.0481455163895,
        "horse": 1414.0378858055985,
        "ship": 946.1238130027483,
        "truck": 1196.1364898165452
    },
    "fid": 905.5514211840363,
    "wasserstein_distance": null,
    "g_loss": null,
    "g_cost": null,
    "d_loss_real": null,
    "d_loss_fake": null
}