{
    "epoch": 44,
    "avg_current_window": 2299.877066328505,
    "avg_prior_window": 2443.274766494325,
    "inception_score_mean": 1.3434272971324936,
    "inception_score_std": 0.08404794300720365,
    "fid_per_class": {
        "airplane": 1662.0255702768548,
        "automobile": 1568.701377859204,
        "bird": 1902.7901430791203,
        "cat": 1744.444636780972,
        "deer": 1868.605453014775,
        "dog": 1947.7320855214946,
        "frog": 2118.844452807397,
        "horse": 1810.8591738235566,
        "ship": 1434.9482526289,
        "truck": 1510.2582660607172
    },
    "fid": 1526.1827878619192,
    "wasserstein_distance": null,
    "g_loss": null,
    "g_cost": null,
    "d_loss_real": null,
    "d_loss_fake": null
}