{
    "epoch": 43,
    "avg_current_window": 2319.3467105365057,
    "avg_prior_window": 2466.026073124205,
    "inception_score_mean": 1.3664774750499316,
    "inception_score_std": 0.08182943748669982,
    "fid_per_class": {
        "airplane": 1477.8821004352203,
        "automobile": 1521.9097043733427,
        "bird": 1923.0899874271317,
        "cat": 1648.48284271687,
        "deer": 1972.2361412806083,
        "dog": 1816.027241575395,
        "frog": 2196.050541163851,
        "horse": 1854.503126275737,
        "ship": 1425.4140299040691,
        "truck": 1420.7296451482766
    },
    "fid": 1462.6823653844785,
    "wasserstein_distance": null,
    "g_loss": null,
    "g_cost": null,
    "d_loss_real": null,
    "d_loss_fake": null
}