{
    "epoch": 81,
    "avg_current_window": 1850.8984663265583,
    "avg_prior_window": 1914.9725778362056,
    "inception_score_mean": 1.9222705824362962,
    "inception_score_std": 0.25268362681014495,
    "fid_per_class": {
        "airplane": 1080.0419906921238,
        "automobile": 1401.5968847217964,
        "bird": 1525.921633725118,
        "cat": 1241.7698974552789,
        "deer": 1699.4444545364188,
        "dog": 1273.2417841628494,
        "frog": 1855.3657270769468,
        "horse": 1496.7244410677981,
        "ship": 1033.451748536767,
        "truck": 1300.6195861358326
    },
    "fid": 1032.8093536758902,
    "wasserstein_distance": null,
    "g_loss": null,
    "g_cost": null,
    "d_loss_real": null,
    "d_loss_fake": null
}