{
    "epoch": 36,
    "avg_current_window": 2466.640773364612,
    "avg_prior_window": 2612.604544777516,
    "inception_score_mean": 1.181486972319831,
    "inception_score_std": 0.0631390770170456,
    "fid_per_class": {
        "airplane": 1560.9613868199297,
        "automobile": 1751.3860415852762,
        "bird": 2031.7097449174155,
        "cat": 1805.5857690323655,
        "deer": 2002.4884078812165,
        "dog": 2011.7457343481487,
        "frog": 2260.458656857953,
        "horse": 1869.8751843325226,
        "ship": 1587.464277302028,
        "truck": 1563.3932803023708
    },
    "fid": 1606.6280437282155,
    "wasserstein_distance": null,
    "g_loss": null,
    "g_cost": null,
    "d_loss_real": null,
    "d_loss_fake": null
}