{
    "epoch": 62,
    "avg_current_window": 2052.272156613736,
    "avg_prior_window": 2139.393691360402,
    "inception_score_mean": 1.5925027719412195,
    "inception_score_std": 0.08022281446915898,
    "fid_per_class": {
        "airplane": 1409.5372822319612,
        "automobile": 1563.2859553323842,
        "bird": 1982.845562861291,
        "cat": 1543.8701213423683,
        "deer": 1886.1163543650064,
        "dog": 1687.5002411878017,
        "frog": 2293.9311335463694,
        "horse": 1835.7495336062352,
        "ship": 1220.2628352772279,
        "truck": 1459.0078898184115
    },
    "fid": 1383.8865309745152,
    "wasserstein_distance": null,
    "g_loss": null,
    "g_cost": null,
    "d_loss_real": null,
    "d_loss_fake": null
}