{
    "epoch": 120,
    "avg_current_window": 1564.9532019990763,
    "avg_prior_window": 1601.5376797343129,
    "inception_score_mean": 1.9911622571401046,
    "inception_score_std": 0.16689810138126082,
    "fid_per_class": {
        "airplane": 1009.451062210992,
        "automobile": 1278.493933129806,
        "bird": 1389.231188918679,
        "cat": 1160.360605373109,
        "deer": 1545.5782507308247,
        "dog": 1233.494940148718,
        "frog": 1863.9287485836671,
        "horse": 1303.4619080810862,
        "ship": 946.4337267831683,
        "truck": 1204.2547736135607
    },
    "fid": 903.7309015059552,
    "wasserstein_distance": null,
    "g_loss": null,
    "g_cost": null,
    "d_loss_real": null,
    "d_loss_fake": null
}