{
    "epoch": 37,
    "avg_current_window": 2443.3971860771417,
    "avg_prior_window": 2596.371111128792,
    "inception_score_mean": 1.2398860313385263,
    "inception_score_std": 0.035678539343922996,
    "fid_per_class": {
        "airplane": 1750.3260442845203,
        "automobile": 1727.5198530040177,
        "bird": 1992.5311497827352,
        "cat": 1854.8899468054813,
        "deer": 2323.3425838500084,
        "dog": 2049.99086599144,
        "frog": 2228.5001987693286,
        "horse": 2024.6134959110352,
        "ship": 1719.0756485304787,
        "truck": 1591.7597572087843
    },
    "fid": 1714.4009387664405,
    "wasserstein_distance": null,
    "g_loss": null,
    "g_cost": null,
    "d_loss_real": null,
    "d_loss_fake": null
}