{
    "epoch": 7,
    "avg_current_window": 2295.7514085942553,
    "avg_prior_window": 2.0,
    "inception_score_mean": 1.0000000000043816,
    "inception_score_std": 1.0771106053928002e-12,
    "fid_per_class": {
        "airplane": 2131.437881979251,
        "automobile": 2485.498913835583,
        "bird": 2568.2545137569186,
        "cat": 2828.388940129159,
        "deer": 2993.0477817566084,
        "dog": 2716.52221245007,
        "frog": 2975.9887058495156,
        "horse": 2734.3143110439773,
        "ship": 2514.7836281049554,
        "truck": 2498.152067365021
    },
    "fid": 2636.912351578729,
    "wasserstein_distance": null,
    "g_loss": null,
    "g_cost": null,
    "d_loss_real": null,
    "d_loss_fake": null
}