{
    "epoch": 151,
    "avg_current_window": 1428.7821982839866,
    "avg_prior_window": 1453.216990460771,
    "inception_score_mean": 2.1001377261725205,
    "inception_score_std": 0.1501351254867841,
    "fid_per_class": {
        "airplane": 994.3747704722832,
        "automobile": 1262.1069931076463,
        "bird": 1341.709510569167,
        "cat": 1130.9402872222006,
        "deer": 1511.3581707843937,
        "dog": 1215.4466284020475,
        "frog": 1780.4695763311572,
        "horse": 1385.1874557987126,
        "ship": 985.4679648679005,
        "truck": 1128.3857852138583
    },
    "fid": 860.2355864480421,
    "wasserstein_distance": null,
    "g_loss": null,
    "g_cost": null,
    "d_loss_real": null,
    "d_loss_fake": null
}