{
    "epoch": 118,
    "avg_current_window": 1575.5972905252256,
    "avg_prior_window": 1613.403200889251,
    "inception_score_mean": 1.8792131735820612,
    "inception_score_std": 0.1660667841443199,
    "fid_per_class": {
        "airplane": 1055.4424068849646,
        "automobile": 1262.6852107897516,
        "bird": 1444.8118550677405,
        "cat": 1185.8965421720277,
        "deer": 1547.8900404318852,
        "dog": 1288.6126549127011,
        "frog": 1788.4282488373178,
        "horse": 1391.360304542653,
        "ship": 978.9809438189515,
        "truck": 1196.6489891904544
    },
    "fid": 943.330789341017,
    "wasserstein_distance": null,
    "g_loss": null,
    "g_cost": null,
    "d_loss_real": null,
    "d_loss_fake": null
}