{
    "epoch": 29,
    "avg_current_window": 2511.2080789898832,
    "avg_prior_window": 2632.8731029170676,
    "inception_score_mean": 1.0001052573220668,
    "inception_score_std": 9.14840676272241e-05,
    "fid_per_class": {
        "airplane": 2411.837144906569,
        "automobile": 2545.612868850213,
        "bird": 2812.6928306773884,
        "cat": 2738.6220621467874,
        "deer": 3127.0406472199243,
        "dog": 2630.2438979926037,
        "frog": 3050.271780565588,
        "horse": 2805.9179021268737,
        "ship": 2662.508623539744,
        "truck": 2566.1827506597638
    },
    "fid": 2714.6340813869724,
    "wasserstein_distance": null,
    "g_loss": null,
    "g_cost": null,
    "d_loss_real": null,
    "d_loss_fake": null
}