{
    "epoch": 4,
    "avg_current_window": 2039.8857305352828,
    "avg_prior_window": 2558.500167274986,
    "inception_score_mean": 1.0000000001136218,
    "inception_score_std": 6.94677774731324e-11,
    "fid_per_class": {
        "airplane": 2131.435376417648,
        "automobile": 2485.487150238654,
        "bird": 2568.2514513315664,
        "cat": 2828.359723692712,
        "deer": 2993.0395334582336,
        "dog": 2716.5054359946907,
        "frog": 2975.9721219825396,
        "horse": 2734.308886163907,
        "ship": 2514.769456223654,
        "truck": 2498.13038846743
    },
    "fid": 2636.8962304782963,
    "wasserstein_distance": null,
    "g_loss": null,
    "g_cost": null,
    "d_loss_real": null,
    "d_loss_fake": null
}