{
    "epoch": 23,
    "avg_current_window": 2516.1376237885447,
    "avg_prior_window": 2626.4676144083223,
    "inception_score_mean": 1.000000000000196,
    "inception_score_std": 5.885958538129961e-13,
    "fid_per_class": {
        "airplane": 2226.4830642792567,
        "automobile": 2554.2066937660925,
        "bird": 2550.3823401222817,
        "cat": 2856.1651002532217,
        "deer": 3028.2714292635683,
        "dog": 2697.659568310419,
        "frog": 2884.3247798513357,
        "horse": 2792.139763986987,
        "ship": 2601.1711170152194,
        "truck": 2565.947243972694
    },
    "fid": 2667.946079878027,
    "wasserstein_distance": null,
    "g_loss": null,
    "g_cost": null,
    "d_loss_real": null,
    "d_loss_fake": null
}