{
    "epoch": 200,
    "avg_current_window": 1289.9405815116309,
    "avg_prior_window": 1305.3148379547442,
    "inception_score_mean": 2.151555739279451,
    "inception_score_std": 0.22418806833689672,
    "fid_per_class": {
        "airplane": 949.4200985809,
        "automobile": 1254.155092239669,
        "bird": 1280.73063696781,
        "cat": 1103.0208903827838,
        "deer": 1444.665669534984,
        "dog": 1129.9307257294972,
        "frog": 1555.943725846806,
        "horse": 1344.238766338978,
        "ship": 960.6043104792645,
        "truck": 1149.6559940120665
    },
    "fid": 806.5679549286715,
    "wasserstein_distance": null,
    "g_loss": null,
    "g_cost": null,
    "d_loss_real": null,
    "d_loss_fake": null
}