{
    "epoch": 75,
    "avg_current_window": 1911.350970282978,
    "avg_prior_window": 1981.120394787098,
    "inception_score_mean": 1.7220467908434205,
    "inception_score_std": 0.12462614947740171,
    "fid_per_class": {
        "airplane": 1136.1979816218864,
        "automobile": 1430.1889034538308,
        "bird": 1634.688036683714,
        "cat": 1287.9691138687347,
        "deer": 1607.5395844671007,
        "dog": 1443.8867993768865,
        "frog": 1978.9863376521034,
        "horse": 1554.392013811078,
        "ship": 1053.8213135822748,
        "truck": 1233.8924513596708
    },
    "fid": 1110.6680132025376,
    "wasserstein_distance": null,
    "g_loss": null,
    "g_cost": null,
    "d_loss_real": null,
    "d_loss_fake": null
}