{
    "epoch": 2,
    "avg_current_window": 1278.750083637493,
    "avg_prior_window": 2560.500167274986,
    "inception_score_mean": 1.0104797787987403,
    "inception_score_std": 0.004494424860364393,
    "fid_per_class": {
        "airplane": 2441.251713734925,
        "automobile": 2553.4909729525807,
        "bird": 2716.7401480637664,
        "cat": 2743.55095385836,
        "deer": 3093.36097509136,
        "dog": 2754.7479331050113,
        "frog": 2942.237348183426,
        "horse": 2722.178140970652,
        "ship": 2765.6661013392113,
        "truck": 2613.3793244242383
    },
    "fid": 2686.155921952712,
    "wasserstein_distance": null,
    "g_loss": null,
    "g_cost": null,
    "d_loss_real": null,
    "d_loss_fake": null
}