{
    "epoch": 6,
    "avg_current_window": 2238.8913996196684,
    "avg_prior_window": 3.0,
    "inception_score_mean": 1.000000000005836,
    "inception_score_std": 2.49942352941113e-12,
    "fid_per_class": {
        "airplane": 2131.4387350583174,
        "automobile": 2485.497921366674,
        "bird": 2568.254506381961,
        "cat": 2828.387217902048,
        "deer": 2993.0475244824215,
        "dog": 2716.520959515833,
        "frog": 2975.988211186108,
        "horse": 2734.3139408493744,
        "ship": 2514.783003338416,
        "truck": 2498.1510475196797
    },
    "fid": 2636.9114624417775,
    "wasserstein_distance": null,
    "g_loss": null,
    "g_cost": null,
    "d_loss_real": null,
    "d_loss_fake": null
}