{
    "epoch": 126,
    "avg_current_window": 1533.97151006368,
    "avg_prior_window": 1567.0415794972403,
    "inception_score_mean": 2.04018624933195,
    "inception_score_std": 0.11053906046218824,
    "fid_per_class": {
        "airplane": 1052.599671414192,
        "automobile": 1280.3395068366547,
        "bird": 1422.29272869046,
        "cat": 1189.874500539645,
        "deer": 1544.9194867858846,
        "dog": 1255.1750099616543,
        "frog": 1898.1681433211502,
        "horse": 1374.356506049953,
        "ship": 984.1205084827308,
        "truck": 1197.7571538615434
    },
    "fid": 937.6939645259107,
    "wasserstein_distance": null,
    "g_loss": null,
    "g_cost": null,
    "d_loss_real": null,
    "d_loss_fake": null
}