{
    "epoch": 147,
    "avg_current_window": 1443.331160593691,
    "avg_prior_window": 1469.1565954797102,
    "inception_score_mean": 2.0550467113872255,
    "inception_score_std": 0.13722097178111028,
    "fid_per_class": {
        "airplane": 1035.1610154772866,
        "automobile": 1286.269627439617,
        "bird": 1407.29331938853,
        "cat": 1185.9988270401013,
        "deer": 1571.0274164471352,
        "dog": 1246.7056236170367,
        "frog": 1786.4323599960958,
        "horse": 1303.8657266501468,
        "ship": 982.4467433036344,
        "truck": 1196.1347002062394
    },
    "fid": 913.286162648111,
    "wasserstein_distance": null,
    "g_loss": null,
    "g_cost": null,
    "d_loss_real": null,
    "d_loss_fake": null
}