{
    "epoch": 194,
    "avg_current_window": 1303.1984687704237,
    "avg_prior_window": 1319.9548239834412,
    "inception_score_mean": 2.0266189426198187,
    "inception_score_std": 0.14235258989949418,
    "fid_per_class": {
        "airplane": 954.519477429692,
        "automobile": 1231.688743924129,
        "bird": 1277.817141997487,
        "cat": 1155.1141017079292,
        "deer": 1498.8650103161262,
        "dog": 1219.6843849714978,
        "frog": 1693.851933099245,
        "horse": 1333.3761035042214,
        "ship": 970.6698215134951,
        "truck": 1171.1155667788887
    },
    "fid": 852.524746312675,
    "wasserstein_distance": null,
    "g_loss": null,
    "g_cost": null,
    "d_loss_real": null,
    "d_loss_fake": null
}