{
    "epoch": 174,
    "avg_current_window": 1355.311408207262,
    "avg_prior_window": 1375.0189999776574,
    "inception_score_mean": 2.2335775421161905,
    "inception_score_std": 0.2468245681612478,
    "fid_per_class": {
        "airplane": 989.9204714010473,
        "automobile": 1297.605764115962,
        "bird": 1280.1839053041642,
        "cat": 1172.459953917475,
        "deer": 1461.109760109116,
        "dog": 1194.9643966367412,
        "frog": 1706.9054535751875,
        "horse": 1293.5991519910626,
        "ship": 949.8805037292618,
        "truck": 1233.8307252738305
    },
    "fid": 846.2861892484774,
    "wasserstein_distance": null,
    "g_loss": null,
    "g_cost": null,
    "d_loss_real": null,
    "d_loss_fake": null
}