{
    "epoch": 57,
    "avg_current_window": 2114.443176296384,
    "avg_prior_window": 2209.1702461357154,
    "inception_score_mean": 1.4238173333139625,
    "inception_score_std": 0.09012249248093931,
    "fid_per_class": {
        "airplane": 1369.6251767020901,
        "automobile": 1680.6611247818528,
        "bird": 1874.9562147980141,
        "cat": 1687.5974168371245,
        "deer": 1856.5630384600158,
        "dog": 1749.637384860541,
        "frog": 2207.1829066285654,
        "horse": 1878.6799190289994,
        "ship": 1306.8395704666236,
        "truck": 1513.1040120354794
    },
    "fid": 1422.1793586490426,
    "wasserstein_distance": null,
    "g_loss": null,
    "g_cost": null,
    "d_loss_real": null,
    "d_loss_fake": null
}