{
    "epoch": 175,
    "avg_current_window": 1352.4026926703546,
    "avg_prior_window": 1371.82371576626,
    "inception_score_mean": 2.065163480483414,
    "inception_score_std": 0.1605819621819863,
    "fid_per_class": {
        "airplane": 983.9575438267474,
        "automobile": 1259.0674274273515,
        "bird": 1296.8868332186917,
        "cat": 1132.5563595859207,
        "deer": 1527.127349645527,
        "dog": 1181.9716337130467,
        "frog": 1690.1793168800787,
        "horse": 1318.26042252786,
        "ship": 1004.0787819035031,
        "truck": 1216.7693546642213
    },
    "fid": 861.9625346743953,
    "wasserstein_distance": null,
    "g_loss": null,
    "g_cost": null,
    "d_loss_real": null,
    "d_loss_fake": null
}