{
    "epoch": 138,
    "avg_current_window": 1478.9811486418944,
    "avg_prior_window": 1507.8147124860245,
    "inception_score_mean": 1.9634305969675687,
    "inception_score_std": 0.17362642198836034,
    "fid_per_class": {
        "airplane": 976.8180531820911,
        "automobile": 1307.4430187247328,
        "bird": 1418.1260302994579,
        "cat": 1197.3367559145595,
        "deer": 1521.815622713701,
        "dog": 1291.5087815035197,
        "frog": 1904.9064714009694,
        "horse": 1393.7879744387403,
        "ship": 928.4751014056965,
        "truck": 1187.5733169865146
    },
    "fid": 922.5749202778884,
    "wasserstein_distance": null,
    "g_loss": null,
    "g_cost": null,
    "d_loss_real": null,
    "d_loss_fake": null
}